{
   "playerTableStats":[
      {
         "height":188,
         "weight":84,
         "age":24,
         "isManOfTheMatch":false,
         "isActive":true,
         "playedPositions":"-DC-DMC-",
         "playedPositionsShort":"D(C),DMC",
         "teamRegionName":"Germany",
         "regionCode":"de",
         "tournamentShortName":"GB",
         "apps":11,
         "subOn":0,
         "name":"Rani Khedira",
         "firstName":"Rani",
         "lastName":"Khedira",
         "playerId":110266,
         "positionText":"Midfielder",
         "teamId":1730,
         "teamName":"Augsburg",
         "seasonId":7405,
         "seasonName":"2018/2019",
         "isOpta":true,
         "tournamentId":3,
         "tournamentRegionId":81,
         "tournamentRegionCode":"de",
         "tournamentRegionName":"Germany",
         "tournamentName":"Bundesliga",
         "rating":7.1209090909090911,
         "minsPlayed":990,
         "interceptionAll":2.72727272727,
         "ranking":1
      },
      {
         "height":182,
         "weight":71,
         "age":27,
         "isManOfTheMatch":false,
         "isActive":true,
         "playedPositions":"-DMC-",
         "playedPositionsShort":"DMC",
         "teamRegionName":"Germany",
         "regionCode":"dk",
         "tournamentShortName":"GB",
         "apps":13,
         "subOn":0,
         "name":"Thomas Delaney",
         "firstName":"Thomas",
         "lastName":"Delaney",
         "playerId":73744,
         "positionText":"Midfielder",
         "teamId":44,
         "teamName":"Borussia Dortmund",
         "seasonId":7405,
         "seasonName":"2018/2019",
         "isOpta":true,
         "tournamentId":3,
         "tournamentRegionId":81,
         "tournamentRegionCode":"de",
         "tournamentRegionName":"Germany",
         "tournamentName":"Bundesliga",
         "rating":7.1653846153846148,
         "minsPlayed":1076,
         "interceptionAll":2.5929368029560003,
         "ranking":2
      },
      {
         "height":184,
         "weight":85,
         "age":25,
         "isManOfTheMatch":false,
         "isActive":true,
         "playedPositions":"-DMC-",
         "playedPositionsShort":"DMC",
         "teamRegionName":"England",
         "regionCode":"ga",
         "tournamentShortName":"EPL",
         "apps":17,
         "subOn":0,
         "name":"Mario Lemina",
         "firstName":"Mario",
         "lastName":"Lemina",
         "playerId":123481,
         "positionText":"Midfielder",
         "teamId":18,
         "teamName":"Southampton",
         "seasonId":7361,
         "seasonName":"2018/2019",
         "isOpta":true,
         "tournamentId":2,
         "tournamentRegionId":252,
         "tournamentRegionCode":"gb-eng",
         "tournamentRegionName":"England",
         "tournamentName":"Premier League",
         "rating":6.8905882352941186,
         "minsPlayed":1459,
         "interceptionAll":2.40575736804,
         "ranking":3
      },
      {
         "height":182,
         "weight":77,
         "age":22,
         "isManOfTheMatch":false,
         "isActive":true,
         "playedPositions":"-DL-ML-",
         "playedPositionsShort":"D(L),M(L)",
         "teamRegionName":"England",
         "regionCode":"br",
         "tournamentShortName":"EPL",
         "apps":12,
         "subOn":0,
         "name":"Kenedy",
         "firstName":"Robert Kenedy",
         "lastName":"Nunes do Nascimento",
         "playerId":132838,
         "positionText":"Midfielder",
         "teamId":23,
         "teamName":"Newcastle United",
         "seasonId":7361,
         "seasonName":"2018/2019",
         "isOpta":true,
         "tournamentId":2,
         "tournamentRegionId":252,
         "tournamentRegionCode":"gb-eng",
         "tournamentRegionName":"England",
         "tournamentName":"Premier League",
         "rating":6.8474999999999993,
         "minsPlayed":973,
         "interceptionAll":2.4049331962759997,
         "ranking":4
      },
      {
         "height":175,
         "weight":70,
         "age":24,
         "isManOfTheMatch":false,
         "isActive":true,
         "playedPositions":"-MC-",
         "playedPositionsShort":"M(C)",
         "teamRegionName":"Italy",
         "regionCode":"si",
         "tournamentShortName":"ISA",
         "apps":13,
         "subOn":0,
         "name":"Leo Stulac",
         "firstName":"Leo",
         "lastName":"Stulac",
         "playerId":362544,
         "positionText":"Midfielder",
         "teamId":24341,
         "teamName":"Parma Calcio 1913",
         "seasonId":7468,
         "seasonName":"2018/2019",
         "isOpta":true,
         "tournamentId":5,
         "tournamentRegionId":108,
         "tournamentRegionCode":"it",
         "tournamentRegionName":"Italy",
         "tournamentName":"Serie A",
         "rating":6.7638461538461545,
         "minsPlayed":1088,
         "interceptionAll":2.3988970588150003,
         "ranking":5
      },
      {
         "height":193,
         "weight":83,
         "age":22,
         "isManOfTheMatch":false,
         "isActive":true,
         "playedPositions":"-DMC-",
         "playedPositionsShort":"DMC",
         "teamRegionName":"England",
         "regionCode":"dk",
         "tournamentShortName":"EPL",
         "apps":20,
         "subOn":0,
         "name":"Philip Billing",
         "firstName":"Philip",
         "lastName":"Billing",
         "playerId":145277,
         "positionText":"Midfielder",
         "teamId":166,
         "teamName":"Huddersfield",
         "seasonId":7361,
         "seasonName":"2018/2019",
         "isOpta":true,
         "tournamentId":2,
         "tournamentRegionId":252,
         "tournamentRegionCode":"gb-eng",
         "tournamentRegionName":"England",
         "tournamentName":"Premier League",
         "rating":7.1724999999999994,
         "minsPlayed":1753,
         "interceptionAll":2.3103251568450003,
         "ranking":6
      },
      {
         "height":180,
         "weight":72,
         "age":21,
         "isManOfTheMatch":false,
         "isActive":true,
         "playedPositions":"-DMC-",
         "playedPositionsShort":"DMC",
         "teamRegionName":"England",
         "regionCode":"pt",
         "tournamentShortName":"EPL",
         "apps":18,
         "subOn":0,
         "name":"Rúben Neves",
         "firstName":"Rúben Diogo",
         "lastName":"da Silva Neves",
         "playerId":238244,
         "positionText":"Midfielder",
         "teamId":161,
         "teamName":"Wolverhampton Wanderers",
         "seasonId":7361,
         "seasonName":"2018/2019",
         "isOpta":true,
         "tournamentId":2,
         "tournamentRegionId":252,
         "tournamentRegionCode":"gb-eng",
         "tournamentRegionName":"England",
         "tournamentName":"Premier League",
         "rating":6.9222222222222234,
         "minsPlayed":1620,
         "interceptionAll":2.277777777755,
         "ranking":7
      },
      {
         "height":183,
         "weight":83,
         "age":27,
         "isManOfTheMatch":false,
         "isActive":true,
         "playedPositions":"-DMC-",
         "playedPositionsShort":"DMC",
         "teamRegionName":"England",
         "regionCode":"es",
         "tournamentShortName":"EPL",
         "apps":10,
         "subOn":0,
         "name":"Oriol Romeu",
         "firstName":"Oriol",
         "lastName":"Romeu Vidal",
         "playerId":90780,
         "positionText":"Midfielder",
         "teamId":18,
         "teamName":"Southampton",
         "seasonId":7361,
         "seasonName":"2018/2019",
         "isOpta":true,
         "tournamentId":2,
         "tournamentRegionId":252,
         "tournamentRegionCode":"gb-eng",
         "tournamentRegionName":"England",
         "tournamentName":"Premier League",
         "rating":6.88,
         "minsPlayed":794,
         "interceptionAll":2.26700251888,
         "ranking":8
      },
      {
         "height":188,
         "weight":75,
         "age":23,
         "isManOfTheMatch":false,
         "isActive":true,
         "playedPositions":"-DMC-",
         "playedPositionsShort":"DMC",
         "teamRegionName":"Germany",
         "regionCode":"br",
         "tournamentShortName":"GB",
         "apps":16,
         "subOn":0,
         "name":"Walace",
         "firstName":"Walace",
         "lastName":"Souza Silva",
         "playerId":147923,
         "positionText":"Midfielder",
         "teamId":110,
         "teamName":"Hannover 96",
         "seasonId":7405,
         "seasonName":"2018/2019",
         "isOpta":true,
         "tournamentId":3,
         "tournamentRegionId":81,
         "tournamentRegionCode":"de",
         "tournamentRegionName":"Germany",
         "tournamentName":"Bundesliga",
         "rating":6.8625000000000007,
         "minsPlayed":1390,
         "interceptionAll":2.26618705033,
         "ranking":9
      },
      {
         "height":187,
         "weight":78,
         "age":24,
         "isManOfTheMatch":false,
         "isActive":true,
         "playedPositions":"-DMC-",
         "playedPositionsShort":"DMC",
         "teamRegionName":"Germany",
         "regionCode":"dz",
         "tournamentShortName":"GB",
         "apps":14,
         "subOn":0,
         "name":"Nabil Bentaleb",
         "firstName":"Nabil",
         "lastName":"Bentaleb",
         "playerId":137521,
         "positionText":"Midfielder",
         "teamId":39,
         "teamName":"Schalke 04",
         "seasonId":7405,
         "seasonName":"2018/2019",
         "isOpta":true,
         "tournamentId":3,
         "tournamentRegionId":81,
         "tournamentRegionCode":"de",
         "tournamentRegionName":"Germany",
         "tournamentName":"Bundesliga",
         "rating":7.1142857142857139,
         "minsPlayed":1167,
         "interceptionAll":2.236503856038,
         "ranking":10
      }
   ],
   "paging":{
      "currentPage":1,
      "totalPages":25,
      "resultsPerPage":10,
      "totalResults":246,
      "firstRecordIndex":1,
      "lastRecordIndex":10
   },
   "statColumns":[
      "apps",
      "subOn",
      "minsPlayed",
      "interceptionAll"
   ]
}