{
   "playerTableStats":[
      {
         "height":180,
         "weight":75,
         "age":23,
         "isManOfTheMatch":false,
         "isActive":true,
         "playedPositions":"-MC-",
         "playedPositionsShort":"M(C)",
         "teamRegionName":"France",
         "regionCode":"fr",
         "tournamentShortName":"FL1",
         "apps":12,
         "subOn":0,
         "name":"Theo Valls",
         "firstName":"Theo",
         "lastName":"Valls",
         "playerId":234373,
         "positionText":"Midfielder",
         "teamId":245,
         "teamName":"Nimes",
         "seasonId":7344,
         "seasonName":"2018/2019",
         "isOpta":true,
         "tournamentId":22,
         "tournamentRegionId":74,
         "tournamentRegionCode":"fr",
         "tournamentRegionName":"France",
         "tournamentName":"Ligue 1",
         "rating":6.6049999999999995,
         "minsPlayed":993,
         "interceptionAll":0.996978851957,
         "ranking":121
      },
      {
         "height":173,
         "weight":67,
         "age":23,
         "isManOfTheMatch":false,
         "isActive":true,
         "playedPositions":"-FW-MC-ML-",
         "playedPositionsShort":"M(CL),FW",
         "teamRegionName":"England",
         "regionCode":"de",
         "tournamentShortName":"EPL",
         "apps":10,
         "subOn":0,
         "name":"Max Meyer",
         "firstName":"Max",
         "lastName":"Meyer",
         "playerId":124598,
         "positionText":"Midfielder",
         "teamId":162,
         "teamName":"Crystal Palace",
         "seasonId":7361,
         "seasonName":"2018/2019",
         "isOpta":true,
         "tournamentId":2,
         "tournamentRegionId":252,
         "tournamentRegionCode":"gb-eng",
         "tournamentRegionName":"England",
         "tournamentName":"Premier League",
         "rating":6.625,
         "minsPlayed":819,
         "interceptionAll":0.98901098901000006,
         "ranking":122
      },
      {
         "height":178,
         "weight":67,
         "age":22,
         "isManOfTheMatch":false,
         "isActive":true,
         "playedPositions":"-MC-ML-MR-",
         "playedPositionsShort":"M(CLR)",
         "teamRegionName":"Spain",
         "regionCode":"es",
         "tournamentShortName":"SLL",
         "apps":17,
         "subOn":0,
         "name":"Pablo Fornals",
         "firstName":"Pablo",
         "lastName":"Fornals",
         "playerId":297203,
         "positionText":"Midfielder",
         "teamId":839,
         "teamName":"Villarreal",
         "seasonId":7466,
         "seasonName":"2018/2019",
         "isOpta":true,
         "tournamentId":4,
         "tournamentRegionId":206,
         "tournamentRegionCode":"es",
         "tournamentRegionName":"Spain",
         "tournamentName":"La Liga",
         "rating":6.8852941176470592,
         "minsPlayed":1457,
         "interceptionAll":0.988332189424,
         "ranking":123
      },
      {
         "height":185,
         "weight":75,
         "age":26,
         "isManOfTheMatch":false,
         "isActive":true,
         "playedPositions":"-AMC-",
         "playedPositionsShort":"AM(C)",
         "teamRegionName":"Italy",
         "regionCode":"se",
         "tournamentShortName":"ISA",
         "apps":15,
         "subOn":0,
         "name":"Oscar Hiljemark",
         "firstName":"Oscar",
         "lastName":"Hiljemark",
         "playerId":90349,
         "positionText":"Midfielder",
         "teamId":278,
         "teamName":"Genoa",
         "seasonId":7468,
         "seasonName":"2018/2019",
         "isOpta":true,
         "tournamentId":5,
         "tournamentRegionId":108,
         "tournamentRegionCode":"it",
         "tournamentRegionName":"Italy",
         "tournamentName":"Serie A",
         "rating":6.5413333333333332,
         "minsPlayed":1189,
         "interceptionAll":0.98402018501799993,
         "ranking":124
      },
      {
         "height":178,
         "weight":75,
         "age":27,
         "isManOfTheMatch":false,
         "isActive":true,
         "playedPositions":"-MC-",
         "playedPositionsShort":"M(C)",
         "teamRegionName":"Spain",
         "regionCode":"es",
         "tournamentShortName":"SLL",
         "apps":15,
         "subOn":0,
         "name":"Manu Trigueros",
         "firstName":"Manuel",
         "lastName":"Trigueros Muñoz",
         "playerId":102234,
         "positionText":"Midfielder",
         "teamId":839,
         "teamName":"Villarreal",
         "seasonId":7466,
         "seasonName":"2018/2019",
         "isOpta":true,
         "tournamentId":4,
         "tournamentRegionId":206,
         "tournamentRegionCode":"es",
         "tournamentRegionName":"Spain",
         "tournamentName":"La Liga",
         "rating":6.76,
         "minsPlayed":1190,
         "interceptionAll":0.98319327730000006,
         "ranking":125
      },
      {
         "height":185,
         "weight":80,
         "age":24,
         "isManOfTheMatch":false,
         "isActive":true,
         "playedPositions":"-MC-",
         "playedPositionsShort":"M(C)",
         "teamRegionName":"France",
         "regionCode":"pt",
         "tournamentShortName":"FL1",
         "apps":17,
         "subOn":0,
         "name":"Xeka",
         "firstName":"Miguel Angelo",
         "lastName":"da Silva Rocha",
         "playerId":329409,
         "positionText":"Midfielder",
         "teamId":607,
         "teamName":"Lille",
         "seasonId":7344,
         "seasonName":"2018/2019",
         "isOpta":true,
         "tournamentId":22,
         "tournamentRegionId":74,
         "tournamentRegionCode":"fr",
         "tournamentRegionName":"France",
         "tournamentName":"Ligue 1",
         "rating":6.6441176470588221,
         "minsPlayed":1482,
         "interceptionAll":0.971659919024,
         "ranking":126
      },
      {
         "height":191,
         "weight":76,
         "age":23,
         "isManOfTheMatch":false,
         "isActive":true,
         "playedPositions":"-AMC-",
         "playedPositionsShort":"AM(C)",
         "teamRegionName":"Italy",
         "regionCode":"rs",
         "tournamentShortName":"ISA",
         "apps":18,
         "subOn":0,
         "name":"Sergej Milinkovic-Savic",
         "firstName":"Sergej",
         "lastName":"Milinkovic-Savic",
         "playerId":288767,
         "positionText":"Midfielder",
         "teamId":77,
         "teamName":"Lazio",
         "seasonId":7468,
         "seasonName":"2018/2019",
         "isOpta":true,
         "tournamentId":5,
         "tournamentRegionId":108,
         "tournamentRegionCode":"it",
         "tournamentRegionName":"Italy",
         "tournamentName":"Serie A",
         "rating":7.2144444444444433,
         "minsPlayed":1482,
         "interceptionAll":0.971659919024,
         "ranking":127
      },
      {
         "height":187,
         "weight":80,
         "age":24,
         "isManOfTheMatch":false,
         "isActive":true,
         "playedPositions":"-AMC-",
         "playedPositionsShort":"AM(C)",
         "teamRegionName":"Italy",
         "regionCode":"fr",
         "tournamentShortName":"ISA",
         "apps":17,
         "subOn":0,
         "name":"Soualiho Meité",
         "firstName":"Soualiho",
         "lastName":"Meité",
         "playerId":105161,
         "positionText":"Midfielder",
         "teamId":72,
         "teamName":"Torino",
         "seasonId":7468,
         "seasonName":"2018/2019",
         "isOpta":true,
         "tournamentId":5,
         "tournamentRegionId":108,
         "tournamentRegionCode":"it",
         "tournamentRegionName":"Italy",
         "tournamentName":"Serie A",
         "rating":6.9382352941176473,
         "minsPlayed":1482,
         "interceptionAll":0.971659919024,
         "ranking":128
      },
      {
         "height":177,
         "weight":77,
         "age":24,
         "isManOfTheMatch":false,
         "isActive":true,
         "playedPositions":"-AMC-AML-AMR-FW-",
         "playedPositionsShort":"AM(CLR),FW",
         "teamRegionName":"Germany",
         "regionCode":"at",
         "tournamentShortName":"GB",
         "apps":12,
         "subOn":0,
         "name":"Marcel Sabitzer",
         "firstName":"Marcel",
         "lastName":"Sabitzer",
         "playerId":92051,
         "positionText":"Midfielder",
         "teamId":7614,
         "teamName":"RasenBallsport Leipzig",
         "seasonId":7405,
         "seasonName":"2018/2019",
         "isOpta":true,
         "tournamentId":3,
         "tournamentRegionId":81,
         "tournamentRegionCode":"de",
         "tournamentRegionName":"Germany",
         "tournamentName":"Bundesliga",
         "rating":6.9916666666666663,
         "minsPlayed":1029,
         "interceptionAll":0.96209912536100006,
         "ranking":129
      },
      {
         "height":182,
         "weight":70,
         "age":26,
         "isManOfTheMatch":false,
         "isActive":true,
         "playedPositions":"-MC-",
         "playedPositionsShort":"M(C)",
         "teamRegionName":"Italy",
         "regionCode":"it",
         "tournamentShortName":"ISA",
         "apps":15,
         "subOn":0,
         "name":"Daniele Baselli",
         "firstName":"Daniele",
         "lastName":"Baselli",
         "playerId":83716,
         "positionText":"Midfielder",
         "teamId":72,
         "teamName":"Torino",
         "seasonId":7468,
         "seasonName":"2018/2019",
         "isOpta":true,
         "tournamentId":5,
         "tournamentRegionId":108,
         "tournamentRegionCode":"it",
         "tournamentRegionName":"Italy",
         "tournamentName":"Serie A",
         "rating":6.9500000000000011,
         "minsPlayed":1223,
         "interceptionAll":0.95666394111600006,
         "ranking":130
      }
   ],
   "paging":{
      "currentPage":13,
      "totalPages":25,
      "resultsPerPage":10,
      "totalResults":246,
      "firstRecordIndex":121,
      "lastRecordIndex":130
   },
   "statColumns":[
      "apps",
      "subOn",
      "minsPlayed",
      "interceptionAll"
   ]
}