{
   "playerTableStats":[
      {
         "ranking":41,
         "seasonId":7466,
         "seasonName":"2018/2019",
         "tournamentId":4,
         "tournamentRegionId":206,
         "tournamentRegionCode":"es",
         "tournamentRegionName":"Spain",
         "regionCode":"tr",
         "tournamentName":"La Liga",
         "tournamentShortName":"SLL",
         "firstName":"Okay",
         "lastName":"Yokuslu",
         "playerId":93805,
         "isActive":true,
         "isOpta":true,
         "teamId":62,
         "teamName":"Celta Vigo",
         "teamRegionName":"Spain",
         "playedPositions":"-DC-DMC-",
         "age":24,
         "height":190,
         "weight":79,
         "positionText":"Midfielder",
         "apps":10,
         "subOn":0,
         "minsPlayed":808,
         "rating":7.008,
         "isManOfTheMatch":false,
         "playedPositionsShort":"D(C),DMC",
         "name":"Okay Yokuslu",
         "interceptionAll":1.559405940582
      },
      {
         "ranking":42,
         "seasonId":7361,
         "seasonName":"2018/2019",
         "tournamentId":2,
         "tournamentRegionId":252,
         "tournamentRegionCode":"gb-eng",
         "tournamentRegionName":"England",
         "regionCode":"fr",
         "tournamentName":"Premier League",
         "tournamentShortName":"EPL",
         "firstName":"Matteo",
         "lastName":"Guendouzi",
         "playerId":328983,
         "isActive":true,
         "isOpta":true,
         "teamId":13,
         "teamName":"Arsenal",
         "teamRegionName":"England",
         "playedPositions":"-DMC-",
         "age":19,
         "height":185,
         "weight":64,
         "positionText":"Midfielder",
         "apps":12,
         "subOn":0,
         "minsPlayed":982,
         "rating":6.7741666666666669,
         "isManOfTheMatch":false,
         "playedPositionsShort":"DMC",
         "name":"Matteo Guendouzi",
         "interceptionAll":1.5580448065169998
      },
      {
         "ranking":43,
         "seasonId":7344,
         "seasonName":"2018/2019",
         "tournamentId":22,
         "tournamentRegionId":74,
         "tournamentRegionCode":"fr",
         "tournamentRegionName":"France",
         "regionCode":"fr",
         "tournamentName":"Ligue 1",
         "tournamentShortName":"FL1",
         "firstName":"Adrien",
         "lastName":"Tameze",
         "playerId":124721,
         "isActive":true,
         "isOpta":true,
         "teamId":613,
         "teamName":"Nice",
         "teamRegionName":"France",
         "playedPositions":"-MC-",
         "age":24,
         "height":180,
         "weight":78,
         "positionText":"Midfielder",
         "apps":17,
         "subOn":0,
         "minsPlayed":1450,
         "rating":6.7870588235294118,
         "isManOfTheMatch":false,
         "playedPositionsShort":"M(C)",
         "name":"Adrien Tameze",
         "interceptionAll":1.551724137925
      },
      {
         "ranking":44,
         "seasonId":7361,
         "seasonName":"2018/2019",
         "tournamentId":2,
         "tournamentRegionId":252,
         "tournamentRegionCode":"gb-eng",
         "tournamentRegionName":"England",
         "regionCode":"fr",
         "tournamentName":"Premier League",
         "tournamentShortName":"EPL",
         "firstName":"Anthony",
         "lastName":"Knockaert",
         "playerId":86794,
         "isActive":true,
         "isOpta":true,
         "teamId":211,
         "teamName":"Brighton",
         "teamRegionName":"England",
         "playedPositions":"-AML-AMR-",
         "age":27,
         "height":172,
         "weight":69,
         "positionText":"Midfielder",
         "apps":12,
         "subOn":0,
         "minsPlayed":987,
         "rating":7.0066666666666668,
         "isManOfTheMatch":false,
         "playedPositionsShort":"AM(LR)",
         "name":"Anthony Knockaert",
         "interceptionAll":1.550151975678
      },
      {
         "ranking":45,
         "seasonId":7405,
         "seasonName":"2018/2019",
         "tournamentId":3,
         "tournamentRegionId":81,
         "tournamentRegionCode":"de",
         "tournamentRegionName":"Germany",
         "regionCode":"de",
         "tournamentName":"Bundesliga",
         "tournamentShortName":"GB",
         "firstName":"Janik",
         "lastName":"Haberer",
         "playerId":110272,
         "isActive":true,
         "isOpta":true,
         "teamId":50,
         "teamName":"Freiburg",
         "teamRegionName":"Germany",
         "playedPositions":"-FW-MC-ML-MR-",
         "age":24,
         "height":186,
         "weight":77,
         "positionText":"Midfielder",
         "apps":11,
         "subOn":0,
         "minsPlayed":989,
         "rating":6.9272727272727277,
         "isManOfTheMatch":false,
         "playedPositionsShort":"M(CLR),FW",
         "name":"Janik Haberer",
         "interceptionAll":1.547017189074
      },
      {
         "ranking":46,
         "seasonId":7344,
         "seasonName":"2018/2019",
         "tournamentId":22,
         "tournamentRegionId":74,
         "tournamentRegionCode":"fr",
         "tournamentRegionName":"France",
         "regionCode":"ma",
         "tournamentName":"Ligue 1",
         "tournamentShortName":"FL1",
         "firstName":"Youssef",
         "lastName":"Aït Bennasser",
         "playerId":296230,
         "isActive":true,
         "isOpta":true,
         "teamId":248,
         "teamName":"Monaco",
         "teamRegionName":"France",
         "playedPositions":"-DMC-",
         "age":22,
         "height":184,
         "weight":75,
         "positionText":"Midfielder",
         "apps":10,
         "subOn":0,
         "minsPlayed":875,
         "rating":6.9009999999999989,
         "isManOfTheMatch":false,
         "playedPositionsShort":"DMC",
         "name":"Youssef Aït Bennasser",
         "interceptionAll":1.542857142855
      },
      {
         "ranking":47,
         "seasonId":7468,
         "seasonName":"2018/2019",
         "tournamentId":5,
         "tournamentRegionId":108,
         "tournamentRegionCode":"it",
         "tournamentRegionName":"Italy",
         "regionCode":"it",
         "tournamentName":"Serie A",
         "tournamentShortName":"ISA",
         "firstName":"Nicolò",
         "lastName":"Barella",
         "playerId":148684,
         "isActive":true,
         "isOpta":true,
         "teamId":78,
         "teamName":"Cagliari",
         "teamRegionName":"Italy",
         "playedPositions":"-AMC-",
         "age":21,
         "height":175,
         "weight":68,
         "positionText":"Midfielder",
         "apps":18,
         "subOn":0,
         "minsPlayed":1592,
         "rating":6.708333333333333,
         "isManOfTheMatch":false,
         "playedPositionsShort":"AM(C)",
         "name":"Nicolò Barella",
         "interceptionAll":1.526381909532
      },
      {
         "ranking":48,
         "seasonId":7344,
         "seasonName":"2018/2019",
         "tournamentId":22,
         "tournamentRegionId":74,
         "tournamentRegionCode":"fr",
         "tournamentRegionName":"France",
         "regionCode":"br",
         "tournamentName":"Ligue 1",
         "tournamentShortName":"FL1",
         "firstName":"Otávio Henrique",
         "lastName":"Passos Santos",
         "playerId":146764,
         "isActive":true,
         "isOpta":true,
         "teamId":315,
         "teamName":"Bordeaux",
         "teamRegionName":"France",
         "playedPositions":"-DMC-",
         "age":24,
         "height":176,
         "weight":73,
         "positionText":"Midfielder",
         "apps":12,
         "subOn":0,
         "minsPlayed":1063,
         "rating":6.890833333333334,
         "isManOfTheMatch":false,
         "playedPositionsShort":"DMC",
         "name":"Otávio",
         "interceptionAll":1.52398871118
      },
      {
         "ranking":49,
         "seasonId":7361,
         "seasonName":"2018/2019",
         "tournamentId":2,
         "tournamentRegionId":252,
         "tournamentRegionCode":"gb-eng",
         "tournamentRegionName":"England",
         "regionCode":"ch",
         "tournamentName":"Premier League",
         "tournamentShortName":"EPL",
         "firstName":"Granit",
         "lastName":"Xhaka",
         "playerId":89401,
         "isActive":true,
         "isOpta":true,
         "teamId":13,
         "teamName":"Arsenal",
         "teamRegionName":"England",
         "playedPositions":"-MC-",
         "age":26,
         "height":185,
         "weight":82,
         "positionText":"Midfielder",
         "apps":18,
         "subOn":0,
         "minsPlayed":1556,
         "rating":7.1394444444444458,
         "isManOfTheMatch":false,
         "playedPositionsShort":"M(C)",
         "name":"Granit Xhaka",
         "interceptionAll":1.503856041116
      },
      {
         "ranking":50,
         "seasonId":7344,
         "seasonName":"2018/2019",
         "tournamentId":22,
         "tournamentRegionId":74,
         "tournamentRegionCode":"fr",
         "tournamentRegionName":"France",
         "regionCode":"fr",
         "tournamentName":"Ligue 1",
         "tournamentShortName":"FL1",
         "firstName":"Xavier",
         "lastName":"Chavalerin",
         "playerId":236556,
         "isActive":true,
         "isOpta":true,
         "teamId":950,
         "teamName":"Reims",
         "teamRegionName":"France",
         "playedPositions":"-DMC-",
         "age":27,
         "height":178,
         "weight":66,
         "positionText":"Midfielder",
         "apps":18,
         "subOn":0,
         "minsPlayed":1620,
         "rating":6.9527777777777784,
         "isManOfTheMatch":false,
         "playedPositionsShort":"DMC",
         "name":"Xavier Chavalerin",
         "interceptionAll":1.499999999985
      }
   ],
   "paging":{
      "currentPage":5,
      "totalPages":25,
      "resultsPerPage":10,
      "totalResults":246,
      "firstRecordIndex":41,
      "lastRecordIndex":50
   },
   "statColumns":[
      "apps",
      "subOn",
      "minsPlayed",
      "interceptionAll"
   ]
}