{
   "playerTableStats":[
      {
         "ranking":11,
         "seasonId":7468,
         "seasonName":"2018/2019",
         "tournamentId":5,
         "tournamentRegionId":108,
         "tournamentRegionCode":"it",
         "tournamentRegionName":"Italy",
         "regionCode":"hr",
         "tournamentName":"Serie A",
         "tournamentShortName":"ISA",
         "firstName":"Filip",
         "lastName":"Bradaric",
         "playerId":132229,
         "isActive":true,
         "isOpta":true,
         "teamId":78,
         "teamName":"Cagliari",
         "teamRegionName":"Italy",
         "playedPositions":"-DMC-",
         "age":27,
         "height":186,
         "weight":78,
         "positionText":"Midfielder",
         "apps":14,
         "subOn":0,
         "minsPlayed":1107,
         "rating":6.5342857142857138,
         "isManOfTheMatch":false,
         "playedPositionsShort":"DMC",
         "name":"Filip Bradaric",
         "interceptionAll":2.195121951216
      },
      {
         "ranking":12,
         "seasonId":7344,
         "seasonName":"2018/2019",
         "tournamentId":22,
         "tournamentRegionId":74,
         "tournamentRegionCode":"fr",
         "tournamentRegionName":"France",
         "regionCode":"dk",
         "tournamentName":"Ligue 1",
         "tournamentShortName":"FL1",
         "firstName":"Lukas",
         "lastName":"Lerager",
         "playerId":342577,
         "isActive":true,
         "isOpta":true,
         "teamId":315,
         "teamName":"Bordeaux",
         "teamRegionName":"France",
         "playedPositions":"-DMC-",
         "age":25,
         "height":185,
         "weight":80,
         "positionText":"Midfielder",
         "apps":13,
         "subOn":0,
         "minsPlayed":1071,
         "rating":6.7546153846153851,
         "isManOfTheMatch":false,
         "playedPositionsShort":"DMC",
         "name":"Lukas Lerager",
         "interceptionAll":2.18487394957
      },
      {
         "ranking":13,
         "seasonId":7405,
         "seasonName":"2018/2019",
         "tournamentId":3,
         "tournamentRegionId":81,
         "tournamentRegionCode":"de",
         "tournamentRegionName":"Germany",
         "regionCode":"cz",
         "tournamentName":"Bundesliga",
         "tournamentShortName":"GB",
         "firstName":"Ondrej",
         "lastName":"Petrák",
         "playerId":92919,
         "isActive":true,
         "isOpta":true,
         "teamId":137,
         "teamName":"Nuernberg",
         "teamRegionName":"Germany",
         "playedPositions":"-DC-DMC-",
         "age":26,
         "height":186,
         "weight":79,
         "positionText":"Midfielder",
         "apps":13,
         "subOn":0,
         "minsPlayed":1118,
         "rating":6.6146153846153846,
         "isManOfTheMatch":false,
         "playedPositionsShort":"D(C),DMC",
         "name":"Ondrej Petrák",
         "interceptionAll":2.173524150258
      },
      {
         "ranking":14,
         "seasonId":7361,
         "seasonName":"2018/2019",
         "tournamentId":2,
         "tournamentRegionId":252,
         "tournamentRegionCode":"gb-eng",
         "tournamentRegionName":"England",
         "regionCode":"co",
         "tournamentName":"Premier League",
         "tournamentShortName":"EPL",
         "firstName":"Jefferson",
         "lastName":"Lerma",
         "playerId":133464,
         "isActive":true,
         "isOpta":true,
         "teamId":183,
         "teamName":"Bournemouth",
         "teamRegionName":"England",
         "playedPositions":"-DMC-DR-",
         "age":24,
         "height":179,
         "weight":70,
         "positionText":"Midfielder",
         "apps":16,
         "subOn":0,
         "minsPlayed":1382,
         "rating":6.95625,
         "isManOfTheMatch":false,
         "playedPositionsShort":"D(R),DMC",
         "name":"Jefferson Lerma",
         "interceptionAll":2.1490593342900004
      },
      {
         "ranking":15,
         "seasonId":7468,
         "seasonName":"2018/2019",
         "tournamentId":5,
         "tournamentRegionId":108,
         "tournamentRegionCode":"it",
         "tournamentRegionName":"Italy",
         "regionCode":"nl",
         "tournamentName":"Serie A",
         "tournamentShortName":"ISA",
         "firstName":"Marten",
         "lastName":"de Roon",
         "playerId":85070,
         "isActive":true,
         "isOpta":true,
         "teamId":300,
         "teamName":"Atalanta",
         "teamRegionName":"Italy",
         "playedPositions":"-DMC-",
         "age":27,
         "height":185,
         "weight":76,
         "positionText":"Midfielder",
         "apps":16,
         "subOn":0,
         "minsPlayed":1340,
         "rating":7.120625,
         "isManOfTheMatch":false,
         "playedPositionsShort":"DMC",
         "name":"Marten de Roon",
         "interceptionAll":2.0820895522239997
      },
      {
         "ranking":16,
         "seasonId":7466,
         "seasonName":"2018/2019",
         "tournamentId":4,
         "tournamentRegionId":206,
         "tournamentRegionCode":"es",
         "tournamentRegionName":"Spain",
         "regionCode":"rs",
         "tournamentName":"La Liga",
         "tournamentShortName":"SLL",
         "firstName":"Nemanja",
         "lastName":"Maksimovic",
         "playerId":296367,
         "isActive":true,
         "isOpta":true,
         "teamId":819,
         "teamName":"Getafe",
         "teamRegionName":"Spain",
         "playedPositions":"-DMC-",
         "age":23,
         "height":189,
         "weight":78,
         "positionText":"Midfielder",
         "apps":16,
         "subOn":0,
         "minsPlayed":1440,
         "rating":6.798125,
         "isManOfTheMatch":false,
         "playedPositionsShort":"DMC",
         "name":"Nemanja Maksimovic",
         "interceptionAll":2.0625
      },
      {
         "ranking":17,
         "seasonId":7466,
         "seasonName":"2018/2019",
         "tournamentId":4,
         "tournamentRegionId":206,
         "tournamentRegionCode":"es",
         "tournamentRegionName":"Spain",
         "regionCode":"es",
         "tournamentName":"La Liga",
         "tournamentShortName":"SLL",
         "firstName":"Igor",
         "lastName":"Zubeldia",
         "playerId":315566,
         "isActive":true,
         "isOpta":true,
         "teamId":68,
         "teamName":"Real Sociedad",
         "teamRegionName":"Spain",
         "playedPositions":"-DMC-",
         "age":21,
         "height":180,
         "weight":79,
         "positionText":"Midfielder",
         "apps":15,
         "subOn":0,
         "minsPlayed":1272,
         "rating":6.9013333333333353,
         "isManOfTheMatch":false,
         "playedPositionsShort":"DMC",
         "name":"Igor Zubeldia",
         "interceptionAll":2.051886792449
      },
      {
         "ranking":18,
         "seasonId":7405,
         "seasonName":"2018/2019",
         "tournamentId":3,
         "tournamentRegionId":81,
         "tournamentRegionCode":"de",
         "tournamentRegionName":"Germany",
         "regionCode":"at",
         "tournamentName":"Bundesliga",
         "tournamentShortName":"GB",
         "firstName":"Florian",
         "lastName":"Grillitsch",
         "playerId":291937,
         "isActive":true,
         "isOpta":true,
         "teamId":1211,
         "teamName":"Hoffenheim",
         "teamRegionName":"Germany",
         "playedPositions":"-DMC-ML-",
         "age":23,
         "height":187,
         "weight":74,
         "positionText":"Midfielder",
         "apps":12,
         "subOn":0,
         "minsPlayed":928,
         "rating":6.8999999999999995,
         "isManOfTheMatch":false,
         "playedPositionsShort":"DMC,M(L)",
         "name":"Florian Grillitsch",
         "interceptionAll":2.03663793102
      },
      {
         "ranking":19,
         "seasonId":7361,
         "seasonName":"2018/2019",
         "tournamentId":2,
         "tournamentRegionId":252,
         "tournamentRegionCode":"gb-eng",
         "tournamentRegionName":"England",
         "regionCode":"ng",
         "tournamentName":"Premier League",
         "tournamentShortName":"EPL",
         "firstName":"Onyinye Wilfred",
         "lastName":"Ndidi",
         "playerId":327683,
         "isActive":true,
         "isOpta":true,
         "teamId":14,
         "teamName":"Leicester",
         "teamRegionName":"England",
         "playedPositions":"-DMC-",
         "age":22,
         "height":183,
         "weight":74,
         "positionText":"Midfielder",
         "apps":20,
         "subOn":0,
         "minsPlayed":1800,
         "rating":7.2150000000000007,
         "isManOfTheMatch":false,
         "playedPositionsShort":"DMC",
         "name":"Wilfred Ndidi",
         "interceptionAll":1.9500000000000002
      },
      {
         "ranking":20,
         "seasonId":7361,
         "seasonName":"2018/2019",
         "tournamentId":2,
         "tournamentRegionId":252,
         "tournamentRegionCode":"gb-eng",
         "tournamentRegionName":"England",
         "regionCode":"dk",
         "tournamentName":"Premier League",
         "tournamentShortName":"EPL",
         "firstName":"Pierre-Emile",
         "lastName":"Højbjerg",
         "playerId":101859,
         "isActive":true,
         "isOpta":true,
         "teamId":18,
         "teamName":"Southampton",
         "teamRegionName":"England",
         "playedPositions":"-MC-",
         "age":23,
         "height":185,
         "weight":84,
         "positionText":"Midfielder",
         "apps":16,
         "subOn":0,
         "minsPlayed":1420,
         "rating":6.8362500000000015,
         "isManOfTheMatch":false,
         "playedPositionsShort":"M(C)",
         "name":"Pierre-Emile Højbjerg",
         "interceptionAll":1.9014084507
      }
   ],
   "paging":{
      "currentPage":2,
      "totalPages":25,
      "resultsPerPage":10,
      "totalResults":246,
      "firstRecordIndex":11,
      "lastRecordIndex":20
   },
   "statColumns":[
      "apps",
      "subOn",
      "minsPlayed",
      "interceptionAll"
   ]
}