{
   "playerTableStats":[
      {
         "ranking":131,
         "seasonId":7466,
         "seasonName":"2018/2019",
         "tournamentId":4,
         "tournamentRegionId":206,
         "tournamentRegionCode":"es",
         "tournamentRegionName":"Spain",
         "regionCode":"mk",
         "tournamentName":"La Liga",
         "tournamentShortName":"SLL",
         "firstName":"Enis",
         "lastName":"Bardhi",
         "playerId":275687,
         "isActive":true,
         "isOpta":true,
         "teamId":832,
         "teamName":"Levante",
         "teamRegionName":"Spain",
         "playedPositions":"-AMC-AML-",
         "age":23,
         "height":172,
         "weight":67,
         "positionText":"Midfielder",
         "apps":15,
         "subOn":0,
         "minsPlayed":1319,
         "rating":6.817333333333333,
         "isManOfTheMatch":false,
         "playedPositionsShort":"AM(CL)",
         "name":"Enis Bardhi",
         "interceptionAll":0.95526914329
      },
      {
         "ranking":132,
         "seasonId":7468,
         "seasonName":"2018/2019",
         "tournamentId":5,
         "tournamentRegionId":108,
         "tournamentRegionCode":"it",
         "tournamentRegionName":"Italy",
         "regionCode":"ci",
         "tournamentName":"Serie A",
         "tournamentShortName":"ISA",
         "firstName":"Franck",
         "lastName":"Kessié",
         "playerId":277269,
         "isActive":true,
         "isOpta":true,
         "teamId":80,
         "teamName":"AC Milan",
         "teamRegionName":"Italy",
         "playedPositions":"-MC-",
         "age":22,
         "height":183,
         "weight":74,
         "positionText":"Midfielder",
         "apps":18,
         "subOn":0,
         "minsPlayed":1602,
         "rating":6.9166666666666679,
         "isManOfTheMatch":false,
         "playedPositionsShort":"M(C)",
         "name":"Franck Kessié",
         "interceptionAll":0.9550561797599999
      },
      {
         "ranking":133,
         "seasonId":7361,
         "seasonName":"2018/2019",
         "tournamentId":2,
         "tournamentRegionId":252,
         "tournamentRegionCode":"gb-eng",
         "tournamentRegionName":"England",
         "regionCode":"ci",
         "tournamentName":"Premier League",
         "tournamentShortName":"EPL",
         "firstName":"Jean Michael",
         "lastName":"Seri",
         "playerId":136262,
         "isActive":true,
         "isOpta":true,
         "teamId":170,
         "teamName":"Fulham",
         "teamRegionName":"England",
         "playedPositions":"-MC-",
         "age":27,
         "height":168,
         "weight":65,
         "positionText":"Midfielder",
         "apps":19,
         "subOn":0,
         "minsPlayed":1517,
         "rating":6.5642105263157893,
         "isManOfTheMatch":false,
         "playedPositionsShort":"M(C)",
         "name":"Jean Michael Seri",
         "interceptionAll":0.949241924848
      },
      {
         "ranking":134,
         "seasonId":7468,
         "seasonName":"2018/2019",
         "tournamentId":5,
         "tournamentRegionId":108,
         "tournamentRegionCode":"it",
         "tournamentRegionName":"Italy",
         "regionCode":"pl",
         "tournamentName":"Serie A",
         "tournamentShortName":"ISA",
         "firstName":"Karol",
         "lastName":"Linetty",
         "playerId":141736,
         "isActive":true,
         "isOpta":true,
         "teamId":271,
         "teamName":"Sampdoria",
         "teamRegionName":"Italy",
         "playedPositions":"-MC-",
         "age":23,
         "height":176,
         "weight":73,
         "positionText":"Midfielder",
         "apps":15,
         "subOn":0,
         "minsPlayed":1240,
         "rating":6.768,
         "isManOfTheMatch":false,
         "playedPositionsShort":"M(C)",
         "name":"Karol Linetty",
         "interceptionAll":0.943548387093
      },
      {
         "ranking":135,
         "seasonId":7344,
         "seasonName":"2018/2019",
         "tournamentId":22,
         "tournamentRegionId":74,
         "tournamentRegionCode":"fr",
         "tournamentRegionName":"France",
         "regionCode":"be",
         "tournamentName":"Ligue 1",
         "tournamentShortName":"FL1",
         "firstName":"Youri",
         "lastName":"Tielemans",
         "playerId":136345,
         "isActive":true,
         "isOpta":true,
         "teamId":248,
         "teamName":"Monaco",
         "teamRegionName":"France",
         "playedPositions":"-MC-",
         "age":21,
         "height":176,
         "weight":72,
         "positionText":"Midfielder",
         "apps":16,
         "subOn":0,
         "minsPlayed":1347,
         "rating":6.9312499999999986,
         "isManOfTheMatch":false,
         "playedPositionsShort":"M(C)",
         "name":"Youri Tielemans",
         "interceptionAll":0.935412026724
      },
      {
         "ranking":136,
         "seasonId":7466,
         "seasonName":"2018/2019",
         "tournamentId":4,
         "tournamentRegionId":206,
         "tournamentRegionCode":"es",
         "tournamentRegionName":"Spain",
         "regionCode":"ma",
         "tournamentName":"La Liga",
         "tournamentShortName":"SLL",
         "firstName":"Sofiane",
         "lastName":"Boufal",
         "playerId":234363,
         "isActive":true,
         "isOpta":true,
         "teamId":62,
         "teamName":"Celta Vigo",
         "teamRegionName":"Spain",
         "playedPositions":"-AMC-AML-AMR-FW-",
         "age":25,
         "height":170,
         "weight":60,
         "positionText":"Midfielder",
         "apps":10,
         "subOn":0,
         "minsPlayed":683,
         "rating":7.206999999999999,
         "isManOfTheMatch":false,
         "playedPositionsShort":"AM(CLR),FW",
         "name":"Sofiane Boufal",
         "interceptionAll":0.9224011713000001
      },
      {
         "ranking":137,
         "seasonId":7405,
         "seasonName":"2018/2019",
         "tournamentId":3,
         "tournamentRegionId":81,
         "tournamentRegionCode":"de",
         "tournamentRegionName":"Germany",
         "regionCode":"de",
         "tournamentName":"Bundesliga",
         "tournamentShortName":"GB",
         "firstName":"Maximilian",
         "lastName":"Arnold",
         "playerId":108919,
         "isActive":true,
         "isOpta":true,
         "teamId":33,
         "teamName":"Wolfsburg",
         "teamRegionName":"Germany",
         "playedPositions":"-MC-MR-",
         "age":24,
         "height":184,
         "weight":74,
         "positionText":"Midfielder",
         "apps":17,
         "subOn":0,
         "minsPlayed":1465,
         "rating":7.0235294117647058,
         "isManOfTheMatch":false,
         "playedPositionsShort":"M(CR)",
         "name":"Maximilian Arnold",
         "interceptionAll":0.92150170647
      },
      {
         "ranking":138,
         "seasonId":7344,
         "seasonName":"2018/2019",
         "tournamentId":22,
         "tournamentRegionId":74,
         "tournamentRegionCode":"fr",
         "tournamentRegionName":"France",
         "regionCode":"it",
         "tournamentName":"Ligue 1",
         "tournamentShortName":"FL1",
         "firstName":"Marco",
         "lastName":"Verratti",
         "playerId":91961,
         "isActive":true,
         "isOpta":true,
         "teamId":304,
         "teamName":"Paris Saint-Germain",
         "teamRegionName":"France",
         "playedPositions":"-DMC-",
         "age":26,
         "height":165,
         "weight":60,
         "positionText":"Midfielder",
         "apps":10,
         "subOn":0,
         "minsPlayed":787,
         "rating":7.1129999999999995,
         "isManOfTheMatch":false,
         "playedPositionsShort":"DMC",
         "name":"Marco Verratti",
         "interceptionAll":0.914866581952
      },
      {
         "ranking":139,
         "seasonId":7466,
         "seasonName":"2018/2019",
         "tournamentId":4,
         "tournamentRegionId":206,
         "tournamentRegionCode":"es",
         "tournamentRegionName":"Spain",
         "regionCode":"es",
         "tournamentName":"La Liga",
         "tournamentShortName":"SLL",
         "firstName":"Óscar",
         "lastName":"Rodríguez",
         "playerId":353783,
         "isActive":true,
         "isOpta":true,
         "teamId":825,
         "teamName":"Leganes",
         "teamRegionName":"Spain",
         "playedPositions":"-AMC-",
         "age":20,
         "height":174,
         "weight":67,
         "positionText":"Midfielder",
         "apps":13,
         "subOn":0,
         "minsPlayed":1102,
         "rating":6.9669230769230763,
         "isManOfTheMatch":false,
         "playedPositionsShort":"AM(C)",
         "name":"Óscar Rodríguez",
         "interceptionAll":0.89836660617
      },
      {
         "ranking":140,
         "seasonId":7466,
         "seasonName":"2018/2019",
         "tournamentId":4,
         "tournamentRegionId":206,
         "tournamentRegionCode":"es",
         "tournamentRegionName":"Spain",
         "regionCode":"es",
         "tournamentName":"La Liga",
         "tournamentShortName":"SLL",
         "firstName":"Adrián",
         "lastName":"Embarba",
         "playerId":135572,
         "isActive":true,
         "isOpta":true,
         "teamId":64,
         "teamName":"Rayo Vallecano",
         "teamRegionName":"Spain",
         "playedPositions":"-AML-AMR-",
         "age":26,
         "height":173,
         "weight":66,
         "positionText":"Forward",
         "apps":10,
         "subOn":0,
         "minsPlayed":802,
         "rating":7.0980000000000008,
         "isManOfTheMatch":false,
         "playedPositionsShort":"AM(LR)",
         "name":"Adrián Embarba",
         "interceptionAll":0.897755610968
      }
   ],
   "paging":{
      "currentPage":14,
      "totalPages":25,
      "resultsPerPage":10,
      "totalResults":246,
      "firstRecordIndex":131,
      "lastRecordIndex":140
   },
   "statColumns":[
      "apps",
      "subOn",
      "minsPlayed",
      "interceptionAll"
   ]
}