{
   "playerTableStats":[
      {
         "ranking":201,
         "seasonId":7344,
         "seasonName":"2018/2019",
         "tournamentId":22,
         "tournamentRegionId":74,
         "tournamentRegionCode":"fr",
         "tournamentRegionName":"France",
         "regionCode":"fr",
         "tournamentName":"Ligue 1",
         "tournamentShortName":"FL1",
         "firstName":"Nabil",
         "lastName":"Fekir",
         "playerId":134893,
         "isActive":true,
         "isOpta":true,
         "teamId":228,
         "teamName":"Lyon",
         "teamRegionName":"France",
         "playedPositions":"-AMC-AMR-FW-",
         "age":25,
         "height":173,
         "weight":72,
         "positionText":"Forward",
         "apps":10,
         "subOn":0,
         "minsPlayed":728,
         "rating":7.297,
         "isManOfTheMatch":false,
         "playedPositionsShort":"AM(CR),FW",
         "name":"Nabil Fekir",
         "interceptionAll":0.494505494504
      },
      {
         "ranking":202,
         "seasonId":7344,
         "seasonName":"2018/2019",
         "tournamentId":22,
         "tournamentRegionId":74,
         "tournamentRegionCode":"fr",
         "tournamentRegionName":"France",
         "regionCode":"fr",
         "tournamentName":"Ligue 1",
         "tournamentShortName":"FL1",
         "firstName":"Denis",
         "lastName":"Bouanga",
         "playerId":249857,
         "isActive":true,
         "isOpta":true,
         "teamId":245,
         "teamName":"Nimes",
         "teamRegionName":"France",
         "playedPositions":"-AML-",
         "age":24,
         "height":180,
         "weight":71,
         "positionText":"Midfielder",
         "apps":13,
         "subOn":0,
         "minsPlayed":1102,
         "rating":6.93076923076923,
         "isManOfTheMatch":false,
         "playedPositionsShort":"AM(L)",
         "name":"Denis Bouanga",
         "interceptionAll":0.49001814882
      },
      {
         "ranking":203,
         "seasonId":7361,
         "seasonName":"2018/2019",
         "tournamentId":2,
         "tournamentRegionId":252,
         "tournamentRegionCode":"gb-eng",
         "tournamentRegionName":"England",
         "regionCode":"de",
         "tournamentName":"Premier League",
         "tournamentShortName":"EPL",
         "firstName":"Pascal",
         "lastName":"Groß",
         "playerId":71824,
         "isActive":true,
         "isOpta":true,
         "teamId":211,
         "teamName":"Brighton",
         "teamRegionName":"England",
         "playedPositions":"-MC-",
         "age":27,
         "height":181,
         "weight":78,
         "positionText":"Midfielder",
         "apps":12,
         "subOn":0,
         "minsPlayed":919,
         "rating":6.6166666666666663,
         "isManOfTheMatch":false,
         "playedPositionsShort":"M(C)",
         "name":"Pascal Groß",
         "interceptionAll":0.48966267682
      },
      {
         "ranking":204,
         "seasonId":7361,
         "seasonName":"2018/2019",
         "tournamentId":2,
         "tournamentRegionId":252,
         "tournamentRegionCode":"gb-eng",
         "tournamentRegionName":"England",
         "regionCode":"hr",
         "tournamentName":"Premier League",
         "tournamentShortName":"EPL",
         "firstName":"Mateo",
         "lastName":"Kovacic",
         "playerId":93894,
         "isActive":true,
         "isOpta":true,
         "teamId":15,
         "teamName":"Chelsea",
         "teamRegionName":"England",
         "playedPositions":"-MC-ML-",
         "age":24,
         "height":178,
         "weight":78,
         "positionText":"Midfielder",
         "apps":13,
         "subOn":0,
         "minsPlayed":925,
         "rating":6.8230769230769246,
         "isManOfTheMatch":false,
         "playedPositionsShort":"M(CL)",
         "name":"Mateo Kovacic",
         "interceptionAll":0.486486486485
      },
      {
         "ranking":205,
         "seasonId":7361,
         "seasonName":"2018/2019",
         "tournamentId":2,
         "tournamentRegionId":252,
         "tournamentRegionCode":"gb-eng",
         "tournamentRegionName":"England",
         "regionCode":"gb-eng",
         "tournamentName":"Premier League",
         "tournamentShortName":"EPL",
         "firstName":"Nathan",
         "lastName":"Redmond",
         "playerId":86425,
         "isActive":true,
         "isOpta":true,
         "teamId":18,
         "teamName":"Southampton",
         "teamRegionName":"England",
         "playedPositions":"-AMC-AML-AMR-FW-",
         "age":24,
         "height":173,
         "weight":69,
         "positionText":"Midfielder",
         "apps":19,
         "subOn":0,
         "minsPlayed":1666,
         "rating":6.7710526315789465,
         "isManOfTheMatch":false,
         "playedPositionsShort":"AM(CLR),FW",
         "name":"Nathan Redmond",
         "interceptionAll":0.486194477787
      },
      {
         "ranking":206,
         "seasonId":7361,
         "seasonName":"2018/2019",
         "tournamentId":2,
         "tournamentRegionId":252,
         "tournamentRegionCode":"gb-eng",
         "tournamentRegionName":"England",
         "regionCode":"gb-eng",
         "tournamentName":"Premier League",
         "tournamentShortName":"EPL",
         "firstName":"Jesse",
         "lastName":"Lingard",
         "playerId":109000,
         "isActive":true,
         "isOpta":true,
         "teamId":32,
         "teamName":"Manchester United",
         "teamRegionName":"England",
         "playedPositions":"-AMC-AML-AMR-",
         "age":26,
         "height":175,
         "weight":62,
         "positionText":"Midfielder",
         "apps":12,
         "subOn":0,
         "minsPlayed":932,
         "rating":6.9325,
         "isManOfTheMatch":false,
         "playedPositionsShort":"AM(CLR)",
         "name":"Jesse Lingard",
         "interceptionAll":0.482832618025
      },
      {
         "ranking":207,
         "seasonId":7405,
         "seasonName":"2018/2019",
         "tournamentId":3,
         "tournamentRegionId":81,
         "tournamentRegionCode":"de",
         "tournamentRegionName":"Germany",
         "regionCode":"de",
         "tournamentName":"Bundesliga",
         "tournamentShortName":"GB",
         "firstName":"Kai",
         "lastName":"Havertz",
         "playerId":326413,
         "isActive":true,
         "isOpta":true,
         "teamId":36,
         "teamName":"Bayer Leverkusen",
         "teamRegionName":"Germany",
         "playedPositions":"-MC-MR-",
         "age":19,
         "height":188,
         "weight":83,
         "positionText":"Midfielder",
         "apps":17,
         "subOn":0,
         "minsPlayed":1496,
         "rating":7.0905882352941179,
         "isManOfTheMatch":false,
         "playedPositionsShort":"M(CR)",
         "name":"Kai Havertz",
         "interceptionAll":0.481283422456
      },
      {
         "ranking":208,
         "seasonId":7344,
         "seasonName":"2018/2019",
         "tournamentId":22,
         "tournamentRegionId":74,
         "tournamentRegionCode":"fr",
         "tournamentRegionName":"France",
         "regionCode":"ci",
         "tournamentName":"Ligue 1",
         "tournamentShortName":"FL1",
         "firstName":"Nicolas",
         "lastName":"Pepe",
         "playerId":239872,
         "isActive":true,
         "isOpta":true,
         "teamId":607,
         "teamName":"Lille",
         "teamRegionName":"France",
         "playedPositions":"-AMR-FW-",
         "age":23,
         "height":183,
         "weight":73,
         "positionText":"Forward",
         "apps":19,
         "subOn":0,
         "minsPlayed":1700,
         "rating":7.445263157894737,
         "isManOfTheMatch":false,
         "playedPositionsShort":"AM(R),FW",
         "name":"Nicolas Pepe",
         "interceptionAll":0.47647058823
      },
      {
         "ranking":209,
         "seasonId":7405,
         "seasonName":"2018/2019",
         "tournamentId":3,
         "tournamentRegionId":81,
         "tournamentRegionCode":"de",
         "tournamentRegionName":"Germany",
         "regionCode":"de",
         "tournamentName":"Bundesliga",
         "tournamentShortName":"GB",
         "firstName":"Jonas",
         "lastName":"Hofmann",
         "playerId":115163,
         "isActive":true,
         "isOpta":true,
         "teamId":134,
         "teamName":"Borussia M.Gladbach",
         "teamRegionName":"Germany",
         "playedPositions":"-AMC-AML-AMR-",
         "age":26,
         "height":176,
         "weight":70,
         "positionText":"Midfielder",
         "apps":11,
         "subOn":0,
         "minsPlayed":963,
         "rating":7.1272727272727261,
         "isManOfTheMatch":false,
         "playedPositionsShort":"AM(CLR)",
         "name":"Jonas Hofmann",
         "interceptionAll":0.467289719625
      },
      {
         "ranking":210,
         "seasonId":7468,
         "seasonName":"2018/2019",
         "tournamentId":5,
         "tournamentRegionId":108,
         "tournamentRegionCode":"it",
         "tournamentRegionName":"Italy",
         "regionCode":"si",
         "tournamentName":"Serie A",
         "tournamentShortName":"ISA",
         "firstName":"Miha",
         "lastName":"Zajc",
         "playerId":120601,
         "isActive":true,
         "isOpta":true,
         "teamId":272,
         "teamName":"Empoli",
         "teamRegionName":"Italy",
         "playedPositions":"-AMC-",
         "age":24,
         "height":180,
         "weight":76,
         "positionText":"Midfielder",
         "apps":10,
         "subOn":0,
         "minsPlayed":774,
         "rating":6.814,
         "isManOfTheMatch":false,
         "playedPositionsShort":"AM(C)",
         "name":"Miha Zajc",
         "interceptionAll":0.465116279068
      }
   ],
   "paging":{
      "currentPage":21,
      "totalPages":25,
      "resultsPerPage":10,
      "totalResults":246,
      "firstRecordIndex":201,
      "lastRecordIndex":210
   },
   "statColumns":[
      "apps",
      "subOn",
      "minsPlayed",
      "interceptionAll"
   ]
}