{
   "playerTableStats":[
      {
         "ranking":91,
         "seasonId":7344,
         "seasonName":"2018/2019",
         "tournamentId":22,
         "tournamentRegionId":74,
         "tournamentRegionCode":"fr",
         "tournamentRegionName":"France",
         "regionCode":"fr",
         "tournamentName":"Ligue 1",
         "tournamentShortName":"FL1",
         "firstName":"Ibrahima",
         "lastName":"Sissoko",
         "playerId":306766,
         "isActive":true,
         "isOpta":true,
         "teamId":148,
         "teamName":"Strasbourg",
         "teamRegionName":"France",
         "playedPositions":"-DMC-",
         "age":21,
         "height":193,
         "weight":88,
         "positionText":"Midfielder",
         "apps":17,
         "subOn":0,
         "minsPlayed":1492,
         "rating":6.8764705882352946,
         "isManOfTheMatch":false,
         "playedPositionsShort":"DMC",
         "name":"Ibrahima Sissoko",
         "interceptionAll":1.146112600523
      },
      {
         "ranking":92,
         "seasonId":7361,
         "seasonName":"2018/2019",
         "tournamentId":2,
         "tournamentRegionId":252,
         "tournamentRegionCode":"gb-eng",
         "tournamentRegionName":"England",
         "regionCode":"br",
         "tournamentName":"Premier League",
         "tournamentShortName":"EPL",
         "firstName":"Lucas",
         "lastName":"Rodrigues Moura da Silva",
         "playerId":92508,
         "isActive":true,
         "isOpta":true,
         "teamId":30,
         "teamName":"Tottenham",
         "teamRegionName":"England",
         "playedPositions":"-AMC-AML-AMR-FW-",
         "age":26,
         "height":172,
         "weight":72,
         "positionText":"Midfielder",
         "apps":10,
         "subOn":0,
         "minsPlayed":786,
         "rating":7.0240000000000009,
         "isManOfTheMatch":false,
         "playedPositionsShort":"AM(CLR),FW",
         "name":"Lucas Moura",
         "interceptionAll":1.14503816793
      },
      {
         "ranking":93,
         "seasonId":7344,
         "seasonName":"2018/2019",
         "tournamentId":22,
         "tournamentRegionId":74,
         "tournamentRegionCode":"fr",
         "tournamentRegionName":"France",
         "regionCode":"fr",
         "tournamentName":"Ligue 1",
         "tournamentShortName":"FL1",
         "firstName":"Remi",
         "lastName":"Oudin",
         "playerId":322421,
         "isActive":true,
         "isOpta":true,
         "teamId":950,
         "teamName":"Reims",
         "teamRegionName":"France",
         "playedPositions":"-AMR-",
         "age":22,
         "height":185,
         "weight":79,
         "positionText":"Midfielder",
         "apps":15,
         "subOn":0,
         "minsPlayed":1102,
         "rating":6.7186666666666666,
         "isManOfTheMatch":false,
         "playedPositionsShort":"AM(R)",
         "name":"Remi Oudin",
         "interceptionAll":1.14337568058
      },
      {
         "ranking":94,
         "seasonId":7361,
         "seasonName":"2018/2019",
         "tournamentId":2,
         "tournamentRegionId":252,
         "tournamentRegionCode":"gb-eng",
         "tournamentRegionName":"England",
         "regionCode":"it",
         "tournamentName":"Premier League",
         "tournamentShortName":"EPL",
         "firstName":"Jorge Luiz",
         "lastName":"Frello Filho",
         "playerId":106968,
         "isActive":true,
         "isOpta":true,
         "teamId":15,
         "teamName":"Chelsea",
         "teamRegionName":"England",
         "playedPositions":"-DMC-",
         "age":27,
         "height":180,
         "weight":65,
         "positionText":"Midfielder",
         "apps":20,
         "subOn":0,
         "minsPlayed":1737,
         "rating":6.8629999999999995,
         "isManOfTheMatch":false,
         "playedPositionsShort":"DMC",
         "name":"Jorginho",
         "interceptionAll":1.139896373044
      },
      {
         "ranking":95,
         "seasonId":7468,
         "seasonName":"2018/2019",
         "tournamentId":5,
         "tournamentRegionId":108,
         "tournamentRegionCode":"it",
         "tournamentRegionName":"Italy",
         "regionCode":"gh",
         "tournamentName":"Serie A",
         "tournamentShortName":"ISA",
         "firstName":"Raman",
         "lastName":"Chibsah",
         "playerId":121023,
         "isActive":true,
         "isOpta":true,
         "teamId":2732,
         "teamName":"Frosinone",
         "teamRegionName":"Italy",
         "playedPositions":"-MC-",
         "age":25,
         "height":177,
         "weight":72,
         "positionText":"Midfielder",
         "apps":19,
         "subOn":0,
         "minsPlayed":1662,
         "rating":6.477368421052633,
         "isManOfTheMatch":false,
         "playedPositionsShort":"M(C)",
         "name":"Raman Chibsah",
         "interceptionAll":1.137184115508
      },
      {
         "ranking":96,
         "seasonId":7468,
         "seasonName":"2018/2019",
         "tournamentId":5,
         "tournamentRegionId":108,
         "tournamentRegionCode":"it",
         "tournamentRegionName":"Italy",
         "regionCode":"ci",
         "tournamentName":"Serie A",
         "tournamentShortName":"ISA",
         "firstName":"Seko",
         "lastName":"Fofana",
         "playerId":254562,
         "isActive":true,
         "isOpta":true,
         "teamId":86,
         "teamName":"Udinese",
         "teamRegionName":"Italy",
         "playedPositions":"-MC-",
         "age":23,
         "height":183,
         "weight":74,
         "positionText":"Midfielder",
         "apps":19,
         "subOn":0,
         "minsPlayed":1668,
         "rating":6.7221052631578946,
         "isManOfTheMatch":false,
         "playedPositionsShort":"M(C)",
         "name":"Seko Fofana",
         "interceptionAll":1.133093525172
      },
      {
         "ranking":97,
         "seasonId":7466,
         "seasonName":"2018/2019",
         "tournamentId":4,
         "tournamentRegionId":206,
         "tournamentRegionCode":"es",
         "tournamentRegionName":"Spain",
         "regionCode":"es",
         "tournamentName":"La Liga",
         "tournamentShortName":"SLL",
         "firstName":"Marc",
         "lastName":"Roca",
         "playerId":323148,
         "isActive":true,
         "isOpta":true,
         "teamId":70,
         "teamName":"Espanyol",
         "teamRegionName":"Spain",
         "playedPositions":"-DMC-",
         "age":22,
         "height":184,
         "weight":74,
         "positionText":"Midfielder",
         "apps":16,
         "subOn":0,
         "minsPlayed":1430,
         "rating":6.8543749999999992,
         "isManOfTheMatch":false,
         "playedPositionsShort":"DMC",
         "name":"Marc Roca",
         "interceptionAll":1.1328671328659998
      },
      {
         "ranking":98,
         "seasonId":7405,
         "seasonName":"2018/2019",
         "tournamentId":3,
         "tournamentRegionId":81,
         "tournamentRegionCode":"de",
         "tournamentRegionName":"Germany",
         "regionCode":"de",
         "tournamentName":"Bundesliga",
         "tournamentShortName":"GB",
         "firstName":"Leonardo",
         "lastName":"Bittencourt",
         "playerId":100805,
         "isActive":true,
         "isOpta":true,
         "teamId":1211,
         "teamName":"Hoffenheim",
         "teamRegionName":"Germany",
         "playedPositions":"-AMC-AML-AMR-",
         "age":25,
         "height":171,
         "weight":63,
         "positionText":"Midfielder",
         "apps":10,
         "subOn":0,
         "minsPlayed":716,
         "rating":6.9620000000000006,
         "isManOfTheMatch":false,
         "playedPositionsShort":"AM(CLR)",
         "name":"Leonardo Bittencourt",
         "interceptionAll":1.131284916198
      },
      {
         "ranking":99,
         "seasonId":7466,
         "seasonName":"2018/2019",
         "tournamentId":4,
         "tournamentRegionId":206,
         "tournamentRegionCode":"es",
         "tournamentRegionName":"Spain",
         "regionCode":"sk",
         "tournamentName":"La Liga",
         "tournamentShortName":"SLL",
         "firstName":"Stanislav",
         "lastName":"Lobotka",
         "playerId":111892,
         "isActive":true,
         "isOpta":true,
         "teamId":62,
         "teamName":"Celta Vigo",
         "teamRegionName":"Spain",
         "playedPositions":"-DMC-",
         "age":24,
         "height":170,
         "weight":64,
         "positionText":"Midfielder",
         "apps":11,
         "subOn":0,
         "minsPlayed":955,
         "rating":6.664545454545455,
         "isManOfTheMatch":false,
         "playedPositionsShort":"DMC",
         "name":"Stanislav Lobotka",
         "interceptionAll":1.130890052352
      },
      {
         "ranking":100,
         "seasonId":7361,
         "seasonName":"2018/2019",
         "tournamentId":2,
         "tournamentRegionId":252,
         "tournamentRegionCode":"gb-eng",
         "tournamentRegionName":"England",
         "regionCode":"gb-eng",
         "tournamentName":"Premier League",
         "tournamentShortName":"EPL",
         "firstName":"Eric",
         "lastName":"Dier",
         "playerId":117973,
         "isActive":true,
         "isOpta":true,
         "teamId":30,
         "teamName":"Tottenham",
         "teamRegionName":"England",
         "playedPositions":"-DC-DMC-DR-",
         "age":24,
         "height":188,
         "weight":88,
         "positionText":"Midfielder",
         "apps":13,
         "subOn":0,
         "minsPlayed":1121,
         "rating":6.86,
         "isManOfTheMatch":false,
         "playedPositionsShort":"D(CR),DMC",
         "name":"Eric Dier",
         "interceptionAll":1.123996431754
      }
   ],
   "paging":{
      "currentPage":10,
      "totalPages":25,
      "resultsPerPage":10,
      "totalResults":246,
      "firstRecordIndex":91,
      "lastRecordIndex":100
   },
   "statColumns":[
      "apps",
      "subOn",
      "minsPlayed",
      "interceptionAll"
   ]
}