{
   "playerTableStats":[
      {
         "ranking":21,
         "seasonId":7405,
         "seasonName":"2018/2019",
         "tournamentId":3,
         "tournamentRegionId":81,
         "tournamentRegionCode":"de",
         "tournamentRegionName":"Germany",
         "regionCode":"ar",
         "tournamentName":"Bundesliga",
         "tournamentShortName":"GB",
         "firstName":"Santiago",
         "lastName":"Ascacibar",
         "playerId":303899,
         "isActive":true,
         "isOpta":true,
         "teamId":41,
         "teamName":"VfB Stuttgart",
         "teamRegionName":"Germany",
         "playedPositions":"-DMC-",
         "age":21,
         "height":168,
         "weight":70,
         "positionText":"Midfielder",
         "apps":16,
         "subOn":0,
         "minsPlayed":1440,
         "rating":6.60625,
         "isManOfTheMatch":false,
         "playedPositionsShort":"DMC",
         "name":"Santiago Ascacibar",
         "interceptionAll":1.875
      },
      {
         "ranking":22,
         "seasonId":7468,
         "seasonName":"2018/2019",
         "tournamentId":5,
         "tournamentRegionId":108,
         "tournamentRegionCode":"it",
         "tournamentRegionName":"Italy",
         "regionCode":"cl",
         "tournamentName":"Serie A",
         "tournamentShortName":"ISA",
         "firstName":"Erick",
         "lastName":"Pulgar",
         "playerId":117055,
         "isActive":true,
         "isOpta":true,
         "teamId":71,
         "teamName":"Bologna",
         "teamRegionName":"Italy",
         "playedPositions":"-DMC-",
         "age":24,
         "height":186,
         "weight":78,
         "positionText":"Midfielder",
         "apps":10,
         "subOn":0,
         "minsPlayed":866,
         "rating":6.606,
         "isManOfTheMatch":false,
         "playedPositionsShort":"DMC",
         "name":"Erick Pulgar",
         "interceptionAll":1.870669745946
      },
      {
         "ranking":23,
         "seasonId":7361,
         "seasonName":"2018/2019",
         "tournamentId":2,
         "tournamentRegionId":252,
         "tournamentRegionCode":"gb-eng",
         "tournamentRegionName":"England",
         "regionCode":"rs",
         "tournamentName":"Premier League",
         "tournamentShortName":"EPL",
         "firstName":"Luka",
         "lastName":"Milivojevic",
         "playerId":70493,
         "isActive":true,
         "isOpta":true,
         "teamId":162,
         "teamName":"Crystal Palace",
         "teamRegionName":"England",
         "playedPositions":"-DMC-",
         "age":27,
         "height":186,
         "weight":80,
         "positionText":"Midfielder",
         "apps":21,
         "subOn":0,
         "minsPlayed":1890,
         "rating":7.0895238095238078,
         "isManOfTheMatch":false,
         "playedPositionsShort":"DMC",
         "name":"Luka Milivojevic",
         "interceptionAll":1.857142857141
      },
      {
         "ranking":24,
         "seasonId":7468,
         "seasonName":"2018/2019",
         "tournamentId":5,
         "tournamentRegionId":108,
         "tournamentRegionCode":"it",
         "tournamentRegionName":"Italy",
         "regionCode":"fr",
         "tournamentName":"Serie A",
         "tournamentShortName":"ISA",
         "firstName":"Mehdi",
         "lastName":"Bourabia",
         "playerId":82109,
         "isActive":true,
         "isOpta":true,
         "teamId":2889,
         "teamName":"Sassuolo",
         "teamRegionName":"Italy",
         "playedPositions":"-MC-",
         "age":27,
         "height":183,
         "weight":73,
         "positionText":"Midfielder",
         "apps":11,
         "subOn":0,
         "minsPlayed":922,
         "rating":7.00090909090909,
         "isManOfTheMatch":false,
         "playedPositionsShort":"M(C)",
         "name":"Mehdi Bourabia",
         "interceptionAll":1.854663774397
      },
      {
         "ranking":25,
         "seasonId":7405,
         "seasonName":"2018/2019",
         "tournamentId":3,
         "tournamentRegionId":81,
         "tournamentRegionCode":"de",
         "tournamentRegionName":"Germany",
         "regionCode":"de",
         "tournamentName":"Bundesliga",
         "tournamentShortName":"GB",
         "firstName":"Robin",
         "lastName":"Koch",
         "playerId":276205,
         "isActive":true,
         "isOpta":true,
         "teamId":50,
         "teamName":"Freiburg",
         "teamRegionName":"Germany",
         "playedPositions":"-DC-DMC-",
         "age":22,
         "height":192,
         "weight":85,
         "positionText":"Defender",
         "apps":11,
         "subOn":0,
         "minsPlayed":990,
         "rating":6.9972727272727271,
         "isManOfTheMatch":false,
         "playedPositionsShort":"D(C),DMC",
         "name":"Robin Koch",
         "interceptionAll":1.81818181818
      },
      {
         "ranking":26,
         "seasonId":7361,
         "seasonName":"2018/2019",
         "tournamentId":2,
         "tournamentRegionId":252,
         "tournamentRegionCode":"gb-eng",
         "tournamentRegionName":"England",
         "regionCode":"nl",
         "tournamentName":"Premier League",
         "tournamentShortName":"EPL",
         "firstName":"Davy",
         "lastName":"Pröpper",
         "playerId":77429,
         "isActive":true,
         "isOpta":true,
         "teamId":211,
         "teamName":"Brighton",
         "teamRegionName":"England",
         "playedPositions":"-MC-",
         "age":27,
         "height":185,
         "weight":79,
         "positionText":"Midfielder",
         "apps":17,
         "subOn":0,
         "minsPlayed":1504,
         "rating":6.6670588235294117,
         "isManOfTheMatch":false,
         "playedPositionsShort":"M(C)",
         "name":"Davy Pröpper",
         "interceptionAll":1.79521276593
      },
      {
         "ranking":27,
         "seasonId":7468,
         "seasonName":"2018/2019",
         "tournamentId":5,
         "tournamentRegionId":108,
         "tournamentRegionCode":"it",
         "tournamentRegionName":"Italy",
         "regionCode":"it",
         "tournamentName":"Serie A",
         "tournamentShortName":"ISA",
         "firstName":"Manuel",
         "lastName":"Locatelli",
         "playerId":273539,
         "isActive":true,
         "isOpta":true,
         "teamId":2889,
         "teamName":"Sassuolo",
         "teamRegionName":"Italy",
         "playedPositions":"-MC-",
         "age":21,
         "height":185,
         "weight":75,
         "positionText":"Midfielder",
         "apps":10,
         "subOn":0,
         "minsPlayed":819,
         "rating":6.8459999999999992,
         "isManOfTheMatch":false,
         "playedPositionsShort":"M(C)",
         "name":"Manuel Locatelli",
         "interceptionAll":1.75824175824
      },
      {
         "ranking":28,
         "seasonId":7466,
         "seasonName":"2018/2019",
         "tournamentId":4,
         "tournamentRegionId":206,
         "tournamentRegionCode":"es",
         "tournamentRegionName":"Spain",
         "regionCode":null,
         "tournamentName":"La Liga",
         "tournamentShortName":"SLL",
         "firstName":"Santiago",
         "lastName":"Comesaña",
         "playerId":362735,
         "isActive":true,
         "isOpta":true,
         "teamId":64,
         "teamName":"Rayo Vallecano",
         "teamRegionName":"Spain",
         "playedPositions":"-DMC-",
         "age":22,
         "height":184,
         "weight":75,
         "positionText":"Midfielder",
         "apps":15,
         "subOn":0,
         "minsPlayed":1299,
         "rating":6.7446666666666681,
         "isManOfTheMatch":false,
         "playedPositionsShort":"DMC",
         "name":"Santiago Comesaña",
         "interceptionAll":1.732101616625
      },
      {
         "ranking":29,
         "seasonId":7468,
         "seasonName":"2018/2019",
         "tournamentId":5,
         "tournamentRegionId":108,
         "tournamentRegionCode":"it",
         "tournamentRegionName":"Italy",
         "regionCode":"uy",
         "tournamentName":"Serie A",
         "tournamentShortName":"ISA",
         "firstName":"Rodrigo",
         "lastName":"Bentancur",
         "playerId":303657,
         "isActive":true,
         "isOpta":true,
         "teamId":87,
         "teamName":"Juventus",
         "teamRegionName":"Italy",
         "playedPositions":"-MC-",
         "age":21,
         "height":187,
         "weight":72,
         "positionText":"Midfielder",
         "apps":12,
         "subOn":0,
         "minsPlayed":1009,
         "rating":7.03,
         "isManOfTheMatch":false,
         "playedPositionsShort":"M(C)",
         "name":"Rodrigo Bentancur",
         "interceptionAll":1.694747274525
      },
      {
         "ranking":30,
         "seasonId":7344,
         "seasonName":"2018/2019",
         "tournamentId":22,
         "tournamentRegionId":74,
         "tournamentRegionCode":"fr",
         "tournamentRegionName":"France",
         "regionCode":"fr",
         "tournamentName":"Ligue 1",
         "tournamentShortName":"FL1",
         "firstName":"Abdoulaye",
         "lastName":"Touré",
         "playerId":128880,
         "isActive":true,
         "isOpta":true,
         "teamId":302,
         "teamName":"Nantes",
         "teamRegionName":"France",
         "playedPositions":"-DMC-",
         "age":24,
         "height":186,
         "weight":88,
         "positionText":"Midfielder",
         "apps":12,
         "subOn":0,
         "minsPlayed":1068,
         "rating":7.0166666666666666,
         "isManOfTheMatch":false,
         "playedPositionsShort":"DMC",
         "name":"Abdoulaye Touré",
         "interceptionAll":1.68539325842
      }
   ],
   "paging":{
      "currentPage":3,
      "totalPages":25,
      "resultsPerPage":10,
      "totalResults":246,
      "firstRecordIndex":21,
      "lastRecordIndex":30
   },
   "statColumns":[
      "apps",
      "subOn",
      "minsPlayed",
      "interceptionAll"
   ]
}