{
   "playerTableStats":[
      {
         "ranking":81,
         "seasonId":7468,
         "seasonName":"2018/2019",
         "tournamentId":5,
         "tournamentRegionId":108,
         "tournamentRegionCode":"it",
         "tournamentRegionName":"Italy",
         "regionCode":"it",
         "tournamentName":"Serie A",
         "tournamentShortName":"ISA",
         "firstName":"Bryan",
         "lastName":"Cristante",
         "playerId":109149,
         "isActive":true,
         "isOpta":true,
         "teamId":84,
         "teamName":"Roma",
         "teamRegionName":"Italy",
         "playedPositions":"-MC-",
         "age":23,
         "height":186,
         "weight":80,
         "positionText":"Midfielder",
         "apps":12,
         "subOn":0,
         "minsPlayed":969,
         "rating":7.1608333333333327,
         "isManOfTheMatch":false,
         "playedPositionsShort":"M(C)",
         "name":"Bryan Cristante",
         "interceptionAll":1.207430340545
      },
      {
         "ranking":82,
         "seasonId":7468,
         "seasonName":"2018/2019",
         "tournamentId":5,
         "tournamentRegionId":108,
         "tournamentRegionCode":"it",
         "tournamentRegionName":"Italy",
         "regionCode":"it",
         "tournamentName":"Serie A",
         "tournamentShortName":"ISA",
         "firstName":"Rolando",
         "lastName":"Mandragora",
         "playerId":241020,
         "isActive":true,
         "isOpta":true,
         "teamId":86,
         "teamName":"Udinese",
         "teamRegionName":"Italy",
         "playedPositions":"-MC-",
         "age":21,
         "height":183,
         "weight":76,
         "positionText":"Midfielder",
         "apps":17,
         "subOn":0,
         "minsPlayed":1496,
         "rating":6.7335294117647067,
         "isManOfTheMatch":false,
         "playedPositionsShort":"M(C)",
         "name":"Rolando Mandragora",
         "interceptionAll":1.2032085561399999
      },
      {
         "ranking":83,
         "seasonId":7344,
         "seasonName":"2018/2019",
         "tournamentId":22,
         "tournamentRegionId":74,
         "tournamentRegionCode":"fr",
         "tournamentRegionName":"France",
         "regionCode":"fr",
         "tournamentName":"Ligue 1",
         "tournamentShortName":"FL1",
         "firstName":"Lucas",
         "lastName":"Tousart",
         "playerId":300705,
         "isActive":true,
         "isOpta":true,
         "teamId":228,
         "teamName":"Lyon",
         "teamRegionName":"France",
         "playedPositions":"-DMC-",
         "age":21,
         "height":185,
         "weight":83,
         "positionText":"Midfielder",
         "apps":12,
         "subOn":0,
         "minsPlayed":973,
         "rating":6.8475,
         "isManOfTheMatch":false,
         "playedPositionsShort":"DMC",
         "name":"Lucas Tousart",
         "interceptionAll":1.2024665981379998
      },
      {
         "ranking":84,
         "seasonId":7405,
         "seasonName":"2018/2019",
         "tournamentId":3,
         "tournamentRegionId":81,
         "tournamentRegionCode":"de",
         "tournamentRegionName":"Germany",
         "regionCode":"de",
         "tournamentName":"Bundesliga",
         "tournamentShortName":"GB",
         "firstName":"Suat",
         "lastName":"Serdar",
         "playerId":296119,
         "isActive":true,
         "isOpta":true,
         "teamId":39,
         "teamName":"Schalke 04",
         "teamRegionName":"Germany",
         "playedPositions":"-MC-",
         "age":21,
         "height":184,
         "weight":75,
         "positionText":"Midfielder",
         "apps":10,
         "subOn":0,
         "minsPlayed":751,
         "rating":6.694,
         "isManOfTheMatch":false,
         "playedPositionsShort":"M(C)",
         "name":"Suat Serdar",
         "interceptionAll":1.1984021304899999
      },
      {
         "ranking":85,
         "seasonId":7344,
         "seasonName":"2018/2019",
         "tournamentId":22,
         "tournamentRegionId":74,
         "tournamentRegionCode":"fr",
         "tournamentRegionName":"France",
         "regionCode":"fr",
         "tournamentName":"Ligue 1",
         "tournamentShortName":"FL1",
         "firstName":"Eddy",
         "lastName":"Gnahore",
         "playerId":110127,
         "isActive":true,
         "isOpta":true,
         "teamId":151,
         "teamName":"Amiens",
         "teamRegionName":"France",
         "playedPositions":"-DMC-",
         "age":25,
         "height":187,
         "weight":85,
         "positionText":"Midfielder",
         "apps":15,
         "subOn":0,
         "minsPlayed":1291,
         "rating":6.6819999999999995,
         "isManOfTheMatch":false,
         "playedPositionsShort":"DMC",
         "name":"Eddy Gnahore",
         "interceptionAll":1.185127807888
      },
      {
         "ranking":86,
         "seasonId":7405,
         "seasonName":"2018/2019",
         "tournamentId":3,
         "tournamentRegionId":81,
         "tournamentRegionCode":"de",
         "tournamentRegionName":"Germany",
         "regionCode":"ci",
         "tournamentName":"Bundesliga",
         "tournamentShortName":"GB",
         "firstName":"Jean-Philippe",
         "lastName":"Gbamin",
         "playerId":129758,
         "isActive":true,
         "isOpta":true,
         "teamId":219,
         "teamName":"Mainz 05",
         "teamRegionName":"Germany",
         "playedPositions":"-DC-DMC-DR-",
         "age":23,
         "height":186,
         "weight":83,
         "positionText":"Midfielder",
         "apps":15,
         "subOn":0,
         "minsPlayed":1300,
         "rating":6.6566666666666672,
         "isManOfTheMatch":false,
         "playedPositionsShort":"D(CR),DMC",
         "name":"Jean-Philippe Gbamin",
         "interceptionAll":1.17692307691
      },
      {
         "ranking":87,
         "seasonId":7344,
         "seasonName":"2018/2019",
         "tournamentId":22,
         "tournamentRegionId":74,
         "tournamentRegionCode":"fr",
         "tournamentRegionName":"France",
         "regionCode":"fr",
         "tournamentName":"Ligue 1",
         "tournamentShortName":"FL1",
         "firstName":"Ludovic",
         "lastName":"Blas",
         "playerId":299562,
         "isActive":true,
         "isOpta":true,
         "teamId":426,
         "teamName":"Guingamp",
         "teamRegionName":"France",
         "playedPositions":"-MC-ML-MR-",
         "age":21,
         "height":180,
         "weight":73,
         "positionText":"Midfielder",
         "apps":14,
         "subOn":0,
         "minsPlayed":1163,
         "rating":6.7228571428571424,
         "isManOfTheMatch":false,
         "playedPositionsShort":"M(CLR)",
         "name":"Ludovic Blas",
         "interceptionAll":1.160791057605
      },
      {
         "ranking":88,
         "seasonId":7468,
         "seasonName":"2018/2019",
         "tournamentId":5,
         "tournamentRegionId":108,
         "tournamentRegionCode":"it",
         "tournamentRegionName":"Italy",
         "regionCode":"be",
         "tournamentName":"Serie A",
         "tournamentShortName":"ISA",
         "firstName":"Dennis",
         "lastName":"Praet",
         "playerId":106413,
         "isActive":true,
         "isOpta":true,
         "teamId":271,
         "teamName":"Sampdoria",
         "teamRegionName":"Italy",
         "playedPositions":"-AMC-",
         "age":24,
         "height":181,
         "weight":78,
         "positionText":"Midfielder",
         "apps":15,
         "subOn":0,
         "minsPlayed":1242,
         "rating":6.998,
         "isManOfTheMatch":false,
         "playedPositionsShort":"AM(C)",
         "name":"Dennis Praet",
         "interceptionAll":1.15942028984
      },
      {
         "ranking":89,
         "seasonId":7468,
         "seasonName":"2018/2019",
         "tournamentId":5,
         "tournamentRegionId":108,
         "tournamentRegionCode":"it",
         "tournamentRegionName":"Italy",
         "regionCode":"ch",
         "tournamentName":"Serie A",
         "tournamentShortName":"ISA",
         "firstName":"Remo",
         "lastName":"Freuler",
         "playerId":302691,
         "isActive":true,
         "isOpta":true,
         "teamId":300,
         "teamName":"Atalanta",
         "teamRegionName":"Italy",
         "playedPositions":"-DMC-",
         "age":26,
         "height":181,
         "weight":77,
         "positionText":"Midfielder",
         "apps":18,
         "subOn":0,
         "minsPlayed":1567,
         "rating":7.0100000000000007,
         "isManOfTheMatch":false,
         "playedPositionsShort":"DMC",
         "name":"Remo Freuler",
         "interceptionAll":1.1486917677
      },
      {
         "ranking":90,
         "seasonId":7405,
         "seasonName":"2018/2019",
         "tournamentId":3,
         "tournamentRegionId":81,
         "tournamentRegionCode":"de",
         "tournamentRegionName":"Germany",
         "regionCode":"de",
         "tournamentName":"Bundesliga",
         "tournamentShortName":"GB",
         "firstName":"Diego",
         "lastName":"Demme",
         "playerId":133886,
         "isActive":true,
         "isOpta":true,
         "teamId":7614,
         "teamName":"RasenBallsport Leipzig",
         "teamRegionName":"Germany",
         "playedPositions":"-DMC-",
         "age":27,
         "height":170,
         "weight":68,
         "positionText":"Midfielder",
         "apps":17,
         "subOn":0,
         "minsPlayed":1491,
         "rating":7.0535294117647052,
         "isManOfTheMatch":false,
         "playedPositionsShort":"DMC",
         "name":"Diego Demme",
         "interceptionAll":1.146881287722
      }
   ],
   "paging":{
      "currentPage":9,
      "totalPages":25,
      "resultsPerPage":10,
      "totalResults":246,
      "firstRecordIndex":81,
      "lastRecordIndex":90
   },
   "statColumns":[
      "apps",
      "subOn",
      "minsPlayed",
      "interceptionAll"
   ]
}