{
   "playerTableStats":[
      {
         "ranking":51,
         "seasonId":7344,
         "seasonName":"2018/2019",
         "tournamentId":22,
         "tournamentRegionId":74,
         "tournamentRegionCode":"fr",
         "tournamentRegionName":"France",
         "regionCode":"fr",
         "tournamentName":"Ligue 1",
         "tournamentShortName":"FL1",
         "firstName":"Téji",
         "lastName":"Savanier",
         "playerId":234377,
         "isActive":true,
         "isOpta":true,
         "teamId":245,
         "teamName":"Nimes",
         "teamRegionName":"France",
         "playedPositions":"-MC-",
         "age":27,
         "height":171,
         "weight":62,
         "positionText":"Midfielder",
         "apps":13,
         "subOn":0,
         "minsPlayed":1170,
         "rating":7.7476923076923088,
         "isManOfTheMatch":false,
         "playedPositionsShort":"M(C)",
         "name":"Téji Savanier",
         "interceptionAll":1.461538461537
      },
      {
         "ranking":52,
         "seasonId":7344,
         "seasonName":"2018/2019",
         "tournamentId":22,
         "tournamentRegionId":74,
         "tournamentRegionCode":"fr",
         "tournamentRegionName":"France",
         "regionCode":"br",
         "tournamentName":"Ligue 1",
         "tournamentShortName":"FL1",
         "firstName":"Thiago Henrique",
         "lastName":"Mendes Ribeiro",
         "playerId":117776,
         "isActive":true,
         "isOpta":true,
         "teamId":607,
         "teamName":"Lille",
         "teamRegionName":"France",
         "playedPositions":"-DR-MC-MR-",
         "age":26,
         "height":176,
         "weight":78,
         "positionText":"Midfielder",
         "apps":17,
         "subOn":0,
         "minsPlayed":1479,
         "rating":7.2258823529411762,
         "isManOfTheMatch":false,
         "playedPositionsShort":"D(R),M(CR)",
         "name":"Thiago Mendes",
         "interceptionAll":1.460446247448
      },
      {
         "ranking":53,
         "seasonId":7344,
         "seasonName":"2018/2019",
         "tournamentId":22,
         "tournamentRegionId":74,
         "tournamentRegionCode":"fr",
         "tournamentRegionName":"France",
         "regionCode":"fr",
         "tournamentName":"Ligue 1",
         "tournamentShortName":"FL1",
         "firstName":"Benjamin",
         "lastName":"Bourigeaud",
         "playerId":129282,
         "isActive":true,
         "isOpta":true,
         "teamId":313,
         "teamName":"Rennes",
         "teamRegionName":"France",
         "playedPositions":"-MC-ML-MR-",
         "age":24,
         "height":178,
         "weight":68,
         "positionText":"Midfielder",
         "apps":13,
         "subOn":0,
         "minsPlayed":1057,
         "rating":6.7523076923076939,
         "isManOfTheMatch":false,
         "playedPositionsShort":"M(CLR)",
         "name":"Benjamin Bourigeaud",
         "interceptionAll":1.447492904446
      },
      {
         "ranking":54,
         "seasonId":7361,
         "seasonName":"2018/2019",
         "tournamentId":2,
         "tournamentRegionId":252,
         "tournamentRegionCode":"gb-eng",
         "tournamentRegionName":"England",
         "regionCode":"fr",
         "tournamentName":"Premier League",
         "tournamentShortName":"EPL",
         "firstName":"N'Golo",
         "lastName":"Kanté",
         "playerId":114075,
         "isActive":true,
         "isOpta":true,
         "teamId":15,
         "teamName":"Chelsea",
         "teamRegionName":"England",
         "playedPositions":"-DMC-",
         "age":27,
         "height":168,
         "weight":68,
         "positionText":"Midfielder",
         "apps":21,
         "subOn":0,
         "minsPlayed":1877,
         "rating":7.0185714285714305,
         "isManOfTheMatch":false,
         "playedPositionsShort":"DMC",
         "name":"N'Golo Kanté",
         "interceptionAll":1.4384656366500002
      },
      {
         "ranking":55,
         "seasonId":7361,
         "seasonName":"2018/2019",
         "tournamentId":2,
         "tournamentRegionId":252,
         "tournamentRegionCode":"gb-eng",
         "tournamentRegionName":"England",
         "regionCode":"gb-eng",
         "tournamentName":"Premier League",
         "tournamentShortName":"EPL",
         "firstName":"Declan",
         "lastName":"Rice",
         "playerId":332325,
         "isActive":true,
         "isOpta":true,
         "teamId":29,
         "teamName":"West Ham",
         "teamRegionName":"England",
         "playedPositions":"-DC-DMC-",
         "age":19,
         "height":185,
         "weight":76,
         "positionText":"Midfielder",
         "apps":18,
         "subOn":0,
         "minsPlayed":1576,
         "rating":6.8999999999999986,
         "isManOfTheMatch":false,
         "playedPositionsShort":"D(C),DMC",
         "name":"Declan Rice",
         "interceptionAll":1.4276649746
      },
      {
         "ranking":56,
         "seasonId":7344,
         "seasonName":"2018/2019",
         "tournamentId":22,
         "tournamentRegionId":74,
         "tournamentRegionCode":"fr",
         "tournamentRegionName":"France",
         "regionCode":"fr",
         "tournamentName":"Ligue 1",
         "tournamentShortName":"FL1",
         "firstName":"Baptiste",
         "lastName":"Santamaría",
         "playerId":236558,
         "isActive":true,
         "isOpta":true,
         "teamId":614,
         "teamName":"Angers",
         "teamRegionName":"France",
         "playedPositions":"-DMC-",
         "age":23,
         "height":183,
         "weight":73,
         "positionText":"Midfielder",
         "apps":17,
         "subOn":0,
         "minsPlayed":1463,
         "rating":6.6400000000000006,
         "isManOfTheMatch":false,
         "playedPositionsShort":"DMC",
         "name":"Baptiste Santamaría",
         "interceptionAll":1.414900888574
      },
      {
         "ranking":57,
         "seasonId":7344,
         "seasonName":"2018/2019",
         "tournamentId":22,
         "tournamentRegionId":74,
         "tournamentRegionCode":"fr",
         "tournamentRegionName":"France",
         "regionCode":"fr",
         "tournamentName":"Ligue 1",
         "tournamentShortName":"FL1",
         "firstName":"Thomas",
         "lastName":"Monconduit",
         "playerId":100869,
         "isActive":true,
         "isOpta":true,
         "teamId":151,
         "teamName":"Amiens",
         "teamRegionName":"France",
         "playedPositions":"-DMC-",
         "age":27,
         "height":184,
         "weight":83,
         "positionText":"Midfielder",
         "apps":15,
         "subOn":0,
         "minsPlayed":1337,
         "rating":6.826,
         "isManOfTheMatch":false,
         "playedPositionsShort":"DMC",
         "name":"Thomas Monconduit",
         "interceptionAll":1.413612565428
      },
      {
         "ranking":58,
         "seasonId":7468,
         "seasonName":"2018/2019",
         "tournamentId":5,
         "tournamentRegionId":108,
         "tournamentRegionCode":"it",
         "tournamentRegionName":"Italy",
         "regionCode":"hr",
         "tournamentName":"Serie A",
         "tournamentShortName":"ISA",
         "firstName":"Marcelo",
         "lastName":"Brozovic",
         "playerId":87449,
         "isActive":true,
         "isOpta":true,
         "teamId":75,
         "teamName":"Inter",
         "teamRegionName":"Italy",
         "playedPositions":"-MC-MR-",
         "age":26,
         "height":181,
         "weight":68,
         "positionText":"Midfielder",
         "apps":15,
         "subOn":0,
         "minsPlayed":1343,
         "rating":7.2260000000000009,
         "isManOfTheMatch":false,
         "playedPositionsShort":"M(CR)",
         "name":"Marcelo Brozovic",
         "interceptionAll":1.4072970960509998
      },
      {
         "ranking":59,
         "seasonId":7361,
         "seasonName":"2018/2019",
         "tournamentId":2,
         "tournamentRegionId":252,
         "tournamentRegionCode":"gb-eng",
         "tournamentRegionName":"England",
         "regionCode":"es",
         "tournamentName":"Premier League",
         "tournamentShortName":"EPL",
         "firstName":"Ayoze",
         "lastName":"Pérez Gutiérrez",
         "playerId":135366,
         "isActive":true,
         "isOpta":true,
         "teamId":23,
         "teamName":"Newcastle United",
         "teamRegionName":"England",
         "playedPositions":"-AMC-AML-AMR-FW-",
         "age":25,
         "height":178,
         "weight":72,
         "positionText":"Forward",
         "apps":17,
         "subOn":0,
         "minsPlayed":1410,
         "rating":6.7541176470588233,
         "isManOfTheMatch":false,
         "playedPositionsShort":"AM(CLR),FW",
         "name":"Ayoze Pérez",
         "interceptionAll":1.404255319148
      },
      {
         "ranking":60,
         "seasonId":7466,
         "seasonName":"2018/2019",
         "tournamentId":4,
         "tournamentRegionId":206,
         "tournamentRegionCode":"es",
         "tournamentRegionName":"Spain",
         "regionCode":"es",
         "tournamentName":"La Liga",
         "tournamentShortName":"SLL",
         "firstName":"Rodrigo",
         "lastName":"Hernández",
         "playerId":303139,
         "isActive":true,
         "isOpta":true,
         "teamId":63,
         "teamName":"Atletico Madrid",
         "teamRegionName":"Spain",
         "playedPositions":"-DMC-",
         "age":22,
         "height":191,
         "weight":82,
         "positionText":"Midfielder",
         "apps":15,
         "subOn":0,
         "minsPlayed":1224,
         "rating":7.3546666666666658,
         "isManOfTheMatch":false,
         "playedPositionsShort":"DMC",
         "name":"Rodrigo",
         "interceptionAll":1.3970588235160002
      }
   ],
   "paging":{
      "currentPage":6,
      "totalPages":25,
      "resultsPerPage":10,
      "totalResults":246,
      "firstRecordIndex":51,
      "lastRecordIndex":60
   },
   "statColumns":[
      "apps",
      "subOn",
      "minsPlayed",
      "interceptionAll"
   ]
}