{
   "playerTableStats":[
      {
         "height":185,
         "weight":84,
         "age":26,
         "isManOfTheMatch":false,
         "isActive":true,
         "playedPositions":"-DMC-",
         "playedPositionsShort":"DMC",
         "teamRegionName":"Spain",
         "regionCode":"br",
         "tournamentShortName":"SLL",
         "apps":12,
         "subOn":0,
         "name":"Casemiro",
         "firstName":"Carlos Henrique Jose",
         "lastName":"Francisco Venancio",
         "playerId":88526,
         "positionText":"Midfielder",
         "teamId":52,
         "teamName":"Real Madrid",
         "seasonId":7466,
         "seasonName":"2018/2019",
         "isOpta":true,
         "tournamentId":4,
         "tournamentRegionId":206,
         "tournamentRegionCode":"es",
         "tournamentRegionName":"Spain",
         "tournamentName":"La Liga",
         "rating":7.0225000000000017,
         "minsPlayed":914,
         "interceptionAll":1.673960612678,
         "ranking":31
      },
      {
         "height":180,
         "weight":73,
         "age":24,
         "isManOfTheMatch":false,
         "isActive":true,
         "playedPositions":"-MC-ML-MR-",
         "playedPositionsShort":"M(CLR)",
         "teamRegionName":"France",
         "regionCode":"fr",
         "tournamentShortName":"FL1",
         "apps":13,
         "subOn":0,
         "name":"Morgan Sanson",
         "firstName":"Morgan",
         "lastName":"Sanson",
         "playerId":115508,
         "positionText":"Midfielder",
         "teamId":249,
         "teamName":"Marseille",
         "seasonId":7344,
         "seasonName":"2018/2019",
         "isOpta":true,
         "tournamentId":22,
         "tournamentRegionId":74,
         "tournamentRegionCode":"fr",
         "tournamentRegionName":"France",
         "tournamentName":"Ligue 1",
         "rating":6.9861538461538464,
         "minsPlayed":1103,
         "interceptionAll":1.63191296464,
         "ranking":32
      },
      {
         "height":183,
         "weight":79,
         "age":20,
         "isManOfTheMatch":false,
         "isActive":true,
         "playedPositions":"-DMC-",
         "playedPositionsShort":"DMC",
         "teamRegionName":"Germany",
         "regionCode":"de",
         "tournamentShortName":"GB",
         "apps":16,
         "subOn":0,
         "name":"Arne Maier",
         "firstName":"Arne",
         "lastName":"Maier",
         "playerId":333350,
         "positionText":"Midfielder",
         "teamId":47,
         "teamName":"Hertha Berlin",
         "seasonId":7405,
         "seasonName":"2018/2019",
         "isOpta":true,
         "tournamentId":3,
         "tournamentRegionId":81,
         "tournamentRegionCode":"de",
         "tournamentRegionName":"Germany",
         "tournamentName":"Bundesliga",
         "rating":6.69375,
         "minsPlayed":1440,
         "interceptionAll":1.625,
         "ranking":33
      },
      {
         "height":185,
         "weight":73,
         "age":23,
         "isManOfTheMatch":false,
         "isActive":true,
         "playedPositions":"-DMC-",
         "playedPositionsShort":"DMC",
         "teamRegionName":"France",
         "regionCode":"tn",
         "tournamentShortName":"FL1",
         "apps":17,
         "subOn":0,
         "name":"Ellyes Skhiri",
         "firstName":"Ellyes",
         "lastName":"Skhiri",
         "playerId":238903,
         "positionText":"Midfielder",
         "teamId":311,
         "teamName":"Montpellier",
         "seasonId":7344,
         "seasonName":"2018/2019",
         "isOpta":true,
         "tournamentId":22,
         "tournamentRegionId":74,
         "tournamentRegionCode":"fr",
         "tournamentRegionName":"France",
         "tournamentName":"Ligue 1",
         "rating":6.9799999999999995,
         "minsPlayed":1500,
         "interceptionAll":1.6199999999999999,
         "ranking":34
      },
      {
         "height":178,
         "weight":85,
         "age":26,
         "isManOfTheMatch":false,
         "isActive":true,
         "playedPositions":"-DMC-",
         "playedPositionsShort":"DMC",
         "teamRegionName":"France",
         "regionCode":"dz",
         "tournamentShortName":"FL1",
         "apps":12,
         "subOn":0,
         "name":"Mehdi Abeid",
         "firstName":"Mehdi",
         "lastName":"Abeid",
         "playerId":109526,
         "positionText":"Midfielder",
         "teamId":1364,
         "teamName":"Dijon",
         "seasonId":7344,
         "seasonName":"2018/2019",
         "isOpta":true,
         "tournamentId":22,
         "tournamentRegionId":74,
         "tournamentRegionCode":"fr",
         "tournamentRegionName":"France",
         "tournamentName":"Ligue 1",
         "rating":6.9958333333333345,
         "minsPlayed":1005,
         "interceptionAll":1.61194029849,
         "ranking":35
      },
      {
         "height":179,
         "weight":70,
         "age":25,
         "isManOfTheMatch":false,
         "isActive":true,
         "playedPositions":"-MC-",
         "playedPositionsShort":"M(C)",
         "teamRegionName":"Spain",
         "regionCode":"es",
         "tournamentShortName":"SLL",
         "apps":17,
         "subOn":0,
         "name":"José Campaña",
         "firstName":"José",
         "lastName":"Campaña",
         "playerId":91214,
         "positionText":"Midfielder",
         "teamId":832,
         "teamName":"Levante",
         "seasonId":7466,
         "seasonName":"2018/2019",
         "isOpta":true,
         "tournamentId":4,
         "tournamentRegionId":206,
         "tournamentRegionCode":"es",
         "tournamentRegionName":"Spain",
         "tournamentName":"La Liga",
         "rating":7.0111764705882358,
         "minsPlayed":1508,
         "interceptionAll":1.611405835524,
         "ranking":36
      },
      {
         "height":173,
         "weight":68,
         "age":21,
         "isManOfTheMatch":false,
         "isActive":true,
         "playedPositions":"-MC-",
         "playedPositionsShort":"M(C)",
         "teamRegionName":"Spain",
         "regionCode":"es",
         "tournamentShortName":"SLL",
         "apps":10,
         "subOn":0,
         "name":"Aleix García",
         "firstName":"Aleix",
         "lastName":"García",
         "playerId":280663,
         "positionText":"Midfielder",
         "teamId":2783,
         "teamName":"Girona",
         "seasonId":7466,
         "seasonName":"2018/2019",
         "isOpta":true,
         "tournamentId":4,
         "tournamentRegionId":206,
         "tournamentRegionCode":"es",
         "tournamentRegionName":"Spain",
         "tournamentName":"La Liga",
         "rating":6.9399999999999995,
         "minsPlayed":733,
         "interceptionAll":1.596180081847,
         "ranking":37
      },
      {
         "height":177,
         "weight":67,
         "age":25,
         "isManOfTheMatch":false,
         "isActive":true,
         "playedPositions":"-MC-",
         "playedPositionsShort":"M(C)",
         "teamRegionName":"Italy",
         "regionCode":"fr",
         "tournamentShortName":"ISA",
         "apps":16,
         "subOn":0,
         "name":"Jordan Veretout",
         "firstName":"Jordan",
         "lastName":"Veretout",
         "playerId":101017,
         "positionText":"Midfielder",
         "teamId":73,
         "teamName":"Fiorentina",
         "seasonId":7468,
         "seasonName":"2018/2019",
         "isOpta":true,
         "tournamentId":5,
         "tournamentRegionId":108,
         "tournamentRegionCode":"it",
         "tournamentRegionName":"Italy",
         "tournamentName":"Serie A",
         "rating":7.164375,
         "minsPlayed":1414,
         "interceptionAll":1.5912305516249998,
         "ranking":38
      },
      {
         "height":168,
         "weight":64,
         "age":22,
         "isManOfTheMatch":false,
         "isActive":true,
         "playedPositions":"-DMC-",
         "playedPositionsShort":"DMC",
         "teamRegionName":"England",
         "regionCode":"uy",
         "tournamentShortName":"EPL",
         "apps":14,
         "subOn":0,
         "name":"Lucas Torreira",
         "firstName":"Lucas",
         "lastName":"Torreira",
         "playerId":248109,
         "positionText":"Midfielder",
         "teamId":13,
         "teamName":"Arsenal",
         "seasonId":7361,
         "seasonName":"2018/2019",
         "isOpta":true,
         "tournamentId":2,
         "tournamentRegionId":252,
         "tournamentRegionCode":"gb-eng",
         "tournamentRegionName":"England",
         "tournamentName":"Premier League",
         "rating":7.0721428571428566,
         "minsPlayed":1249,
         "interceptionAll":1.585268214552,
         "ranking":39
      },
      {
         "height":177,
         "weight":70,
         "age":25,
         "isManOfTheMatch":false,
         "isActive":true,
         "playedPositions":"-MC-",
         "playedPositionsShort":"M(C)",
         "teamRegionName":"Spain",
         "regionCode":"es",
         "tournamentShortName":"SLL",
         "apps":13,
         "subOn":0,
         "name":"Pere Pons",
         "firstName":"Pere",
         "lastName":"Pons",
         "playerId":140929,
         "positionText":"Midfielder",
         "teamId":2783,
         "teamName":"Girona",
         "seasonId":7466,
         "seasonName":"2018/2019",
         "isOpta":true,
         "tournamentId":4,
         "tournamentRegionId":206,
         "tournamentRegionCode":"es",
         "tournamentRegionName":"Spain",
         "tournamentName":"La Liga",
         "rating":6.7884615384615383,
         "minsPlayed":1138,
         "interceptionAll":1.58172231984,
         "ranking":40
      }
   ],
   "paging":{
      "currentPage":4,
      "totalPages":25,
      "resultsPerPage":10,
      "totalResults":246,
      "firstRecordIndex":31,
      "lastRecordIndex":40
   },
   "statColumns":[
      "apps",
      "subOn",
      "minsPlayed",
      "interceptionAll"
   ]
}