{
   "playerTableStats":[
      {
         "ranking":161,
         "seasonId":7468,
         "seasonName":"2018/2019",
         "tournamentId":5,
         "tournamentRegionId":108,
         "tournamentRegionCode":"it",
         "tournamentRegionName":"Italy",
         "regionCode":"it",
         "tournamentName":"Serie A",
         "tournamentShortName":"ISA",
         "firstName":"Stephan",
         "lastName":"El Shaarawy",
         "playerId":70087,
         "isActive":true,
         "isOpta":true,
         "teamId":84,
         "teamName":"Roma",
         "teamRegionName":"Italy",
         "playedPositions":"-AMC-AML-AMR-FW-",
         "age":26,
         "height":178,
         "weight":72,
         "positionText":"Forward",
         "apps":10,
         "subOn":0,
         "minsPlayed":835,
         "rating":7.4380000000000006,
         "isManOfTheMatch":false,
         "playedPositionsShort":"AM(CLR),FW",
         "name":"Stephan El Shaarawy",
         "interceptionAll":0.754491017959
      },
      {
         "ranking":162,
         "seasonId":7405,
         "seasonName":"2018/2019",
         "tournamentId":3,
         "tournamentRegionId":81,
         "tournamentRegionCode":"de",
         "tournamentRegionName":"Germany",
         "regionCode":"de",
         "tournamentName":"Bundesliga",
         "tournamentShortName":"GB",
         "firstName":"Leon",
         "lastName":"Goretzka",
         "playerId":115519,
         "isActive":true,
         "isOpta":true,
         "teamId":37,
         "teamName":"Bayern Munich",
         "teamRegionName":"Germany",
         "playedPositions":"-MC-MR-",
         "age":23,
         "height":189,
         "weight":79,
         "positionText":"Midfielder",
         "apps":10,
         "subOn":0,
         "minsPlayed":838,
         "rating":7.106,
         "isManOfTheMatch":false,
         "playedPositionsShort":"M(CR)",
         "name":"Leon Goretzka",
         "interceptionAll":0.751789976133
      },
      {
         "ranking":163,
         "seasonId":7344,
         "seasonName":"2018/2019",
         "tournamentId":22,
         "tournamentRegionId":74,
         "tournamentRegionCode":"fr",
         "tournamentRegionName":"France",
         "regionCode":"br",
         "tournamentName":"Ligue 1",
         "tournamentShortName":"FL1",
         "firstName":"Gabriel",
         "lastName":"Boschilia",
         "playerId":146765,
         "isActive":true,
         "isOpta":true,
         "teamId":302,
         "teamName":"Nantes",
         "teamRegionName":"France",
         "playedPositions":"-AMC-AML-AMR-",
         "age":22,
         "height":172,
         "weight":63,
         "positionText":"Forward",
         "apps":11,
         "subOn":0,
         "minsPlayed":849,
         "rating":7.21909090909091,
         "isManOfTheMatch":false,
         "playedPositionsShort":"AM(CLR)",
         "name":"Gabriel Boschilia",
         "interceptionAll":0.742049469959
      },
      {
         "ranking":164,
         "seasonId":7344,
         "seasonName":"2018/2019",
         "tournamentId":22,
         "tournamentRegionId":74,
         "tournamentRegionCode":"fr",
         "tournamentRegionName":"France",
         "regionCode":"ar",
         "tournamentName":"Ligue 1",
         "tournamentShortName":"FL1",
         "firstName":"Lucas",
         "lastName":"Ocampos",
         "playerId":115587,
         "isActive":true,
         "isOpta":true,
         "teamId":249,
         "teamName":"Marseille",
         "teamRegionName":"France",
         "playedPositions":"-AMC-AML-AMR-FW-",
         "age":24,
         "height":187,
         "weight":84,
         "positionText":"Midfielder",
         "apps":11,
         "subOn":0,
         "minsPlayed":855,
         "rating":6.9336363636363618,
         "isManOfTheMatch":false,
         "playedPositionsShort":"AM(CLR),FW",
         "name":"Lucas Ocampos",
         "interceptionAll":0.736842105258
      },
      {
         "ranking":165,
         "seasonId":7466,
         "seasonName":"2018/2019",
         "tournamentId":4,
         "tournamentRegionId":206,
         "tournamentRegionCode":"es",
         "tournamentRegionName":"Spain",
         "regionCode":"es",
         "tournamentName":"La Liga",
         "tournamentShortName":"SLL",
         "firstName":"Moisés",
         "lastName":"Gómez Bardonado",
         "playerId":101238,
         "isActive":true,
         "isOpta":true,
         "teamId":5006,
         "teamName":"SD Huesca",
         "teamRegionName":"Spain",
         "playedPositions":"-MC-ML-MR-",
         "age":24,
         "height":176,
         "weight":71,
         "positionText":"Midfielder",
         "apps":16,
         "subOn":0,
         "minsPlayed":1364,
         "rating":6.691875,
         "isManOfTheMatch":false,
         "playedPositionsShort":"M(CLR)",
         "name":"Moi Gómez",
         "interceptionAll":0.725806451612
      },
      {
         "ranking":166,
         "seasonId":7361,
         "seasonName":"2018/2019",
         "tournamentId":2,
         "tournamentRegionId":252,
         "tournamentRegionCode":"gb-eng",
         "tournamentRegionName":"England",
         "regionCode":"gb-eng",
         "tournamentName":"Premier League",
         "tournamentShortName":"EPL",
         "firstName":"Josh",
         "lastName":"Murphy",
         "playerId":136783,
         "isActive":true,
         "isOpta":true,
         "teamId":188,
         "teamName":"Cardiff",
         "teamRegionName":"Wales",
         "playedPositions":"-AML-AMR-FW-",
         "age":23,
         "height":173,
         "weight":67,
         "positionText":"Midfielder",
         "apps":13,
         "subOn":0,
         "minsPlayed":1006,
         "rating":6.5546153846153841,
         "isManOfTheMatch":false,
         "playedPositionsShort":"AM(LR),FW",
         "name":"Josh Murphy",
         "interceptionAll":0.7157057654
      },
      {
         "ranking":167,
         "seasonId":7361,
         "seasonName":"2018/2019",
         "tournamentId":2,
         "tournamentRegionId":252,
         "tournamentRegionCode":"gb-eng",
         "tournamentRegionName":"England",
         "regionCode":"gb-eng",
         "tournamentName":"Premier League",
         "tournamentShortName":"EPL",
         "firstName":"Harry",
         "lastName":"Winks",
         "playerId":143990,
         "isActive":true,
         "isOpta":true,
         "teamId":30,
         "teamName":"Tottenham",
         "teamRegionName":"England",
         "playedPositions":"-DMC-",
         "age":22,
         "height":178,
         "weight":65,
         "positionText":"Midfielder",
         "apps":10,
         "subOn":0,
         "minsPlayed":883,
         "rating":6.7039999999999988,
         "isManOfTheMatch":false,
         "playedPositionsShort":"DMC",
         "name":"Harry Winks",
         "interceptionAll":0.713476783691
      },
      {
         "ranking":168,
         "seasonId":7361,
         "seasonName":"2018/2019",
         "tournamentId":2,
         "tournamentRegionId":252,
         "tournamentRegionCode":"gb-eng",
         "tournamentRegionName":"England",
         "regionCode":"pt",
         "tournamentName":"Premier League",
         "tournamentShortName":"EPL",
         "firstName":"Bernardo Mota",
         "lastName":"Veiga de Carvalho e Silva",
         "playerId":136741,
         "isActive":true,
         "isOpta":true,
         "teamId":167,
         "teamName":"Manchester City",
         "teamRegionName":"England",
         "playedPositions":"-AMC-AML-AMR-",
         "age":24,
         "height":173,
         "weight":64,
         "positionText":"Midfielder",
         "apps":19,
         "subOn":0,
         "minsPlayed":1640,
         "rating":7.3031578947368416,
         "isManOfTheMatch":false,
         "playedPositionsShort":"AM(CLR)",
         "name":"Bernardo Silva",
         "interceptionAll":0.71341463414000006
      },
      {
         "ranking":169,
         "seasonId":7405,
         "seasonName":"2018/2019",
         "tournamentId":3,
         "tournamentRegionId":81,
         "tournamentRegionCode":"de",
         "tournamentRegionName":"Germany",
         "regionCode":"nl",
         "tournamentName":"Bundesliga",
         "tournamentShortName":"GB",
         "firstName":"Virgil",
         "lastName":"Misidjan",
         "playerId":120454,
         "isActive":true,
         "isOpta":true,
         "teamId":137,
         "teamName":"Nuernberg",
         "teamRegionName":"Germany",
         "playedPositions":"-AML-AMR-",
         "age":25,
         "height":173,
         "weight":70,
         "positionText":"Forward",
         "apps":11,
         "subOn":0,
         "minsPlayed":886,
         "rating":6.4090909090909092,
         "isManOfTheMatch":false,
         "playedPositionsShort":"AM(LR)",
         "name":"Virgil Misidjan",
         "interceptionAll":0.71106094808
      },
      {
         "ranking":170,
         "seasonId":7405,
         "seasonName":"2018/2019",
         "tournamentId":3,
         "tournamentRegionId":81,
         "tournamentRegionCode":"de",
         "tournamentRegionName":"Germany",
         "regionCode":"de",
         "tournamentName":"Bundesliga",
         "tournamentShortName":"GB",
         "firstName":"Maximilian",
         "lastName":"Eggestein",
         "playerId":254557,
         "isActive":true,
         "isOpta":true,
         "teamId":42,
         "teamName":"Werder Bremen",
         "teamRegionName":"Germany",
         "playedPositions":"-MC-",
         "age":22,
         "height":181,
         "weight":75,
         "positionText":"Midfielder",
         "apps":17,
         "subOn":0,
         "minsPlayed":1523,
         "rating":6.83235294117647,
         "isManOfTheMatch":false,
         "playedPositionsShort":"M(C)",
         "name":"Maximilian Eggestein",
         "interceptionAll":0.70912672356
      }
   ],
   "paging":{
      "currentPage":17,
      "totalPages":25,
      "resultsPerPage":10,
      "totalResults":246,
      "firstRecordIndex":161,
      "lastRecordIndex":170
   },
   "statColumns":[
      "apps",
      "subOn",
      "minsPlayed",
      "interceptionAll"
   ]
}