{
   "playerTableStats":[
      {
         "height":181,
         "weight":77,
         "age":27,
         "isManOfTheMatch":false,
         "isActive":true,
         "playedPositions":"-AML-AMR-FW-",
         "playedPositionsShort":"AM(LR),FW",
         "teamRegionName":"England",
         "regionCode":"gb-eng",
         "tournamentShortName":"EPL",
         "apps":12,
         "subOn":0,
         "name":"Andros Townsend",
         "firstName":"Andros",
         "lastName":"Townsend",
         "playerId":71522,
         "positionText":"Midfielder",
         "teamId":162,
         "teamName":"Crystal Palace",
         "seasonId":7361,
         "seasonName":"2018/2019",
         "isOpta":true,
         "tournamentId":2,
         "tournamentRegionId":252,
         "tournamentRegionCode":"gb-eng",
         "tournamentRegionName":"England",
         "tournamentName":"Premier League",
         "rating":6.9875,
         "minsPlayed":1049,
         "interceptionAll":1.1153479504180002,
         "ranking":101
      },
      {
         "height":170,
         "weight":66,
         "age":19,
         "isManOfTheMatch":false,
         "isActive":true,
         "playedPositions":"-MC-",
         "playedPositionsShort":"M(C)",
         "teamRegionName":"Spain",
         "regionCode":"es",
         "tournamentShortName":"SLL",
         "apps":12,
         "subOn":0,
         "name":"Fran Beltrán",
         "firstName":"Francisco",
         "lastName":"Beltrán",
         "playerId":362421,
         "positionText":"Midfielder",
         "teamId":62,
         "teamName":"Celta Vigo",
         "seasonId":7466,
         "seasonName":"2018/2019",
         "isOpta":true,
         "tournamentId":4,
         "tournamentRegionId":206,
         "tournamentRegionCode":"es",
         "tournamentRegionName":"Spain",
         "tournamentName":"La Liga",
         "rating":6.5758333333333328,
         "minsPlayed":970,
         "interceptionAll":1.1134020618479998,
         "ranking":102
      },
      {
         "height":180,
         "weight":88,
         "age":24,
         "isManOfTheMatch":false,
         "isActive":true,
         "playedPositions":"-AMC-AML-AMR-",
         "playedPositionsShort":"AM(CLR)",
         "teamRegionName":"England",
         "regionCode":"gb-eng",
         "tournamentShortName":"EPL",
         "apps":20,
         "subOn":0,
         "name":"Solly March",
         "firstName":"Solomon",
         "lastName":"March",
         "playerId":122926,
         "positionText":"Midfielder",
         "teamId":211,
         "teamName":"Brighton",
         "seasonId":7361,
         "seasonName":"2018/2019",
         "isOpta":true,
         "tournamentId":2,
         "tournamentRegionId":252,
         "tournamentRegionCode":"gb-eng",
         "tournamentRegionName":"England",
         "tournamentName":"Premier League",
         "rating":6.8595000000000015,
         "minsPlayed":1629,
         "interceptionAll":1.10497237568,
         "ranking":103
      },
      {
         "height":187,
         "weight":77,
         "age":24,
         "isManOfTheMatch":false,
         "isActive":true,
         "playedPositions":"-DMC-",
         "playedPositionsShort":"DMC",
         "teamRegionName":"France",
         "regionCode":"no",
         "tournamentShortName":"FL1",
         "apps":16,
         "subOn":0,
         "name":"Ole Selnaes",
         "firstName":"Ole",
         "lastName":"Selnaes",
         "playerId":99537,
         "positionText":"Midfielder",
         "teamId":145,
         "teamName":"Saint-Etienne",
         "seasonId":7344,
         "seasonName":"2018/2019",
         "isOpta":true,
         "tournamentId":22,
         "tournamentRegionId":74,
         "tournamentRegionCode":"fr",
         "tournamentRegionName":"France",
         "tournamentName":"Ligue 1",
         "rating":6.945,
         "minsPlayed":1387,
         "interceptionAll":1.103100216289,
         "ranking":104
      },
      {
         "height":187,
         "weight":77,
         "age":24,
         "isManOfTheMatch":false,
         "isActive":true,
         "playedPositions":"-DMC-",
         "playedPositionsShort":"DMC",
         "teamRegionName":"Spain",
         "regionCode":"es",
         "tournamentShortName":"SLL",
         "apps":10,
         "subOn":0,
         "name":"Gerard Gumbau",
         "firstName":"Gerard",
         "lastName":"Gumbau",
         "playerId":294123,
         "positionText":"Midfielder",
         "teamId":825,
         "teamName":"Leganes",
         "seasonId":7466,
         "seasonName":"2018/2019",
         "isOpta":true,
         "tournamentId":4,
         "tournamentRegionId":206,
         "tournamentRegionCode":"es",
         "tournamentRegionName":"Spain",
         "tournamentName":"La Liga",
         "rating":6.364,
         "minsPlayed":900,
         "interceptionAll":1.1,
         "ranking":105
      },
      {
         "height":183,
         "weight":75,
         "age":20,
         "isManOfTheMatch":false,
         "isActive":true,
         "playedPositions":"-AML-",
         "playedPositionsShort":"AM(L)",
         "teamRegionName":"Germany",
         "regionCode":"dk",
         "tournamentShortName":"GB",
         "apps":11,
         "subOn":0,
         "name":"Jacob Bruun Larsen",
         "firstName":"Jacob",
         "lastName":"Bruun Larsen",
         "playerId":307202,
         "positionText":"Forward",
         "teamId":44,
         "teamName":"Borussia Dortmund",
         "seasonId":7405,
         "seasonName":"2018/2019",
         "isOpta":true,
         "tournamentId":3,
         "tournamentRegionId":81,
         "tournamentRegionCode":"de",
         "tournamentRegionName":"Germany",
         "tournamentName":"Bundesliga",
         "rating":6.9572727272727262,
         "minsPlayed":819,
         "interceptionAll":1.0989010989,
         "ranking":106
      },
      {
         "height":190,
         "weight":70,
         "age":22,
         "isManOfTheMatch":false,
         "isActive":true,
         "playedPositions":"-MC-MR-",
         "playedPositionsShort":"M(CR)",
         "teamRegionName":"Italy",
         "regionCode":"ch",
         "tournamentShortName":"ISA",
         "apps":12,
         "subOn":0,
         "name":"Edimilson Fernandes",
         "firstName":"Edimilson",
         "lastName":"Fernandes",
         "playerId":130964,
         "positionText":"Midfielder",
         "teamId":73,
         "teamName":"Fiorentina",
         "seasonId":7468,
         "seasonName":"2018/2019",
         "isOpta":true,
         "tournamentId":5,
         "tournamentRegionId":108,
         "tournamentRegionCode":"it",
         "tournamentRegionName":"Italy",
         "tournamentName":"Serie A",
         "rating":6.6875,
         "minsPlayed":920,
         "interceptionAll":1.0760869565159998,
         "ranking":107
      },
      {
         "height":176,
         "weight":60,
         "age":18,
         "isManOfTheMatch":false,
         "isActive":true,
         "playedPositions":"-DMC-",
         "playedPositionsShort":"DMC",
         "teamRegionName":"France",
         "regionCode":"fr",
         "tournamentShortName":"FL1",
         "apps":10,
         "subOn":0,
         "name":"Enzo Loiodice",
         "firstName":"Enzo",
         "lastName":"Loiodice",
         "playerId":356704,
         "positionText":"Midfielder",
         "teamId":1364,
         "teamName":"Dijon",
         "seasonId":7344,
         "seasonName":"2018/2019",
         "isOpta":true,
         "tournamentId":22,
         "tournamentRegionId":74,
         "tournamentRegionCode":"fr",
         "tournamentRegionName":"France",
         "tournamentName":"Ligue 1",
         "rating":6.3680000000000012,
         "minsPlayed":837,
         "interceptionAll":1.0752688172,
         "ranking":108
      },
      {
         "height":175,
         "weight":75,
         "age":23,
         "isManOfTheMatch":false,
         "isActive":true,
         "playedPositions":"-AMC-AML-AMR-FW-",
         "playedPositionsShort":"AM(CLR),FW",
         "teamRegionName":"Germany",
         "regionCode":"de",
         "tournamentShortName":"GB",
         "apps":10,
         "subOn":0,
         "name":"Serge Gnabry",
         "firstName":"Serge",
         "lastName":"Gnabry",
         "playerId":119501,
         "positionText":"Midfielder",
         "teamId":37,
         "teamName":"Bayern Munich",
         "seasonId":7405,
         "seasonName":"2018/2019",
         "isOpta":true,
         "tournamentId":3,
         "tournamentRegionId":81,
         "tournamentRegionCode":"de",
         "tournamentRegionName":"Germany",
         "tournamentName":"Bundesliga",
         "rating":7.3290000000000006,
         "minsPlayed":671,
         "interceptionAll":1.07302533532,
         "ranking":109
      },
      {
         "height":167,
         "weight":73,
         "age":26,
         "isManOfTheMatch":false,
         "isActive":true,
         "playedPositions":"-MC-",
         "playedPositionsShort":"M(C)",
         "teamRegionName":"England",
         "regionCode":"fr",
         "tournamentShortName":"EPL",
         "apps":19,
         "subOn":0,
         "name":"Nampalys Mendy",
         "firstName":"Nampalys",
         "lastName":"Mendy",
         "playerId":90278,
         "positionText":"Midfielder",
         "teamId":14,
         "teamName":"Leicester",
         "seasonId":7361,
         "seasonName":"2018/2019",
         "isOpta":true,
         "tournamentId":2,
         "tournamentRegionId":252,
         "tournamentRegionCode":"gb-eng",
         "tournamentRegionName":"England",
         "tournamentName":"Premier League",
         "rating":6.5378947368421061,
         "minsPlayed":1680,
         "interceptionAll":1.07142857142,
         "ranking":110
      }
   ],
   "paging":{
      "currentPage":11,
      "totalPages":25,
      "resultsPerPage":10,
      "totalResults":246,
      "firstRecordIndex":101,
      "lastRecordIndex":110
   },
   "statColumns":[
      "apps",
      "subOn",
      "minsPlayed",
      "interceptionAll"
   ]
}