{
   "playerTableStats":[
      {
         "ranking":181,
         "seasonId":7344,
         "seasonName":"2018/2019",
         "tournamentId":22,
         "tournamentRegionId":74,
         "tournamentRegionCode":"fr",
         "tournamentRegionName":"France",
         "regionCode":"fr",
         "tournamentName":"Ligue 1",
         "tournamentShortName":"FL1",
         "firstName":"Sada",
         "lastName":"Thioub",
         "playerId":259809,
         "isActive":true,
         "isOpta":true,
         "teamId":245,
         "teamName":"Nimes",
         "teamRegionName":"France",
         "playedPositions":"-AMR-",
         "age":23,
         "height":179,
         "weight":75,
         "positionText":"Forward",
         "apps":15,
         "subOn":0,
         "minsPlayed":1230,
         "rating":6.86,
         "isManOfTheMatch":false,
         "playedPositionsShort":"AM(R)",
         "name":"Sada Thioub",
         "interceptionAll":0.65853658536300008
      },
      {
         "ranking":182,
         "seasonId":7466,
         "seasonName":"2018/2019",
         "tournamentId":4,
         "tournamentRegionId":206,
         "tournamentRegionCode":"es",
         "tournamentRegionName":"Spain",
         "regionCode":"es",
         "tournamentName":"La Liga",
         "tournamentShortName":"SLL",
         "firstName":"Pablo",
         "lastName":"Sarabia",
         "playerId":94868,
         "isActive":true,
         "isOpta":true,
         "teamId":67,
         "teamName":"Sevilla",
         "teamRegionName":"Spain",
         "playedPositions":"-DL-MC-ML-MR-",
         "age":26,
         "height":178,
         "weight":70,
         "positionText":"Midfielder",
         "apps":16,
         "subOn":0,
         "minsPlayed":1380,
         "rating":7.1850000000000005,
         "isManOfTheMatch":false,
         "playedPositionsShort":"D(L),M(CLR)",
         "name":"Pablo Sarabia",
         "interceptionAll":0.65217391304
      },
      {
         "ranking":183,
         "seasonId":7361,
         "seasonName":"2018/2019",
         "tournamentId":2,
         "tournamentRegionId":252,
         "tournamentRegionCode":"gb-eng",
         "tournamentRegionName":"England",
         "regionCode":"sn",
         "tournamentName":"Premier League",
         "tournamentShortName":"EPL",
         "firstName":"Sadio",
         "lastName":"Mané",
         "playerId":109915,
         "isActive":true,
         "isOpta":true,
         "teamId":26,
         "teamName":"Liverpool",
         "teamRegionName":"England",
         "playedPositions":"-AMC-AML-AMR-",
         "age":26,
         "height":175,
         "weight":69,
         "positionText":"Forward",
         "apps":18,
         "subOn":0,
         "minsPlayed":1552,
         "rating":7.3716666666666661,
         "isManOfTheMatch":false,
         "playedPositionsShort":"AM(CLR)",
         "name":"Sadio Mané",
         "interceptionAll":0.637886597931
      },
      {
         "ranking":184,
         "seasonId":7405,
         "seasonName":"2018/2019",
         "tournamentId":3,
         "tournamentRegionId":81,
         "tournamentRegionCode":"de",
         "tournamentRegionName":"Germany",
         "regionCode":"sk",
         "tournamentName":"Bundesliga",
         "tournamentShortName":"GB",
         "firstName":"Ondrej",
         "lastName":"Duda",
         "playerId":115257,
         "isActive":true,
         "isOpta":true,
         "teamId":47,
         "teamName":"Hertha Berlin",
         "teamRegionName":"Germany",
         "playedPositions":"-AMC-FW-",
         "age":24,
         "height":181,
         "weight":75,
         "positionText":"Midfielder",
         "apps":14,
         "subOn":0,
         "minsPlayed":1141,
         "rating":6.9321428571428561,
         "isManOfTheMatch":false,
         "playedPositionsShort":"AM(C),FW",
         "name":"Ondrej Duda",
         "interceptionAll":0.631025416296
      },
      {
         "ranking":185,
         "seasonId":7466,
         "seasonName":"2018/2019",
         "tournamentId":4,
         "tournamentRegionId":206,
         "tournamentRegionCode":"es",
         "tournamentRegionName":"Spain",
         "regionCode":"es",
         "tournamentName":"La Liga",
         "tournamentShortName":"SLL",
         "firstName":"Laureano Antonio",
         "lastName":"Villa Suárez",
         "playerId":362355,
         "isActive":true,
         "isOpta":true,
         "teamId":58,
         "teamName":"Real Valladolid",
         "teamRegionName":"Spain",
         "playedPositions":"-AML-",
         "age":24,
         "height":172,
         "weight":63,
         "positionText":"Midfielder",
         "apps":14,
         "subOn":0,
         "minsPlayed":1162,
         "rating":7.0178571428571441,
         "isManOfTheMatch":false,
         "playedPositionsShort":"AM(L)",
         "name":"Toni Villa",
         "interceptionAll":0.619621342512
      },
      {
         "ranking":186,
         "seasonId":7466,
         "seasonName":"2018/2019",
         "tournamentId":4,
         "tournamentRegionId":206,
         "tournamentRegionCode":"es",
         "tournamentRegionName":"Spain",
         "regionCode":"ar",
         "tournamentName":"La Liga",
         "tournamentShortName":"SLL",
         "firstName":"Ángel",
         "lastName":"Correa",
         "playerId":127604,
         "isActive":true,
         "isOpta":true,
         "teamId":63,
         "teamName":"Atletico Madrid",
         "teamRegionName":"Spain",
         "playedPositions":"-AML-AMR-FW-",
         "age":23,
         "height":171,
         "weight":68,
         "positionText":"Forward",
         "apps":10,
         "subOn":0,
         "minsPlayed":740,
         "rating":6.875,
         "isManOfTheMatch":false,
         "playedPositionsShort":"AM(LR),FW",
         "name":"Ángel Correa",
         "interceptionAll":0.608108108105
      },
      {
         "ranking":187,
         "seasonId":7468,
         "seasonName":"2018/2019",
         "tournamentId":5,
         "tournamentRegionId":108,
         "tournamentRegionCode":"it",
         "tournamentRegionName":"Italy",
         "regionCode":"gh",
         "tournamentName":"Serie A",
         "tournamentShortName":"ISA",
         "firstName":"Alfred",
         "lastName":"Duncan",
         "playerId":113762,
         "isActive":true,
         "isOpta":true,
         "teamId":2889,
         "teamName":"Sassuolo",
         "teamRegionName":"Italy",
         "playedPositions":"-MC-",
         "age":25,
         "height":178,
         "weight":78,
         "positionText":"Midfielder",
         "apps":12,
         "subOn":0,
         "minsPlayed":1041,
         "rating":6.9316666666666658,
         "isManOfTheMatch":false,
         "playedPositionsShort":"M(C)",
         "name":"Alfred Duncan",
         "interceptionAll":0.605187319884
      },
      {
         "ranking":188,
         "seasonId":7468,
         "seasonName":"2018/2019",
         "tournamentId":5,
         "tournamentRegionId":108,
         "tournamentRegionCode":"it",
         "tournamentRegionName":"Italy",
         "regionCode":"tr",
         "tournamentName":"Serie A",
         "tournamentShortName":"ISA",
         "firstName":"Cengiz",
         "lastName":"Ünder",
         "playerId":255071,
         "isActive":true,
         "isOpta":true,
         "teamId":84,
         "teamName":"Roma",
         "teamRegionName":"Italy",
         "playedPositions":"-AML-AMR-",
         "age":21,
         "height":173,
         "weight":66,
         "positionText":"Midfielder",
         "apps":13,
         "subOn":0,
         "minsPlayed":1043,
         "rating":7.1438461538461535,
         "isManOfTheMatch":false,
         "playedPositionsShort":"AM(LR)",
         "name":"Cengiz Ünder",
         "interceptionAll":0.604026845632
      },
      {
         "ranking":189,
         "seasonId":7468,
         "seasonName":"2018/2019",
         "tournamentId":5,
         "tournamentRegionId":108,
         "tournamentRegionCode":"it",
         "tournamentRegionName":"Italy",
         "regionCode":"ar",
         "tournamentName":"Serie A",
         "tournamentShortName":"ISA",
         "firstName":"Rodrigo",
         "lastName":"de Paul",
         "playerId":125547,
         "isActive":true,
         "isOpta":true,
         "teamId":86,
         "teamName":"Udinese",
         "teamRegionName":"Italy",
         "playedPositions":"-AMC-AML-AMR-FW-",
         "age":24,
         "height":180,
         "weight":70,
         "positionText":"Midfielder",
         "apps":12,
         "subOn":0,
         "minsPlayed":1077,
         "rating":7.354166666666667,
         "isManOfTheMatch":false,
         "playedPositionsShort":"AM(CLR),FW",
         "name":"Rodrigo de Paul",
         "interceptionAll":0.58495821727000008
      },
      {
         "ranking":190,
         "seasonId":7361,
         "seasonName":"2018/2019",
         "tournamentId":2,
         "tournamentRegionId":252,
         "tournamentRegionCode":"gb-eng",
         "tournamentRegionName":"England",
         "regionCode":"gb-eng",
         "tournamentName":"Premier League",
         "tournamentShortName":"EPL",
         "firstName":"Alex",
         "lastName":"Pritchard",
         "playerId":107848,
         "isActive":true,
         "isOpta":true,
         "teamId":166,
         "teamName":"Huddersfield",
         "teamRegionName":"England",
         "playedPositions":"-AMC-AML-AMR-",
         "age":25,
         "height":171,
         "weight":62,
         "positionText":"Midfielder",
         "apps":16,
         "subOn":0,
         "minsPlayed":1232,
         "rating":6.4562500000000007,
         "isManOfTheMatch":false,
         "playedPositionsShort":"AM(CLR)",
         "name":"Alex Pritchard",
         "interceptionAll":0.584415584408
      }
   ],
   "paging":{
      "currentPage":19,
      "totalPages":25,
      "resultsPerPage":10,
      "totalResults":246,
      "firstRecordIndex":181,
      "lastRecordIndex":190
   },
   "statColumns":[
      "apps",
      "subOn",
      "minsPlayed",
      "interceptionAll"
   ]
}