{
   "playerTableStats":[
      {
         "ranking":171,
         "seasonId":7405,
         "seasonName":"2018/2019",
         "tournamentId":3,
         "tournamentRegionId":81,
         "tournamentRegionCode":"de",
         "tournamentRegionName":"Germany",
         "regionCode":"be",
         "tournamentName":"Bundesliga",
         "tournamentShortName":"GB",
         "firstName":"Thorgan",
         "lastName":"Hazard",
         "playerId":101537,
         "isActive":true,
         "isOpta":true,
         "teamId":134,
         "teamName":"Borussia M.Gladbach",
         "teamRegionName":"Germany",
         "playedPositions":"-AMC-AML-AMR-FW-",
         "age":25,
         "height":174,
         "weight":69,
         "positionText":"Forward",
         "apps":17,
         "subOn":0,
         "minsPlayed":1523,
         "rating":7.7070588235294126,
         "isManOfTheMatch":false,
         "playedPositionsShort":"AM(CLR),FW",
         "name":"Thorgan Hazard",
         "interceptionAll":0.70912672356
      },
      {
         "ranking":172,
         "seasonId":7466,
         "seasonName":"2018/2019",
         "tournamentId":4,
         "tournamentRegionId":206,
         "tournamentRegionCode":"es",
         "tournamentRegionName":"Spain",
         "regionCode":"es",
         "tournamentName":"La Liga",
         "tournamentShortName":"SLL",
         "firstName":"Sergi",
         "lastName":"Darder",
         "playerId":106596,
         "isActive":true,
         "isOpta":true,
         "teamId":70,
         "teamName":"Espanyol",
         "teamRegionName":"Spain",
         "playedPositions":"-DMC-",
         "age":25,
         "height":180,
         "weight":71,
         "positionText":"Midfielder",
         "apps":15,
         "subOn":0,
         "minsPlayed":1272,
         "rating":6.7133333333333338,
         "isManOfTheMatch":false,
         "playedPositionsShort":"DMC",
         "name":"Sergi Darder",
         "interceptionAll":0.70754716981
      },
      {
         "ranking":173,
         "seasonId":7466,
         "seasonName":"2018/2019",
         "tournamentId":4,
         "tournamentRegionId":206,
         "tournamentRegionCode":"es",
         "tournamentRegionName":"Spain",
         "regionCode":"es",
         "tournamentName":"La Liga",
         "tournamentShortName":"SLL",
         "firstName":"Marco",
         "lastName":"Asensio",
         "playerId":137467,
         "isActive":true,
         "isOpta":true,
         "teamId":52,
         "teamName":"Real Madrid",
         "teamRegionName":"Spain",
         "playedPositions":"-AMC-AML-AMR-",
         "age":22,
         "height":182,
         "weight":76,
         "positionText":"Midfielder",
         "apps":11,
         "subOn":0,
         "minsPlayed":896,
         "rating":7.0254545454545454,
         "isManOfTheMatch":false,
         "playedPositionsShort":"AM(CLR)",
         "name":"Marco Asensio",
         "interceptionAll":0.703124999997
      },
      {
         "ranking":174,
         "seasonId":7361,
         "seasonName":"2018/2019",
         "tournamentId":2,
         "tournamentRegionId":252,
         "tournamentRegionCode":"gb-eng",
         "tournamentRegionName":"England",
         "regionCode":"dk",
         "tournamentName":"Premier League",
         "tournamentShortName":"EPL",
         "firstName":"Christian",
         "lastName":"Eriksen",
         "playerId":69344,
         "isActive":true,
         "isOpta":true,
         "teamId":30,
         "teamName":"Tottenham",
         "teamRegionName":"England",
         "playedPositions":"-MC-ML-MR-",
         "age":26,
         "height":182,
         "weight":76,
         "positionText":"Midfielder",
         "apps":13,
         "subOn":0,
         "minsPlayed":1153,
         "rating":7.38,
         "isManOfTheMatch":false,
         "playedPositionsShort":"M(CLR)",
         "name":"Christian Eriksen",
         "interceptionAll":0.702515177793
      },
      {
         "ranking":175,
         "seasonId":7468,
         "seasonName":"2018/2019",
         "tournamentId":5,
         "tournamentRegionId":108,
         "tournamentRegionCode":"it",
         "tournamentRegionName":"Italy",
         "regionCode":"it",
         "tournamentName":"Serie A",
         "tournamentShortName":"ISA",
         "firstName":"Domenico",
         "lastName":"Berardi",
         "playerId":118542,
         "isActive":true,
         "isOpta":true,
         "teamId":2889,
         "teamName":"Sassuolo",
         "teamRegionName":"Italy",
         "playedPositions":"-AMR-FW-",
         "age":24,
         "height":183,
         "weight":72,
         "positionText":"Forward",
         "apps":15,
         "subOn":0,
         "minsPlayed":1293,
         "rating":7.128,
         "isManOfTheMatch":false,
         "playedPositionsShort":"AM(R),FW",
         "name":"Domenico Berardi",
         "interceptionAll":0.69605568445
      },
      {
         "ranking":176,
         "seasonId":7344,
         "seasonName":"2018/2019",
         "tournamentId":22,
         "tournamentRegionId":74,
         "tournamentRegionCode":"fr",
         "tournamentRegionName":"France",
         "regionCode":"td",
         "tournamentName":"Ligue 1",
         "tournamentShortName":"FL1",
         "firstName":"Rodrigue Casimir",
         "lastName":"Ninga",
         "playerId":298542,
         "isActive":true,
         "isOpta":true,
         "teamId":347,
         "teamName":"Caen",
         "teamRegionName":"France",
         "playedPositions":"-AML-AMR-FW-",
         "age":25,
         "height":186,
         "weight":81,
         "positionText":"Forward",
         "apps":12,
         "subOn":0,
         "minsPlayed":912,
         "rating":6.6033333333333317,
         "isManOfTheMatch":false,
         "playedPositionsShort":"AM(LR),FW",
         "name":"Casimir Ninga",
         "interceptionAll":0.690789473682
      },
      {
         "ranking":177,
         "seasonId":7468,
         "seasonName":"2018/2019",
         "tournamentId":5,
         "tournamentRegionId":108,
         "tournamentRegionCode":"it",
         "tournamentRegionName":"Italy",
         "regionCode":"tr",
         "tournamentName":"Serie A",
         "tournamentShortName":"ISA",
         "firstName":"Hakan",
         "lastName":"Calhanoglu",
         "playerId":110373,
         "isActive":true,
         "isOpta":true,
         "teamId":80,
         "teamName":"AC Milan",
         "teamRegionName":"Italy",
         "playedPositions":"-FW-MC-ML-MR-",
         "age":24,
         "height":178,
         "weight":76,
         "positionText":"Midfielder",
         "apps":16,
         "subOn":0,
         "minsPlayed":1309,
         "rating":6.9787500000000007,
         "isManOfTheMatch":false,
         "playedPositionsShort":"M(CLR),FW",
         "name":"Hakan Calhanoglu",
         "interceptionAll":0.68754774636999993
      },
      {
         "ranking":178,
         "seasonId":7468,
         "seasonName":"2018/2019",
         "tournamentId":5,
         "tournamentRegionId":108,
         "tournamentRegionCode":"it",
         "tournamentRegionName":"Italy",
         "regionCode":"pl",
         "tournamentName":"Serie A",
         "tournamentShortName":"ISA",
         "firstName":"Piotr",
         "lastName":"Zielinski",
         "playerId":118169,
         "isActive":true,
         "isOpta":true,
         "teamId":276,
         "teamName":"Napoli",
         "teamRegionName":"Italy",
         "playedPositions":"-AMC-AML-",
         "age":24,
         "height":180,
         "weight":75,
         "positionText":"Midfielder",
         "apps":16,
         "subOn":0,
         "minsPlayed":1318,
         "rating":6.9275000000000011,
         "isManOfTheMatch":false,
         "playedPositionsShort":"AM(CL)",
         "name":"Piotr Zielinski",
         "interceptionAll":0.68285280728
      },
      {
         "ranking":179,
         "seasonId":7344,
         "seasonName":"2018/2019",
         "tournamentId":22,
         "tournamentRegionId":74,
         "tournamentRegionCode":"fr",
         "tournamentRegionName":"France",
         "regionCode":"de",
         "tournamentName":"Ligue 1",
         "tournamentShortName":"FL1",
         "firstName":"Julian",
         "lastName":"Draxler",
         "playerId":96449,
         "isActive":true,
         "isOpta":true,
         "teamId":304,
         "teamName":"Paris Saint-Germain",
         "teamRegionName":"France",
         "playedPositions":"-AMC-AML-AMR-",
         "age":25,
         "height":187,
         "weight":72,
         "positionText":"Midfielder",
         "apps":11,
         "subOn":0,
         "minsPlayed":928,
         "rating":7.3854545454545448,
         "isManOfTheMatch":false,
         "playedPositionsShort":"AM(CLR)",
         "name":"Julian Draxler",
         "interceptionAll":0.67887931033999993
      },
      {
         "ranking":180,
         "seasonId":7361,
         "seasonName":"2018/2019",
         "tournamentId":2,
         "tournamentRegionId":252,
         "tournamentRegionCode":"gb-eng",
         "tournamentRegionName":"England",
         "regionCode":"gb-eng",
         "tournamentName":"Premier League",
         "tournamentShortName":"EPL",
         "firstName":"Raheem",
         "lastName":"Sterling",
         "playerId":97692,
         "isActive":true,
         "isOpta":true,
         "teamId":167,
         "teamName":"Manchester City",
         "teamRegionName":"England",
         "playedPositions":"-FW-MC-ML-MR-",
         "age":24,
         "height":170,
         "weight":69,
         "positionText":"Forward",
         "apps":16,
         "subOn":0,
         "minsPlayed":1365,
         "rating":7.713125,
         "isManOfTheMatch":false,
         "playedPositionsShort":"M(CLR),FW",
         "name":"Raheem Sterling",
         "interceptionAll":0.65934065934
      }
   ],
   "paging":{
      "currentPage":18,
      "totalPages":25,
      "resultsPerPage":10,
      "totalResults":246,
      "firstRecordIndex":171,
      "lastRecordIndex":180
   },
   "statColumns":[
      "apps",
      "subOn",
      "minsPlayed",
      "interceptionAll"
   ]
}