{
   "playerTableStats":[
      {
         "ranking":141,
         "seasonId":7344,
         "seasonName":"2018/2019",
         "tournamentId":22,
         "tournamentRegionId":74,
         "tournamentRegionCode":"fr",
         "tournamentRegionName":"France",
         "regionCode":"co",
         "tournamentName":"Ligue 1",
         "tournamentShortName":"FL1",
         "firstName":"Juan Ferney",
         "lastName":"Otero",
         "playerId":334654,
         "isActive":true,
         "isOpta":true,
         "teamId":151,
         "teamName":"Amiens",
         "teamRegionName":"France",
         "playedPositions":"-AMR-FW-",
         "age":23,
         "height":179,
         "weight":70,
         "positionText":"Forward",
         "apps":11,
         "subOn":0,
         "minsPlayed":915,
         "rating":6.5236363636363643,
         "isManOfTheMatch":false,
         "playedPositionsShort":"AM(R),FW",
         "name":"Juan Ferney Otero",
         "interceptionAll":0.885245901633
      },
      {
         "ranking":142,
         "seasonId":7468,
         "seasonName":"2018/2019",
         "tournamentId":5,
         "tournamentRegionId":108,
         "tournamentRegionCode":"it",
         "tournamentRegionName":"Italy",
         "regionCode":"ba",
         "tournamentName":"Serie A",
         "tournamentShortName":"ISA",
         "firstName":"Rade",
         "lastName":"Krunic",
         "playerId":294163,
         "isActive":true,
         "isOpta":true,
         "teamId":272,
         "teamName":"Empoli",
         "teamRegionName":"Italy",
         "playedPositions":"-AMC-",
         "age":25,
         "height":184,
         "weight":74,
         "positionText":"Midfielder",
         "apps":17,
         "subOn":0,
         "minsPlayed":1445,
         "rating":6.9376470588235293,
         "isManOfTheMatch":false,
         "playedPositionsShort":"AM(C)",
         "name":"Rade Krunic",
         "interceptionAll":0.871972318336
      },
      {
         "ranking":143,
         "seasonId":7405,
         "seasonName":"2018/2019",
         "tournamentId":3,
         "tournamentRegionId":81,
         "tournamentRegionCode":"de",
         "tournamentRegionName":"Germany",
         "regionCode":"rs",
         "tournamentName":"Bundesliga",
         "tournamentShortName":"GB",
         "firstName":"Filip",
         "lastName":"Kostic",
         "playerId":105995,
         "isActive":true,
         "isOpta":true,
         "teamId":45,
         "teamName":"Eintracht Frankfurt",
         "teamRegionName":"Germany",
         "playedPositions":"-AML-AMR-FW-",
         "age":26,
         "height":184,
         "weight":82,
         "positionText":"Midfielder",
         "apps":14,
         "subOn":0,
         "minsPlayed":1245,
         "rating":7.232857142857144,
         "isManOfTheMatch":false,
         "playedPositionsShort":"AM(LR),FW",
         "name":"Filip Kostic",
         "interceptionAll":0.86746987951199994
      },
      {
         "ranking":144,
         "seasonId":7466,
         "seasonName":"2018/2019",
         "tournamentId":4,
         "tournamentRegionId":206,
         "tournamentRegionCode":"es",
         "tournamentRegionName":"Spain",
         "regionCode":"sn",
         "tournamentName":"La Liga",
         "tournamentShortName":"SLL",
         "firstName":"Amath",
         "lastName":"Ndiaye",
         "playerId":315298,
         "isActive":true,
         "isOpta":true,
         "teamId":819,
         "teamName":"Getafe",
         "teamRegionName":"Spain",
         "playedPositions":"-AML-",
         "age":22,
         "height":173,
         "weight":70,
         "positionText":"Forward",
         "apps":13,
         "subOn":0,
         "minsPlayed":948,
         "rating":6.634615384615385,
         "isManOfTheMatch":false,
         "playedPositionsShort":"AM(L)",
         "name":"Amath Ndiaye",
         "interceptionAll":0.85443037973999991
      },
      {
         "ranking":145,
         "seasonId":7344,
         "seasonName":"2018/2019",
         "tournamentId":22,
         "tournamentRegionId":74,
         "tournamentRegionCode":"fr",
         "tournamentRegionName":"France",
         "regionCode":"fr",
         "tournamentName":"Ligue 1",
         "tournamentShortName":"FL1",
         "firstName":"Florent",
         "lastName":"Mollet",
         "playerId":114169,
         "isActive":true,
         "isOpta":true,
         "teamId":311,
         "teamName":"Montpellier",
         "teamRegionName":"France",
         "playedPositions":"-AMC-AML-",
         "age":27,
         "height":174,
         "weight":67,
         "positionText":"Midfielder",
         "apps":13,
         "subOn":0,
         "minsPlayed":1055,
         "rating":7.1692307692307686,
         "isManOfTheMatch":false,
         "playedPositionsShort":"AM(CL)",
         "name":"Florent Mollet",
         "interceptionAll":0.85308056871999993
      },
      {
         "ranking":146,
         "seasonId":7405,
         "seasonName":"2018/2019",
         "tournamentId":3,
         "tournamentRegionId":81,
         "tournamentRegionCode":"de",
         "tournamentRegionName":"Germany",
         "regionCode":"at",
         "tournamentName":"Bundesliga",
         "tournamentShortName":"GB",
         "firstName":"Kevin",
         "lastName":"Stöger",
         "playerId":104011,
         "isActive":true,
         "isOpta":true,
         "teamId":1150,
         "teamName":"Fortuna Duesseldorf",
         "teamRegionName":"Germany",
         "playedPositions":"-AMC-AML-",
         "age":25,
         "height":175,
         "weight":73,
         "positionText":"Midfielder",
         "apps":10,
         "subOn":0,
         "minsPlayed":852,
         "rating":7.0210000000000008,
         "isManOfTheMatch":false,
         "playedPositionsShort":"AM(CL)",
         "name":"Kevin Stöger",
         "interceptionAll":0.845070422528
      },
      {
         "ranking":147,
         "seasonId":7344,
         "seasonName":"2018/2019",
         "tournamentId":22,
         "tournamentRegionId":74,
         "tournamentRegionCode":"fr",
         "tournamentRegionName":"France",
         "regionCode":"fr",
         "tournamentName":"Ligue 1",
         "tournamentShortName":"FL1",
         "firstName":"Nicolas",
         "lastName":"Benezet",
         "playerId":93147,
         "isActive":true,
         "isOpta":true,
         "teamId":426,
         "teamName":"Guingamp",
         "teamRegionName":"France",
         "playedPositions":"-AMC-AML-AMR-",
         "age":27,
         "height":170,
         "weight":65,
         "positionText":"Midfielder",
         "apps":13,
         "subOn":0,
         "minsPlayed":1069,
         "rating":6.9976923076923088,
         "isManOfTheMatch":false,
         "playedPositionsShort":"AM(CLR)",
         "name":"Nicolas Benezet",
         "interceptionAll":0.84190832553
      },
      {
         "ranking":148,
         "seasonId":7466,
         "seasonName":"2018/2019",
         "tournamentId":4,
         "tournamentRegionId":206,
         "tournamentRegionCode":"es",
         "tournamentRegionName":"Spain",
         "regionCode":"es",
         "tournamentName":"La Liga",
         "tournamentShortName":"SLL",
         "firstName":"Óscar",
         "lastName":"Plano",
         "playerId":141533,
         "isActive":true,
         "isOpta":true,
         "teamId":58,
         "teamName":"Real Valladolid",
         "teamRegionName":"Spain",
         "playedPositions":"-AML-",
         "age":27,
         "height":180,
         "weight":72,
         "positionText":"Forward",
         "apps":11,
         "subOn":0,
         "minsPlayed":964,
         "rating":7.0290909090909084,
         "isManOfTheMatch":false,
         "playedPositionsShort":"AM(L)",
         "name":"Óscar Plano",
         "interceptionAll":0.84024896265
      },
      {
         "ranking":149,
         "seasonId":7405,
         "seasonName":"2018/2019",
         "tournamentId":3,
         "tournamentRegionId":81,
         "tournamentRegionCode":"de",
         "tournamentRegionName":"Germany",
         "regionCode":"de",
         "tournamentName":"Bundesliga",
         "tournamentShortName":"GB",
         "firstName":"Danny",
         "lastName":"da Costa",
         "playerId":94934,
         "isActive":true,
         "isOpta":true,
         "teamId":45,
         "teamName":"Eintracht Frankfurt",
         "teamRegionName":"Germany",
         "playedPositions":"-DR-MR-",
         "age":25,
         "height":187,
         "weight":85,
         "positionText":"Defender",
         "apps":11,
         "subOn":0,
         "minsPlayed":981,
         "rating":6.9218181818181828,
         "isManOfTheMatch":false,
         "playedPositionsShort":"D(R),M(R)",
         "name":"Danny da Costa",
         "interceptionAll":0.825688073394
      },
      {
         "ranking":150,
         "seasonId":7466,
         "seasonName":"2018/2019",
         "tournamentId":4,
         "tournamentRegionId":206,
         "tournamentRegionCode":"es",
         "tournamentRegionName":"Spain",
         "regionCode":"es",
         "tournamentName":"La Liga",
         "tournamentShortName":"SLL",
         "firstName":"Joan",
         "lastName":"Jordán",
         "playerId":238941,
         "isActive":true,
         "isOpta":true,
         "teamId":824,
         "teamName":"Eibar",
         "teamRegionName":"Spain",
         "playedPositions":"-MC-",
         "age":24,
         "height":184,
         "weight":74,
         "positionText":"Midfielder",
         "apps":14,
         "subOn":0,
         "minsPlayed":1209,
         "rating":7.2957142857142845,
         "isManOfTheMatch":false,
         "playedPositionsShort":"M(C)",
         "name":"Joan Jordán",
         "interceptionAll":0.818858560784
      }
   ],
   "paging":{
      "currentPage":15,
      "totalPages":25,
      "resultsPerPage":10,
      "totalResults":246,
      "firstRecordIndex":141,
      "lastRecordIndex":150
   },
   "statColumns":[
      "apps",
      "subOn",
      "minsPlayed",
      "interceptionAll"
   ]
}