{
   "playerTableStats":[
      {
         "ranking":71,
         "seasonId":7405,
         "seasonName":"2018/2019",
         "tournamentId":3,
         "tournamentRegionId":81,
         "tournamentRegionCode":"de",
         "tournamentRegionName":"Germany",
         "regionCode":"rs",
         "tournamentName":"Bundesliga",
         "tournamentShortName":"GB",
         "firstName":"Mijat",
         "lastName":"Gacinovic",
         "playerId":300318,
         "isActive":true,
         "isOpta":true,
         "teamId":45,
         "teamName":"Eintracht Frankfurt",
         "teamRegionName":"Germany",
         "playedPositions":"-MC-ML-MR-",
         "age":23,
         "height":175,
         "weight":66,
         "positionText":"Midfielder",
         "apps":10,
         "subOn":0,
         "minsPlayed":772,
         "rating":6.6480000000000006,
         "isManOfTheMatch":false,
         "playedPositionsShort":"M(CLR)",
         "name":"Mijat Gacinovic",
         "interceptionAll":1.28238341968
      },
      {
         "ranking":72,
         "seasonId":7361,
         "seasonName":"2018/2019",
         "tournamentId":2,
         "tournamentRegionId":252,
         "tournamentRegionCode":"gb-eng",
         "tournamentRegionName":"England",
         "regionCode":"gb-eng",
         "tournamentName":"Premier League",
         "tournamentShortName":"EPL",
         "firstName":"Will",
         "lastName":"Hughes",
         "playerId":108638,
         "isActive":true,
         "isOpta":true,
         "teamId":27,
         "teamName":"Watford",
         "teamRegionName":"England",
         "playedPositions":"-MC-",
         "age":23,
         "height":185,
         "weight":74,
         "positionText":"Midfielder",
         "apps":16,
         "subOn":0,
         "minsPlayed":1199,
         "rating":6.6831249999999986,
         "isManOfTheMatch":false,
         "playedPositionsShort":"M(C)",
         "name":"Will Hughes",
         "interceptionAll":1.276063386142
      },
      {
         "ranking":73,
         "seasonId":7466,
         "seasonName":"2018/2019",
         "tournamentId":4,
         "tournamentRegionId":206,
         "tournamentRegionCode":"es",
         "tournamentRegionName":"Spain",
         "regionCode":"fr",
         "tournamentName":"La Liga",
         "tournamentShortName":"SLL",
         "firstName":"Thomas",
         "lastName":"Lemar",
         "playerId":132962,
         "isActive":true,
         "isOpta":true,
         "teamId":63,
         "teamName":"Atletico Madrid",
         "teamRegionName":"Spain",
         "playedPositions":"-AMC-AML-AMR-",
         "age":23,
         "height":171,
         "weight":62,
         "positionText":"Midfielder",
         "apps":12,
         "subOn":0,
         "minsPlayed":849,
         "rating":6.9591666666666656,
         "isManOfTheMatch":false,
         "playedPositionsShort":"AM(CLR)",
         "name":"Thomas Lemar",
         "interceptionAll":1.272084805644
      },
      {
         "ranking":74,
         "seasonId":7468,
         "seasonName":"2018/2019",
         "tournamentId":5,
         "tournamentRegionId":108,
         "tournamentRegionCode":"it",
         "tournamentRegionName":"Italy",
         "regionCode":"dz",
         "tournamentName":"Serie A",
         "tournamentShortName":"ISA",
         "firstName":"Ismael",
         "lastName":"Bennacer",
         "playerId":259102,
         "isActive":true,
         "isOpta":true,
         "teamId":272,
         "teamName":"Empoli",
         "teamRegionName":"Italy",
         "playedPositions":"-MC-",
         "age":21,
         "height":175,
         "weight":70,
         "positionText":"Midfielder",
         "apps":14,
         "subOn":0,
         "minsPlayed":1211,
         "rating":6.862857142857143,
         "isManOfTheMatch":false,
         "playedPositionsShort":"M(C)",
         "name":"Ismael Bennacer",
         "interceptionAll":1.263418662246
      },
      {
         "ranking":75,
         "seasonId":7361,
         "seasonName":"2018/2019",
         "tournamentId":2,
         "tournamentRegionId":252,
         "tournamentRegionCode":"gb-eng",
         "tournamentRegionName":"England",
         "regionCode":"gb-eng",
         "tournamentName":"Premier League",
         "tournamentShortName":"EPL",
         "firstName":"Joe",
         "lastName":"Ralls",
         "playerId":108093,
         "isActive":true,
         "isOpta":true,
         "teamId":188,
         "teamName":"Cardiff",
         "teamRegionName":"Wales",
         "playedPositions":"-DMC-ML-",
         "age":25,
         "height":183,
         "weight":70,
         "positionText":"Midfielder",
         "apps":13,
         "subOn":0,
         "minsPlayed":1087,
         "rating":6.536153846153848,
         "isManOfTheMatch":false,
         "playedPositionsShort":"DMC,M(L)",
         "name":"Joe Ralls",
         "interceptionAll":1.24195032198
      },
      {
         "ranking":76,
         "seasonId":7361,
         "seasonName":"2018/2019",
         "tournamentId":2,
         "tournamentRegionId":252,
         "tournamentRegionCode":"gb-eng",
         "tournamentRegionName":"England",
         "regionCode":"br",
         "tournamentName":"Premier League",
         "tournamentShortName":"EPL",
         "firstName":"Bernard",
         "lastName":"Anício Caldeira Duarte",
         "playerId":101642,
         "isActive":true,
         "isOpta":true,
         "teamId":31,
         "teamName":"Everton",
         "teamRegionName":"England",
         "playedPositions":"-AML-",
         "age":26,
         "height":166,
         "weight":57,
         "positionText":"Midfielder",
         "apps":11,
         "subOn":0,
         "minsPlayed":800,
         "rating":6.6881818181818176,
         "isManOfTheMatch":false,
         "playedPositionsShort":"AM(L)",
         "name":"Bernard",
         "interceptionAll":1.2375
      },
      {
         "ranking":77,
         "seasonId":7466,
         "seasonName":"2018/2019",
         "tournamentId":4,
         "tournamentRegionId":206,
         "tournamentRegionCode":"es",
         "tournamentRegionName":"Spain",
         "regionCode":"es",
         "tournamentName":"La Liga",
         "tournamentShortName":"SLL",
         "firstName":"Saúl",
         "lastName":"Ñíguez",
         "playerId":112161,
         "isActive":true,
         "isOpta":true,
         "teamId":63,
         "teamName":"Atletico Madrid",
         "teamRegionName":"Spain",
         "playedPositions":"-DC-DL-MC-ML-MR-",
         "age":24,
         "height":184,
         "weight":77,
         "positionText":"Midfielder",
         "apps":13,
         "subOn":0,
         "minsPlayed":1170,
         "rating":7.050769230769232,
         "isManOfTheMatch":false,
         "playedPositionsShort":"D(CL),M(CLR)",
         "name":"Saúl Ñíguez",
         "interceptionAll":1.230769230768
      },
      {
         "ranking":78,
         "seasonId":7466,
         "seasonName":"2018/2019",
         "tournamentId":4,
         "tournamentRegionId":206,
         "tournamentRegionCode":"es",
         "tournamentRegionName":"Spain",
         "regionCode":"es",
         "tournamentName":"La Liga",
         "tournamentShortName":"SLL",
         "firstName":"Rubén",
         "lastName":"Alcaraz",
         "playerId":279711,
         "isActive":true,
         "isOpta":true,
         "teamId":58,
         "teamName":"Real Valladolid",
         "teamRegionName":"Spain",
         "playedPositions":"-DMC-",
         "age":27,
         "height":180,
         "weight":78,
         "positionText":"Midfielder",
         "apps":17,
         "subOn":0,
         "minsPlayed":1470,
         "rating":7.0264705882352931,
         "isManOfTheMatch":false,
         "playedPositionsShort":"DMC",
         "name":"Rubén Alcaraz",
         "interceptionAll":1.2244897959
      },
      {
         "ranking":79,
         "seasonId":7361,
         "seasonName":"2018/2019",
         "tournamentId":2,
         "tournamentRegionId":252,
         "tournamentRegionCode":"gb-eng",
         "tournamentRegionName":"England",
         "regionCode":"br",
         "tournamentName":"Premier League",
         "tournamentShortName":"EPL",
         "firstName":"Felipe Anderson",
         "lastName":"Pereira Gomes",
         "playerId":93026,
         "isActive":true,
         "isOpta":true,
         "teamId":29,
         "teamName":"West Ham",
         "teamRegionName":"England",
         "playedPositions":"-FW-MC-ML-MR-",
         "age":25,
         "height":175,
         "weight":70,
         "positionText":"Midfielder",
         "apps":21,
         "subOn":0,
         "minsPlayed":1776,
         "rating":7.2980952380952386,
         "isManOfTheMatch":false,
         "playedPositionsShort":"M(CLR),FW",
         "name":"Felipe Anderson",
         "interceptionAll":1.2162162161999999
      },
      {
         "ranking":80,
         "seasonId":7466,
         "seasonName":"2018/2019",
         "tournamentId":4,
         "tournamentRegionId":206,
         "tournamentRegionCode":"es",
         "tournamentRegionName":"Spain",
         "regionCode":"es",
         "tournamentName":"La Liga",
         "tournamentShortName":"SLL",
         "firstName":"Jorge",
         "lastName":"Resurrección",
         "playerId":80764,
         "isActive":true,
         "isOpta":true,
         "teamId":63,
         "teamName":"Atletico Madrid",
         "teamRegionName":"Spain",
         "playedPositions":"-MC-ML-MR-",
         "age":27,
         "height":176,
         "weight":74,
         "positionText":"Midfielder",
         "apps":14,
         "subOn":0,
         "minsPlayed":1260,
         "rating":7.0371428571428556,
         "isManOfTheMatch":false,
         "playedPositionsShort":"M(CLR)",
         "name":"Koke",
         "interceptionAll":1.2142857142760002
      }
   ],
   "paging":{
      "currentPage":8,
      "totalPages":25,
      "resultsPerPage":10,
      "totalResults":246,
      "firstRecordIndex":71,
      "lastRecordIndex":80
   },
   "statColumns":[
      "apps",
      "subOn",
      "minsPlayed",
      "interceptionAll"
   ]
}