{
   "playerTableStats":[
      {
         "ranking":61,
         "seasonId":7405,
         "seasonName":"2018/2019",
         "tournamentId":3,
         "tournamentRegionId":81,
         "tournamentRegionCode":"de",
         "tournamentRegionName":"Germany",
         "regionCode":"nl",
         "tournamentName":"Bundesliga",
         "tournamentShortName":"GB",
         "firstName":"Davy",
         "lastName":"Klaassen",
         "playerId":108860,
         "isActive":true,
         "isOpta":true,
         "teamId":42,
         "teamName":"Werder Bremen",
         "teamRegionName":"Germany",
         "playedPositions":"-AMC-",
         "age":25,
         "height":179,
         "weight":70,
         "positionText":"Midfielder",
         "apps":17,
         "subOn":0,
         "minsPlayed":1426,
         "rating":6.895294117647059,
         "isManOfTheMatch":false,
         "playedPositionsShort":"AM(C)",
         "name":"Davy Klaassen",
         "interceptionAll":1.388499298736
      },
      {
         "ranking":62,
         "seasonId":7468,
         "seasonName":"2018/2019",
         "tournamentId":5,
         "tournamentRegionId":108,
         "tournamentRegionCode":"it",
         "tournamentRegionName":"Italy",
         "regionCode":"it",
         "tournamentName":"Serie A",
         "tournamentShortName":"ISA",
         "firstName":"Raffaele",
         "lastName":"Maiello",
         "playerId":83389,
         "isActive":true,
         "isOpta":true,
         "teamId":2732,
         "teamName":"Frosinone",
         "teamRegionName":"Italy",
         "playedPositions":"-MC-",
         "age":27,
         "height":177,
         "weight":73,
         "positionText":"Midfielder",
         "apps":14,
         "subOn":0,
         "minsPlayed":1103,
         "rating":6.6457142857142859,
         "isManOfTheMatch":false,
         "playedPositionsShort":"M(C)",
         "name":"Raffaele Maiello",
         "interceptionAll":1.3871260199439999
      },
      {
         "ranking":63,
         "seasonId":7361,
         "seasonName":"2018/2019",
         "tournamentId":2,
         "tournamentRegionId":252,
         "tournamentRegionCode":"gb-eng",
         "tournamentRegionName":"England",
         "regionCode":"gb-eng",
         "tournamentName":"Premier League",
         "tournamentShortName":"EPL",
         "firstName":"Bamidele",
         "lastName":"Alli",
         "playerId":131519,
         "isActive":true,
         "isOpta":true,
         "teamId":30,
         "teamName":"Tottenham",
         "teamRegionName":"England",
         "playedPositions":"-MC-ML-",
         "age":22,
         "height":188,
         "weight":76,
         "positionText":"Midfielder",
         "apps":12,
         "subOn":0,
         "minsPlayed":986,
         "rating":7.3266666666666653,
         "isManOfTheMatch":false,
         "playedPositionsShort":"M(CL)",
         "name":"Dele Alli",
         "interceptionAll":1.36916835699
      },
      {
         "ranking":64,
         "seasonId":7405,
         "seasonName":"2018/2019",
         "tournamentId":3,
         "tournamentRegionId":81,
         "tournamentRegionCode":"de",
         "tournamentRegionName":"Germany",
         "regionCode":"de",
         "tournamentName":"Bundesliga",
         "tournamentShortName":"GB",
         "firstName":"Dominik",
         "lastName":"Kohr",
         "playerId":110165,
         "isActive":true,
         "isOpta":true,
         "teamId":36,
         "teamName":"Bayer Leverkusen",
         "teamRegionName":"Germany",
         "playedPositions":"-DMC-",
         "age":24,
         "height":185,
         "weight":81,
         "positionText":"Midfielder",
         "apps":10,
         "subOn":0,
         "minsPlayed":856,
         "rating":6.7819999999999991,
         "isManOfTheMatch":false,
         "playedPositionsShort":"DMC",
         "name":"Dominik Kohr",
         "interceptionAll":1.366822429895
      },
      {
         "ranking":65,
         "seasonId":7405,
         "seasonName":"2018/2019",
         "tournamentId":3,
         "tournamentRegionId":81,
         "tournamentRegionCode":"de",
         "tournamentRegionName":"Germany",
         "regionCode":"es",
         "tournamentName":"Bundesliga",
         "tournamentShortName":"GB",
         "firstName":"Thiago",
         "lastName":"Alcántara do Nascimento",
         "playerId":74939,
         "isActive":true,
         "isOpta":true,
         "teamId":37,
         "teamName":"Bayern Munich",
         "teamRegionName":"Germany",
         "playedPositions":"-MC-",
         "age":27,
         "height":174,
         "weight":70,
         "positionText":"Midfielder",
         "apps":11,
         "subOn":0,
         "minsPlayed":990,
         "rating":7.7145454545454548,
         "isManOfTheMatch":false,
         "playedPositionsShort":"M(C)",
         "name":"Thiago Alcántara",
         "interceptionAll":1.363636363635
      },
      {
         "ranking":66,
         "seasonId":7344,
         "seasonName":"2018/2019",
         "tournamentId":22,
         "tournamentRegionId":74,
         "tournamentRegionCode":"fr",
         "tournamentRegionName":"France",
         "regionCode":"fr",
         "tournamentName":"Ligue 1",
         "tournamentShortName":"FL1",
         "firstName":"Jonathan",
         "lastName":"Bamba",
         "playerId":241019,
         "isActive":true,
         "isOpta":true,
         "teamId":607,
         "teamName":"Lille",
         "teamRegionName":"France",
         "playedPositions":"-AML-AMR-FW-",
         "age":22,
         "height":175,
         "weight":72,
         "positionText":"Midfielder",
         "apps":17,
         "subOn":0,
         "minsPlayed":1463,
         "rating":7.0823529411764694,
         "isManOfTheMatch":false,
         "playedPositionsShort":"AM(LR),FW",
         "name":"Jonathan Bamba",
         "interceptionAll":1.353383458636
      },
      {
         "ranking":67,
         "seasonId":7468,
         "seasonName":"2018/2019",
         "tournamentId":5,
         "tournamentRegionId":108,
         "tournamentRegionCode":"it",
         "tournamentRegionName":"Italy",
         "regionCode":"it",
         "tournamentName":"Serie A",
         "tournamentShortName":"ISA",
         "firstName":"Stefano",
         "lastName":"Sensi",
         "playerId":136306,
         "isActive":true,
         "isOpta":true,
         "teamId":2889,
         "teamName":"Sassuolo",
         "teamRegionName":"Italy",
         "playedPositions":"-MC-",
         "age":23,
         "height":168,
         "weight":62,
         "positionText":"Midfielder",
         "apps":10,
         "subOn":0,
         "minsPlayed":799,
         "rating":7.0409999999999995,
         "isManOfTheMatch":false,
         "playedPositionsShort":"M(C)",
         "name":"Stefano Sensi",
         "interceptionAll":1.351689612012
      },
      {
         "ranking":68,
         "seasonId":7405,
         "seasonName":"2018/2019",
         "tournamentId":3,
         "tournamentRegionId":81,
         "tournamentRegionCode":"de",
         "tournamentRegionName":"Germany",
         "regionCode":"de",
         "tournamentName":"Bundesliga",
         "tournamentShortName":"GB",
         "firstName":"Yannick",
         "lastName":"Gerhardt",
         "playerId":130899,
         "isActive":true,
         "isOpta":true,
         "teamId":33,
         "teamName":"Wolfsburg",
         "teamRegionName":"Germany",
         "playedPositions":"-DL-MC-ML-",
         "age":24,
         "height":184,
         "weight":81,
         "positionText":"Defender",
         "apps":13,
         "subOn":0,
         "minsPlayed":1133,
         "rating":6.8707692307692314,
         "isManOfTheMatch":false,
         "playedPositionsShort":"D(L),M(CL)",
         "name":"Yannick Gerhardt",
         "interceptionAll":1.3503971756259998
      },
      {
         "ranking":69,
         "seasonId":7344,
         "seasonName":"2018/2019",
         "tournamentId":22,
         "tournamentRegionId":74,
         "tournamentRegionCode":"fr",
         "tournamentRegionName":"France",
         "regionCode":"fr",
         "tournamentName":"Ligue 1",
         "tournamentShortName":"FL1",
         "firstName":"Pierre",
         "lastName":"Lees-Melou",
         "playerId":301243,
         "isActive":true,
         "isOpta":true,
         "teamId":613,
         "teamName":"Nice",
         "teamRegionName":"France",
         "playedPositions":"-AMC-AML-AMR-",
         "age":25,
         "height":185,
         "weight":69,
         "positionText":"Midfielder",
         "apps":14,
         "subOn":0,
         "minsPlayed":1233,
         "rating":6.9142857142857137,
         "isManOfTheMatch":false,
         "playedPositionsShort":"AM(CLR)",
         "name":"Pierre Lees-Melou",
         "interceptionAll":1.313868613122
      },
      {
         "ranking":70,
         "seasonId":7361,
         "seasonName":"2018/2019",
         "tournamentId":2,
         "tournamentRegionId":252,
         "tournamentRegionCode":"gb-eng",
         "tournamentRegionName":"England",
         "regionCode":"es",
         "tournamentName":"Premier League",
         "tournamentShortName":"EPL",
         "firstName":"Víctor",
         "lastName":"Camarasa",
         "playerId":140957,
         "isActive":true,
         "isOpta":true,
         "teamId":188,
         "teamName":"Cardiff",
         "teamRegionName":"Wales",
         "playedPositions":"-MC-MR-",
         "age":24,
         "height":183,
         "weight":76,
         "positionText":"Midfielder",
         "apps":20,
         "subOn":0,
         "minsPlayed":1734,
         "rating":6.7805000000000009,
         "isManOfTheMatch":false,
         "playedPositionsShort":"M(CR)",
         "name":"Víctor Camarasa",
         "interceptionAll":1.29757785465
      }
   ],
   "paging":{
      "currentPage":7,
      "totalPages":25,
      "resultsPerPage":10,
      "totalResults":246,
      "firstRecordIndex":61,
      "lastRecordIndex":70
   },
   "statColumns":[
      "apps",
      "subOn",
      "minsPlayed",
      "interceptionAll"
   ]
}