{
   "playerTableStats":[
      {
         "ranking":151,
         "seasonId":7361,
         "seasonName":"2018/2019",
         "tournamentId":2,
         "tournamentRegionId":252,
         "tournamentRegionCode":"gb-eng",
         "tournamentRegionName":"England",
         "regionCode":"fr",
         "tournamentName":"Premier League",
         "tournamentShortName":"EPL",
         "firstName":"Abdoulaye",
         "lastName":"Doucouré",
         "playerId":116317,
         "isActive":true,
         "isOpta":true,
         "teamId":27,
         "teamName":"Watford",
         "teamRegionName":"England",
         "playedPositions":"-MC-",
         "age":26,
         "height":184,
         "weight":75,
         "positionText":"Midfielder",
         "apps":20,
         "subOn":0,
         "minsPlayed":1766,
         "rating":6.7799999999999994,
         "isManOfTheMatch":false,
         "playedPositionsShort":"M(C)",
         "name":"Abdoulaye Doucouré",
         "interceptionAll":0.815402038496
      },
      {
         "ranking":152,
         "seasonId":7466,
         "seasonName":"2018/2019",
         "tournamentId":4,
         "tournamentRegionId":206,
         "tournamentRegionCode":"es",
         "tournamentRegionName":"Spain",
         "regionCode":"es",
         "tournamentName":"La Liga",
         "tournamentShortName":"SLL",
         "firstName":"Jonathan",
         "lastName":"Rodríguez Menéndez",
         "playerId":294140,
         "isActive":true,
         "isOpta":true,
         "teamId":60,
         "teamName":"Deportivo Alaves",
         "teamRegionName":"Spain",
         "playedPositions":"-AML-AMR-",
         "age":27,
         "height":179,
         "weight":76,
         "positionText":"Midfielder",
         "apps":17,
         "subOn":0,
         "minsPlayed":1436,
         "rating":6.9170588235294117,
         "isManOfTheMatch":false,
         "playedPositionsShort":"AM(LR)",
         "name":"Jony",
         "interceptionAll":0.814763231191
      },
      {
         "ranking":153,
         "seasonId":7468,
         "seasonName":"2018/2019",
         "tournamentId":5,
         "tournamentRegionId":108,
         "tournamentRegionCode":"it",
         "tournamentRegionName":"Italy",
         "regionCode":"br",
         "tournamentName":"Serie A",
         "tournamentShortName":"ISA",
         "firstName":"Gerson",
         "lastName":"Santos da Silva",
         "playerId":242791,
         "isActive":true,
         "isOpta":true,
         "teamId":73,
         "teamName":"Fiorentina",
         "teamRegionName":"Italy",
         "playedPositions":"-AMC-AMR-",
         "age":21,
         "height":175,
         "weight":66,
         "positionText":"Midfielder",
         "apps":14,
         "subOn":0,
         "minsPlayed":1107,
         "rating":6.8335714285714291,
         "isManOfTheMatch":false,
         "playedPositionsShort":"AM(CR)",
         "name":"Gerson",
         "interceptionAll":0.81300813008000006
      },
      {
         "ranking":154,
         "seasonId":7361,
         "seasonName":"2018/2019",
         "tournamentId":2,
         "tournamentRegionId":252,
         "tournamentRegionCode":"gb-eng",
         "tournamentRegionName":"England",
         "regionCode":"gb-wls",
         "tournamentName":"Premier League",
         "tournamentShortName":"EPL",
         "firstName":"David",
         "lastName":"Brooks",
         "playerId":295084,
         "isActive":true,
         "isOpta":true,
         "teamId":183,
         "teamName":"Bournemouth",
         "teamRegionName":"England",
         "playedPositions":"-AMC-AMR-",
         "age":21,
         "height":173,
         "weight":62,
         "positionText":"Midfielder",
         "apps":18,
         "subOn":0,
         "minsPlayed":1340,
         "rating":6.8538888888888891,
         "isManOfTheMatch":false,
         "playedPositionsShort":"AM(CR)",
         "name":"David Brooks",
         "interceptionAll":0.80597014924799992
      },
      {
         "ranking":155,
         "seasonId":7344,
         "seasonName":"2018/2019",
         "tournamentId":22,
         "tournamentRegionId":74,
         "tournamentRegionCode":"fr",
         "tournamentRegionName":"France",
         "regionCode":"fr",
         "tournamentName":"Ligue 1",
         "tournamentShortName":"FL1",
         "firstName":"Adrien",
         "lastName":"Thomasson",
         "playerId":113747,
         "isActive":true,
         "isOpta":true,
         "teamId":148,
         "teamName":"Strasbourg",
         "teamRegionName":"France",
         "playedPositions":"-MC-ML-MR-",
         "age":25,
         "height":177,
         "weight":72,
         "positionText":"Midfielder",
         "apps":15,
         "subOn":0,
         "minsPlayed":1240,
         "rating":6.8786666666666667,
         "isManOfTheMatch":false,
         "playedPositionsShort":"M(CLR)",
         "name":"Adrien Thomasson",
         "interceptionAll":0.79838709677100006
      },
      {
         "ranking":156,
         "seasonId":7344,
         "seasonName":"2018/2019",
         "tournamentId":22,
         "tournamentRegionId":74,
         "tournamentRegionCode":"fr",
         "tournamentRegionName":"France",
         "regionCode":"gn",
         "tournamentName":"Ligue 1",
         "tournamentShortName":"FL1",
         "firstName":"François",
         "lastName":"Kamano",
         "playerId":231150,
         "isActive":true,
         "isOpta":true,
         "teamId":315,
         "teamName":"Bordeaux",
         "teamRegionName":"France",
         "playedPositions":"-AML-AMR-FW-",
         "age":22,
         "height":175,
         "weight":77,
         "positionText":"Forward",
         "apps":16,
         "subOn":0,
         "minsPlayed":1362,
         "rating":7.006875,
         "isManOfTheMatch":false,
         "playedPositionsShort":"AM(LR),FW",
         "name":"François Kamano",
         "interceptionAll":0.792951541848
      },
      {
         "ranking":157,
         "seasonId":7468,
         "seasonName":"2018/2019",
         "tournamentId":5,
         "tournamentRegionId":108,
         "tournamentRegionCode":"it",
         "tournamentRegionName":"Italy",
         "regionCode":"it",
         "tournamentName":"Serie A",
         "tournamentShortName":"ISA",
         "firstName":"Daniel",
         "lastName":"Bessa",
         "playerId":122964,
         "isActive":true,
         "isOpta":true,
         "teamId":278,
         "teamName":"Genoa",
         "teamRegionName":"Italy",
         "playedPositions":"-AMC-",
         "age":25,
         "height":173,
         "weight":68,
         "positionText":"Midfielder",
         "apps":13,
         "subOn":0,
         "minsPlayed":1149,
         "rating":6.6238461538461531,
         "isManOfTheMatch":false,
         "playedPositionsShort":"AM(C)",
         "name":"Daniel Bessa",
         "interceptionAll":0.78328981723
      },
      {
         "ranking":158,
         "seasonId":7468,
         "seasonName":"2018/2019",
         "tournamentId":5,
         "tournamentRegionId":108,
         "tournamentRegionCode":"it",
         "tournamentRegionName":"Italy",
         "regionCode":"gh",
         "tournamentName":"Serie A",
         "tournamentShortName":"ISA",
         "firstName":"Afriyie",
         "lastName":"Acquah",
         "playerId":91180,
         "isActive":true,
         "isOpta":true,
         "teamId":272,
         "teamName":"Empoli",
         "teamRegionName":"Italy",
         "playedPositions":"-DMC-",
         "age":27,
         "height":179,
         "weight":70,
         "positionText":"Midfielder",
         "apps":12,
         "subOn":0,
         "minsPlayed":925,
         "rating":6.5483333333333329,
         "isManOfTheMatch":false,
         "playedPositionsShort":"DMC",
         "name":"Afriyie Acquah",
         "interceptionAll":0.778378378376
      },
      {
         "ranking":159,
         "seasonId":7361,
         "seasonName":"2018/2019",
         "tournamentId":2,
         "tournamentRegionId":252,
         "tournamentRegionCode":"gb-eng",
         "tournamentRegionName":"England",
         "regionCode":"gb-sct",
         "tournamentName":"Premier League",
         "tournamentShortName":"EPL",
         "firstName":"Stuart",
         "lastName":"Armstrong",
         "playerId":93677,
         "isActive":true,
         "isOpta":true,
         "teamId":18,
         "teamName":"Southampton",
         "teamRegionName":"England",
         "playedPositions":"-AMC-AML-",
         "age":26,
         "height":183,
         "weight":75,
         "positionText":"Midfielder",
         "apps":10,
         "subOn":0,
         "minsPlayed":810,
         "rating":6.937,
         "isManOfTheMatch":false,
         "playedPositionsShort":"AM(CL)",
         "name":"Stuart Armstrong",
         "interceptionAll":0.777777777777
      },
      {
         "ranking":160,
         "seasonId":7344,
         "seasonName":"2018/2019",
         "tournamentId":22,
         "tournamentRegionId":74,
         "tournamentRegionCode":"fr",
         "tournamentRegionName":"France",
         "regionCode":"fr",
         "tournamentName":"Ligue 1",
         "tournamentShortName":"FL1",
         "firstName":"Adrien",
         "lastName":"Rabiot",
         "playerId":116609,
         "isActive":true,
         "isOpta":true,
         "teamId":304,
         "teamName":"Paris Saint-Germain",
         "teamRegionName":"France",
         "playedPositions":"-DMC-",
         "age":23,
         "height":188,
         "weight":71,
         "positionText":"Midfielder",
         "apps":12,
         "subOn":0,
         "minsPlayed":1052,
         "rating":7.4999999999999991,
         "isManOfTheMatch":false,
         "playedPositionsShort":"DMC",
         "name":"Adrien Rabiot",
         "interceptionAll":0.769961977182
      }
   ],
   "paging":{
      "currentPage":16,
      "totalPages":25,
      "resultsPerPage":10,
      "totalResults":246,
      "firstRecordIndex":151,
      "lastRecordIndex":160
   },
   "statColumns":[
      "apps",
      "subOn",
      "minsPlayed",
      "interceptionAll"
   ]
}