{
   "playerTableStats":[
      {
         "ranking":111,
         "seasonId":7344,
         "seasonName":"2018/2019",
         "tournamentId":22,
         "tournamentRegionId":74,
         "tournamentRegionCode":"fr",
         "tournamentRegionName":"France",
         "regionCode":"fr",
         "tournamentName":"Ligue 1",
         "tournamentShortName":"FL1",
         "firstName":"Flavien",
         "lastName":"Tait",
         "playerId":296241,
         "isActive":true,
         "isOpta":true,
         "teamId":614,
         "teamName":"Angers",
         "teamRegionName":"France",
         "playedPositions":"-AMC-AML-AMR-",
         "age":25,
         "height":175,
         "weight":70,
         "positionText":"Midfielder",
         "apps":16,
         "subOn":0,
         "minsPlayed":1261,
         "rating":7.06875,
         "isManOfTheMatch":false,
         "playedPositionsShort":"AM(CLR)",
         "name":"Flavien Tait",
         "interceptionAll":1.0705789056300001
      },
      {
         "ranking":112,
         "seasonId":7468,
         "seasonName":"2018/2019",
         "tournamentId":5,
         "tournamentRegionId":108,
         "tournamentRegionCode":"it",
         "tournamentRegionName":"Italy",
         "regionCode":"se",
         "tournamentName":"Serie A",
         "tournamentShortName":"ISA",
         "firstName":"Mattias",
         "lastName":"Svanberg",
         "playerId":282348,
         "isActive":true,
         "isOpta":true,
         "teamId":71,
         "teamName":"Bologna",
         "teamRegionName":"Italy",
         "playedPositions":"-MC-ML-",
         "age":20,
         "height":185,
         "weight":75,
         "positionText":"Midfielder",
         "apps":12,
         "subOn":0,
         "minsPlayed":934,
         "rating":6.5424999999999995,
         "isManOfTheMatch":false,
         "playedPositionsShort":"M(CL)",
         "name":"Mattias Svanberg",
         "interceptionAll":1.05995717344
      },
      {
         "ranking":113,
         "seasonId":7466,
         "seasonName":"2018/2019",
         "tournamentId":4,
         "tournamentRegionId":206,
         "tournamentRegionCode":"es",
         "tournamentRegionName":"Spain",
         "regionCode":"ar",
         "tournamentName":"La Liga",
         "tournamentShortName":"SLL",
         "firstName":"Santiago",
         "lastName":"Cáseres",
         "playerId":328517,
         "isActive":true,
         "isOpta":true,
         "teamId":839,
         "teamName":"Villarreal",
         "teamRegionName":"Spain",
         "playedPositions":"-DMC-",
         "age":21,
         "height":177,
         "weight":75,
         "positionText":"Midfielder",
         "apps":12,
         "subOn":0,
         "minsPlayed":1029,
         "rating":6.7941666666666665,
         "isManOfTheMatch":false,
         "playedPositionsShort":"DMC",
         "name":"Santiago Cáseres",
         "interceptionAll":1.049562682212
      },
      {
         "ranking":114,
         "seasonId":7466,
         "seasonName":"2018/2019",
         "tournamentId":4,
         "tournamentRegionId":206,
         "tournamentRegionCode":"es",
         "tournamentRegionName":"Spain",
         "regionCode":"es",
         "tournamentName":"La Liga",
         "tournamentShortName":"SLL",
         "firstName":"Brais",
         "lastName":"Méndez",
         "playerId":344542,
         "isActive":true,
         "isOpta":true,
         "teamId":62,
         "teamName":"Celta Vigo",
         "teamRegionName":"Spain",
         "playedPositions":"-AMC-AMR-",
         "age":22,
         "height":187,
         "weight":76,
         "positionText":"Midfielder",
         "apps":13,
         "subOn":0,
         "minsPlayed":1121,
         "rating":7.5053846153846147,
         "isManOfTheMatch":false,
         "playedPositionsShort":"AM(CR)",
         "name":"Brais Méndez",
         "interceptionAll":1.043710972343
      },
      {
         "ranking":115,
         "seasonId":7344,
         "seasonName":"2018/2019",
         "tournamentId":22,
         "tournamentRegionId":74,
         "tournamentRegionCode":"fr",
         "tournamentRegionName":"France",
         "regionCode":"fr",
         "tournamentName":"Ligue 1",
         "tournamentShortName":"FL1",
         "firstName":"Mathieu",
         "lastName":"Cafaro",
         "playerId":297211,
         "isActive":true,
         "isOpta":true,
         "teamId":950,
         "teamName":"Reims",
         "teamRegionName":"France",
         "playedPositions":"-AMC-",
         "age":21,
         "height":178,
         "weight":74,
         "positionText":"Midfielder",
         "apps":10,
         "subOn":0,
         "minsPlayed":782,
         "rating":6.7900000000000009,
         "isManOfTheMatch":false,
         "playedPositionsShort":"AM(C)",
         "name":"Mathieu Cafaro",
         "interceptionAll":1.035805626594
      },
      {
         "ranking":116,
         "seasonId":7405,
         "seasonName":"2018/2019",
         "tournamentId":3,
         "tournamentRegionId":81,
         "tournamentRegionCode":"de",
         "tournamentRegionName":"Germany",
         "regionCode":"cm",
         "tournamentName":"Bundesliga",
         "tournamentShortName":"GB",
         "firstName":"Pierre",
         "lastName":"Kunde",
         "playerId":362751,
         "isActive":true,
         "isOpta":true,
         "teamId":219,
         "teamName":"Mainz 05",
         "teamRegionName":"Germany",
         "playedPositions":"-MC-",
         "age":23,
         "height":180,
         "weight":85,
         "positionText":"Midfielder",
         "apps":14,
         "subOn":0,
         "minsPlayed":1134,
         "rating":6.8364285714285717,
         "isManOfTheMatch":false,
         "playedPositionsShort":"M(C)",
         "name":"Pierre Kunde",
         "interceptionAll":1.031746031745
      },
      {
         "ranking":117,
         "seasonId":7344,
         "seasonName":"2018/2019",
         "tournamentId":22,
         "tournamentRegionId":74,
         "tournamentRegionCode":"fr",
         "tournamentRegionName":"France",
         "regionCode":"fr",
         "tournamentName":"Ligue 1",
         "tournamentShortName":"FL1",
         "firstName":"Houssem",
         "lastName":"Aouar",
         "playerId":322096,
         "isActive":true,
         "isOpta":true,
         "teamId":228,
         "teamName":"Lyon",
         "teamRegionName":"France",
         "playedPositions":"-MC-ML-",
         "age":20,
         "height":175,
         "weight":70,
         "positionText":"Midfielder",
         "apps":16,
         "subOn":0,
         "minsPlayed":1396,
         "rating":7.3362500000000015,
         "isManOfTheMatch":false,
         "playedPositionsShort":"M(CL)",
         "name":"Houssem Aouar",
         "interceptionAll":1.03151862464
      },
      {
         "ranking":118,
         "seasonId":7361,
         "seasonName":"2018/2019",
         "tournamentId":2,
         "tournamentRegionId":252,
         "tournamentRegionCode":"gb-eng",
         "tournamentRegionName":"England",
         "regionCode":"pt",
         "tournamentName":"Premier League",
         "tournamentShortName":"EPL",
         "firstName":"André Filipe",
         "lastName":"Tavares Gomes",
         "playerId":118123,
         "isActive":true,
         "isOpta":true,
         "teamId":31,
         "teamName":"Everton",
         "teamRegionName":"England",
         "playedPositions":"-MC-ML-MR-",
         "age":25,
         "height":188,
         "weight":84,
         "positionText":"Midfielder",
         "apps":13,
         "subOn":0,
         "minsPlayed":1064,
         "rating":6.660000000000001,
         "isManOfTheMatch":false,
         "playedPositionsShort":"M(CLR)",
         "name":"André Gomes",
         "interceptionAll":1.01503759398
      },
      {
         "ranking":119,
         "seasonId":7468,
         "seasonName":"2018/2019",
         "tournamentId":5,
         "tournamentRegionId":108,
         "tournamentRegionCode":"it",
         "tournamentRegionName":"Italy",
         "regionCode":null,
         "tournamentName":"Serie A",
         "tournamentShortName":"ISA",
         "firstName":"Hamed Junior",
         "lastName":"Traore",
         "playerId":362551,
         "isActive":true,
         "isOpta":true,
         "teamId":272,
         "teamName":"Empoli",
         "teamRegionName":"Italy",
         "playedPositions":"-MC-",
         "age":18,
         "height":0,
         "weight":0,
         "positionText":"Midfielder",
         "apps":11,
         "subOn":0,
         "minsPlayed":888,
         "rating":6.5827272727272721,
         "isManOfTheMatch":false,
         "playedPositionsShort":"M(C)",
         "name":"Hamed Junior Traore",
         "interceptionAll":1.01351351351
      },
      {
         "ranking":120,
         "seasonId":7466,
         "seasonName":"2018/2019",
         "tournamentId":4,
         "tournamentRegionId":206,
         "tournamentRegionCode":"es",
         "tournamentRegionName":"Spain",
         "regionCode":"uy",
         "tournamentName":"La Liga",
         "tournamentShortName":"SLL",
         "firstName":"Mauro",
         "lastName":"Arambarri",
         "playerId":303016,
         "isActive":true,
         "isOpta":true,
         "teamId":819,
         "teamName":"Getafe",
         "teamRegionName":"Spain",
         "playedPositions":"-DMC-",
         "age":23,
         "height":175,
         "weight":74,
         "positionText":"Midfielder",
         "apps":17,
         "subOn":0,
         "minsPlayed":1431,
         "rating":6.7111764705882342,
         "isManOfTheMatch":false,
         "playedPositionsShort":"DMC",
         "name":"Mauro Arambarri",
         "interceptionAll":1.006289308176
      }
   ],
   "paging":{
      "currentPage":12,
      "totalPages":25,
      "resultsPerPage":10,
      "totalResults":246,
      "firstRecordIndex":111,
      "lastRecordIndex":120
   },
   "statColumns":[
      "apps",
      "subOn",
      "minsPlayed",
      "interceptionAll"
   ]
}