{
   "playerTableStats":[
      {
         "height":172,
         "weight":72,
         "age":26,
         "isManOfTheMatch":false,
         "isActive":true,
         "playedPositions":"-AMC-AML-AMR-FW-",
         "playedPositionsShort":"AM(CLR),FW",
         "teamRegionName":"England",
         "regionCode":"br",
         "tournamentShortName":"EPL",
         "apps":10,
         "subOn":0,
         "tackleWonTotal":1.374045801516,
         "tackleTotalAttempted":2.6335877862389996,
         "name":"Lucas Moura",
         "firstName":"Lucas",
         "lastName":"Rodrigues Moura da Silva",
         "playerId":92508,
         "positionText":"Midfielder",
         "teamId":30,
         "teamName":"Tottenham",
         "seasonId":7361,
         "seasonName":"2018/2019",
         "isOpta":true,
         "tournamentId":2,
         "tournamentRegionId":252,
         "tournamentRegionCode":"gb-eng",
         "tournamentRegionName":"England",
         "tournamentName":"Premier League",
         "rating":7.0240000000000009,
         "minsPlayed":786,
         "challengeLost":1.2595419847229998,
         "ranking":171
      },
      {
         "height":181,
         "weight":72,
         "age":26,
         "isManOfTheMatch":false,
         "isActive":true,
         "playedPositions":"-AMC-AMR-FW-",
         "playedPositionsShort":"AM(CR),FW",
         "teamRegionName":"Spain",
         "regionCode":"br",
         "tournamentShortName":"SLL",
         "apps":11,
         "subOn":0,
         "tackleWonTotal":1.373239436608,
         "tackleTotalAttempted":2.323943661952,
         "name":"Leo Baptistao",
         "firstName":"Leo",
         "lastName":"Baptistao",
         "playerId":116227,
         "positionText":"Forward",
         "teamId":70,
         "teamName":"Espanyol",
         "seasonId":7466,
         "seasonName":"2018/2019",
         "isOpta":true,
         "tournamentId":4,
         "tournamentRegionId":206,
         "tournamentRegionCode":"es",
         "tournamentRegionName":"Spain",
         "tournamentName":"La Liga",
         "rating":6.72090909090909,
         "minsPlayed":852,
         "challengeLost":0.950704225344,
         "ranking":172
      },
      {
         "height":179,
         "weight":70,
         "age":27,
         "isManOfTheMatch":false,
         "isActive":true,
         "playedPositions":"-DMC-",
         "playedPositionsShort":"DMC",
         "teamRegionName":"Italy",
         "regionCode":"gh",
         "tournamentShortName":"ISA",
         "apps":12,
         "subOn":0,
         "tackleWonTotal":1.362162162158,
         "tackleTotalAttempted":2.043243243237,
         "name":"Afriyie Acquah",
         "firstName":"Afriyie",
         "lastName":"Acquah",
         "playerId":91180,
         "positionText":"Midfielder",
         "teamId":272,
         "teamName":"Empoli",
         "seasonId":7468,
         "seasonName":"2018/2019",
         "isOpta":true,
         "tournamentId":5,
         "tournamentRegionId":108,
         "tournamentRegionCode":"it",
         "tournamentRegionName":"Italy",
         "tournamentName":"Serie A",
         "rating":6.5483333333333329,
         "minsPlayed":925,
         "challengeLost":0.681081081079,
         "ranking":173
      },
      {
         "height":175,
         "weight":70,
         "age":25,
         "isManOfTheMatch":false,
         "isActive":true,
         "playedPositions":"-AMC-AML-AMR-",
         "playedPositionsShort":"AM(CLR)",
         "teamRegionName":"France",
         "regionCode":"fr",
         "tournamentShortName":"FL1",
         "apps":16,
         "subOn":0,
         "tackleWonTotal":1.356066613798,
         "tackleTotalAttempted":2.569389373512,
         "name":"Flavien Tait",
         "firstName":"Flavien",
         "lastName":"Tait",
         "playerId":296241,
         "positionText":"Midfielder",
         "teamId":614,
         "teamName":"Angers",
         "seasonId":7344,
         "seasonName":"2018/2019",
         "isOpta":true,
         "tournamentId":22,
         "tournamentRegionId":74,
         "tournamentRegionCode":"fr",
         "tournamentRegionName":"France",
         "tournamentName":"Ligue 1",
         "rating":7.06875,
         "minsPlayed":1261,
         "challengeLost":1.213322759714,
         "ranking":174
      },
      {
         "height":170,
         "weight":65,
         "age":26,
         "isManOfTheMatch":false,
         "isActive":true,
         "playedPositions":"-AMC-AML-AMR-",
         "playedPositionsShort":"AM(CLR)",
         "teamRegionName":"Spain",
         "regionCode":"es",
         "tournamentShortName":"SLL",
         "apps":12,
         "subOn":0,
         "tackleWonTotal":1.355421686745,
         "tackleTotalAttempted":2.71084337349,
         "name":"Iker Muniain",
         "firstName":"Iker",
         "lastName":"Muniain",
         "playerId":77922,
         "positionText":"Forward",
         "teamId":53,
         "teamName":"Athletic Bilbao",
         "seasonId":7466,
         "seasonName":"2018/2019",
         "isOpta":true,
         "tournamentId":4,
         "tournamentRegionId":206,
         "tournamentRegionCode":"es",
         "tournamentRegionName":"Spain",
         "tournamentName":"La Liga",
         "rating":7.0233333333333334,
         "minsPlayed":996,
         "challengeLost":1.355421686745,
         "ranking":175
      },
      {
         "height":183,
         "weight":75,
         "age":26,
         "isManOfTheMatch":false,
         "isActive":true,
         "playedPositions":"-AMC-AML-",
         "playedPositionsShort":"AM(CL)",
         "teamRegionName":"England",
         "regionCode":"gb-sct",
         "tournamentShortName":"EPL",
         "apps":10,
         "subOn":0,
         "tackleWonTotal":1.3333333333319999,
         "tackleTotalAttempted":2.555555555553,
         "name":"Stuart Armstrong",
         "firstName":"Stuart",
         "lastName":"Armstrong",
         "playerId":93677,
         "positionText":"Midfielder",
         "teamId":18,
         "teamName":"Southampton",
         "seasonId":7361,
         "seasonName":"2018/2019",
         "isOpta":true,
         "tournamentId":2,
         "tournamentRegionId":252,
         "tournamentRegionCode":"gb-eng",
         "tournamentRegionName":"England",
         "tournamentName":"Premier League",
         "rating":6.937,
         "minsPlayed":810,
         "challengeLost":1.222222222221,
         "ranking":176
      },
      {
         "height":183,
         "weight":72,
         "age":24,
         "isManOfTheMatch":false,
         "isActive":true,
         "playedPositions":"-AMR-FW-",
         "playedPositionsShort":"AM(R),FW",
         "teamRegionName":"Italy",
         "regionCode":"it",
         "tournamentShortName":"ISA",
         "apps":15,
         "subOn":0,
         "tackleWonTotal":1.322505800455,
         "tackleTotalAttempted":3.549883990695,
         "name":"Domenico Berardi",
         "firstName":"Domenico",
         "lastName":"Berardi",
         "playerId":118542,
         "positionText":"Forward",
         "teamId":2889,
         "teamName":"Sassuolo",
         "seasonId":7468,
         "seasonName":"2018/2019",
         "isOpta":true,
         "tournamentId":5,
         "tournamentRegionId":108,
         "tournamentRegionCode":"it",
         "tournamentRegionName":"Italy",
         "tournamentName":"Serie A",
         "rating":7.128,
         "minsPlayed":1293,
         "challengeLost":2.22737819024,
         "ranking":177
      },
      {
         "height":186,
         "weight":83,
         "age":23,
         "isManOfTheMatch":false,
         "isActive":true,
         "playedPositions":"-DC-DMC-DR-",
         "playedPositionsShort":"D(CR),DMC",
         "teamRegionName":"Germany",
         "regionCode":"ci",
         "tournamentShortName":"GB",
         "apps":15,
         "subOn":0,
         "tackleWonTotal":1.3153846153700002,
         "tackleTotalAttempted":2.5615384615100005,
         "name":"Jean-Philippe Gbamin",
         "firstName":"Jean-Philippe",
         "lastName":"Gbamin",
         "playerId":129758,
         "positionText":"Midfielder",
         "teamId":219,
         "teamName":"Mainz 05",
         "seasonId":7405,
         "seasonName":"2018/2019",
         "isOpta":true,
         "tournamentId":3,
         "tournamentRegionId":81,
         "tournamentRegionCode":"de",
         "tournamentRegionName":"Germany",
         "tournamentName":"Bundesliga",
         "rating":6.6566666666666672,
         "minsPlayed":1300,
         "challengeLost":1.2461538461400001,
         "ranking":178
      },
      {
         "height":176,
         "weight":65,
         "age":27,
         "isManOfTheMatch":false,
         "isActive":true,
         "playedPositions":"-AMC-AML-AMR-",
         "playedPositionsShort":"AM(CLR)",
         "teamRegionName":"Spain",
         "regionCode":"es",
         "tournamentShortName":"SLL",
         "apps":15,
         "subOn":0,
         "tackleWonTotal":1.2984054669599998,
         "tackleTotalAttempted":2.4601366742399997,
         "name":"Sergio Canales",
         "firstName":"Sergio",
         "lastName":"Canales",
         "playerId":44189,
         "positionText":"Midfielder",
         "teamId":54,
         "teamName":"Real Betis",
         "seasonId":7466,
         "seasonName":"2018/2019",
         "isOpta":true,
         "tournamentId":4,
         "tournamentRegionId":206,
         "tournamentRegionCode":"es",
         "tournamentRegionName":"Spain",
         "tournamentName":"La Liga",
         "rating":6.9920000000000009,
         "minsPlayed":1317,
         "challengeLost":1.16173120728,
         "ranking":179
      },
      {
         "height":180,
         "weight":75,
         "age":24,
         "isManOfTheMatch":false,
         "isActive":true,
         "playedPositions":"-AMC-AML-",
         "playedPositionsShort":"AM(CL)",
         "teamRegionName":"Italy",
         "regionCode":"pl",
         "tournamentShortName":"ISA",
         "apps":16,
         "subOn":0,
         "tackleWonTotal":1.297420333832,
         "tackleTotalAttempted":2.185128983296,
         "name":"Piotr Zielinski",
         "firstName":"Piotr",
         "lastName":"Zielinski",
         "playerId":118169,
         "positionText":"Midfielder",
         "teamId":276,
         "teamName":"Napoli",
         "seasonId":7468,
         "seasonName":"2018/2019",
         "isOpta":true,
         "tournamentId":5,
         "tournamentRegionId":108,
         "tournamentRegionCode":"it",
         "tournamentRegionName":"Italy",
         "tournamentName":"Serie A",
         "rating":6.9275000000000011,
         "minsPlayed":1318,
         "challengeLost":0.887708649464,
         "ranking":180
      }
   ],
   "paging":{
      "currentPage":18,
      "totalPages":25,
      "resultsPerPage":10,
      "totalResults":246,
      "firstRecordIndex":171,
      "lastRecordIndex":180
   },
   "statColumns":[
      "apps",
      "subOn",
      "minsPlayed",
      "tackleWonTotal",
      "challengeLost",
      "tackleTotalAttempted"
   ]
}