{
   "playerTableStats":[
      {
         "ranking":91,
         "seasonId":7344,
         "seasonName":"2018/2019",
         "tournamentId":22,
         "tournamentRegionId":74,
         "tournamentRegionCode":"fr",
         "tournamentRegionName":"France",
         "regionCode":"fr",
         "tournamentName":"Ligue 1",
         "tournamentShortName":"FL1",
         "firstName":"Ludovic",
         "lastName":"Blas",
         "playerId":299562,
         "isActive":true,
         "isOpta":true,
         "teamId":426,
         "teamName":"Guingamp",
         "teamRegionName":"France",
         "playedPositions":"-MC-ML-MR-",
         "age":21,
         "height":180,
         "weight":73,
         "positionText":"Midfielder",
         "apps":14,
         "subOn":0,
         "minsPlayed":1163,
         "rating":6.7228571428571424,
         "isManOfTheMatch":false,
         "playedPositionsShort":"M(CLR)",
         "tackleWonTotal":2.166809974196,
         "tackleTotalAttempted":3.018056749773,
         "name":"Ludovic Blas",
         "challengeLost":0.851246775577
      },
      {
         "ranking":92,
         "seasonId":7468,
         "seasonName":"2018/2019",
         "tournamentId":5,
         "tournamentRegionId":108,
         "tournamentRegionCode":"it",
         "tournamentRegionName":"Italy",
         "regionCode":"gh",
         "tournamentName":"Serie A",
         "tournamentShortName":"ISA",
         "firstName":"Alfred",
         "lastName":"Duncan",
         "playerId":113762,
         "isActive":true,
         "isOpta":true,
         "teamId":2889,
         "teamName":"Sassuolo",
         "teamRegionName":"Italy",
         "playedPositions":"-MC-",
         "age":25,
         "height":178,
         "weight":78,
         "positionText":"Midfielder",
         "apps":12,
         "subOn":0,
         "minsPlayed":1041,
         "rating":6.9316666666666658,
         "isManOfTheMatch":false,
         "playedPositionsShort":"M(C)",
         "tackleWonTotal":2.1613832853,
         "tackleTotalAttempted":3.8040345821279997,
         "name":"Alfred Duncan",
         "challengeLost":1.642651296828
      },
      {
         "ranking":93,
         "seasonId":7344,
         "seasonName":"2018/2019",
         "tournamentId":22,
         "tournamentRegionId":74,
         "tournamentRegionCode":"fr",
         "tournamentRegionName":"France",
         "regionCode":"fr",
         "tournamentName":"Ligue 1",
         "tournamentShortName":"FL1",
         "firstName":"Nabil",
         "lastName":"Fekir",
         "playerId":134893,
         "isActive":true,
         "isOpta":true,
         "teamId":228,
         "teamName":"Lyon",
         "teamRegionName":"France",
         "playedPositions":"-AMC-AMR-FW-",
         "age":25,
         "height":173,
         "weight":72,
         "positionText":"Forward",
         "apps":10,
         "subOn":0,
         "minsPlayed":728,
         "rating":7.297,
         "isManOfTheMatch":false,
         "playedPositionsShort":"AM(CR),FW",
         "tackleWonTotal":2.101648351642,
         "tackleTotalAttempted":2.596153846146,
         "name":"Nabil Fekir",
         "challengeLost":0.494505494504
      },
      {
         "ranking":94,
         "seasonId":7468,
         "seasonName":"2018/2019",
         "tournamentId":5,
         "tournamentRegionId":108,
         "tournamentRegionCode":"it",
         "tournamentRegionName":"Italy",
         "regionCode":"it",
         "tournamentName":"Serie A",
         "tournamentShortName":"ISA",
         "firstName":"Daniele",
         "lastName":"Baselli",
         "playerId":83716,
         "isActive":true,
         "isOpta":true,
         "teamId":72,
         "teamName":"Torino",
         "teamRegionName":"Italy",
         "playedPositions":"-MC-",
         "age":26,
         "height":182,
         "weight":70,
         "positionText":"Midfielder",
         "apps":15,
         "subOn":0,
         "minsPlayed":1223,
         "rating":6.9500000000000011,
         "isManOfTheMatch":false,
         "playedPositionsShort":"M(C)",
         "tackleWonTotal":2.0605069500960003,
         "tackleTotalAttempted":2.9435813572800003,
         "name":"Daniele Baselli",
         "challengeLost":0.883074407184
      },
      {
         "ranking":95,
         "seasonId":7361,
         "seasonName":"2018/2019",
         "tournamentId":2,
         "tournamentRegionId":252,
         "tournamentRegionCode":"gb-eng",
         "tournamentRegionName":"England",
         "regionCode":"gb-eng",
         "tournamentName":"Premier League",
         "tournamentShortName":"EPL",
         "firstName":"Andros",
         "lastName":"Townsend",
         "playerId":71522,
         "isActive":true,
         "isOpta":true,
         "teamId":162,
         "teamName":"Crystal Palace",
         "teamRegionName":"England",
         "playedPositions":"-AML-AMR-FW-",
         "age":27,
         "height":181,
         "weight":77,
         "positionText":"Midfielder",
         "apps":12,
         "subOn":0,
         "minsPlayed":1049,
         "rating":6.9875,
         "isManOfTheMatch":false,
         "playedPositionsShort":"AM(LR),FW",
         "tackleWonTotal":2.0591039084640004,
         "tackleTotalAttempted":3.4318398474400005,
         "name":"Andros Townsend",
         "challengeLost":1.372735938976
      },
      {
         "ranking":96,
         "seasonId":7468,
         "seasonName":"2018/2019",
         "tournamentId":5,
         "tournamentRegionId":108,
         "tournamentRegionCode":"it",
         "tournamentRegionName":"Italy",
         "regionCode":"ch",
         "tournamentName":"Serie A",
         "tournamentShortName":"ISA",
         "firstName":"Edimilson",
         "lastName":"Fernandes",
         "playerId":130964,
         "isActive":true,
         "isOpta":true,
         "teamId":73,
         "teamName":"Fiorentina",
         "teamRegionName":"Italy",
         "playedPositions":"-MC-MR-",
         "age":22,
         "height":190,
         "weight":70,
         "positionText":"Midfielder",
         "apps":12,
         "subOn":0,
         "minsPlayed":920,
         "rating":6.6875,
         "isManOfTheMatch":false,
         "playedPositionsShort":"M(CR)",
         "tackleWonTotal":2.0543478260759995,
         "tackleTotalAttempted":2.8369565217239994,
         "name":"Edimilson Fernandes",
         "challengeLost":0.782608695648
      },
      {
         "ranking":97,
         "seasonId":7468,
         "seasonName":"2018/2019",
         "tournamentId":5,
         "tournamentRegionId":108,
         "tournamentRegionCode":"it",
         "tournamentRegionName":"Italy",
         "regionCode":"it",
         "tournamentName":"Serie A",
         "tournamentShortName":"ISA",
         "firstName":"Bryan",
         "lastName":"Cristante",
         "playerId":109149,
         "isActive":true,
         "isOpta":true,
         "teamId":84,
         "teamName":"Roma",
         "teamRegionName":"Italy",
         "playedPositions":"-MC-",
         "age":23,
         "height":186,
         "weight":80,
         "positionText":"Midfielder",
         "apps":12,
         "subOn":0,
         "minsPlayed":969,
         "rating":7.1608333333333327,
         "isManOfTheMatch":false,
         "playedPositionsShort":"M(C)",
         "tackleWonTotal":2.04334365323,
         "tackleTotalAttempted":3.52941176467,
         "name":"Bryan Cristante",
         "challengeLost":1.48606811144
      },
      {
         "ranking":98,
         "seasonId":7344,
         "seasonName":"2018/2019",
         "tournamentId":22,
         "tournamentRegionId":74,
         "tournamentRegionCode":"fr",
         "tournamentRegionName":"France",
         "regionCode":"fr",
         "tournamentName":"Ligue 1",
         "tournamentShortName":"FL1",
         "firstName":"Denis",
         "lastName":"Bouanga",
         "playerId":249857,
         "isActive":true,
         "isOpta":true,
         "teamId":245,
         "teamName":"Nimes",
         "teamRegionName":"France",
         "playedPositions":"-AML-",
         "age":24,
         "height":180,
         "weight":71,
         "positionText":"Midfielder",
         "apps":13,
         "subOn":0,
         "minsPlayed":1102,
         "rating":6.93076923076923,
         "isManOfTheMatch":false,
         "playedPositionsShort":"AM(L)",
         "tackleWonTotal":2.04174228675,
         "tackleTotalAttempted":3.75680580762,
         "name":"Denis Bouanga",
         "challengeLost":1.71506352087
      },
      {
         "ranking":99,
         "seasonId":7405,
         "seasonName":"2018/2019",
         "tournamentId":3,
         "tournamentRegionId":81,
         "tournamentRegionCode":"de",
         "tournamentRegionName":"Germany",
         "regionCode":"de",
         "tournamentName":"Bundesliga",
         "tournamentShortName":"GB",
         "firstName":"Leon",
         "lastName":"Goretzka",
         "playerId":115519,
         "isActive":true,
         "isOpta":true,
         "teamId":37,
         "teamName":"Bayern Munich",
         "teamRegionName":"Germany",
         "playedPositions":"-MC-MR-",
         "age":23,
         "height":189,
         "weight":79,
         "positionText":"Midfielder",
         "apps":10,
         "subOn":0,
         "minsPlayed":838,
         "rating":7.106,
         "isManOfTheMatch":false,
         "playedPositionsShort":"M(CR)",
         "tackleWonTotal":2.040572792361,
         "tackleTotalAttempted":3.007159904532,
         "name":"Leon Goretzka",
         "challengeLost":0.96658711217099991
      },
      {
         "ranking":100,
         "seasonId":7344,
         "seasonName":"2018/2019",
         "tournamentId":22,
         "tournamentRegionId":74,
         "tournamentRegionCode":"fr",
         "tournamentRegionName":"France",
         "regionCode":"de",
         "tournamentName":"Ligue 1",
         "tournamentShortName":"FL1",
         "firstName":"Julian",
         "lastName":"Draxler",
         "playerId":96449,
         "isActive":true,
         "isOpta":true,
         "teamId":304,
         "teamName":"Paris Saint-Germain",
         "teamRegionName":"France",
         "playedPositions":"-AMC-AML-AMR-",
         "age":25,
         "height":187,
         "weight":72,
         "positionText":"Midfielder",
         "apps":11,
         "subOn":0,
         "minsPlayed":928,
         "rating":7.3854545454545448,
         "isManOfTheMatch":false,
         "playedPositionsShort":"AM(CLR)",
         "tackleWonTotal":2.03663793102,
         "tackleTotalAttempted":3.49137931032,
         "name":"Julian Draxler",
         "challengeLost":1.4547413793
      }
   ],
   "paging":{
      "currentPage":10,
      "totalPages":25,
      "resultsPerPage":10,
      "totalResults":246,
      "firstRecordIndex":91,
      "lastRecordIndex":100
   },
   "statColumns":[
      "apps",
      "subOn",
      "minsPlayed",
      "tackleWonTotal",
      "challengeLost",
      "tackleTotalAttempted"
   ]
}