{
   "playerTableStats":[
      {
         "height":185,
         "weight":84,
         "age":26,
         "isManOfTheMatch":false,
         "isActive":true,
         "playedPositions":"-DMC-",
         "playedPositionsShort":"DMC",
         "teamRegionName":"Spain",
         "regionCode":"br",
         "tournamentShortName":"SLL",
         "apps":12,
         "subOn":0,
         "tackleWonTotal":3.347921225356,
         "tackleTotalAttempted":4.9234135667,
         "name":"Casemiro",
         "firstName":"Carlos Henrique Jose",
         "lastName":"Francisco Venancio",
         "playerId":88526,
         "positionText":"Midfielder",
         "teamId":52,
         "teamName":"Real Madrid",
         "seasonId":7466,
         "seasonName":"2018/2019",
         "isOpta":true,
         "tournamentId":4,
         "tournamentRegionId":206,
         "tournamentRegionCode":"es",
         "tournamentRegionName":"Spain",
         "tournamentName":"La Liga",
         "rating":7.0225000000000017,
         "minsPlayed":914,
         "challengeLost":1.575492341344,
         "ranking":11
      },
      {
         "height":180,
         "weight":78,
         "age":27,
         "isManOfTheMatch":false,
         "isActive":true,
         "playedPositions":"-DMC-",
         "playedPositionsShort":"DMC",
         "teamRegionName":"Spain",
         "regionCode":"es",
         "tournamentShortName":"SLL",
         "apps":17,
         "subOn":0,
         "tackleWonTotal":3.30612244893,
         "tackleTotalAttempted":4.959183673395,
         "name":"Rubén Alcaraz",
         "firstName":"Rubén",
         "lastName":"Alcaraz",
         "playerId":279711,
         "positionText":"Midfielder",
         "teamId":58,
         "teamName":"Real Valladolid",
         "seasonId":7466,
         "seasonName":"2018/2019",
         "isOpta":true,
         "tournamentId":4,
         "tournamentRegionId":206,
         "tournamentRegionCode":"es",
         "tournamentRegionName":"Spain",
         "tournamentName":"La Liga",
         "rating":7.0264705882352931,
         "minsPlayed":1470,
         "challengeLost":1.653061224465,
         "ranking":12
      },
      {
         "height":181,
         "weight":68,
         "age":26,
         "isManOfTheMatch":false,
         "isActive":true,
         "playedPositions":"-MC-MR-",
         "playedPositionsShort":"M(CR)",
         "teamRegionName":"Italy",
         "regionCode":"hr",
         "tournamentShortName":"ISA",
         "apps":15,
         "subOn":0,
         "tackleWonTotal":3.2836932241189998,
         "tackleTotalAttempted":5.2941176470489992,
         "name":"Marcelo Brozovic",
         "firstName":"Marcelo",
         "lastName":"Brozovic",
         "playerId":87449,
         "positionText":"Midfielder",
         "teamId":75,
         "teamName":"Inter",
         "seasonId":7468,
         "seasonName":"2018/2019",
         "isOpta":true,
         "tournamentId":5,
         "tournamentRegionId":108,
         "tournamentRegionCode":"it",
         "tournamentRegionName":"Italy",
         "tournamentName":"Serie A",
         "rating":7.2260000000000009,
         "minsPlayed":1343,
         "challengeLost":2.01042442293,
         "ranking":13
      },
      {
         "height":170,
         "weight":68,
         "age":27,
         "isManOfTheMatch":false,
         "isActive":true,
         "playedPositions":"-DMC-",
         "playedPositionsShort":"DMC",
         "teamRegionName":"Germany",
         "regionCode":"de",
         "tournamentShortName":"GB",
         "apps":17,
         "subOn":0,
         "tackleWonTotal":3.199195171014,
         "tackleTotalAttempted":4.52716297785,
         "name":"Diego Demme",
         "firstName":"Diego",
         "lastName":"Demme",
         "playerId":133886,
         "positionText":"Midfielder",
         "teamId":7614,
         "teamName":"RasenBallsport Leipzig",
         "seasonId":7405,
         "seasonName":"2018/2019",
         "isOpta":true,
         "tournamentId":3,
         "tournamentRegionId":81,
         "tournamentRegionCode":"de",
         "tournamentRegionName":"Germany",
         "tournamentName":"Bundesliga",
         "rating":7.0535294117647052,
         "minsPlayed":1491,
         "challengeLost":1.327967806836,
         "ranking":14
      },
      {
         "height":183,
         "weight":74,
         "age":22,
         "isManOfTheMatch":false,
         "isActive":true,
         "playedPositions":"-DMC-",
         "playedPositionsShort":"DMC",
         "teamRegionName":"England",
         "regionCode":"ng",
         "tournamentShortName":"EPL",
         "apps":20,
         "subOn":0,
         "tackleWonTotal":3.15,
         "tackleTotalAttempted":4.5,
         "name":"Wilfred Ndidi",
         "firstName":"Onyinye Wilfred",
         "lastName":"Ndidi",
         "playerId":327683,
         "positionText":"Midfielder",
         "teamId":14,
         "teamName":"Leicester",
         "seasonId":7361,
         "seasonName":"2018/2019",
         "isOpta":true,
         "tournamentId":2,
         "tournamentRegionId":252,
         "tournamentRegionCode":"gb-eng",
         "tournamentRegionName":"England",
         "tournamentName":"Premier League",
         "rating":7.2150000000000007,
         "minsPlayed":1800,
         "challengeLost":1.35,
         "ranking":15
      },
      {
         "height":178,
         "weight":74,
         "age":21,
         "isManOfTheMatch":false,
         "isActive":true,
         "playedPositions":"-AMC-",
         "playedPositionsShort":"AM(C)",
         "teamRegionName":"France",
         "regionCode":"fr",
         "tournamentShortName":"FL1",
         "apps":10,
         "subOn":0,
         "tackleWonTotal":3.107416879782,
         "tackleTotalAttempted":5.409207161102,
         "name":"Mathieu Cafaro",
         "firstName":"Mathieu",
         "lastName":"Cafaro",
         "playerId":297211,
         "positionText":"Midfielder",
         "teamId":950,
         "teamName":"Reims",
         "seasonId":7344,
         "seasonName":"2018/2019",
         "isOpta":true,
         "tournamentId":22,
         "tournamentRegionId":74,
         "tournamentRegionCode":"fr",
         "tournamentRegionName":"France",
         "tournamentName":"Ligue 1",
         "rating":6.7900000000000009,
         "minsPlayed":782,
         "challengeLost":2.30179028132,
         "ranking":16
      },
      {
         "height":178,
         "weight":75,
         "age":27,
         "isManOfTheMatch":false,
         "isActive":true,
         "playedPositions":"-MC-",
         "playedPositionsShort":"M(C)",
         "teamRegionName":"Spain",
         "regionCode":"es",
         "tournamentShortName":"SLL",
         "apps":15,
         "subOn":0,
         "tackleWonTotal":3.1008403361,
         "tackleTotalAttempted":5.2184873949,
         "name":"Manu Trigueros",
         "firstName":"Manuel",
         "lastName":"Trigueros Muñoz",
         "playerId":102234,
         "positionText":"Midfielder",
         "teamId":839,
         "teamName":"Villarreal",
         "seasonId":7466,
         "seasonName":"2018/2019",
         "isOpta":true,
         "tournamentId":4,
         "tournamentRegionId":206,
         "tournamentRegionCode":"es",
         "tournamentRegionName":"Spain",
         "tournamentName":"La Liga",
         "rating":6.76,
         "minsPlayed":1190,
         "challengeLost":2.1176470588000003,
         "ranking":17
      },
      {
         "height":176,
         "weight":73,
         "age":23,
         "isManOfTheMatch":false,
         "isActive":true,
         "playedPositions":"-MC-",
         "playedPositionsShort":"M(C)",
         "teamRegionName":"Italy",
         "regionCode":"pl",
         "tournamentShortName":"ISA",
         "apps":15,
         "subOn":0,
         "tackleWonTotal":3.048387096762,
         "tackleTotalAttempted":5.153225806431,
         "name":"Karol Linetty",
         "firstName":"Karol",
         "lastName":"Linetty",
         "playerId":141736,
         "positionText":"Midfielder",
         "teamId":271,
         "teamName":"Sampdoria",
         "seasonId":7468,
         "seasonName":"2018/2019",
         "isOpta":true,
         "tournamentId":5,
         "tournamentRegionId":108,
         "tournamentRegionCode":"it",
         "tournamentRegionName":"Italy",
         "tournamentName":"Serie A",
         "rating":6.768,
         "minsPlayed":1240,
         "challengeLost":2.104838709669,
         "ranking":18
      },
      {
         "height":172,
         "weight":67,
         "age":23,
         "isManOfTheMatch":false,
         "isActive":true,
         "playedPositions":"-AMC-AML-",
         "playedPositionsShort":"AM(CL)",
         "teamRegionName":"Spain",
         "regionCode":"mk",
         "tournamentShortName":"SLL",
         "apps":15,
         "subOn":0,
         "tackleWonTotal":3.00227445034,
         "tackleTotalAttempted":4.844579226685,
         "name":"Enis Bardhi",
         "firstName":"Enis",
         "lastName":"Bardhi",
         "playerId":275687,
         "positionText":"Midfielder",
         "teamId":832,
         "teamName":"Levante",
         "seasonId":7466,
         "seasonName":"2018/2019",
         "isOpta":true,
         "tournamentId":4,
         "tournamentRegionId":206,
         "tournamentRegionCode":"es",
         "tournamentRegionName":"Spain",
         "tournamentName":"La Liga",
         "rating":6.817333333333333,
         "minsPlayed":1319,
         "challengeLost":1.842304776345,
         "ranking":19
      },
      {
         "height":184,
         "weight":77,
         "age":24,
         "isManOfTheMatch":false,
         "isActive":true,
         "playedPositions":"-DC-DL-MC-ML-MR-",
         "playedPositionsShort":"D(CL),M(CLR)",
         "teamRegionName":"Spain",
         "regionCode":"es",
         "tournamentShortName":"SLL",
         "apps":13,
         "subOn":0,
         "tackleWonTotal":2.999999999997,
         "tackleTotalAttempted":4.538461538457,
         "name":"Saúl Ñíguez",
         "firstName":"Saúl",
         "lastName":"Ñíguez",
         "playerId":112161,
         "positionText":"Midfielder",
         "teamId":63,
         "teamName":"Atletico Madrid",
         "seasonId":7466,
         "seasonName":"2018/2019",
         "isOpta":true,
         "tournamentId":4,
         "tournamentRegionId":206,
         "tournamentRegionCode":"es",
         "tournamentRegionName":"Spain",
         "tournamentName":"La Liga",
         "rating":7.050769230769232,
         "minsPlayed":1170,
         "challengeLost":1.53846153846,
         "ranking":20
      }
   ],
   "paging":{
      "currentPage":2,
      "totalPages":25,
      "resultsPerPage":10,
      "totalResults":246,
      "firstRecordIndex":11,
      "lastRecordIndex":20
   },
   "statColumns":[
      "apps",
      "subOn",
      "minsPlayed",
      "tackleWonTotal",
      "challengeLost",
      "tackleTotalAttempted"
   ]
}