{
   "playerTableStats":[
      {
         "height":185,
         "weight":76,
         "age":19,
         "isManOfTheMatch":false,
         "isActive":true,
         "playedPositions":"-DC-DMC-",
         "playedPositionsShort":"D(C),DMC",
         "teamRegionName":"England",
         "regionCode":"gb-eng",
         "tournamentShortName":"EPL",
         "apps":18,
         "subOn":0,
         "tackleWonTotal":2.512690355296,
         "tackleTotalAttempted":3.9403553298959997,
         "name":"Declan Rice",
         "firstName":"Declan",
         "lastName":"Rice",
         "playerId":332325,
         "positionText":"Midfielder",
         "teamId":29,
         "teamName":"West Ham",
         "seasonId":7361,
         "seasonName":"2018/2019",
         "isOpta":true,
         "tournamentId":2,
         "tournamentRegionId":252,
         "tournamentRegionCode":"gb-eng",
         "tournamentRegionName":"England",
         "tournamentName":"Premier League",
         "rating":6.8999999999999986,
         "minsPlayed":1576,
         "challengeLost":1.4276649746,
         "ranking":51
      },
      {
         "height":187,
         "weight":76,
         "age":22,
         "isManOfTheMatch":false,
         "isActive":true,
         "playedPositions":"-AMC-AMR-",
         "playedPositionsShort":"AM(CR)",
         "teamRegionName":"Spain",
         "regionCode":"es",
         "tournamentShortName":"SLL",
         "apps":13,
         "subOn":0,
         "tackleWonTotal":2.4888492417409998,
         "tackleTotalAttempted":3.6931311329059997,
         "name":"Brais Méndez",
         "firstName":"Brais",
         "lastName":"Méndez",
         "playerId":344542,
         "positionText":"Midfielder",
         "teamId":62,
         "teamName":"Celta Vigo",
         "seasonId":7466,
         "seasonName":"2018/2019",
         "isOpta":true,
         "tournamentId":4,
         "tournamentRegionId":206,
         "tournamentRegionCode":"es",
         "tournamentRegionName":"Spain",
         "tournamentName":"La Liga",
         "rating":7.5053846153846147,
         "minsPlayed":1121,
         "challengeLost":1.204281891165,
         "ranking":52
      },
      {
         "height":175,
         "weight":70,
         "age":25,
         "isManOfTheMatch":false,
         "isActive":true,
         "playedPositions":"-FW-MC-ML-MR-",
         "playedPositionsShort":"M(CLR),FW",
         "teamRegionName":"England",
         "regionCode":"br",
         "tournamentShortName":"EPL",
         "apps":21,
         "subOn":0,
         "tackleWonTotal":2.4831081080749997,
         "tackleTotalAttempted":4.712837837775,
         "name":"Felipe Anderson",
         "firstName":"Felipe Anderson",
         "lastName":"Pereira Gomes",
         "playerId":93026,
         "positionText":"Midfielder",
         "teamId":29,
         "teamName":"West Ham",
         "seasonId":7361,
         "seasonName":"2018/2019",
         "isOpta":true,
         "tournamentId":2,
         "tournamentRegionId":252,
         "tournamentRegionCode":"gb-eng",
         "tournamentRegionName":"England",
         "tournamentName":"Premier League",
         "rating":7.2980952380952386,
         "minsPlayed":1776,
         "challengeLost":2.2297297297,
         "ranking":53
      },
      {
         "height":180,
         "weight":78,
         "age":24,
         "isManOfTheMatch":false,
         "isActive":true,
         "playedPositions":"-MC-",
         "playedPositionsShort":"M(C)",
         "teamRegionName":"France",
         "regionCode":"fr",
         "tournamentShortName":"FL1",
         "apps":17,
         "subOn":0,
         "tackleWonTotal":2.4827586206800003,
         "tackleTotalAttempted":4.2206896551560007,
         "name":"Adrien Tameze",
         "firstName":"Adrien",
         "lastName":"Tameze",
         "playerId":124721,
         "positionText":"Midfielder",
         "teamId":613,
         "teamName":"Nice",
         "seasonId":7344,
         "seasonName":"2018/2019",
         "isOpta":true,
         "tournamentId":22,
         "tournamentRegionId":74,
         "tournamentRegionCode":"fr",
         "tournamentRegionName":"France",
         "tournamentName":"Ligue 1",
         "rating":6.7870588235294118,
         "minsPlayed":1450,
         "challengeLost":1.737931034476,
         "ranking":54
      },
      {
         "height":172,
         "weight":63,
         "age":24,
         "isManOfTheMatch":false,
         "isActive":true,
         "playedPositions":"-AML-",
         "playedPositionsShort":"AM(L)",
         "teamRegionName":"Spain",
         "regionCode":"es",
         "tournamentShortName":"SLL",
         "apps":14,
         "subOn":0,
         "tackleWonTotal":2.478485370048,
         "tackleTotalAttempted":3.7177280550719995,
         "name":"Toni Villa",
         "firstName":"Laureano Antonio",
         "lastName":"Villa Suárez",
         "playerId":362355,
         "positionText":"Midfielder",
         "teamId":58,
         "teamName":"Real Valladolid",
         "seasonId":7466,
         "seasonName":"2018/2019",
         "isOpta":true,
         "tournamentId":4,
         "tournamentRegionId":206,
         "tournamentRegionCode":"es",
         "tournamentRegionName":"Spain",
         "tournamentName":"La Liga",
         "rating":7.0178571428571441,
         "minsPlayed":1162,
         "challengeLost":1.239242685024,
         "ranking":55
      },
      {
         "height":186,
         "weight":80,
         "age":27,
         "isManOfTheMatch":false,
         "isActive":true,
         "playedPositions":"-DMC-",
         "playedPositionsShort":"DMC",
         "teamRegionName":"England",
         "regionCode":"rs",
         "tournamentShortName":"EPL",
         "apps":21,
         "subOn":0,
         "tackleWonTotal":2.476190476188,
         "tackleTotalAttempted":3.666666666663,
         "name":"Luka Milivojevic",
         "firstName":"Luka",
         "lastName":"Milivojevic",
         "playerId":70493,
         "positionText":"Midfielder",
         "teamId":162,
         "teamName":"Crystal Palace",
         "seasonId":7361,
         "seasonName":"2018/2019",
         "isOpta":true,
         "tournamentId":2,
         "tournamentRegionId":252,
         "tournamentRegionCode":"gb-eng",
         "tournamentRegionName":"England",
         "tournamentName":"Premier League",
         "rating":7.0895238095238078,
         "minsPlayed":1890,
         "challengeLost":1.190476190475,
         "ranking":56
      },
      {
         "height":184,
         "weight":75,
         "age":22,
         "isManOfTheMatch":false,
         "isActive":true,
         "playedPositions":"-DMC-",
         "playedPositionsShort":"DMC",
         "teamRegionName":"France",
         "regionCode":"ma",
         "tournamentShortName":"FL1",
         "apps":10,
         "subOn":0,
         "tackleWonTotal":2.468571428568,
         "tackleTotalAttempted":3.805714285709,
         "name":"Youssef Aït Bennasser",
         "firstName":"Youssef",
         "lastName":"Aït Bennasser",
         "playerId":296230,
         "positionText":"Midfielder",
         "teamId":248,
         "teamName":"Monaco",
         "seasonId":7344,
         "seasonName":"2018/2019",
         "isOpta":true,
         "tournamentId":22,
         "tournamentRegionId":74,
         "tournamentRegionCode":"fr",
         "tournamentRegionName":"France",
         "tournamentName":"Ligue 1",
         "rating":6.9009999999999989,
         "minsPlayed":875,
         "challengeLost":1.337142857141,
         "ranking":57
      },
      {
         "height":179,
         "weight":70,
         "age":25,
         "isManOfTheMatch":false,
         "isActive":true,
         "playedPositions":"-AMC-",
         "playedPositionsShort":"AM(C)",
         "teamRegionName":"Germany",
         "regionCode":"nl",
         "tournamentShortName":"GB",
         "apps":17,
         "subOn":0,
         "tackleWonTotal":2.4614305750320002,
         "tackleTotalAttempted":3.3450210378640004,
         "name":"Davy Klaassen",
         "firstName":"Davy",
         "lastName":"Klaassen",
         "playerId":108860,
         "positionText":"Midfielder",
         "teamId":42,
         "teamName":"Werder Bremen",
         "seasonId":7405,
         "seasonName":"2018/2019",
         "isOpta":true,
         "tournamentId":3,
         "tournamentRegionId":81,
         "tournamentRegionCode":"de",
         "tournamentRegionName":"Germany",
         "tournamentName":"Bundesliga",
         "rating":6.895294117647059,
         "minsPlayed":1426,
         "challengeLost":0.883590462832,
         "ranking":58
      },
      {
         "height":184,
         "weight":74,
         "age":22,
         "isManOfTheMatch":false,
         "isActive":true,
         "playedPositions":"-DMC-",
         "playedPositionsShort":"DMC",
         "teamRegionName":"Spain",
         "regionCode":"es",
         "tournamentShortName":"SLL",
         "apps":16,
         "subOn":0,
         "tackleWonTotal":2.454545454543,
         "tackleTotalAttempted":3.461538461535,
         "name":"Marc Roca",
         "firstName":"Marc",
         "lastName":"Roca",
         "playerId":323148,
         "positionText":"Midfielder",
         "teamId":70,
         "teamName":"Espanyol",
         "seasonId":7466,
         "seasonName":"2018/2019",
         "isOpta":true,
         "tournamentId":4,
         "tournamentRegionId":206,
         "tournamentRegionCode":"es",
         "tournamentRegionName":"Spain",
         "tournamentName":"La Liga",
         "rating":6.8543749999999992,
         "minsPlayed":1430,
         "challengeLost":1.006993006992,
         "ranking":59
      },
      {
         "height":188,
         "weight":84,
         "age":24,
         "isManOfTheMatch":false,
         "isActive":true,
         "playedPositions":"-DC-DMC-",
         "playedPositionsShort":"D(C),DMC",
         "teamRegionName":"Germany",
         "regionCode":"de",
         "tournamentShortName":"GB",
         "apps":11,
         "subOn":0,
         "tackleWonTotal":2.454545454543,
         "tackleTotalAttempted":3.3636363636330002,
         "name":"Rani Khedira",
         "firstName":"Rani",
         "lastName":"Khedira",
         "playerId":110266,
         "positionText":"Midfielder",
         "teamId":1730,
         "teamName":"Augsburg",
         "seasonId":7405,
         "seasonName":"2018/2019",
         "isOpta":true,
         "tournamentId":3,
         "tournamentRegionId":81,
         "tournamentRegionCode":"de",
         "tournamentRegionName":"Germany",
         "tournamentName":"Bundesliga",
         "rating":7.1209090909090911,
         "minsPlayed":990,
         "challengeLost":0.90909090909,
         "ranking":60
      }
   ],
   "paging":{
      "currentPage":6,
      "totalPages":25,
      "resultsPerPage":10,
      "totalResults":246,
      "firstRecordIndex":51,
      "lastRecordIndex":60
   },
   "statColumns":[
      "apps",
      "subOn",
      "minsPlayed",
      "tackleWonTotal",
      "challengeLost",
      "tackleTotalAttempted"
   ]
}