{
   "playerTableStats":[
      {
         "height":185,
         "weight":83,
         "age":21,
         "isManOfTheMatch":false,
         "isActive":true,
         "playedPositions":"-DMC-",
         "playedPositionsShort":"DMC",
         "teamRegionName":"France",
         "regionCode":"fr",
         "tournamentShortName":"FL1",
         "apps":12,
         "subOn":0,
         "tackleWonTotal":4.347379239422,
         "tackleTotalAttempted":5.5498458375599995,
         "name":"Lucas Tousart",
         "firstName":"Lucas",
         "lastName":"Tousart",
         "playerId":300705,
         "positionText":"Midfielder",
         "teamId":228,
         "teamName":"Lyon",
         "seasonId":7344,
         "seasonName":"2018/2019",
         "isOpta":true,
         "tournamentId":22,
         "tournamentRegionId":74,
         "tournamentRegionCode":"fr",
         "tournamentRegionName":"France",
         "tournamentName":"Ligue 1",
         "rating":6.8475,
         "minsPlayed":973,
         "challengeLost":1.2024665981379998,
         "ranking":1
      },
      {
         "height":177,
         "weight":75,
         "age":21,
         "isManOfTheMatch":false,
         "isActive":true,
         "playedPositions":"-DMC-",
         "playedPositionsShort":"DMC",
         "teamRegionName":"Spain",
         "regionCode":"ar",
         "tournamentShortName":"SLL",
         "apps":12,
         "subOn":0,
         "tackleWonTotal":4.198250728848,
         "tackleTotalAttempted":6.2099125364210011,
         "name":"Santiago Cáseres",
         "firstName":"Santiago",
         "lastName":"Cáseres",
         "playerId":328517,
         "positionText":"Midfielder",
         "teamId":839,
         "teamName":"Villarreal",
         "seasonId":7466,
         "seasonName":"2018/2019",
         "isOpta":true,
         "tournamentId":4,
         "tournamentRegionId":206,
         "tournamentRegionCode":"es",
         "tournamentRegionName":"Spain",
         "tournamentName":"La Liga",
         "rating":6.7941666666666665,
         "minsPlayed":1029,
         "challengeLost":2.011661807573,
         "ranking":2
      },
      {
         "height":185,
         "weight":81,
         "age":24,
         "isManOfTheMatch":false,
         "isActive":true,
         "playedPositions":"-DMC-",
         "playedPositionsShort":"DMC",
         "teamRegionName":"Germany",
         "regionCode":"de",
         "tournamentShortName":"GB",
         "apps":10,
         "subOn":0,
         "tackleWonTotal":4.100467289685,
         "tackleTotalAttempted":5.7827102803249995,
         "name":"Dominik Kohr",
         "firstName":"Dominik",
         "lastName":"Kohr",
         "playerId":110165,
         "positionText":"Midfielder",
         "teamId":36,
         "teamName":"Bayer Leverkusen",
         "seasonId":7405,
         "seasonName":"2018/2019",
         "isOpta":true,
         "tournamentId":3,
         "tournamentRegionId":81,
         "tournamentRegionCode":"de",
         "tournamentRegionName":"Germany",
         "tournamentName":"Bundesliga",
         "rating":6.7819999999999991,
         "minsPlayed":856,
         "challengeLost":1.68224299064,
         "ranking":3
      },
      {
         "height":176,
         "weight":73,
         "age":24,
         "isManOfTheMatch":false,
         "isActive":true,
         "playedPositions":"-DMC-",
         "playedPositionsShort":"DMC",
         "teamRegionName":"France",
         "regionCode":"br",
         "tournamentShortName":"FL1",
         "apps":12,
         "subOn":0,
         "tackleWonTotal":3.80997177795,
         "tackleTotalAttempted":5.24929444962,
         "name":"Otávio",
         "firstName":"Otávio Henrique",
         "lastName":"Passos Santos",
         "playerId":146764,
         "positionText":"Midfielder",
         "teamId":315,
         "teamName":"Bordeaux",
         "seasonId":7344,
         "seasonName":"2018/2019",
         "isOpta":true,
         "tournamentId":22,
         "tournamentRegionId":74,
         "tournamentRegionCode":"fr",
         "tournamentRegionName":"France",
         "tournamentName":"Ligue 1",
         "rating":6.890833333333334,
         "minsPlayed":1063,
         "challengeLost":1.43932267167,
         "ranking":4
      },
      {
         "height":183,
         "weight":83,
         "age":27,
         "isManOfTheMatch":false,
         "isActive":true,
         "playedPositions":"-DMC-",
         "playedPositionsShort":"DMC",
         "teamRegionName":"England",
         "regionCode":"es",
         "tournamentShortName":"EPL",
         "apps":10,
         "subOn":0,
         "tackleWonTotal":3.740554156152,
         "tackleTotalAttempted":5.6675062972,
         "name":"Oriol Romeu",
         "firstName":"Oriol",
         "lastName":"Romeu Vidal",
         "playerId":90780,
         "positionText":"Midfielder",
         "teamId":18,
         "teamName":"Southampton",
         "seasonId":7361,
         "seasonName":"2018/2019",
         "isOpta":true,
         "tournamentId":2,
         "tournamentRegionId":252,
         "tournamentRegionCode":"gb-eng",
         "tournamentRegionName":"England",
         "tournamentName":"Premier League",
         "rating":6.88,
         "minsPlayed":794,
         "challengeLost":1.926952141048,
         "ranking":5
      },
      {
         "height":191,
         "weight":82,
         "age":22,
         "isManOfTheMatch":false,
         "isActive":true,
         "playedPositions":"-DMC-",
         "playedPositionsShort":"DMC",
         "teamRegionName":"Spain",
         "regionCode":"es",
         "tournamentShortName":"SLL",
         "apps":15,
         "subOn":0,
         "tackleWonTotal":3.529411764672,
         "tackleTotalAttempted":4.41176470584,
         "name":"Rodrigo",
         "firstName":"Rodrigo",
         "lastName":"Hernández",
         "playerId":303139,
         "positionText":"Midfielder",
         "teamId":63,
         "teamName":"Atletico Madrid",
         "seasonId":7466,
         "seasonName":"2018/2019",
         "isOpta":true,
         "tournamentId":4,
         "tournamentRegionId":206,
         "tournamentRegionCode":"es",
         "tournamentRegionName":"Spain",
         "tournamentName":"La Liga",
         "rating":7.3546666666666658,
         "minsPlayed":1224,
         "challengeLost":0.882352941168,
         "ranking":6
      },
      {
         "height":185,
         "weight":76,
         "age":27,
         "isManOfTheMatch":false,
         "isActive":true,
         "playedPositions":"-DMC-",
         "playedPositionsShort":"DMC",
         "teamRegionName":"Italy",
         "regionCode":"nl",
         "tournamentShortName":"ISA",
         "apps":16,
         "subOn":0,
         "tackleWonTotal":3.4925373134079996,
         "tackleTotalAttempted":5.104477611904,
         "name":"Marten de Roon",
         "firstName":"Marten",
         "lastName":"de Roon",
         "playerId":85070,
         "positionText":"Midfielder",
         "teamId":300,
         "teamName":"Atalanta",
         "seasonId":7468,
         "seasonName":"2018/2019",
         "isOpta":true,
         "tournamentId":5,
         "tournamentRegionId":108,
         "tournamentRegionCode":"it",
         "tournamentRegionName":"Italy",
         "tournamentName":"Serie A",
         "rating":7.120625,
         "minsPlayed":1340,
         "challengeLost":1.6119402984959998,
         "ranking":7
      },
      {
         "height":193,
         "weight":83,
         "age":22,
         "isManOfTheMatch":false,
         "isActive":true,
         "playedPositions":"-DMC-",
         "playedPositionsShort":"DMC",
         "teamRegionName":"England",
         "regionCode":"dk",
         "tournamentShortName":"EPL",
         "apps":20,
         "subOn":0,
         "tackleWonTotal":3.388476896706,
         "tackleTotalAttempted":4.261266400403,
         "name":"Philip Billing",
         "firstName":"Philip",
         "lastName":"Billing",
         "playerId":145277,
         "positionText":"Midfielder",
         "teamId":166,
         "teamName":"Huddersfield",
         "seasonId":7361,
         "seasonName":"2018/2019",
         "isOpta":true,
         "tournamentId":2,
         "tournamentRegionId":252,
         "tournamentRegionCode":"gb-eng",
         "tournamentRegionName":"England",
         "tournamentName":"Premier League",
         "rating":7.1724999999999994,
         "minsPlayed":1753,
         "challengeLost":0.872789503697,
         "ranking":8
      },
      {
         "height":174,
         "weight":70,
         "age":27,
         "isManOfTheMatch":false,
         "isActive":true,
         "playedPositions":"-MC-",
         "playedPositionsShort":"M(C)",
         "teamRegionName":"Germany",
         "regionCode":"es",
         "tournamentShortName":"GB",
         "apps":11,
         "subOn":0,
         "tackleWonTotal":3.3636363636330002,
         "tackleTotalAttempted":4.181818181814,
         "name":"Thiago Alcántara",
         "firstName":"Thiago",
         "lastName":"Alcántara do Nascimento",
         "playerId":74939,
         "positionText":"Midfielder",
         "teamId":37,
         "teamName":"Bayern Munich",
         "seasonId":7405,
         "seasonName":"2018/2019",
         "isOpta":true,
         "tournamentId":3,
         "tournamentRegionId":81,
         "tournamentRegionCode":"de",
         "tournamentRegionName":"Germany",
         "tournamentName":"Bundesliga",
         "rating":7.7145454545454548,
         "minsPlayed":990,
         "challengeLost":0.818181818181,
         "ranking":9
      },
      {
         "height":180,
         "weight":72,
         "age":27,
         "isManOfTheMatch":false,
         "isActive":true,
         "playedPositions":"-AML-",
         "playedPositionsShort":"AM(L)",
         "teamRegionName":"Spain",
         "regionCode":"es",
         "tournamentShortName":"SLL",
         "apps":11,
         "subOn":0,
         "tackleWonTotal":3.3609958506,
         "tackleTotalAttempted":4.3879668049500005,
         "name":"Óscar Plano",
         "firstName":"Óscar",
         "lastName":"Plano",
         "playerId":141533,
         "positionText":"Forward",
         "teamId":58,
         "teamName":"Real Valladolid",
         "seasonId":7466,
         "seasonName":"2018/2019",
         "isOpta":true,
         "tournamentId":4,
         "tournamentRegionId":206,
         "tournamentRegionCode":"es",
         "tournamentRegionName":"Spain",
         "tournamentName":"La Liga",
         "rating":7.0290909090909084,
         "minsPlayed":964,
         "challengeLost":1.02697095435,
         "ranking":10
      }
   ],
   "paging":{
      "currentPage":1,
      "totalPages":25,
      "resultsPerPage":10,
      "totalResults":246,
      "firstRecordIndex":1,
      "lastRecordIndex":10
   },
   "statColumns":[
      "apps",
      "subOn",
      "minsPlayed",
      "tackleWonTotal",
      "challengeLost",
      "tackleTotalAttempted"
   ]
}