{
   "playerTableStats":[
      {
         "height":188,
         "weight":71,
         "age":23,
         "isManOfTheMatch":false,
         "isActive":true,
         "playedPositions":"-DMC-",
         "playedPositionsShort":"DMC",
         "teamRegionName":"France",
         "regionCode":"fr",
         "tournamentShortName":"FL1",
         "apps":12,
         "subOn":0,
         "tackleWonTotal":2.9942965779299997,
         "tackleTotalAttempted":3.2509505703239996,
         "name":"Adrien Rabiot",
         "firstName":"Adrien",
         "lastName":"Rabiot",
         "playerId":116609,
         "positionText":"Midfielder",
         "teamId":304,
         "teamName":"Paris Saint-Germain",
         "seasonId":7344,
         "seasonName":"2018/2019",
         "isOpta":true,
         "tournamentId":22,
         "tournamentRegionId":74,
         "tournamentRegionCode":"fr",
         "tournamentRegionName":"France",
         "tournamentName":"Ligue 1",
         "rating":7.4999999999999991,
         "minsPlayed":1052,
         "challengeLost":0.256653992394,
         "ranking":21
      },
      {
         "height":187,
         "weight":84,
         "age":24,
         "isManOfTheMatch":false,
         "isActive":true,
         "playedPositions":"-AMC-AML-AMR-FW-",
         "playedPositionsShort":"AM(CLR),FW",
         "teamRegionName":"France",
         "regionCode":"ar",
         "tournamentShortName":"FL1",
         "apps":11,
         "subOn":0,
         "tackleWonTotal":2.947368421032,
         "tackleTotalAttempted":3.578947368396,
         "name":"Lucas Ocampos",
         "firstName":"Lucas",
         "lastName":"Ocampos",
         "playerId":115587,
         "positionText":"Midfielder",
         "teamId":249,
         "teamName":"Marseille",
         "seasonId":7344,
         "seasonName":"2018/2019",
         "isOpta":true,
         "tournamentId":22,
         "tournamentRegionId":74,
         "tournamentRegionCode":"fr",
         "tournamentRegionName":"France",
         "tournamentName":"Ligue 1",
         "rating":6.9336363636363618,
         "minsPlayed":855,
         "challengeLost":0.631578947364,
         "ranking":22
      },
      {
         "height":187,
         "weight":72,
         "age":21,
         "isManOfTheMatch":false,
         "isActive":true,
         "playedPositions":"-MC-",
         "playedPositionsShort":"M(C)",
         "teamRegionName":"Italy",
         "regionCode":"uy",
         "tournamentShortName":"ISA",
         "apps":12,
         "subOn":0,
         "tackleWonTotal":2.943508424175,
         "tackleTotalAttempted":4.013875123875,
         "name":"Rodrigo Bentancur",
         "firstName":"Rodrigo",
         "lastName":"Bentancur",
         "playerId":303657,
         "positionText":"Midfielder",
         "teamId":87,
         "teamName":"Juventus",
         "seasonId":7468,
         "seasonName":"2018/2019",
         "isOpta":true,
         "tournamentId":5,
         "tournamentRegionId":108,
         "tournamentRegionCode":"it",
         "tournamentRegionName":"Italy",
         "tournamentName":"Serie A",
         "rating":7.03,
         "minsPlayed":1009,
         "challengeLost":1.0703666997,
         "ranking":23
      },
      {
         "height":177,
         "weight":70,
         "age":25,
         "isManOfTheMatch":false,
         "isActive":true,
         "playedPositions":"-MC-",
         "playedPositionsShort":"M(C)",
         "teamRegionName":"Spain",
         "regionCode":"es",
         "tournamentShortName":"SLL",
         "apps":13,
         "subOn":0,
         "tackleWonTotal":2.926186291704,
         "tackleTotalAttempted":4.507908611544,
         "name":"Pere Pons",
         "firstName":"Pere",
         "lastName":"Pons",
         "playerId":140929,
         "positionText":"Midfielder",
         "teamId":2783,
         "teamName":"Girona",
         "seasonId":7466,
         "seasonName":"2018/2019",
         "isOpta":true,
         "tournamentId":4,
         "tournamentRegionId":206,
         "tournamentRegionCode":"es",
         "tournamentRegionName":"Spain",
         "tournamentName":"La Liga",
         "rating":6.7884615384615383,
         "minsPlayed":1138,
         "challengeLost":1.58172231984,
         "ranking":24
      },
      {
         "height":175,
         "weight":73,
         "age":25,
         "isManOfTheMatch":false,
         "isActive":true,
         "playedPositions":"-AMC-AML-",
         "playedPositionsShort":"AM(CL)",
         "teamRegionName":"Germany",
         "regionCode":"at",
         "tournamentShortName":"GB",
         "apps":10,
         "subOn":0,
         "tackleWonTotal":2.852112676032,
         "tackleTotalAttempted":4.22535211264,
         "name":"Kevin Stöger",
         "firstName":"Kevin",
         "lastName":"Stöger",
         "playerId":104011,
         "positionText":"Midfielder",
         "teamId":1150,
         "teamName":"Fortuna Duesseldorf",
         "seasonId":7405,
         "seasonName":"2018/2019",
         "isOpta":true,
         "tournamentId":3,
         "tournamentRegionId":81,
         "tournamentRegionCode":"de",
         "tournamentRegionName":"Germany",
         "tournamentName":"Bundesliga",
         "rating":7.0210000000000008,
         "minsPlayed":852,
         "challengeLost":1.373239436608,
         "ranking":25
      },
      {
         "height":185,
         "weight":69,
         "age":25,
         "isManOfTheMatch":false,
         "isActive":true,
         "playedPositions":"-AMC-AML-AMR-",
         "playedPositionsShort":"AM(CLR)",
         "teamRegionName":"France",
         "regionCode":"fr",
         "tournamentShortName":"FL1",
         "apps":14,
         "subOn":0,
         "tackleWonTotal":2.8467153284310003,
         "tackleTotalAttempted":4.233576642282,
         "name":"Pierre Lees-Melou",
         "firstName":"Pierre",
         "lastName":"Lees-Melou",
         "playerId":301243,
         "positionText":"Midfielder",
         "teamId":613,
         "teamName":"Nice",
         "seasonId":7344,
         "seasonName":"2018/2019",
         "isOpta":true,
         "tournamentId":22,
         "tournamentRegionId":74,
         "tournamentRegionCode":"fr",
         "tournamentRegionName":"France",
         "tournamentName":"Ligue 1",
         "rating":6.9142857142857137,
         "minsPlayed":1233,
         "challengeLost":1.3868613138510002,
         "ranking":26
      },
      {
         "height":171,
         "weight":62,
         "age":27,
         "isManOfTheMatch":false,
         "isActive":true,
         "playedPositions":"-MC-",
         "playedPositionsShort":"M(C)",
         "teamRegionName":"France",
         "regionCode":"fr",
         "tournamentShortName":"FL1",
         "apps":13,
         "subOn":0,
         "tackleWonTotal":2.846153846151,
         "tackleTotalAttempted":5.538461538456,
         "name":"Téji Savanier",
         "firstName":"Téji",
         "lastName":"Savanier",
         "playerId":234377,
         "positionText":"Midfielder",
         "teamId":245,
         "teamName":"Nimes",
         "seasonId":7344,
         "seasonName":"2018/2019",
         "isOpta":true,
         "tournamentId":22,
         "tournamentRegionId":74,
         "tournamentRegionCode":"fr",
         "tournamentRegionName":"France",
         "tournamentName":"Ligue 1",
         "rating":7.7476923076923088,
         "minsPlayed":1170,
         "challengeLost":2.692307692305,
         "ranking":27
      },
      {
         "height":175,
         "weight":70,
         "age":21,
         "isManOfTheMatch":false,
         "isActive":true,
         "playedPositions":"-MC-",
         "playedPositionsShort":"M(C)",
         "teamRegionName":"Italy",
         "regionCode":"dz",
         "tournamentShortName":"ISA",
         "apps":14,
         "subOn":0,
         "tackleWonTotal":2.824112303844,
         "tackleTotalAttempted":3.864574731576,
         "name":"Ismael Bennacer",
         "firstName":"Ismael",
         "lastName":"Bennacer",
         "playerId":259102,
         "positionText":"Midfielder",
         "teamId":272,
         "teamName":"Empoli",
         "seasonId":7468,
         "seasonName":"2018/2019",
         "isOpta":true,
         "tournamentId":5,
         "tournamentRegionId":108,
         "tournamentRegionCode":"it",
         "tournamentRegionName":"Italy",
         "tournamentName":"Serie A",
         "rating":6.862857142857143,
         "minsPlayed":1211,
         "challengeLost":1.0404624277319998,
         "ranking":28
      },
      {
         "height":177,
         "weight":68,
         "age":22,
         "isManOfTheMatch":false,
         "isActive":true,
         "playedPositions":"-AMC-",
         "playedPositionsShort":"AM(C)",
         "teamRegionName":"Spain",
         "regionCode":"ar",
         "tournamentShortName":"SLL",
         "apps":10,
         "subOn":0,
         "tackleWonTotal":2.786697247698,
         "tackleTotalAttempted":4.12844036696,
         "name":"Giovani Lo Celso",
         "firstName":"Giovani",
         "lastName":"Lo Celso",
         "playerId":303908,
         "positionText":"Midfielder",
         "teamId":54,
         "teamName":"Real Betis",
         "seasonId":7466,
         "seasonName":"2018/2019",
         "isOpta":true,
         "tournamentId":4,
         "tournamentRegionId":206,
         "tournamentRegionCode":"es",
         "tournamentRegionName":"Spain",
         "tournamentName":"La Liga",
         "rating":7.2220000000000013,
         "minsPlayed":872,
         "challengeLost":1.341743119262,
         "ranking":29
      },
      {
         "height":178,
         "weight":66,
         "age":27,
         "isManOfTheMatch":false,
         "isActive":true,
         "playedPositions":"-DMC-",
         "playedPositionsShort":"DMC",
         "teamRegionName":"France",
         "regionCode":"fr",
         "tournamentShortName":"FL1",
         "apps":18,
         "subOn":0,
         "tackleWonTotal":2.77777777775,
         "tackleTotalAttempted":3.833333333295,
         "name":"Xavier Chavalerin",
         "firstName":"Xavier",
         "lastName":"Chavalerin",
         "playerId":236556,
         "positionText":"Midfielder",
         "teamId":950,
         "teamName":"Reims",
         "seasonId":7344,
         "seasonName":"2018/2019",
         "isOpta":true,
         "tournamentId":22,
         "tournamentRegionId":74,
         "tournamentRegionCode":"fr",
         "tournamentRegionName":"France",
         "tournamentName":"Ligue 1",
         "rating":6.9527777777777784,
         "minsPlayed":1620,
         "challengeLost":1.055555555545,
         "ranking":30
      }
   ],
   "paging":{
      "currentPage":3,
      "totalPages":25,
      "resultsPerPage":10,
      "totalResults":246,
      "firstRecordIndex":21,
      "lastRecordIndex":30
   },
   "statColumns":[
      "apps",
      "subOn",
      "minsPlayed",
      "tackleWonTotal",
      "challengeLost",
      "tackleTotalAttempted"
   ]
}