{
   "playerTableStats":[
      {
         "height":175,
         "weight":73,
         "age":22,
         "isManOfTheMatch":false,
         "isActive":true,
         "playedPositions":"-AMC-AML-AMR-",
         "playedPositionsShort":"AM(CLR)",
         "teamRegionName":"England",
         "regionCode":"gb-eng",
         "tournamentShortName":"EPL",
         "apps":19,
         "subOn":0,
         "tackleWonTotal":1.5736381976899998,
         "tackleTotalAttempted":2.4209818426,
         "name":"James Maddison",
         "firstName":"James",
         "lastName":"Maddison",
         "playerId":137015,
         "positionText":"Midfielder",
         "teamId":14,
         "teamName":"Leicester",
         "seasonId":7361,
         "seasonName":"2018/2019",
         "isOpta":true,
         "tournamentId":2,
         "tournamentRegionId":252,
         "tournamentRegionCode":"gb-eng",
         "tournamentRegionName":"England",
         "tournamentName":"Premier League",
         "rating":7.1484210526315772,
         "minsPlayed":1487,
         "challengeLost":0.84734364490999992,
         "ranking":151
      },
      {
         "height":179,
         "weight":70,
         "age":24,
         "isManOfTheMatch":false,
         "isActive":true,
         "playedPositions":"-DMC-DR-",
         "playedPositionsShort":"D(R),DMC",
         "teamRegionName":"England",
         "regionCode":"co",
         "tournamentShortName":"EPL",
         "apps":16,
         "subOn":0,
         "tackleWonTotal":1.5629522431200003,
         "tackleTotalAttempted":2.8002894355900003,
         "name":"Jefferson Lerma",
         "firstName":"Jefferson",
         "lastName":"Lerma",
         "playerId":133464,
         "positionText":"Midfielder",
         "teamId":183,
         "teamName":"Bournemouth",
         "seasonId":7361,
         "seasonName":"2018/2019",
         "isOpta":true,
         "tournamentId":2,
         "tournamentRegionId":252,
         "tournamentRegionCode":"gb-eng",
         "tournamentRegionName":"England",
         "tournamentName":"Premier League",
         "rating":6.95625,
         "minsPlayed":1382,
         "challengeLost":1.23733719247,
         "ranking":152
      },
      {
         "height":184,
         "weight":74,
         "age":25,
         "isManOfTheMatch":false,
         "isActive":true,
         "playedPositions":"-AMC-",
         "playedPositionsShort":"AM(C)",
         "teamRegionName":"Italy",
         "regionCode":"ba",
         "tournamentShortName":"ISA",
         "apps":17,
         "subOn":0,
         "tackleWonTotal":1.5570934256000002,
         "tackleTotalAttempted":2.055363321792,
         "name":"Rade Krunic",
         "firstName":"Rade",
         "lastName":"Krunic",
         "playerId":294163,
         "positionText":"Midfielder",
         "teamId":272,
         "teamName":"Empoli",
         "seasonId":7468,
         "seasonName":"2018/2019",
         "isOpta":true,
         "tournamentId":5,
         "tournamentRegionId":108,
         "tournamentRegionCode":"it",
         "tournamentRegionName":"Italy",
         "tournamentName":"Serie A",
         "rating":6.9376470588235293,
         "minsPlayed":1445,
         "challengeLost":0.498269896192,
         "ranking":153
      },
      {
         "height":173,
         "weight":62,
         "age":21,
         "isManOfTheMatch":false,
         "isActive":true,
         "playedPositions":"-AMC-AMR-",
         "playedPositionsShort":"AM(CR)",
         "teamRegionName":"England",
         "regionCode":"gb-wls",
         "tournamentShortName":"EPL",
         "apps":18,
         "subOn":0,
         "tackleWonTotal":1.5447761193919998,
         "tackleTotalAttempted":2.4850746268479997,
         "name":"David Brooks",
         "firstName":"David",
         "lastName":"Brooks",
         "playerId":295084,
         "positionText":"Midfielder",
         "teamId":183,
         "teamName":"Bournemouth",
         "seasonId":7361,
         "seasonName":"2018/2019",
         "isOpta":true,
         "tournamentId":2,
         "tournamentRegionId":252,
         "tournamentRegionCode":"gb-eng",
         "tournamentRegionName":"England",
         "tournamentName":"Premier League",
         "rating":6.8538888888888891,
         "minsPlayed":1340,
         "challengeLost":0.940298507456,
         "ranking":154
      },
      {
         "height":171,
         "weight":62,
         "age":25,
         "isManOfTheMatch":false,
         "isActive":true,
         "playedPositions":"-AMC-AML-AMR-",
         "playedPositionsShort":"AM(CLR)",
         "teamRegionName":"England",
         "regionCode":"gb-eng",
         "tournamentShortName":"EPL",
         "apps":16,
         "subOn":0,
         "tackleWonTotal":1.534090909071,
         "tackleTotalAttempted":2.556818181785,
         "name":"Alex Pritchard",
         "firstName":"Alex",
         "lastName":"Pritchard",
         "playerId":107848,
         "positionText":"Midfielder",
         "teamId":166,
         "teamName":"Huddersfield",
         "seasonId":7361,
         "seasonName":"2018/2019",
         "isOpta":true,
         "tournamentId":2,
         "tournamentRegionId":252,
         "tournamentRegionCode":"gb-eng",
         "tournamentRegionName":"England",
         "tournamentName":"Premier League",
         "rating":6.4562500000000007,
         "minsPlayed":1232,
         "challengeLost":1.022727272714,
         "ranking":155
      },
      {
         "height":186,
         "weight":88,
         "age":24,
         "isManOfTheMatch":false,
         "isActive":true,
         "playedPositions":"-DMC-",
         "playedPositionsShort":"DMC",
         "teamRegionName":"France",
         "regionCode":"fr",
         "tournamentShortName":"FL1",
         "apps":12,
         "subOn":0,
         "tackleWonTotal":1.516853932578,
         "tackleTotalAttempted":2.443820224709,
         "name":"Abdoulaye Touré",
         "firstName":"Abdoulaye",
         "lastName":"Touré",
         "playerId":128880,
         "positionText":"Midfielder",
         "teamId":302,
         "teamName":"Nantes",
         "seasonId":7344,
         "seasonName":"2018/2019",
         "isOpta":true,
         "tournamentId":22,
         "tournamentRegionId":74,
         "tournamentRegionCode":"fr",
         "tournamentRegionName":"France",
         "tournamentName":"Ligue 1",
         "rating":7.0166666666666666,
         "minsPlayed":1068,
         "challengeLost":0.9269662921309999,
         "ranking":156
      },
      {
         "height":175,
         "weight":66,
         "age":23,
         "isManOfTheMatch":false,
         "isActive":true,
         "playedPositions":"-MC-ML-MR-",
         "playedPositionsShort":"M(CLR)",
         "teamRegionName":"Germany",
         "regionCode":"rs",
         "tournamentShortName":"GB",
         "apps":10,
         "subOn":0,
         "tackleWonTotal":1.51554404144,
         "tackleTotalAttempted":3.14766839376,
         "name":"Mijat Gacinovic",
         "firstName":"Mijat",
         "lastName":"Gacinovic",
         "playerId":300318,
         "positionText":"Midfielder",
         "teamId":45,
         "teamName":"Eintracht Frankfurt",
         "seasonId":7405,
         "seasonName":"2018/2019",
         "isOpta":true,
         "tournamentId":3,
         "tournamentRegionId":81,
         "tournamentRegionCode":"de",
         "tournamentRegionName":"Germany",
         "tournamentName":"Bundesliga",
         "rating":6.6480000000000006,
         "minsPlayed":772,
         "challengeLost":1.63212435232,
         "ranking":157
      },
      {
         "height":183,
         "weight":77,
         "age":25,
         "isManOfTheMatch":false,
         "isActive":true,
         "playedPositions":"-MC-",
         "playedPositionsShort":"M(C)",
         "teamRegionName":"Spain",
         "regionCode":"es",
         "tournamentShortName":"SLL",
         "apps":10,
         "subOn":0,
         "tackleWonTotal":1.49643705463,
         "tackleTotalAttempted":4.2755344418000005,
         "name":"Gonzalo Melero",
         "firstName":"Gonzalo",
         "lastName":"Melero",
         "playerId":261698,
         "positionText":"Midfielder",
         "teamId":5006,
         "teamName":"SD Huesca",
         "seasonId":7466,
         "seasonName":"2018/2019",
         "isOpta":true,
         "tournamentId":4,
         "tournamentRegionId":206,
         "tournamentRegionCode":"es",
         "tournamentRegionName":"Spain",
         "tournamentName":"La Liga",
         "rating":6.5329999999999995,
         "minsPlayed":842,
         "challengeLost":2.77909738717,
         "ranking":158
      },
      {
         "height":175,
         "weight":70,
         "age":21,
         "isManOfTheMatch":false,
         "isActive":true,
         "playedPositions":"-ML-MR-",
         "playedPositionsShort":"M(LR)",
         "teamRegionName":"Italy",
         "regionCode":"it",
         "tournamentShortName":"ISA",
         "apps":18,
         "subOn":0,
         "tackleWonTotal":1.488549618296,
         "tackleTotalAttempted":2.633587786216,
         "name":"Federico Chiesa",
         "firstName":"Federico",
         "lastName":"Chiesa",
         "playerId":322971,
         "positionText":"Forward",
         "teamId":73,
         "teamName":"Fiorentina",
         "seasonId":7468,
         "seasonName":"2018/2019",
         "isOpta":true,
         "tournamentId":5,
         "tournamentRegionId":108,
         "tournamentRegionCode":"it",
         "tournamentRegionName":"Italy",
         "tournamentName":"Serie A",
         "rating":7.1261111111111086,
         "minsPlayed":1572,
         "challengeLost":1.1450381679200001,
         "ranking":159
      },
      {
         "height":179,
         "weight":70,
         "age":23,
         "isManOfTheMatch":false,
         "isActive":true,
         "playedPositions":"-AMR-FW-",
         "playedPositionsShort":"AM(R),FW",
         "teamRegionName":"France",
         "regionCode":"co",
         "tournamentShortName":"FL1",
         "apps":11,
         "subOn":0,
         "tackleWonTotal":1.4754098360549999,
         "tackleTotalAttempted":2.5573770491619996,
         "name":"Juan Ferney Otero",
         "firstName":"Juan Ferney",
         "lastName":"Otero",
         "playerId":334654,
         "positionText":"Forward",
         "teamId":151,
         "teamName":"Amiens",
         "seasonId":7344,
         "seasonName":"2018/2019",
         "isOpta":true,
         "tournamentId":22,
         "tournamentRegionId":74,
         "tournamentRegionCode":"fr",
         "tournamentRegionName":"France",
         "tournamentName":"Ligue 1",
         "rating":6.5236363636363643,
         "minsPlayed":915,
         "challengeLost":1.081967213107,
         "ranking":160
      }
   ],
   "paging":{
      "currentPage":16,
      "totalPages":25,
      "resultsPerPage":10,
      "totalResults":246,
      "firstRecordIndex":151,
      "lastRecordIndex":160
   },
   "statColumns":[
      "apps",
      "subOn",
      "minsPlayed",
      "tackleWonTotal",
      "challengeLost",
      "tackleTotalAttempted"
   ]
}