{
   "playerTableStats":[
      {
         "height":180,
         "weight":65,
         "age":27,
         "isManOfTheMatch":false,
         "isActive":true,
         "playedPositions":"-DMC-",
         "playedPositionsShort":"DMC",
         "teamRegionName":"England",
         "regionCode":"it",
         "tournamentShortName":"EPL",
         "apps":20,
         "subOn":0,
         "tackleWonTotal":1.761658031068,
         "tackleTotalAttempted":3.212435233124,
         "name":"Jorginho",
         "firstName":"Jorge Luiz",
         "lastName":"Frello Filho",
         "playerId":106968,
         "positionText":"Midfielder",
         "teamId":15,
         "teamName":"Chelsea",
         "seasonId":7361,
         "seasonName":"2018/2019",
         "isOpta":true,
         "tournamentId":2,
         "tournamentRegionId":252,
         "tournamentRegionCode":"gb-eng",
         "tournamentRegionName":"England",
         "tournamentName":"Premier League",
         "rating":6.8629999999999995,
         "minsPlayed":1737,
         "challengeLost":1.450777202056,
         "ranking":131
      },
      {
         "height":177,
         "weight":77,
         "age":24,
         "isManOfTheMatch":false,
         "isActive":true,
         "playedPositions":"-AMC-AML-AMR-FW-",
         "playedPositionsShort":"AM(CLR),FW",
         "teamRegionName":"Germany",
         "regionCode":"at",
         "tournamentShortName":"GB",
         "apps":12,
         "subOn":0,
         "tackleWonTotal":1.74927113702,
         "tackleTotalAttempted":3.0612244897850003,
         "name":"Marcel Sabitzer",
         "firstName":"Marcel",
         "lastName":"Sabitzer",
         "playerId":92051,
         "positionText":"Midfielder",
         "teamId":7614,
         "teamName":"RasenBallsport Leipzig",
         "seasonId":7405,
         "seasonName":"2018/2019",
         "isOpta":true,
         "tournamentId":3,
         "tournamentRegionId":81,
         "tournamentRegionCode":"de",
         "tournamentRegionName":"Germany",
         "tournamentName":"Bundesliga",
         "rating":6.9916666666666663,
         "minsPlayed":1029,
         "challengeLost":1.311953352765,
         "ranking":132
      },
      {
         "height":188,
         "weight":74,
         "age":25,
         "isManOfTheMatch":false,
         "isActive":true,
         "playedPositions":"-DR-MR-",
         "playedPositionsShort":"D(R),M(R)",
         "teamRegionName":"Italy",
         "regionCode":"nl",
         "tournamentShortName":"ISA",
         "apps":11,
         "subOn":0,
         "tackleWonTotal":1.727272727271,
         "tackleTotalAttempted":2.181818181816,
         "name":"Hans Hateboer",
         "firstName":"Hans",
         "lastName":"Hateboer",
         "playerId":135890,
         "positionText":"Defender",
         "teamId":300,
         "teamName":"Atalanta",
         "seasonId":7468,
         "seasonName":"2018/2019",
         "isOpta":true,
         "tournamentId":5,
         "tournamentRegionId":108,
         "tournamentRegionCode":"it",
         "tournamentRegionName":"Italy",
         "tournamentName":"Serie A",
         "rating":6.72909090909091,
         "minsPlayed":990,
         "challengeLost":0.454545454545,
         "ranking":133
      },
      {
         "height":180,
         "weight":88,
         "age":24,
         "isManOfTheMatch":false,
         "isActive":true,
         "playedPositions":"-AMC-AML-AMR-",
         "playedPositionsShort":"AM(CLR)",
         "teamRegionName":"England",
         "regionCode":"gb-eng",
         "tournamentShortName":"EPL",
         "apps":20,
         "subOn":0,
         "tackleWonTotal":1.712707182304,
         "tackleTotalAttempted":2.541436464064,
         "name":"Solly March",
         "firstName":"Solomon",
         "lastName":"March",
         "playerId":122926,
         "positionText":"Midfielder",
         "teamId":211,
         "teamName":"Brighton",
         "seasonId":7361,
         "seasonName":"2018/2019",
         "isOpta":true,
         "tournamentId":2,
         "tournamentRegionId":252,
         "tournamentRegionCode":"gb-eng",
         "tournamentRegionName":"England",
         "tournamentName":"Premier League",
         "rating":6.8595000000000015,
         "minsPlayed":1629,
         "challengeLost":0.82872928176,
         "ranking":134
      },
      {
         "height":173,
         "weight":76,
         "age":26,
         "isManOfTheMatch":false,
         "isActive":true,
         "playedPositions":"-AMC-AML-",
         "playedPositionsShort":"AM(CL)",
         "teamRegionName":"France",
         "regionCode":"tn",
         "tournamentShortName":"FL1",
         "apps":14,
         "subOn":0,
         "tackleWonTotal":1.699570815448,
         "tackleTotalAttempted":2.549356223172,
         "name":"Naim Sliti",
         "firstName":"Naim",
         "lastName":"Sliti",
         "playerId":296226,
         "positionText":"Midfielder",
         "teamId":1364,
         "teamName":"Dijon",
         "seasonId":7344,
         "seasonName":"2018/2019",
         "isOpta":true,
         "tournamentId":22,
         "tournamentRegionId":74,
         "tournamentRegionCode":"fr",
         "tournamentRegionName":"France",
         "tournamentName":"Ligue 1",
         "rating":7.1692857142857127,
         "minsPlayed":1165,
         "challengeLost":0.84978540772399991,
         "ranking":135
      },
      {
         "height":183,
         "weight":80,
         "age":24,
         "isManOfTheMatch":false,
         "isActive":true,
         "playedPositions":"-AMC-AMR-",
         "playedPositionsShort":"AM(CR)",
         "teamRegionName":"Italy",
         "regionCode":"it",
         "tournamentShortName":"ISA",
         "apps":16,
         "subOn":0,
         "tackleWonTotal":1.698113207529,
         "tackleTotalAttempted":2.436423297759,
         "name":"Marco Benassi",
         "firstName":"Marco",
         "lastName":"Benassi",
         "playerId":118140,
         "positionText":"Midfielder",
         "teamId":73,
         "teamName":"Fiorentina",
         "seasonId":7468,
         "seasonName":"2018/2019",
         "isOpta":true,
         "tournamentId":5,
         "tournamentRegionId":108,
         "tournamentRegionCode":"it",
         "tournamentRegionName":"Italy",
         "tournamentName":"Serie A",
         "rating":6.8768749999999992,
         "minsPlayed":1219,
         "challengeLost":0.73831009022999994,
         "ranking":136
      },
      {
         "height":183,
         "weight":79,
         "age":20,
         "isManOfTheMatch":false,
         "isActive":true,
         "playedPositions":"-DMC-",
         "playedPositionsShort":"DMC",
         "teamRegionName":"Germany",
         "regionCode":"de",
         "tournamentShortName":"GB",
         "apps":16,
         "subOn":0,
         "tackleWonTotal":1.6875,
         "tackleTotalAttempted":2.5,
         "name":"Arne Maier",
         "firstName":"Arne",
         "lastName":"Maier",
         "playerId":333350,
         "positionText":"Midfielder",
         "teamId":47,
         "teamName":"Hertha Berlin",
         "seasonId":7405,
         "seasonName":"2018/2019",
         "isOpta":true,
         "tournamentId":3,
         "tournamentRegionId":81,
         "tournamentRegionCode":"de",
         "tournamentRegionName":"Germany",
         "tournamentName":"Bundesliga",
         "rating":6.69375,
         "minsPlayed":1440,
         "challengeLost":0.8125,
         "ranking":137
      },
      {
         "height":168,
         "weight":68,
         "age":27,
         "isManOfTheMatch":false,
         "isActive":true,
         "playedPositions":"-DMC-",
         "playedPositionsShort":"DMC",
         "teamRegionName":"England",
         "regionCode":"fr",
         "tournamentShortName":"EPL",
         "apps":21,
         "subOn":0,
         "tackleWonTotal":1.678209909425,
         "tackleTotalAttempted":2.8769312733000003,
         "name":"N'Golo Kanté",
         "firstName":"N'Golo",
         "lastName":"Kanté",
         "playerId":114075,
         "positionText":"Midfielder",
         "teamId":15,
         "teamName":"Chelsea",
         "seasonId":7361,
         "seasonName":"2018/2019",
         "isOpta":true,
         "tournamentId":2,
         "tournamentRegionId":252,
         "tournamentRegionCode":"gb-eng",
         "tournamentRegionName":"England",
         "tournamentName":"Premier League",
         "rating":7.0185714285714305,
         "minsPlayed":1877,
         "challengeLost":1.198721363875,
         "ranking":138
      },
      {
         "height":183,
         "weight":75,
         "age":20,
         "isManOfTheMatch":false,
         "isActive":true,
         "playedPositions":"-AMC-AMR-",
         "playedPositionsShort":"AM(CR)",
         "teamRegionName":"France",
         "regionCode":"fr",
         "tournamentShortName":"FL1",
         "apps":12,
         "subOn":0,
         "tackleWonTotal":1.6715542521909998,
         "tackleTotalAttempted":2.375366568903,
         "name":"Jeff Reine-Adélaïde",
         "firstName":"Jeff",
         "lastName":"Reine-Adélaïde",
         "playerId":277239,
         "positionText":"Midfielder",
         "teamId":614,
         "teamName":"Angers",
         "seasonId":7344,
         "seasonName":"2018/2019",
         "isOpta":true,
         "tournamentId":22,
         "tournamentRegionId":74,
         "tournamentRegionCode":"fr",
         "tournamentRegionName":"France",
         "tournamentName":"Ligue 1",
         "rating":7.0549999999999988,
         "minsPlayed":1023,
         "challengeLost":0.703812316712,
         "ranking":139
      },
      {
         "height":177,
         "weight":72,
         "age":25,
         "isManOfTheMatch":false,
         "isActive":true,
         "playedPositions":"-MC-ML-MR-",
         "playedPositionsShort":"M(CLR)",
         "teamRegionName":"France",
         "regionCode":"fr",
         "tournamentShortName":"FL1",
         "apps":15,
         "subOn":0,
         "tackleWonTotal":1.6693548387030002,
         "tackleTotalAttempted":2.9758064516010005,
         "name":"Adrien Thomasson",
         "firstName":"Adrien",
         "lastName":"Thomasson",
         "playerId":113747,
         "positionText":"Midfielder",
         "teamId":148,
         "teamName":"Strasbourg",
         "seasonId":7344,
         "seasonName":"2018/2019",
         "isOpta":true,
         "tournamentId":22,
         "tournamentRegionId":74,
         "tournamentRegionCode":"fr",
         "tournamentRegionName":"France",
         "tournamentName":"Ligue 1",
         "rating":6.8786666666666667,
         "minsPlayed":1240,
         "challengeLost":1.3064516128980002,
         "ranking":140
      }
   ],
   "paging":{
      "currentPage":14,
      "totalPages":25,
      "resultsPerPage":10,
      "totalResults":246,
      "firstRecordIndex":131,
      "lastRecordIndex":140
   },
   "statColumns":[
      "apps",
      "subOn",
      "minsPlayed",
      "tackleWonTotal",
      "challengeLost",
      "tackleTotalAttempted"
   ]
}