{
   "playerTableStats":[
      {
         "ranking":191,
         "seasonId":7466,
         "seasonName":"2018/2019",
         "tournamentId":4,
         "tournamentRegionId":206,
         "tournamentRegionCode":"es",
         "tournamentRegionName":"Spain",
         "regionCode":"ar",
         "tournamentName":"La Liga",
         "tournamentShortName":"SLL",
         "firstName":"Ángel",
         "lastName":"Correa",
         "playerId":127604,
         "isActive":true,
         "isOpta":true,
         "teamId":63,
         "teamName":"Atletico Madrid",
         "teamRegionName":"Spain",
         "playedPositions":"-AML-AMR-FW-",
         "age":23,
         "height":171,
         "weight":68,
         "positionText":"Forward",
         "apps":10,
         "subOn":0,
         "minsPlayed":740,
         "rating":6.875,
         "isManOfTheMatch":false,
         "playedPositionsShort":"AM(LR),FW",
         "tackleWonTotal":1.21621621621,
         "tackleTotalAttempted":2.918918918904,
         "name":"Ángel Correa",
         "challengeLost":1.702702702694
      },
      {
         "ranking":192,
         "seasonId":7468,
         "seasonName":"2018/2019",
         "tournamentId":5,
         "tournamentRegionId":108,
         "tournamentRegionCode":"it",
         "tournamentRegionName":"Italy",
         "regionCode":"rs",
         "tournamentName":"Serie A",
         "tournamentShortName":"ISA",
         "firstName":"Sergej",
         "lastName":"Milinkovic-Savic",
         "playerId":288767,
         "isActive":true,
         "isOpta":true,
         "teamId":77,
         "teamName":"Lazio",
         "teamRegionName":"Italy",
         "playedPositions":"-AMC-",
         "age":23,
         "height":191,
         "weight":76,
         "positionText":"Midfielder",
         "apps":18,
         "subOn":0,
         "minsPlayed":1482,
         "rating":7.2144444444444433,
         "isManOfTheMatch":false,
         "playedPositionsShort":"AM(C)",
         "tackleWonTotal":1.21457489878,
         "tackleTotalAttempted":2.246963562743,
         "name":"Sergej Milinkovic-Savic",
         "challengeLost":1.032388663963
      },
      {
         "ranking":193,
         "seasonId":7405,
         "seasonName":"2018/2019",
         "tournamentId":3,
         "tournamentRegionId":81,
         "tournamentRegionCode":"de",
         "tournamentRegionName":"Germany",
         "regionCode":"dk",
         "tournamentName":"Bundesliga",
         "tournamentShortName":"GB",
         "firstName":"Jacob",
         "lastName":"Bruun Larsen",
         "playerId":307202,
         "isActive":true,
         "isOpta":true,
         "teamId":44,
         "teamName":"Borussia Dortmund",
         "teamRegionName":"Germany",
         "playedPositions":"-AML-",
         "age":20,
         "height":183,
         "weight":75,
         "positionText":"Forward",
         "apps":11,
         "subOn":0,
         "minsPlayed":819,
         "rating":6.9572727272727262,
         "isManOfTheMatch":false,
         "playedPositionsShort":"AM(L)",
         "tackleWonTotal":1.2087912087900001,
         "tackleTotalAttempted":2.0879120879100004,
         "name":"Jacob Bruun Larsen",
         "challengeLost":0.87912087912
      },
      {
         "ranking":194,
         "seasonId":7466,
         "seasonName":"2018/2019",
         "tournamentId":4,
         "tournamentRegionId":206,
         "tournamentRegionCode":"es",
         "tournamentRegionName":"Spain",
         "regionCode":"es",
         "tournamentName":"La Liga",
         "tournamentShortName":"SLL",
         "firstName":"Mikel",
         "lastName":"Oyarzabal",
         "playerId":298839,
         "isActive":true,
         "isOpta":true,
         "teamId":68,
         "teamName":"Real Sociedad",
         "teamRegionName":"Spain",
         "playedPositions":"-AMC-AML-AMR-",
         "age":21,
         "height":181,
         "weight":78,
         "positionText":"Forward",
         "apps":16,
         "subOn":0,
         "minsPlayed":1347,
         "rating":6.8362500000000006,
         "isManOfTheMatch":false,
         "playedPositionsShort":"AM(CLR)",
         "tackleWonTotal":1.202672605788,
         "tackleTotalAttempted":2.071269487746,
         "name":"Mikel Oyarzabal",
         "challengeLost":0.86859688195800011
      },
      {
         "ranking":195,
         "seasonId":7466,
         "seasonName":"2018/2019",
         "tournamentId":4,
         "tournamentRegionId":206,
         "tournamentRegionCode":"es",
         "tournamentRegionName":"Spain",
         "regionCode":"fr",
         "tournamentName":"La Liga",
         "tournamentShortName":"SLL",
         "firstName":"Ousmane",
         "lastName":"Dembélé",
         "playerId":299513,
         "isActive":true,
         "isOpta":true,
         "teamId":65,
         "teamName":"Barcelona",
         "teamRegionName":"Spain",
         "playedPositions":"-AMC-AML-AMR-",
         "age":21,
         "height":178,
         "weight":67,
         "positionText":"Forward",
         "apps":11,
         "subOn":0,
         "minsPlayed":827,
         "rating":7.6854545454545447,
         "isManOfTheMatch":false,
         "playedPositionsShort":"AM(CLR)",
         "tackleWonTotal":1.197097944372,
         "tackleTotalAttempted":1.741233373632,
         "name":"Ousmane Dembélé",
         "challengeLost":0.54413542926
      },
      {
         "ranking":196,
         "seasonId":7405,
         "seasonName":"2018/2019",
         "tournamentId":3,
         "tournamentRegionId":81,
         "tournamentRegionCode":"de",
         "tournamentRegionName":"Germany",
         "regionCode":"de",
         "tournamentName":"Bundesliga",
         "tournamentShortName":"GB",
         "firstName":"Danny",
         "lastName":"da Costa",
         "playerId":94934,
         "isActive":true,
         "isOpta":true,
         "teamId":45,
         "teamName":"Eintracht Frankfurt",
         "teamRegionName":"Germany",
         "playedPositions":"-DR-MR-",
         "age":25,
         "height":187,
         "weight":85,
         "positionText":"Defender",
         "apps":11,
         "subOn":0,
         "minsPlayed":981,
         "rating":6.9218181818181828,
         "isManOfTheMatch":false,
         "playedPositionsShort":"D(R),M(R)",
         "tackleWonTotal":1.192660550458,
         "tackleTotalAttempted":1.926605504586,
         "name":"Danny da Costa",
         "challengeLost":0.733944954128
      },
      {
         "ranking":197,
         "seasonId":7468,
         "seasonName":"2018/2019",
         "tournamentId":5,
         "tournamentRegionId":108,
         "tournamentRegionCode":"it",
         "tournamentRegionName":"Italy",
         "regionCode":"gh",
         "tournamentName":"Serie A",
         "tournamentShortName":"ISA",
         "firstName":"Raman",
         "lastName":"Chibsah",
         "playerId":121023,
         "isActive":true,
         "isOpta":true,
         "teamId":2732,
         "teamName":"Frosinone",
         "teamRegionName":"Italy",
         "playedPositions":"-MC-",
         "age":25,
         "height":177,
         "weight":72,
         "positionText":"Midfielder",
         "apps":19,
         "subOn":0,
         "minsPlayed":1662,
         "rating":6.477368421052633,
         "isManOfTheMatch":false,
         "playedPositionsShort":"M(C)",
         "tackleWonTotal":1.191335740056,
         "tackleTotalAttempted":2.382671480112,
         "name":"Raman Chibsah",
         "challengeLost":1.191335740056
      },
      {
         "ranking":198,
         "seasonId":7361,
         "seasonName":"2018/2019",
         "tournamentId":2,
         "tournamentRegionId":252,
         "tournamentRegionCode":"gb-eng",
         "tournamentRegionName":"England",
         "regionCode":"gb-eng",
         "tournamentName":"Premier League",
         "tournamentShortName":"EPL",
         "firstName":"Nathan",
         "lastName":"Redmond",
         "playerId":86425,
         "isActive":true,
         "isOpta":true,
         "teamId":18,
         "teamName":"Southampton",
         "teamRegionName":"England",
         "playedPositions":"-AMC-AML-AMR-FW-",
         "age":24,
         "height":173,
         "weight":69,
         "positionText":"Midfielder",
         "apps":19,
         "subOn":0,
         "minsPlayed":1666,
         "rating":6.7710526315789465,
         "isManOfTheMatch":false,
         "playedPositionsShort":"AM(CLR),FW",
         "tackleWonTotal":1.188475390146,
         "tackleTotalAttempted":1.8907563025049998,
         "name":"Nathan Redmond",
         "challengeLost":0.702280912359
      },
      {
         "ranking":199,
         "seasonId":7361,
         "seasonName":"2018/2019",
         "tournamentId":2,
         "tournamentRegionId":252,
         "tournamentRegionCode":"gb-eng",
         "tournamentRegionName":"England",
         "regionCode":"de",
         "tournamentName":"Premier League",
         "tournamentShortName":"EPL",
         "firstName":"Leroy",
         "lastName":"Sané",
         "playerId":144711,
         "isActive":true,
         "isOpta":true,
         "teamId":167,
         "teamName":"Manchester City",
         "teamRegionName":"England",
         "playedPositions":"-MC-ML-MR-",
         "age":23,
         "height":183,
         "weight":75,
         "positionText":"Forward",
         "apps":13,
         "subOn":0,
         "minsPlayed":1090,
         "rating":7.9461538461538472,
         "isManOfTheMatch":false,
         "playedPositionsShort":"M(CLR)",
         "tackleWonTotal":1.1559633027460001,
         "tackleTotalAttempted":1.899082568797,
         "name":"Leroy Sané",
         "challengeLost":0.743119266051
      },
      {
         "ranking":200,
         "seasonId":7466,
         "seasonName":"2018/2019",
         "tournamentId":4,
         "tournamentRegionId":206,
         "tournamentRegionCode":"es",
         "tournamentRegionName":"Spain",
         "regionCode":"es",
         "tournamentName":"La Liga",
         "tournamentShortName":"SLL",
         "firstName":"Óscar",
         "lastName":"Rodríguez",
         "playerId":353783,
         "isActive":true,
         "isOpta":true,
         "teamId":825,
         "teamName":"Leganes",
         "teamRegionName":"Spain",
         "playedPositions":"-AMC-",
         "age":20,
         "height":174,
         "weight":67,
         "positionText":"Midfielder",
         "apps":13,
         "subOn":0,
         "minsPlayed":1102,
         "rating":6.9669230769230763,
         "isManOfTheMatch":false,
         "playedPositionsShort":"AM(C)",
         "tackleWonTotal":1.14337568058,
         "tackleTotalAttempted":2.12341197822,
         "name":"Óscar Rodríguez",
         "challengeLost":0.98003629764
      }
   ],
   "paging":{
      "currentPage":20,
      "totalPages":25,
      "resultsPerPage":10,
      "totalResults":246,
      "firstRecordIndex":191,
      "lastRecordIndex":200
   },
   "statColumns":[
      "apps",
      "subOn",
      "minsPlayed",
      "tackleWonTotal",
      "challengeLost",
      "tackleTotalAttempted"
   ]
}