{
   "playerTableStats":[
      {
         "ranking":41,
         "seasonId":7344,
         "seasonName":"2018/2019",
         "tournamentId":22,
         "tournamentRegionId":74,
         "tournamentRegionCode":"fr",
         "tournamentRegionName":"France",
         "regionCode":"fr",
         "tournamentName":"Ligue 1",
         "tournamentShortName":"FL1",
         "firstName":"Morgan",
         "lastName":"Sanson",
         "playerId":115508,
         "isActive":true,
         "isOpta":true,
         "teamId":249,
         "teamName":"Marseille",
         "teamRegionName":"France",
         "playedPositions":"-MC-ML-MR-",
         "age":24,
         "height":180,
         "weight":73,
         "positionText":"Midfielder",
         "apps":13,
         "subOn":0,
         "minsPlayed":1103,
         "rating":6.9861538461538464,
         "isManOfTheMatch":false,
         "playedPositionsShort":"M(CLR)",
         "tackleWonTotal":2.611060743424,
         "tackleTotalAttempted":4.48776065276,
         "name":"Morgan Sanson",
         "challengeLost":1.876699909336
      },
      {
         "ranking":42,
         "seasonId":7361,
         "seasonName":"2018/2019",
         "tournamentId":2,
         "tournamentRegionId":252,
         "tournamentRegionCode":"gb-eng",
         "tournamentRegionName":"England",
         "regionCode":"dk",
         "tournamentName":"Premier League",
         "tournamentShortName":"EPL",
         "firstName":"Pierre-Emile",
         "lastName":"Højbjerg",
         "playerId":101859,
         "isActive":true,
         "isOpta":true,
         "teamId":18,
         "teamName":"Southampton",
         "teamRegionName":"England",
         "playedPositions":"-MC-",
         "age":23,
         "height":185,
         "weight":84,
         "positionText":"Midfielder",
         "apps":16,
         "subOn":0,
         "minsPlayed":1420,
         "rating":6.8362500000000015,
         "isManOfTheMatch":false,
         "playedPositionsShort":"M(C)",
         "tackleWonTotal":2.59859154929,
         "tackleTotalAttempted":4.24647887323,
         "name":"Pierre-Emile Højbjerg",
         "challengeLost":1.64788732394
      },
      {
         "ranking":43,
         "seasonId":7344,
         "seasonName":"2018/2019",
         "tournamentId":22,
         "tournamentRegionId":74,
         "tournamentRegionCode":"fr",
         "tournamentRegionName":"France",
         "regionCode":"dz",
         "tournamentName":"Ligue 1",
         "tournamentShortName":"FL1",
         "firstName":"Mehdi",
         "lastName":"Abeid",
         "playerId":109526,
         "isActive":true,
         "isOpta":true,
         "teamId":1364,
         "teamName":"Dijon",
         "teamRegionName":"France",
         "playedPositions":"-DMC-",
         "age":26,
         "height":178,
         "weight":85,
         "positionText":"Midfielder",
         "apps":12,
         "subOn":0,
         "minsPlayed":1005,
         "rating":6.9958333333333345,
         "isManOfTheMatch":false,
         "playedPositionsShort":"DMC",
         "tackleWonTotal":2.5970149253450003,
         "tackleTotalAttempted":3.8507462686150005,
         "name":"Mehdi Abeid",
         "challengeLost":1.2537313432700001
      },
      {
         "ranking":44,
         "seasonId":7466,
         "seasonName":"2018/2019",
         "tournamentId":4,
         "tournamentRegionId":206,
         "tournamentRegionCode":"es",
         "tournamentRegionName":"Spain",
         "regionCode":"es",
         "tournamentName":"La Liga",
         "tournamentShortName":"SLL",
         "firstName":"Jorge",
         "lastName":"Resurrección",
         "playerId":80764,
         "isActive":true,
         "isOpta":true,
         "teamId":63,
         "teamName":"Atletico Madrid",
         "teamRegionName":"Spain",
         "playedPositions":"-MC-ML-MR-",
         "age":27,
         "height":176,
         "weight":74,
         "positionText":"Midfielder",
         "apps":14,
         "subOn":0,
         "minsPlayed":1260,
         "rating":7.0371428571428556,
         "isManOfTheMatch":false,
         "playedPositionsShort":"M(CLR)",
         "tackleWonTotal":2.571428571408,
         "tackleTotalAttempted":4.214285714252,
         "name":"Koke",
         "challengeLost":1.6428571428440002
      },
      {
         "ranking":45,
         "seasonId":7405,
         "seasonName":"2018/2019",
         "tournamentId":3,
         "tournamentRegionId":81,
         "tournamentRegionCode":"de",
         "tournamentRegionName":"Germany",
         "regionCode":"de",
         "tournamentName":"Bundesliga",
         "tournamentShortName":"GB",
         "firstName":"Janik",
         "lastName":"Haberer",
         "playerId":110272,
         "isActive":true,
         "isOpta":true,
         "teamId":50,
         "teamName":"Freiburg",
         "teamRegionName":"Germany",
         "playedPositions":"-FW-MC-ML-MR-",
         "age":24,
         "height":186,
         "weight":77,
         "positionText":"Midfielder",
         "apps":11,
         "subOn":0,
         "minsPlayed":989,
         "rating":6.9272727272727277,
         "isManOfTheMatch":false,
         "playedPositionsShort":"M(CLR),FW",
         "tackleWonTotal":2.548028311416,
         "tackleTotalAttempted":4.641051567222,
         "name":"Janik Haberer",
         "challengeLost":2.093023255806
      },
      {
         "ranking":46,
         "seasonId":7468,
         "seasonName":"2018/2019",
         "tournamentId":5,
         "tournamentRegionId":108,
         "tournamentRegionCode":"it",
         "tournamentRegionName":"Italy",
         "regionCode":null,
         "tournamentName":"Serie A",
         "tournamentShortName":"ISA",
         "firstName":"Hamed Junior",
         "lastName":"Traore",
         "playerId":362551,
         "isActive":true,
         "isOpta":true,
         "teamId":272,
         "teamName":"Empoli",
         "teamRegionName":"Italy",
         "playedPositions":"-MC-",
         "age":18,
         "height":0,
         "weight":0,
         "positionText":"Midfielder",
         "apps":11,
         "subOn":0,
         "minsPlayed":888,
         "rating":6.5827272727272721,
         "isManOfTheMatch":false,
         "playedPositionsShort":"M(C)",
         "tackleWonTotal":2.533783783775,
         "tackleTotalAttempted":3.749999999987,
         "name":"Hamed Junior Traore",
         "challengeLost":1.216216216212
      },
      {
         "ranking":47,
         "seasonId":7468,
         "seasonName":"2018/2019",
         "tournamentId":5,
         "tournamentRegionId":108,
         "tournamentRegionCode":"it",
         "tournamentRegionName":"Italy",
         "regionCode":"it",
         "tournamentName":"Serie A",
         "tournamentShortName":"ISA",
         "firstName":"Rolando",
         "lastName":"Mandragora",
         "playerId":241020,
         "isActive":true,
         "isOpta":true,
         "teamId":86,
         "teamName":"Udinese",
         "teamRegionName":"Italy",
         "playedPositions":"-MC-",
         "age":21,
         "height":183,
         "weight":76,
         "positionText":"Midfielder",
         "apps":17,
         "subOn":0,
         "minsPlayed":1496,
         "rating":6.7335294117647067,
         "isManOfTheMatch":false,
         "playedPositionsShort":"M(C)",
         "tackleWonTotal":2.526737967894,
         "tackleTotalAttempted":4.151069518683,
         "name":"Rolando Mandragora",
         "challengeLost":1.624331550789
      },
      {
         "ranking":48,
         "seasonId":7405,
         "seasonName":"2018/2019",
         "tournamentId":3,
         "tournamentRegionId":81,
         "tournamentRegionCode":"de",
         "tournamentRegionName":"Germany",
         "regionCode":"br",
         "tournamentName":"Bundesliga",
         "tournamentShortName":"GB",
         "firstName":"Walace",
         "lastName":"Souza Silva",
         "playerId":147923,
         "isActive":true,
         "isOpta":true,
         "teamId":110,
         "teamName":"Hannover 96",
         "teamRegionName":"Germany",
         "playedPositions":"-DMC-",
         "age":23,
         "height":188,
         "weight":75,
         "positionText":"Midfielder",
         "apps":16,
         "subOn":0,
         "minsPlayed":1390,
         "rating":6.8625000000000007,
         "isManOfTheMatch":false,
         "playedPositionsShort":"DMC",
         "tackleWonTotal":2.5251798560820005,
         "tackleTotalAttempted":4.0791366905940007,
         "name":"Walace",
         "challengeLost":1.553956834512
      },
      {
         "ranking":49,
         "seasonId":7344,
         "seasonName":"2018/2019",
         "tournamentId":22,
         "tournamentRegionId":74,
         "tournamentRegionCode":"fr",
         "tournamentRegionName":"France",
         "regionCode":"dk",
         "tournamentName":"Ligue 1",
         "tournamentShortName":"FL1",
         "firstName":"Lukas",
         "lastName":"Lerager",
         "playerId":342577,
         "isActive":true,
         "isOpta":true,
         "teamId":315,
         "teamName":"Bordeaux",
         "teamRegionName":"France",
         "playedPositions":"-DMC-",
         "age":25,
         "height":185,
         "weight":80,
         "positionText":"Midfielder",
         "apps":13,
         "subOn":0,
         "minsPlayed":1071,
         "rating":6.7546153846153851,
         "isManOfTheMatch":false,
         "playedPositionsShort":"DMC",
         "tackleWonTotal":2.5210084033499998,
         "tackleTotalAttempted":4.2016806722499993,
         "name":"Lukas Lerager",
         "challengeLost":1.6806722689
      },
      {
         "ranking":50,
         "seasonId":7466,
         "seasonName":"2018/2019",
         "tournamentId":4,
         "tournamentRegionId":206,
         "tournamentRegionCode":"es",
         "tournamentRegionName":"Spain",
         "regionCode":"uy",
         "tournamentName":"La Liga",
         "tournamentShortName":"SLL",
         "firstName":"Mauro",
         "lastName":"Arambarri",
         "playerId":303016,
         "isActive":true,
         "isOpta":true,
         "teamId":819,
         "teamName":"Getafe",
         "teamRegionName":"Spain",
         "playedPositions":"-DMC-",
         "age":23,
         "height":175,
         "weight":74,
         "positionText":"Midfielder",
         "apps":17,
         "subOn":0,
         "minsPlayed":1431,
         "rating":6.7111764705882342,
         "isManOfTheMatch":false,
         "playedPositionsShort":"DMC",
         "tackleWonTotal":2.51572327044,
         "tackleTotalAttempted":4.025157232704,
         "name":"Mauro Arambarri",
         "challengeLost":1.509433962264
      }
   ],
   "paging":{
      "currentPage":5,
      "totalPages":25,
      "resultsPerPage":10,
      "totalResults":246,
      "firstRecordIndex":41,
      "lastRecordIndex":50
   },
   "statColumns":[
      "apps",
      "subOn",
      "minsPlayed",
      "tackleWonTotal",
      "challengeLost",
      "tackleTotalAttempted"
   ]
}