{
   "playerTableStats":[
      {
         "height":187,
         "weight":78,
         "age":24,
         "isManOfTheMatch":false,
         "isActive":true,
         "playedPositions":"-DMC-",
         "playedPositionsShort":"DMC",
         "teamRegionName":"Germany",
         "regionCode":"dz",
         "tournamentShortName":"GB",
         "apps":14,
         "subOn":0,
         "tackleWonTotal":1.92802056555,
         "tackleTotalAttempted":2.544987146526,
         "name":"Nabil Bentaleb",
         "firstName":"Nabil",
         "lastName":"Bentaleb",
         "playerId":137521,
         "positionText":"Midfielder",
         "teamId":39,
         "teamName":"Schalke 04",
         "seasonId":7405,
         "seasonName":"2018/2019",
         "isOpta":true,
         "tournamentId":3,
         "tournamentRegionId":81,
         "tournamentRegionCode":"de",
         "tournamentRegionName":"Germany",
         "tournamentName":"Bundesliga",
         "rating":7.1142857142857139,
         "minsPlayed":1167,
         "challengeLost":0.616966580976,
         "ranking":111
      },
      {
         "height":188,
         "weight":88,
         "age":24,
         "isManOfTheMatch":false,
         "isActive":true,
         "playedPositions":"-DC-DMC-DR-",
         "playedPositionsShort":"D(CR),DMC",
         "teamRegionName":"England",
         "regionCode":"gb-eng",
         "tournamentShortName":"EPL",
         "apps":13,
         "subOn":0,
         "tackleWonTotal":1.9268510258640001,
         "tackleTotalAttempted":3.6128456734950003,
         "name":"Eric Dier",
         "firstName":"Eric",
         "lastName":"Dier",
         "playerId":117973,
         "positionText":"Midfielder",
         "teamId":30,
         "teamName":"Tottenham",
         "seasonId":7361,
         "seasonName":"2018/2019",
         "isOpta":true,
         "tournamentId":2,
         "tournamentRegionId":252,
         "tournamentRegionCode":"gb-eng",
         "tournamentRegionName":"England",
         "tournamentName":"Premier League",
         "rating":6.86,
         "minsPlayed":1121,
         "challengeLost":1.685994647631,
         "ranking":112
      },
      {
         "height":166,
         "weight":57,
         "age":26,
         "isManOfTheMatch":false,
         "isActive":true,
         "playedPositions":"-AML-",
         "playedPositionsShort":"AM(L)",
         "teamRegionName":"England",
         "regionCode":"br",
         "tournamentShortName":"EPL",
         "apps":11,
         "subOn":0,
         "tackleWonTotal":1.9125,
         "tackleTotalAttempted":2.8125,
         "name":"Bernard",
         "firstName":"Bernard",
         "lastName":"Anício Caldeira Duarte",
         "playerId":101642,
         "positionText":"Midfielder",
         "teamId":31,
         "teamName":"Everton",
         "seasonId":7361,
         "seasonName":"2018/2019",
         "isOpta":true,
         "tournamentId":2,
         "tournamentRegionId":252,
         "tournamentRegionCode":"gb-eng",
         "tournamentRegionName":"England",
         "tournamentName":"Premier League",
         "rating":6.6881818181818176,
         "minsPlayed":800,
         "challengeLost":0.9,
         "ranking":113
      },
      {
         "height":180,
         "weight":79,
         "age":21,
         "isManOfTheMatch":false,
         "isActive":true,
         "playedPositions":"-DMC-",
         "playedPositionsShort":"DMC",
         "teamRegionName":"Spain",
         "regionCode":"es",
         "tournamentShortName":"SLL",
         "apps":15,
         "subOn":0,
         "tackleWonTotal":1.910377358487,
         "tackleTotalAttempted":3.254716981126,
         "name":"Igor Zubeldia",
         "firstName":"Igor",
         "lastName":"Zubeldia",
         "playerId":315566,
         "positionText":"Midfielder",
         "teamId":68,
         "teamName":"Real Sociedad",
         "seasonId":7466,
         "seasonName":"2018/2019",
         "isOpta":true,
         "tournamentId":4,
         "tournamentRegionId":206,
         "tournamentRegionCode":"es",
         "tournamentRegionName":"Spain",
         "tournamentName":"La Liga",
         "rating":6.9013333333333353,
         "minsPlayed":1272,
         "challengeLost":1.344339622639,
         "ranking":114
      },
      {
         "height":180,
         "weight":85,
         "age":23,
         "isManOfTheMatch":false,
         "isActive":true,
         "playedPositions":"-MC-",
         "playedPositionsShort":"M(C)",
         "teamRegionName":"Germany",
         "regionCode":"cm",
         "tournamentShortName":"GB",
         "apps":14,
         "subOn":0,
         "tackleWonTotal":1.90476190476,
         "tackleTotalAttempted":2.38095238095,
         "name":"Pierre Kunde",
         "firstName":"Pierre",
         "lastName":"Kunde",
         "playerId":362751,
         "positionText":"Midfielder",
         "teamId":219,
         "teamName":"Mainz 05",
         "seasonId":7405,
         "seasonName":"2018/2019",
         "isOpta":true,
         "tournamentId":3,
         "tournamentRegionId":81,
         "tournamentRegionCode":"de",
         "tournamentRegionName":"Germany",
         "tournamentName":"Bundesliga",
         "rating":6.8364285714285717,
         "minsPlayed":1134,
         "challengeLost":0.47619047619,
         "ranking":115
      },
      {
         "height":180,
         "weight":76,
         "age":22,
         "isManOfTheMatch":false,
         "isActive":true,
         "playedPositions":"-MC-MR-",
         "playedPositionsShort":"M(CR)",
         "teamRegionName":"Spain",
         "regionCode":"es",
         "tournamentShortName":"SLL",
         "apps":15,
         "subOn":0,
         "tackleWonTotal":1.895475819024,
         "tackleTotalAttempted":3.931357254272,
         "name":"Carlos Soler",
         "firstName":"Carlos",
         "lastName":"Soler",
         "playerId":313542,
         "positionText":"Midfielder",
         "teamId":55,
         "teamName":"Valencia",
         "seasonId":7466,
         "seasonName":"2018/2019",
         "isOpta":true,
         "tournamentId":4,
         "tournamentRegionId":206,
         "tournamentRegionCode":"es",
         "tournamentRegionName":"Spain",
         "tournamentName":"La Liga",
         "rating":6.5786666666666669,
         "minsPlayed":1282,
         "challengeLost":2.035881435248,
         "ranking":116
      },
      {
         "height":181,
         "weight":75,
         "age":24,
         "isManOfTheMatch":false,
         "isActive":true,
         "playedPositions":"-AMC-FW-",
         "playedPositionsShort":"AM(C),FW",
         "teamRegionName":"Germany",
         "regionCode":"sk",
         "tournamentShortName":"GB",
         "apps":14,
         "subOn":0,
         "tackleWonTotal":1.8930762488879997,
         "tackleTotalAttempted":2.918492550369,
         "name":"Ondrej Duda",
         "firstName":"Ondrej",
         "lastName":"Duda",
         "playerId":115257,
         "positionText":"Midfielder",
         "teamId":47,
         "teamName":"Hertha Berlin",
         "seasonId":7405,
         "seasonName":"2018/2019",
         "isOpta":true,
         "tournamentId":3,
         "tournamentRegionId":81,
         "tournamentRegionCode":"de",
         "tournamentRegionName":"Germany",
         "tournamentName":"Bundesliga",
         "rating":6.9321428571428561,
         "minsPlayed":1141,
         "challengeLost":1.0254163014809998,
         "ranking":117
      },
      {
         "height":184,
         "weight":83,
         "age":27,
         "isManOfTheMatch":false,
         "isActive":true,
         "playedPositions":"-DMC-",
         "playedPositionsShort":"DMC",
         "teamRegionName":"France",
         "regionCode":"fr",
         "tournamentShortName":"FL1",
         "apps":15,
         "subOn":0,
         "tackleWonTotal":1.884816753904,
         "tackleTotalAttempted":2.894540014924,
         "name":"Thomas Monconduit",
         "firstName":"Thomas",
         "lastName":"Monconduit",
         "playerId":100869,
         "positionText":"Midfielder",
         "teamId":151,
         "teamName":"Amiens",
         "seasonId":7344,
         "seasonName":"2018/2019",
         "isOpta":true,
         "tournamentId":22,
         "tournamentRegionId":74,
         "tournamentRegionCode":"fr",
         "tournamentRegionName":"France",
         "tournamentName":"Ligue 1",
         "rating":6.826,
         "minsPlayed":1337,
         "challengeLost":1.00972326102,
         "ranking":118
      },
      {
         "height":173,
         "weight":68,
         "age":25,
         "isManOfTheMatch":false,
         "isActive":true,
         "playedPositions":"-AMC-",
         "playedPositionsShort":"AM(C)",
         "teamRegionName":"Italy",
         "regionCode":"it",
         "tournamentShortName":"ISA",
         "apps":13,
         "subOn":0,
         "tackleWonTotal":1.8798955613519999,
         "tackleTotalAttempted":2.663185378582,
         "name":"Daniel Bessa",
         "firstName":"Daniel",
         "lastName":"Bessa",
         "playerId":122964,
         "positionText":"Midfielder",
         "teamId":278,
         "teamName":"Genoa",
         "seasonId":7468,
         "seasonName":"2018/2019",
         "isOpta":true,
         "tournamentId":5,
         "tournamentRegionId":108,
         "tournamentRegionCode":"it",
         "tournamentRegionName":"Italy",
         "tournamentName":"Serie A",
         "rating":6.6238461538461531,
         "minsPlayed":1149,
         "challengeLost":0.78328981723,
         "ranking":119
      },
      {
         "height":184,
         "weight":74,
         "age":24,
         "isManOfTheMatch":false,
         "isActive":true,
         "playedPositions":"-MC-",
         "playedPositionsShort":"M(C)",
         "teamRegionName":"Spain",
         "regionCode":"es",
         "tournamentShortName":"SLL",
         "apps":14,
         "subOn":0,
         "tackleWonTotal":1.8610421836,
         "tackleTotalAttempted":3.275434243136,
         "name":"Joan Jordán",
         "firstName":"Joan",
         "lastName":"Jordán",
         "playerId":238941,
         "positionText":"Midfielder",
         "teamId":824,
         "teamName":"Eibar",
         "seasonId":7466,
         "seasonName":"2018/2019",
         "isOpta":true,
         "tournamentId":4,
         "tournamentRegionId":206,
         "tournamentRegionCode":"es",
         "tournamentRegionName":"Spain",
         "tournamentName":"La Liga",
         "rating":7.2957142857142845,
         "minsPlayed":1209,
         "challengeLost":1.414392059536,
         "ranking":120
      }
   ],
   "paging":{
      "currentPage":12,
      "totalPages":25,
      "resultsPerPage":10,
      "totalResults":246,
      "firstRecordIndex":111,
      "lastRecordIndex":120
   },
   "statColumns":[
      "apps",
      "subOn",
      "minsPlayed",
      "tackleWonTotal",
      "challengeLost",
      "tackleTotalAttempted"
   ]
}