{
   "playerTableStats":[
      {
         "height":187,
         "weight":77,
         "age":24,
         "isManOfTheMatch":false,
         "isActive":true,
         "playedPositions":"-DMC-",
         "playedPositionsShort":"DMC",
         "teamRegionName":"France",
         "regionCode":"no",
         "tournamentShortName":"FL1",
         "apps":16,
         "subOn":0,
         "tackleWonTotal":2.335976928612,
         "tackleTotalAttempted":3.439077144901,
         "name":"Ole Selnaes",
         "firstName":"Ole",
         "lastName":"Selnaes",
         "playerId":99537,
         "positionText":"Midfielder",
         "teamId":145,
         "teamName":"Saint-Etienne",
         "seasonId":7344,
         "seasonName":"2018/2019",
         "isOpta":true,
         "tournamentId":22,
         "tournamentRegionId":74,
         "tournamentRegionCode":"fr",
         "tournamentRegionName":"France",
         "tournamentName":"Ligue 1",
         "rating":6.945,
         "minsPlayed":1387,
         "challengeLost":1.103100216289,
         "ranking":71
      },
      {
         "height":168,
         "weight":64,
         "age":22,
         "isManOfTheMatch":false,
         "isActive":true,
         "playedPositions":"-DMC-",
         "playedPositionsShort":"DMC",
         "teamRegionName":"England",
         "regionCode":"uy",
         "tournamentShortName":"EPL",
         "apps":14,
         "subOn":0,
         "tackleWonTotal":2.305844675712,
         "tackleTotalAttempted":3.026421136872,
         "name":"Lucas Torreira",
         "firstName":"Lucas",
         "lastName":"Torreira",
         "playerId":248109,
         "positionText":"Midfielder",
         "teamId":13,
         "teamName":"Arsenal",
         "seasonId":7361,
         "seasonName":"2018/2019",
         "isOpta":true,
         "tournamentId":2,
         "tournamentRegionId":252,
         "tournamentRegionCode":"gb-eng",
         "tournamentRegionName":"England",
         "tournamentName":"Premier League",
         "rating":7.0721428571428566,
         "minsPlayed":1249,
         "challengeLost":0.72057646116000007,
         "ranking":72
      },
      {
         "height":184,
         "weight":81,
         "age":24,
         "isManOfTheMatch":false,
         "isActive":true,
         "playedPositions":"-DL-MC-ML-",
         "playedPositionsShort":"D(L),M(CL)",
         "teamRegionName":"Germany",
         "regionCode":"de",
         "tournamentShortName":"GB",
         "apps":13,
         "subOn":0,
         "tackleWonTotal":2.3036187113619997,
         "tackleTotalAttempted":3.1774051191199995,
         "name":"Yannick Gerhardt",
         "firstName":"Yannick",
         "lastName":"Gerhardt",
         "playerId":130899,
         "positionText":"Defender",
         "teamId":33,
         "teamName":"Wolfsburg",
         "seasonId":7405,
         "seasonName":"2018/2019",
         "isOpta":true,
         "tournamentId":3,
         "tournamentRegionId":81,
         "tournamentRegionCode":"de",
         "tournamentRegionName":"Germany",
         "tournamentName":"Bundesliga",
         "rating":6.8707692307692314,
         "minsPlayed":1133,
         "challengeLost":0.873786407758,
         "ranking":73
      },
      {
         "height":184,
         "weight":75,
         "age":26,
         "isManOfTheMatch":false,
         "isActive":true,
         "playedPositions":"-MC-",
         "playedPositionsShort":"M(C)",
         "teamRegionName":"England",
         "regionCode":"fr",
         "tournamentShortName":"EPL",
         "apps":20,
         "subOn":0,
         "tackleWonTotal":2.29331823327,
         "tackleTotalAttempted":3.261608153984,
         "name":"Abdoulaye Doucouré",
         "firstName":"Abdoulaye",
         "lastName":"Doucouré",
         "playerId":116317,
         "positionText":"Midfielder",
         "teamId":27,
         "teamName":"Watford",
         "seasonId":7361,
         "seasonName":"2018/2019",
         "isOpta":true,
         "tournamentId":2,
         "tournamentRegionId":252,
         "tournamentRegionCode":"gb-eng",
         "tournamentRegionName":"England",
         "tournamentName":"Premier League",
         "rating":6.7799999999999994,
         "minsPlayed":1766,
         "challengeLost":0.968289920714,
         "ranking":74
      },
      {
         "height":177,
         "weight":67,
         "age":25,
         "isManOfTheMatch":false,
         "isActive":true,
         "playedPositions":"-MC-",
         "playedPositionsShort":"M(C)",
         "teamRegionName":"Italy",
         "regionCode":"fr",
         "tournamentShortName":"ISA",
         "apps":16,
         "subOn":0,
         "tackleWonTotal":2.29137199434,
         "tackleTotalAttempted":3.3734087694449997,
         "name":"Jordan Veretout",
         "firstName":"Jordan",
         "lastName":"Veretout",
         "playerId":101017,
         "positionText":"Midfielder",
         "teamId":73,
         "teamName":"Fiorentina",
         "seasonId":7468,
         "seasonName":"2018/2019",
         "isOpta":true,
         "tournamentId":5,
         "tournamentRegionId":108,
         "tournamentRegionCode":"it",
         "tournamentRegionName":"Italy",
         "tournamentName":"Serie A",
         "rating":7.164375,
         "minsPlayed":1414,
         "challengeLost":1.082036775105,
         "ranking":75
      },
      {
         "height":185,
         "weight":73,
         "age":23,
         "isManOfTheMatch":false,
         "isActive":true,
         "playedPositions":"-DMC-",
         "playedPositionsShort":"DMC",
         "teamRegionName":"France",
         "regionCode":"tn",
         "tournamentShortName":"FL1",
         "apps":17,
         "subOn":0,
         "tackleWonTotal":2.2800000000000002,
         "tackleTotalAttempted":3.4800000000000004,
         "name":"Ellyes Skhiri",
         "firstName":"Ellyes",
         "lastName":"Skhiri",
         "playerId":238903,
         "positionText":"Midfielder",
         "teamId":311,
         "teamName":"Montpellier",
         "seasonId":7344,
         "seasonName":"2018/2019",
         "isOpta":true,
         "tournamentId":22,
         "tournamentRegionId":74,
         "tournamentRegionCode":"fr",
         "tournamentRegionName":"France",
         "tournamentName":"Ligue 1",
         "rating":6.9799999999999995,
         "minsPlayed":1500,
         "challengeLost":1.2,
         "ranking":76
      },
      {
         "height":172,
         "weight":70,
         "age":24,
         "isManOfTheMatch":false,
         "isActive":true,
         "playedPositions":"-MC-",
         "playedPositionsShort":"M(C)",
         "teamRegionName":"France",
         "regionCode":"fr",
         "tournamentShortName":"FL1",
         "apps":16,
         "subOn":0,
         "tackleWonTotal":2.2689075630240003,
         "tackleTotalAttempted":3.088235294116,
         "name":"Valentin Rongier",
         "firstName":"Valentin",
         "lastName":"Rongier",
         "playerId":231144,
         "positionText":"Midfielder",
         "teamId":302,
         "teamName":"Nantes",
         "seasonId":7344,
         "seasonName":"2018/2019",
         "isOpta":true,
         "tournamentId":22,
         "tournamentRegionId":74,
         "tournamentRegionCode":"fr",
         "tournamentRegionName":"France",
         "tournamentName":"Ligue 1",
         "rating":6.8275000000000006,
         "minsPlayed":1428,
         "challengeLost":0.819327731092,
         "ranking":77
      },
      {
         "height":184,
         "weight":82,
         "age":26,
         "isManOfTheMatch":false,
         "isActive":true,
         "playedPositions":"-AML-AMR-FW-",
         "playedPositionsShort":"AM(LR),FW",
         "teamRegionName":"Germany",
         "regionCode":"rs",
         "tournamentShortName":"GB",
         "apps":14,
         "subOn":0,
         "tackleWonTotal":2.240963855406,
         "tackleTotalAttempted":3.108433734918,
         "name":"Filip Kostic",
         "firstName":"Filip",
         "lastName":"Kostic",
         "playerId":105995,
         "positionText":"Midfielder",
         "teamId":45,
         "teamName":"Eintracht Frankfurt",
         "seasonId":7405,
         "seasonName":"2018/2019",
         "isOpta":true,
         "tournamentId":3,
         "tournamentRegionId":81,
         "tournamentRegionCode":"de",
         "tournamentRegionName":"Germany",
         "tournamentName":"Bundesliga",
         "rating":7.232857142857144,
         "minsPlayed":1245,
         "challengeLost":0.86746987951199994,
         "ranking":78
      },
      {
         "height":183,
         "weight":70,
         "age":25,
         "isManOfTheMatch":false,
         "isActive":true,
         "playedPositions":"-DMC-ML-",
         "playedPositionsShort":"DMC,M(L)",
         "teamRegionName":"Wales",
         "regionCode":"gb-eng",
         "tournamentShortName":"EPL",
         "apps":13,
         "subOn":0,
         "tackleWonTotal":2.235510579564,
         "tackleTotalAttempted":3.146274149016,
         "name":"Joe Ralls",
         "firstName":"Joe",
         "lastName":"Ralls",
         "playerId":108093,
         "positionText":"Midfielder",
         "teamId":188,
         "teamName":"Cardiff",
         "seasonId":7361,
         "seasonName":"2018/2019",
         "isOpta":true,
         "tournamentId":2,
         "tournamentRegionId":252,
         "tournamentRegionCode":"gb-eng",
         "tournamentRegionName":"England",
         "tournamentName":"Premier League",
         "rating":6.536153846153848,
         "minsPlayed":1087,
         "challengeLost":0.910763569452,
         "ranking":79
      },
      {
         "height":193,
         "weight":88,
         "age":21,
         "isManOfTheMatch":false,
         "isActive":true,
         "playedPositions":"-DMC-",
         "playedPositionsShort":"DMC",
         "teamRegionName":"France",
         "regionCode":"fr",
         "tournamentShortName":"FL1",
         "apps":17,
         "subOn":0,
         "tackleWonTotal":2.231903485229,
         "tackleTotalAttempted":3.197050938301,
         "name":"Ibrahima Sissoko",
         "firstName":"Ibrahima",
         "lastName":"Sissoko",
         "playerId":306766,
         "positionText":"Midfielder",
         "teamId":148,
         "teamName":"Strasbourg",
         "seasonId":7344,
         "seasonName":"2018/2019",
         "isOpta":true,
         "tournamentId":22,
         "tournamentRegionId":74,
         "tournamentRegionCode":"fr",
         "tournamentRegionName":"France",
         "tournamentName":"Ligue 1",
         "rating":6.8764705882352946,
         "minsPlayed":1492,
         "challengeLost":0.965147453072,
         "ranking":80
      }
   ],
   "paging":{
      "currentPage":8,
      "totalPages":25,
      "resultsPerPage":10,
      "totalResults":246,
      "firstRecordIndex":71,
      "lastRecordIndex":80
   },
   "statColumns":[
      "apps",
      "subOn",
      "minsPlayed",
      "tackleWonTotal",
      "challengeLost",
      "tackleTotalAttempted"
   ]
}