{
   "playerTableStats":[
      {
         "ranking":61,
         "seasonId":7344,
         "seasonName":"2018/2019",
         "tournamentId":22,
         "tournamentRegionId":74,
         "tournamentRegionCode":"fr",
         "tournamentRegionName":"France",
         "regionCode":"fr",
         "tournamentName":"Ligue 1",
         "tournamentShortName":"FL1",
         "firstName":"Remi",
         "lastName":"Oudin",
         "playerId":322421,
         "isActive":true,
         "isOpta":true,
         "teamId":950,
         "teamName":"Reims",
         "teamRegionName":"France",
         "playedPositions":"-AMR-",
         "age":22,
         "height":185,
         "weight":79,
         "positionText":"Midfielder",
         "apps":15,
         "subOn":0,
         "minsPlayed":1102,
         "rating":6.7186666666666666,
         "isManOfTheMatch":false,
         "playedPositionsShort":"AM(R)",
         "tackleWonTotal":2.4500907440999997,
         "tackleTotalAttempted":3.4301270417399996,
         "name":"Remi Oudin",
         "challengeLost":0.98003629764
      },
      {
         "ranking":62,
         "seasonId":7361,
         "seasonName":"2018/2019",
         "tournamentId":2,
         "tournamentRegionId":252,
         "tournamentRegionCode":"gb-eng",
         "tournamentRegionName":"England",
         "regionCode":"pt",
         "tournamentName":"Premier League",
         "tournamentShortName":"EPL",
         "firstName":"Rúben Diogo",
         "lastName":"da Silva Neves",
         "playerId":238244,
         "isActive":true,
         "isOpta":true,
         "teamId":161,
         "teamName":"Wolverhampton Wanderers",
         "teamRegionName":"England",
         "playedPositions":"-DMC-",
         "age":21,
         "height":180,
         "weight":72,
         "positionText":"Midfielder",
         "apps":18,
         "subOn":0,
         "minsPlayed":1620,
         "rating":6.9222222222222234,
         "isManOfTheMatch":false,
         "playedPositionsShort":"DMC",
         "tackleWonTotal":2.4444444444199998,
         "tackleTotalAttempted":3.8888888888499995,
         "name":"Rúben Neves",
         "challengeLost":1.44444444443
      },
      {
         "ranking":63,
         "seasonId":7344,
         "seasonName":"2018/2019",
         "tournamentId":22,
         "tournamentRegionId":74,
         "tournamentRegionCode":"fr",
         "tournamentRegionName":"France",
         "regionCode":"br",
         "tournamentName":"Ligue 1",
         "tournamentShortName":"FL1",
         "firstName":"Thiago Henrique",
         "lastName":"Mendes Ribeiro",
         "playerId":117776,
         "isActive":true,
         "isOpta":true,
         "teamId":607,
         "teamName":"Lille",
         "teamRegionName":"France",
         "playedPositions":"-DR-MC-MR-",
         "age":26,
         "height":176,
         "weight":78,
         "positionText":"Midfielder",
         "apps":17,
         "subOn":0,
         "minsPlayed":1479,
         "rating":7.2258823529411762,
         "isManOfTheMatch":false,
         "playedPositionsShort":"D(R),M(CR)",
         "tackleWonTotal":2.43407707908,
         "tackleTotalAttempted":3.4077079107120003,
         "name":"Thiago Mendes",
         "challengeLost":0.973630831632
      },
      {
         "ranking":64,
         "seasonId":7344,
         "seasonName":"2018/2019",
         "tournamentId":22,
         "tournamentRegionId":74,
         "tournamentRegionCode":"fr",
         "tournamentRegionName":"France",
         "regionCode":"pt",
         "tournamentName":"Ligue 1",
         "tournamentShortName":"FL1",
         "firstName":"Miguel Angelo",
         "lastName":"da Silva Rocha",
         "playerId":329409,
         "isActive":true,
         "isOpta":true,
         "teamId":607,
         "teamName":"Lille",
         "teamRegionName":"France",
         "playedPositions":"-MC-",
         "age":24,
         "height":185,
         "weight":80,
         "positionText":"Midfielder",
         "apps":17,
         "subOn":0,
         "minsPlayed":1482,
         "rating":6.6441176470588221,
         "isManOfTheMatch":false,
         "playedPositionsShort":"M(C)",
         "tackleWonTotal":2.42914979756,
         "tackleTotalAttempted":4.1902834007909995,
         "name":"Xeka",
         "challengeLost":1.7611336032309999
      },
      {
         "ranking":65,
         "seasonId":7405,
         "seasonName":"2018/2019",
         "tournamentId":3,
         "tournamentRegionId":81,
         "tournamentRegionCode":"de",
         "tournamentRegionName":"Germany",
         "regionCode":"dk",
         "tournamentName":"Bundesliga",
         "tournamentShortName":"GB",
         "firstName":"Thomas",
         "lastName":"Delaney",
         "playerId":73744,
         "isActive":true,
         "isOpta":true,
         "teamId":44,
         "teamName":"Borussia Dortmund",
         "teamRegionName":"Germany",
         "playedPositions":"-DMC-",
         "age":27,
         "height":182,
         "weight":71,
         "positionText":"Midfielder",
         "apps":13,
         "subOn":0,
         "minsPlayed":1076,
         "rating":7.1653846153846148,
         "isManOfTheMatch":false,
         "playedPositionsShort":"DMC",
         "tackleWonTotal":2.4256505576040004,
         "tackleTotalAttempted":2.7602230483080006,
         "name":"Thomas Delaney",
         "challengeLost":0.334572490704
      },
      {
         "ranking":66,
         "seasonId":7344,
         "seasonName":"2018/2019",
         "tournamentId":22,
         "tournamentRegionId":74,
         "tournamentRegionCode":"fr",
         "tournamentRegionName":"France",
         "regionCode":"be",
         "tournamentName":"Ligue 1",
         "tournamentShortName":"FL1",
         "firstName":"Youri",
         "lastName":"Tielemans",
         "playerId":136345,
         "isActive":true,
         "isOpta":true,
         "teamId":248,
         "teamName":"Monaco",
         "teamRegionName":"France",
         "playedPositions":"-MC-",
         "age":21,
         "height":176,
         "weight":72,
         "positionText":"Midfielder",
         "apps":16,
         "subOn":0,
         "minsPlayed":1347,
         "rating":6.9312499999999986,
         "isManOfTheMatch":false,
         "playedPositionsShort":"M(C)",
         "tackleWonTotal":2.405345211576,
         "tackleTotalAttempted":3.608017817364,
         "name":"Youri Tielemans",
         "challengeLost":1.2026726057880002
      },
      {
         "ranking":67,
         "seasonId":7405,
         "seasonName":"2018/2019",
         "tournamentId":3,
         "tournamentRegionId":81,
         "tournamentRegionCode":"de",
         "tournamentRegionName":"Germany",
         "regionCode":"de",
         "tournamentName":"Bundesliga",
         "tournamentShortName":"GB",
         "firstName":"Suat",
         "lastName":"Serdar",
         "playerId":296119,
         "isActive":true,
         "isOpta":true,
         "teamId":39,
         "teamName":"Schalke 04",
         "teamRegionName":"Germany",
         "playedPositions":"-MC-",
         "age":21,
         "height":184,
         "weight":75,
         "positionText":"Midfielder",
         "apps":10,
         "subOn":0,
         "minsPlayed":751,
         "rating":6.694,
         "isManOfTheMatch":false,
         "playedPositionsShort":"M(C)",
         "tackleWonTotal":2.39680426098,
         "tackleTotalAttempted":3.355525965372,
         "name":"Suat Serdar",
         "challengeLost":0.958721704392
      },
      {
         "ranking":68,
         "seasonId":7405,
         "seasonName":"2018/2019",
         "tournamentId":3,
         "tournamentRegionId":81,
         "tournamentRegionCode":"de",
         "tournamentRegionName":"Germany",
         "regionCode":"de",
         "tournamentName":"Bundesliga",
         "tournamentShortName":"GB",
         "firstName":"Leonardo",
         "lastName":"Bittencourt",
         "playerId":100805,
         "isActive":true,
         "isOpta":true,
         "teamId":1211,
         "teamName":"Hoffenheim",
         "teamRegionName":"Germany",
         "playedPositions":"-AMC-AML-AMR-",
         "age":25,
         "height":171,
         "weight":63,
         "positionText":"Midfielder",
         "apps":10,
         "subOn":0,
         "minsPlayed":716,
         "rating":6.9620000000000006,
         "isManOfTheMatch":false,
         "playedPositionsShort":"AM(CLR)",
         "tackleWonTotal":2.3882681564180004,
         "tackleTotalAttempted":3.5195530726160005,
         "name":"Leonardo Bittencourt",
         "challengeLost":1.131284916198
      },
      {
         "ranking":69,
         "seasonId":7466,
         "seasonName":"2018/2019",
         "tournamentId":4,
         "tournamentRegionId":206,
         "tournamentRegionCode":"es",
         "tournamentRegionName":"Spain",
         "regionCode":null,
         "tournamentName":"La Liga",
         "tournamentShortName":"SLL",
         "firstName":"Santiago",
         "lastName":"Comesaña",
         "playerId":362735,
         "isActive":true,
         "isOpta":true,
         "teamId":64,
         "teamName":"Rayo Vallecano",
         "teamRegionName":"Spain",
         "playedPositions":"-DMC-",
         "age":22,
         "height":184,
         "weight":75,
         "positionText":"Midfielder",
         "apps":15,
         "subOn":0,
         "minsPlayed":1299,
         "rating":6.7446666666666681,
         "isManOfTheMatch":false,
         "playedPositionsShort":"DMC",
         "tackleWonTotal":2.3556581986100005,
         "tackleTotalAttempted":4.01847575057,
         "name":"Santiago Comesaña",
         "challengeLost":1.6628175519600001
      },
      {
         "ranking":70,
         "seasonId":7468,
         "seasonName":"2018/2019",
         "tournamentId":5,
         "tournamentRegionId":108,
         "tournamentRegionCode":"it",
         "tournamentRegionName":"Italy",
         "regionCode":"fr",
         "tournamentName":"Serie A",
         "tournamentShortName":"ISA",
         "firstName":"Mehdi",
         "lastName":"Bourabia",
         "playerId":82109,
         "isActive":true,
         "isOpta":true,
         "teamId":2889,
         "teamName":"Sassuolo",
         "teamRegionName":"Italy",
         "playedPositions":"-MC-",
         "age":27,
         "height":183,
         "weight":73,
         "positionText":"Midfielder",
         "apps":11,
         "subOn":0,
         "minsPlayed":922,
         "rating":7.00090909090909,
         "isManOfTheMatch":false,
         "playedPositionsShort":"M(C)",
         "tackleWonTotal":2.342733188712,
         "tackleTotalAttempted":3.611713665931,
         "name":"Mehdi Bourabia",
         "challengeLost":1.268980477219
      }
   ],
   "paging":{
      "currentPage":7,
      "totalPages":25,
      "resultsPerPage":10,
      "totalResults":246,
      "firstRecordIndex":61,
      "lastRecordIndex":70
   },
   "statColumns":[
      "apps",
      "subOn",
      "minsPlayed",
      "tackleWonTotal",
      "challengeLost",
      "tackleTotalAttempted"
   ]
}