{
   "playerTableStats":[
      {
         "ranking":81,
         "seasonId":7466,
         "seasonName":"2018/2019",
         "tournamentId":4,
         "tournamentRegionId":206,
         "tournamentRegionCode":"es",
         "tournamentRegionName":"Spain",
         "regionCode":"tr",
         "tournamentName":"La Liga",
         "tournamentShortName":"SLL",
         "firstName":"Okay",
         "lastName":"Yokuslu",
         "playerId":93805,
         "isActive":true,
         "isOpta":true,
         "teamId":62,
         "teamName":"Celta Vigo",
         "teamRegionName":"Spain",
         "playedPositions":"-DC-DMC-",
         "age":24,
         "height":190,
         "weight":79,
         "positionText":"Midfielder",
         "apps":10,
         "subOn":0,
         "minsPlayed":808,
         "rating":7.008,
         "isManOfTheMatch":false,
         "playedPositionsShort":"D(C),DMC",
         "tackleWonTotal":2.22772277226,
         "tackleTotalAttempted":2.896039603938,
         "name":"Okay Yokuslu",
         "challengeLost":0.66831683167799993
      },
      {
         "ranking":82,
         "seasonId":7344,
         "seasonName":"2018/2019",
         "tournamentId":22,
         "tournamentRegionId":74,
         "tournamentRegionCode":"fr",
         "tournamentRegionName":"France",
         "regionCode":"fr",
         "tournamentName":"Ligue 1",
         "tournamentShortName":"FL1",
         "firstName":"Tanguy",
         "lastName":"NDombele",
         "playerId":321389,
         "isActive":true,
         "isOpta":true,
         "teamId":228,
         "teamName":"Lyon",
         "teamRegionName":"France",
         "playedPositions":"-DMC-",
         "age":22,
         "height":181,
         "weight":76,
         "positionText":"Midfielder",
         "apps":15,
         "subOn":0,
         "minsPlayed":1175,
         "rating":6.8593333333333337,
         "isManOfTheMatch":false,
         "playedPositionsShort":"DMC",
         "tackleWonTotal":2.22127659572,
         "tackleTotalAttempted":3.2170212765599997,
         "name":"Tanguy NDombele",
         "challengeLost":0.9957446808399999
      },
      {
         "ranking":83,
         "seasonId":7344,
         "seasonName":"2018/2019",
         "tournamentId":22,
         "tournamentRegionId":74,
         "tournamentRegionCode":"fr",
         "tournamentRegionName":"France",
         "regionCode":"fr",
         "tournamentName":"Ligue 1",
         "tournamentShortName":"FL1",
         "firstName":"Baptiste",
         "lastName":"Santamaría",
         "playerId":236558,
         "isActive":true,
         "isOpta":true,
         "teamId":614,
         "teamName":"Angers",
         "teamRegionName":"France",
         "playedPositions":"-DMC-",
         "age":23,
         "height":183,
         "weight":73,
         "positionText":"Midfielder",
         "apps":17,
         "subOn":0,
         "minsPlayed":1463,
         "rating":6.6400000000000006,
         "isManOfTheMatch":false,
         "playedPositionsShort":"DMC",
         "tackleWonTotal":2.214627477768,
         "tackleTotalAttempted":3.321941216652,
         "name":"Baptiste Santamaría",
         "challengeLost":1.107313738884
      },
      {
         "ranking":84,
         "seasonId":7361,
         "seasonName":"2018/2019",
         "tournamentId":2,
         "tournamentRegionId":252,
         "tournamentRegionCode":"gb-eng",
         "tournamentRegionName":"England",
         "regionCode":"nl",
         "tournamentName":"Premier League",
         "tournamentShortName":"EPL",
         "firstName":"Davy",
         "lastName":"Pröpper",
         "playerId":77429,
         "isActive":true,
         "isOpta":true,
         "teamId":211,
         "teamName":"Brighton",
         "teamRegionName":"England",
         "playedPositions":"-MC-",
         "age":27,
         "height":185,
         "weight":79,
         "positionText":"Midfielder",
         "apps":17,
         "subOn":0,
         "minsPlayed":1504,
         "rating":6.6670588235294117,
         "isManOfTheMatch":false,
         "playedPositionsShort":"M(C)",
         "tackleWonTotal":2.214095744647,
         "tackleTotalAttempted":3.530585106329,
         "name":"Davy Pröpper",
         "challengeLost":1.316489361682
      },
      {
         "ranking":85,
         "seasonId":7466,
         "seasonName":"2018/2019",
         "tournamentId":4,
         "tournamentRegionId":206,
         "tournamentRegionCode":"es",
         "tournamentRegionName":"Spain",
         "regionCode":"es",
         "tournamentName":"La Liga",
         "tournamentShortName":"SLL",
         "firstName":"Gerard",
         "lastName":"Gumbau",
         "playerId":294123,
         "isActive":true,
         "isOpta":true,
         "teamId":825,
         "teamName":"Leganes",
         "teamRegionName":"Spain",
         "playedPositions":"-DMC-",
         "age":24,
         "height":187,
         "weight":77,
         "positionText":"Midfielder",
         "apps":10,
         "subOn":0,
         "minsPlayed":900,
         "rating":6.364,
         "isManOfTheMatch":false,
         "playedPositionsShort":"DMC",
         "tackleWonTotal":2.2,
         "tackleTotalAttempted":4.0,
         "name":"Gerard Gumbau",
         "challengeLost":1.8
      },
      {
         "ranking":86,
         "seasonId":7361,
         "seasonName":"2018/2019",
         "tournamentId":2,
         "tournamentRegionId":252,
         "tournamentRegionCode":"gb-eng",
         "tournamentRegionName":"England",
         "regionCode":"ch",
         "tournamentName":"Premier League",
         "tournamentShortName":"EPL",
         "firstName":"Granit",
         "lastName":"Xhaka",
         "playerId":89401,
         "isActive":true,
         "isOpta":true,
         "teamId":13,
         "teamName":"Arsenal",
         "teamRegionName":"England",
         "playedPositions":"-MC-",
         "age":26,
         "height":185,
         "weight":82,
         "positionText":"Midfielder",
         "apps":18,
         "subOn":0,
         "minsPlayed":1556,
         "rating":7.1394444444444458,
         "isManOfTheMatch":false,
         "playedPositionsShort":"M(C)",
         "tackleWonTotal":2.1979434447079997,
         "tackleTotalAttempted":3.528277634926,
         "name":"Granit Xhaka",
         "challengeLost":1.330334190218
      },
      {
         "ranking":87,
         "seasonId":7361,
         "seasonName":"2018/2019",
         "tournamentId":2,
         "tournamentRegionId":252,
         "tournamentRegionCode":"gb-eng",
         "tournamentRegionName":"England",
         "regionCode":"gb-eng",
         "tournamentName":"Premier League",
         "tournamentShortName":"EPL",
         "firstName":"Bamidele",
         "lastName":"Alli",
         "playerId":131519,
         "isActive":true,
         "isOpta":true,
         "teamId":30,
         "teamName":"Tottenham",
         "teamRegionName":"England",
         "playedPositions":"-MC-ML-",
         "age":22,
         "height":188,
         "weight":76,
         "positionText":"Midfielder",
         "apps":12,
         "subOn":0,
         "minsPlayed":986,
         "rating":7.3266666666666653,
         "isManOfTheMatch":false,
         "playedPositionsShort":"M(CL)",
         "tackleWonTotal":2.1906693711839997,
         "tackleTotalAttempted":2.73833671398,
         "name":"Dele Alli",
         "challengeLost":0.547667342796
      },
      {
         "ranking":88,
         "seasonId":7344,
         "seasonName":"2018/2019",
         "tournamentId":22,
         "tournamentRegionId":74,
         "tournamentRegionCode":"fr",
         "tournamentRegionName":"France",
         "regionCode":"fr",
         "tournamentName":"Ligue 1",
         "tournamentShortName":"FL1",
         "firstName":"Nicolas",
         "lastName":"Benezet",
         "playerId":93147,
         "isActive":true,
         "isOpta":true,
         "teamId":426,
         "teamName":"Guingamp",
         "teamRegionName":"France",
         "playedPositions":"-AMC-AML-AMR-",
         "age":27,
         "height":170,
         "weight":65,
         "positionText":"Midfielder",
         "apps":13,
         "subOn":0,
         "minsPlayed":1069,
         "rating":6.9976923076923088,
         "isManOfTheMatch":false,
         "playedPositionsShort":"AM(CLR)",
         "tackleWonTotal":2.188961646378,
         "tackleTotalAttempted":3.1150608044609998,
         "name":"Nicolas Benezet",
         "challengeLost":0.926099158083
      },
      {
         "ranking":89,
         "seasonId":7361,
         "seasonName":"2018/2019",
         "tournamentId":2,
         "tournamentRegionId":252,
         "tournamentRegionCode":"gb-eng",
         "tournamentRegionName":"England",
         "regionCode":"fr",
         "tournamentName":"Premier League",
         "tournamentShortName":"EPL",
         "firstName":"Anthony",
         "lastName":"Knockaert",
         "playerId":86794,
         "isActive":true,
         "isOpta":true,
         "teamId":211,
         "teamName":"Brighton",
         "teamRegionName":"England",
         "playedPositions":"-AML-AMR-",
         "age":27,
         "height":172,
         "weight":69,
         "positionText":"Midfielder",
         "apps":12,
         "subOn":0,
         "minsPlayed":987,
         "rating":7.0066666666666668,
         "isManOfTheMatch":false,
         "playedPositionsShort":"AM(LR)",
         "tackleWonTotal":2.188449848016,
         "tackleTotalAttempted":3.100303951356,
         "name":"Anthony Knockaert",
         "challengeLost":0.91185410334
      },
      {
         "ranking":90,
         "seasonId":7468,
         "seasonName":"2018/2019",
         "tournamentId":5,
         "tournamentRegionId":108,
         "tournamentRegionCode":"it",
         "tournamentRegionName":"Italy",
         "regionCode":"cl",
         "tournamentName":"Serie A",
         "tournamentShortName":"ISA",
         "firstName":"Erick",
         "lastName":"Pulgar",
         "playerId":117055,
         "isActive":true,
         "isOpta":true,
         "teamId":71,
         "teamName":"Bologna",
         "teamRegionName":"Italy",
         "playedPositions":"-DMC-",
         "age":24,
         "height":186,
         "weight":78,
         "positionText":"Midfielder",
         "apps":10,
         "subOn":0,
         "minsPlayed":866,
         "rating":6.606,
         "isManOfTheMatch":false,
         "playedPositionsShort":"DMC",
         "tackleWonTotal":2.182448036937,
         "tackleTotalAttempted":4.7806004618620008,
         "name":"Erick Pulgar",
         "challengeLost":2.5981524249250003
      }
   ],
   "paging":{
      "currentPage":9,
      "totalPages":25,
      "resultsPerPage":10,
      "totalResults":246,
      "firstRecordIndex":81,
      "lastRecordIndex":90
   },
   "statColumns":[
      "apps",
      "subOn",
      "minsPlayed",
      "tackleWonTotal",
      "challengeLost",
      "tackleTotalAttempted"
   ]
}