{
   "playerTableStats":[
      {
         "ranking":101,
         "seasonId":7361,
         "seasonName":"2018/2019",
         "tournamentId":2,
         "tournamentRegionId":252,
         "tournamentRegionCode":"gb-eng",
         "tournamentRegionName":"England",
         "regionCode":"gb-eng",
         "tournamentName":"Premier League",
         "tournamentShortName":"EPL",
         "firstName":"Demarai",
         "lastName":"Gray",
         "playerId":136945,
         "isActive":true,
         "isOpta":true,
         "teamId":14,
         "teamName":"Leicester",
         "teamRegionName":"England",
         "playedPositions":"-AMC-AML-AMR-",
         "age":22,
         "height":180,
         "weight":74,
         "positionText":"Midfielder",
         "apps":11,
         "subOn":0,
         "minsPlayed":842,
         "rating":6.6863636363636365,
         "isManOfTheMatch":false,
         "playedPositionsShort":"AM(CLR)",
         "tackleWonTotal":2.030878859855,
         "tackleTotalAttempted":2.5653206650800002,
         "name":"Demarai Gray",
         "challengeLost":0.53444180522500007
      },
      {
         "ranking":102,
         "seasonId":7468,
         "seasonName":"2018/2019",
         "tournamentId":5,
         "tournamentRegionId":108,
         "tournamentRegionCode":"it",
         "tournamentRegionName":"Italy",
         "regionCode":"it",
         "tournamentName":"Serie A",
         "tournamentShortName":"ISA",
         "firstName":"Stefano",
         "lastName":"Sensi",
         "playerId":136306,
         "isActive":true,
         "isOpta":true,
         "teamId":2889,
         "teamName":"Sassuolo",
         "teamRegionName":"Italy",
         "playedPositions":"-MC-",
         "age":23,
         "height":168,
         "weight":62,
         "positionText":"Midfielder",
         "apps":10,
         "subOn":0,
         "minsPlayed":799,
         "rating":7.0409999999999995,
         "isManOfTheMatch":false,
         "playedPositionsShort":"M(C)",
         "tackleWonTotal":2.027534418018,
         "tackleTotalAttempted":2.816020025025,
         "name":"Stefano Sensi",
         "challengeLost":0.788485607007
      },
      {
         "ranking":103,
         "seasonId":7466,
         "seasonName":"2018/2019",
         "tournamentId":4,
         "tournamentRegionId":206,
         "tournamentRegionCode":"es",
         "tournamentRegionName":"Spain",
         "regionCode":"es",
         "tournamentName":"La Liga",
         "tournamentShortName":"SLL",
         "firstName":"Sergi",
         "lastName":"Darder",
         "playerId":106596,
         "isActive":true,
         "isOpta":true,
         "teamId":70,
         "teamName":"Espanyol",
         "teamRegionName":"Spain",
         "playedPositions":"-DMC-",
         "age":25,
         "height":180,
         "weight":71,
         "positionText":"Midfielder",
         "apps":15,
         "subOn":0,
         "minsPlayed":1272,
         "rating":6.7133333333333338,
         "isManOfTheMatch":false,
         "playedPositionsShort":"DMC",
         "tackleWonTotal":1.981132075468,
         "tackleTotalAttempted":3.254716981126,
         "name":"Sergi Darder",
         "challengeLost":1.273584905658
      },
      {
         "ranking":104,
         "seasonId":7361,
         "seasonName":"2018/2019",
         "tournamentId":2,
         "tournamentRegionId":252,
         "tournamentRegionCode":"gb-eng",
         "tournamentRegionName":"England",
         "regionCode":"es",
         "tournamentName":"Premier League",
         "tournamentShortName":"EPL",
         "firstName":"Ayoze",
         "lastName":"Pérez Gutiérrez",
         "playerId":135366,
         "isActive":true,
         "isOpta":true,
         "teamId":23,
         "teamName":"Newcastle United",
         "teamRegionName":"England",
         "playedPositions":"-AMC-AML-AMR-FW-",
         "age":25,
         "height":178,
         "weight":72,
         "positionText":"Forward",
         "apps":17,
         "subOn":0,
         "minsPlayed":1410,
         "rating":6.7541176470588233,
         "isManOfTheMatch":false,
         "playedPositionsShort":"AM(CLR),FW",
         "tackleWonTotal":1.9787234042539998,
         "tackleTotalAttempted":3.446808510636,
         "name":"Ayoze Pérez",
         "challengeLost":1.468085106382
      },
      {
         "ranking":105,
         "seasonId":7344,
         "seasonName":"2018/2019",
         "tournamentId":22,
         "tournamentRegionId":74,
         "tournamentRegionCode":"fr",
         "tournamentRegionName":"France",
         "regionCode":"td",
         "tournamentName":"Ligue 1",
         "tournamentShortName":"FL1",
         "firstName":"Rodrigue Casimir",
         "lastName":"Ninga",
         "playerId":298542,
         "isActive":true,
         "isOpta":true,
         "teamId":347,
         "teamName":"Caen",
         "teamRegionName":"France",
         "playedPositions":"-AML-AMR-FW-",
         "age":25,
         "height":186,
         "weight":81,
         "positionText":"Forward",
         "apps":12,
         "subOn":0,
         "minsPlayed":912,
         "rating":6.6033333333333317,
         "isManOfTheMatch":false,
         "playedPositionsShort":"AM(LR),FW",
         "tackleWonTotal":1.97368421052,
         "tackleTotalAttempted":3.355263157884,
         "name":"Casimir Ninga",
         "challengeLost":1.381578947364
      },
      {
         "ranking":106,
         "seasonId":7405,
         "seasonName":"2018/2019",
         "tournamentId":3,
         "tournamentRegionId":81,
         "tournamentRegionCode":"de",
         "tournamentRegionName":"Germany",
         "regionCode":"de",
         "tournamentName":"Bundesliga",
         "tournamentShortName":"GB",
         "firstName":"Maximilian",
         "lastName":"Arnold",
         "playerId":108919,
         "isActive":true,
         "isOpta":true,
         "teamId":33,
         "teamName":"Wolfsburg",
         "teamRegionName":"Germany",
         "playedPositions":"-MC-MR-",
         "age":24,
         "height":184,
         "weight":74,
         "positionText":"Midfielder",
         "apps":17,
         "subOn":0,
         "minsPlayed":1465,
         "rating":7.0235294117647058,
         "isManOfTheMatch":false,
         "playedPositionsShort":"M(CR)",
         "tackleWonTotal":1.965870307136,
         "tackleTotalAttempted":2.887372013606,
         "name":"Maximilian Arnold",
         "challengeLost":0.92150170647
      },
      {
         "ranking":107,
         "seasonId":7468,
         "seasonName":"2018/2019",
         "tournamentId":5,
         "tournamentRegionId":108,
         "tournamentRegionCode":"it",
         "tournamentRegionName":"Italy",
         "regionCode":"be",
         "tournamentName":"Serie A",
         "tournamentShortName":"ISA",
         "firstName":"Dennis",
         "lastName":"Praet",
         "playerId":106413,
         "isActive":true,
         "isOpta":true,
         "teamId":271,
         "teamName":"Sampdoria",
         "teamRegionName":"Italy",
         "playedPositions":"-AMC-",
         "age":24,
         "height":181,
         "weight":78,
         "positionText":"Midfielder",
         "apps":15,
         "subOn":0,
         "minsPlayed":1242,
         "rating":6.998,
         "isManOfTheMatch":false,
         "playedPositionsShort":"AM(C)",
         "tackleWonTotal":1.9565217391049998,
         "tackleTotalAttempted":2.5362318840249998,
         "name":"Dennis Praet",
         "challengeLost":0.57971014492
      },
      {
         "ranking":108,
         "seasonId":7468,
         "seasonName":"2018/2019",
         "tournamentId":5,
         "tournamentRegionId":108,
         "tournamentRegionCode":"it",
         "tournamentRegionName":"Italy",
         "regionCode":"ch",
         "tournamentName":"Serie A",
         "tournamentShortName":"ISA",
         "firstName":"Remo",
         "lastName":"Freuler",
         "playerId":302691,
         "isActive":true,
         "isOpta":true,
         "teamId":300,
         "teamName":"Atalanta",
         "teamRegionName":"Italy",
         "playedPositions":"-DMC-",
         "age":26,
         "height":181,
         "weight":77,
         "positionText":"Midfielder",
         "apps":18,
         "subOn":0,
         "minsPlayed":1567,
         "rating":7.0100000000000007,
         "isManOfTheMatch":false,
         "playedPositionsShort":"DMC",
         "tackleWonTotal":1.95277600509,
         "tackleTotalAttempted":3.158902361175,
         "name":"Remo Freuler",
         "challengeLost":1.206126356085
      },
      {
         "ranking":109,
         "seasonId":7405,
         "seasonName":"2018/2019",
         "tournamentId":3,
         "tournamentRegionId":81,
         "tournamentRegionCode":"de",
         "tournamentRegionName":"Germany",
         "regionCode":"de",
         "tournamentName":"Bundesliga",
         "tournamentShortName":"GB",
         "firstName":"Maximilian",
         "lastName":"Eggestein",
         "playerId":254557,
         "isActive":true,
         "isOpta":true,
         "teamId":42,
         "teamName":"Werder Bremen",
         "teamRegionName":"Germany",
         "playedPositions":"-MC-",
         "age":22,
         "height":181,
         "weight":75,
         "positionText":"Midfielder",
         "apps":17,
         "subOn":0,
         "minsPlayed":1523,
         "rating":6.83235294117647,
         "isManOfTheMatch":false,
         "playedPositionsShort":"M(C)",
         "tackleWonTotal":1.95009848979,
         "tackleTotalAttempted":2.9546946815,
         "name":"Maximilian Eggestein",
         "challengeLost":1.00459619171
      },
      {
         "ranking":110,
         "seasonId":7361,
         "seasonName":"2018/2019",
         "tournamentId":2,
         "tournamentRegionId":252,
         "tournamentRegionCode":"gb-eng",
         "tournamentRegionName":"England",
         "regionCode":"hr",
         "tournamentName":"Premier League",
         "tournamentShortName":"EPL",
         "firstName":"Mateo",
         "lastName":"Kovacic",
         "playerId":93894,
         "isActive":true,
         "isOpta":true,
         "teamId":15,
         "teamName":"Chelsea",
         "teamRegionName":"England",
         "playedPositions":"-MC-ML-",
         "age":24,
         "height":178,
         "weight":78,
         "positionText":"Midfielder",
         "apps":13,
         "subOn":0,
         "minsPlayed":925,
         "rating":6.8230769230769246,
         "isManOfTheMatch":false,
         "playedPositionsShort":"M(CL)",
         "tackleWonTotal":1.94594594594,
         "tackleTotalAttempted":3.113513513504,
         "name":"Mateo Kovacic",
         "challengeLost":1.167567567564
      }
   ],
   "paging":{
      "currentPage":11,
      "totalPages":25,
      "resultsPerPage":10,
      "totalResults":246,
      "firstRecordIndex":101,
      "lastRecordIndex":110
   },
   "statColumns":[
      "apps",
      "subOn",
      "minsPlayed",
      "tackleWonTotal",
      "challengeLost",
      "tackleTotalAttempted"
   ]
}