{
   "playerTableStats":[
      {
         "height":186,
         "weight":78,
         "age":27,
         "isManOfTheMatch":false,
         "isActive":true,
         "playedPositions":"-DMC-",
         "playedPositionsShort":"DMC",
         "teamRegionName":"Italy",
         "regionCode":"hr",
         "tournamentShortName":"ISA",
         "apps":14,
         "subOn":0,
         "tackleWonTotal":1.463414634144,
         "tackleTotalAttempted":2.113821138208,
         "name":"Filip Bradaric",
         "firstName":"Filip",
         "lastName":"Bradaric",
         "playerId":132229,
         "positionText":"Midfielder",
         "teamId":78,
         "teamName":"Cagliari",
         "seasonId":7468,
         "seasonName":"2018/2019",
         "isOpta":true,
         "tournamentId":5,
         "tournamentRegionId":108,
         "tournamentRegionCode":"it",
         "tournamentRegionName":"Italy",
         "tournamentName":"Serie A",
         "rating":6.5342857142857138,
         "minsPlayed":1107,
         "challengeLost":0.650406504064,
         "ranking":161
      },
      {
         "height":176,
         "weight":71,
         "age":24,
         "isManOfTheMatch":false,
         "isActive":true,
         "playedPositions":"-MC-ML-MR-",
         "playedPositionsShort":"M(CLR)",
         "teamRegionName":"Spain",
         "regionCode":"es",
         "tournamentShortName":"SLL",
         "apps":16,
         "subOn":0,
         "tackleWonTotal":1.4516129032239997,
         "tackleTotalAttempted":2.4413489736039997,
         "name":"Moi Gómez",
         "firstName":"Moisés",
         "lastName":"Gómez Bardonado",
         "playerId":101238,
         "positionText":"Midfielder",
         "teamId":5006,
         "teamName":"SD Huesca",
         "seasonId":7466,
         "seasonName":"2018/2019",
         "isOpta":true,
         "tournamentId":4,
         "tournamentRegionId":206,
         "tournamentRegionCode":"es",
         "tournamentRegionName":"Spain",
         "tournamentName":"La Liga",
         "rating":6.691875,
         "minsPlayed":1364,
         "challengeLost":0.98973607037999989,
         "ranking":162
      },
      {
         "height":175,
         "weight":62,
         "age":26,
         "isManOfTheMatch":false,
         "isActive":true,
         "playedPositions":"-AMC-AML-AMR-",
         "playedPositionsShort":"AM(CLR)",
         "teamRegionName":"England",
         "regionCode":"gb-eng",
         "tournamentShortName":"EPL",
         "apps":12,
         "subOn":0,
         "tackleWonTotal":1.4484978540749998,
         "tackleTotalAttempted":2.6072961373349997,
         "name":"Jesse Lingard",
         "firstName":"Jesse",
         "lastName":"Lingard",
         "playerId":109000,
         "positionText":"Midfielder",
         "teamId":32,
         "teamName":"Manchester United",
         "seasonId":7361,
         "seasonName":"2018/2019",
         "isOpta":true,
         "tournamentId":2,
         "tournamentRegionId":252,
         "tournamentRegionCode":"gb-eng",
         "tournamentRegionName":"England",
         "tournamentName":"Premier League",
         "rating":6.9325,
         "minsPlayed":932,
         "challengeLost":1.15879828326,
         "ranking":163
      },
      {
         "height":179,
         "weight":70,
         "age":25,
         "isManOfTheMatch":false,
         "isActive":true,
         "playedPositions":"-MC-",
         "playedPositionsShort":"M(C)",
         "teamRegionName":"Spain",
         "regionCode":"es",
         "tournamentShortName":"SLL",
         "apps":17,
         "subOn":0,
         "tackleWonTotal":1.432360742688,
         "tackleTotalAttempted":3.342175066272,
         "name":"José Campaña",
         "firstName":"José",
         "lastName":"Campaña",
         "playerId":91214,
         "positionText":"Midfielder",
         "teamId":832,
         "teamName":"Levante",
         "seasonId":7466,
         "seasonName":"2018/2019",
         "isOpta":true,
         "tournamentId":4,
         "tournamentRegionId":206,
         "tournamentRegionCode":"es",
         "tournamentRegionName":"Spain",
         "tournamentName":"La Liga",
         "rating":7.0111764705882358,
         "minsPlayed":1508,
         "challengeLost":1.909814323584,
         "ranking":164
      },
      {
         "height":170,
         "weight":65,
         "age":21,
         "isManOfTheMatch":false,
         "isActive":true,
         "playedPositions":"-MC-ML-",
         "playedPositionsShort":"M(CL)",
         "teamRegionName":"France",
         "regionCode":"es",
         "tournamentShortName":"FL1",
         "apps":15,
         "subOn":0,
         "tackleWonTotal":1.4238134887409999,
         "tackleTotalAttempted":3.1473771856379997,
         "name":"Manu García",
         "firstName":"Manuel",
         "lastName":"Garcia Alonso",
         "playerId":295950,
         "positionText":"Midfielder",
         "teamId":246,
         "teamName":"Toulouse",
         "seasonId":7344,
         "seasonName":"2018/2019",
         "isOpta":true,
         "tournamentId":22,
         "tournamentRegionId":74,
         "tournamentRegionCode":"fr",
         "tournamentRegionName":"France",
         "tournamentName":"Ligue 1",
         "rating":6.4800000000000013,
         "minsPlayed":1201,
         "challengeLost":1.723563696897,
         "ranking":165
      },
      {
         "height":180,
         "weight":70,
         "age":24,
         "isManOfTheMatch":false,
         "isActive":true,
         "playedPositions":"-AMC-AML-AMR-FW-",
         "playedPositionsShort":"AM(CLR),FW",
         "teamRegionName":"Italy",
         "regionCode":"ar",
         "tournamentShortName":"ISA",
         "apps":12,
         "subOn":0,
         "tackleWonTotal":1.42061281337,
         "tackleTotalAttempted":2.25626740947,
         "name":"Rodrigo de Paul",
         "firstName":"Rodrigo",
         "lastName":"de Paul",
         "playerId":125547,
         "positionText":"Midfielder",
         "teamId":86,
         "teamName":"Udinese",
         "seasonId":7468,
         "seasonName":"2018/2019",
         "isOpta":true,
         "tournamentId":5,
         "tournamentRegionId":108,
         "tournamentRegionCode":"it",
         "tournamentRegionName":"Italy",
         "tournamentName":"Serie A",
         "rating":7.354166666666667,
         "minsPlayed":1077,
         "challengeLost":0.8356545961,
         "ranking":166
      },
      {
         "height":182,
         "weight":76,
         "age":26,
         "isManOfTheMatch":false,
         "isActive":true,
         "playedPositions":"-MC-ML-MR-",
         "playedPositionsShort":"M(CLR)",
         "teamRegionName":"England",
         "regionCode":"dk",
         "tournamentShortName":"EPL",
         "apps":13,
         "subOn":0,
         "tackleWonTotal":1.405030355586,
         "tackleTotalAttempted":2.419774501287,
         "name":"Christian Eriksen",
         "firstName":"Christian",
         "lastName":"Eriksen",
         "playerId":69344,
         "positionText":"Midfielder",
         "teamId":30,
         "teamName":"Tottenham",
         "seasonId":7361,
         "seasonName":"2018/2019",
         "isOpta":true,
         "tournamentId":2,
         "tournamentRegionId":252,
         "tournamentRegionCode":"gb-eng",
         "tournamentRegionName":"England",
         "tournamentName":"Premier League",
         "rating":7.38,
         "minsPlayed":1153,
         "challengeLost":1.014744145701,
         "ranking":167
      },
      {
         "height":176,
         "weight":70,
         "age":26,
         "isManOfTheMatch":false,
         "isActive":true,
         "playedPositions":"-AMC-AML-AMR-",
         "playedPositionsShort":"AM(CLR)",
         "teamRegionName":"Germany",
         "regionCode":"de",
         "tournamentShortName":"GB",
         "apps":11,
         "subOn":0,
         "tackleWonTotal":1.4018691588749999,
         "tackleTotalAttempted":2.6168224299,
         "name":"Jonas Hofmann",
         "firstName":"Jonas",
         "lastName":"Hofmann",
         "playerId":115163,
         "positionText":"Midfielder",
         "teamId":134,
         "teamName":"Borussia M.Gladbach",
         "seasonId":7405,
         "seasonName":"2018/2019",
         "isOpta":true,
         "tournamentId":3,
         "tournamentRegionId":81,
         "tournamentRegionCode":"de",
         "tournamentRegionName":"Germany",
         "tournamentName":"Bundesliga",
         "rating":7.1272727272727261,
         "minsPlayed":963,
         "challengeLost":1.214953271025,
         "ranking":168
      },
      {
         "height":167,
         "weight":73,
         "age":26,
         "isManOfTheMatch":false,
         "isActive":true,
         "playedPositions":"-MC-",
         "playedPositionsShort":"M(C)",
         "teamRegionName":"England",
         "regionCode":"fr",
         "tournamentShortName":"EPL",
         "apps":19,
         "subOn":0,
         "tackleWonTotal":1.3928571428460002,
         "tackleTotalAttempted":2.035714285698,
         "name":"Nampalys Mendy",
         "firstName":"Nampalys",
         "lastName":"Mendy",
         "playerId":90278,
         "positionText":"Midfielder",
         "teamId":14,
         "teamName":"Leicester",
         "seasonId":7361,
         "seasonName":"2018/2019",
         "isOpta":true,
         "tournamentId":2,
         "tournamentRegionId":252,
         "tournamentRegionCode":"gb-eng",
         "tournamentRegionName":"England",
         "tournamentName":"Premier League",
         "rating":6.5378947368421061,
         "minsPlayed":1680,
         "challengeLost":0.642857142852,
         "ranking":169
      },
      {
         "height":175,
         "weight":69,
         "age":26,
         "isManOfTheMatch":false,
         "isActive":true,
         "playedPositions":"-AMC-AML-AMR-",
         "playedPositionsShort":"AM(CLR)",
         "teamRegionName":"England",
         "regionCode":"sn",
         "tournamentShortName":"EPL",
         "apps":18,
         "subOn":0,
         "tackleWonTotal":1.391752577304,
         "tackleTotalAttempted":2.551546391724,
         "name":"Sadio Mané",
         "firstName":"Sadio",
         "lastName":"Mané",
         "playerId":109915,
         "positionText":"Forward",
         "teamId":26,
         "teamName":"Liverpool",
         "seasonId":7361,
         "seasonName":"2018/2019",
         "isOpta":true,
         "tournamentId":2,
         "tournamentRegionId":252,
         "tournamentRegionCode":"gb-eng",
         "tournamentRegionName":"England",
         "tournamentName":"Premier League",
         "rating":7.3716666666666661,
         "minsPlayed":1552,
         "challengeLost":1.15979381442,
         "ranking":170
      }
   ],
   "paging":{
      "currentPage":17,
      "totalPages":25,
      "resultsPerPage":10,
      "totalResults":246,
      "firstRecordIndex":161,
      "lastRecordIndex":170
   },
   "statColumns":[
      "apps",
      "subOn",
      "minsPlayed",
      "tackleWonTotal",
      "challengeLost",
      "tackleTotalAttempted"
   ]
}