{
   "playerTableStats":[
      {
         "ranking":31,
         "seasonId":7361,
         "seasonName":"2018/2019",
         "tournamentId":2,
         "tournamentRegionId":252,
         "tournamentRegionCode":"gb-eng",
         "tournamentRegionName":"England",
         "regionCode":"ga",
         "tournamentName":"Premier League",
         "tournamentShortName":"EPL",
         "firstName":"Mario",
         "lastName":"Lemina",
         "playerId":123481,
         "isActive":true,
         "isOpta":true,
         "teamId":18,
         "teamName":"Southampton",
         "teamRegionName":"England",
         "playedPositions":"-DMC-",
         "age":25,
         "height":184,
         "weight":85,
         "positionText":"Midfielder",
         "apps":17,
         "subOn":0,
         "minsPlayed":1459,
         "rating":6.8905882352941186,
         "isManOfTheMatch":false,
         "playedPositionsShort":"DMC",
         "tackleWonTotal":2.7758738862000003,
         "tackleTotalAttempted":3.7628512679600004,
         "name":"Mario Lemina",
         "challengeLost":0.98697738176
      },
      {
         "ranking":32,
         "seasonId":7468,
         "seasonName":"2018/2019",
         "tournamentId":5,
         "tournamentRegionId":108,
         "tournamentRegionCode":"it",
         "tournamentRegionName":"Italy",
         "regionCode":"it",
         "tournamentName":"Serie A",
         "tournamentShortName":"ISA",
         "firstName":"Nicolò",
         "lastName":"Barella",
         "playerId":148684,
         "isActive":true,
         "isOpta":true,
         "teamId":78,
         "teamName":"Cagliari",
         "teamRegionName":"Italy",
         "playedPositions":"-AMC-",
         "age":21,
         "height":175,
         "weight":68,
         "positionText":"Midfielder",
         "apps":18,
         "subOn":0,
         "minsPlayed":1592,
         "rating":6.708333333333333,
         "isManOfTheMatch":false,
         "playedPositionsShort":"AM(C)",
         "tackleWonTotal":2.7701005024840004,
         "tackleTotalAttempted":4.1268844220680005,
         "name":"Nicolò Barella",
         "challengeLost":1.3567839195840001
      },
      {
         "ranking":33,
         "seasonId":7466,
         "seasonName":"2018/2019",
         "tournamentId":4,
         "tournamentRegionId":206,
         "tournamentRegionCode":"es",
         "tournamentRegionName":"Spain",
         "regionCode":"es",
         "tournamentName":"La Liga",
         "tournamentShortName":"SLL",
         "firstName":"Adrián",
         "lastName":"Embarba",
         "playerId":135572,
         "isActive":true,
         "isOpta":true,
         "teamId":64,
         "teamName":"Rayo Vallecano",
         "teamRegionName":"Spain",
         "playedPositions":"-AML-AMR-",
         "age":26,
         "height":173,
         "weight":66,
         "positionText":"Forward",
         "apps":10,
         "subOn":0,
         "minsPlayed":802,
         "rating":7.0980000000000008,
         "isManOfTheMatch":false,
         "playedPositionsShort":"AM(LR)",
         "tackleWonTotal":2.6932668329040004,
         "tackleTotalAttempted":4.039900249356,
         "name":"Adrián Embarba",
         "challengeLost":1.3466334164520002
      },
      {
         "ranking":34,
         "seasonId":7344,
         "seasonName":"2018/2019",
         "tournamentId":22,
         "tournamentRegionId":74,
         "tournamentRegionCode":"fr",
         "tournamentRegionName":"France",
         "regionCode":"fr",
         "tournamentName":"Ligue 1",
         "tournamentShortName":"FL1",
         "firstName":"Enzo",
         "lastName":"Loiodice",
         "playerId":356704,
         "isActive":true,
         "isOpta":true,
         "teamId":1364,
         "teamName":"Dijon",
         "teamRegionName":"France",
         "playedPositions":"-DMC-",
         "age":18,
         "height":176,
         "weight":60,
         "positionText":"Midfielder",
         "apps":10,
         "subOn":0,
         "minsPlayed":837,
         "rating":6.3680000000000012,
         "isManOfTheMatch":false,
         "playedPositionsShort":"DMC",
         "tackleWonTotal":2.688172043,
         "tackleTotalAttempted":3.8709677419199995,
         "name":"Enzo Loiodice",
         "challengeLost":1.18279569892
      },
      {
         "ranking":35,
         "seasonId":7361,
         "seasonName":"2018/2019",
         "tournamentId":2,
         "tournamentRegionId":252,
         "tournamentRegionCode":"gb-eng",
         "tournamentRegionName":"England",
         "regionCode":"fr",
         "tournamentName":"Premier League",
         "tournamentShortName":"EPL",
         "firstName":"Matteo",
         "lastName":"Guendouzi",
         "playerId":328983,
         "isActive":true,
         "isOpta":true,
         "teamId":13,
         "teamName":"Arsenal",
         "teamRegionName":"England",
         "playedPositions":"-DMC-",
         "age":19,
         "height":185,
         "weight":64,
         "positionText":"Midfielder",
         "apps":12,
         "subOn":0,
         "minsPlayed":982,
         "rating":6.7741666666666669,
         "isManOfTheMatch":false,
         "playedPositionsShort":"DMC",
         "tackleWonTotal":2.657841140529,
         "tackleTotalAttempted":3.4826883910379998,
         "name":"Matteo Guendouzi",
         "challengeLost":0.824847250509
      },
      {
         "ranking":36,
         "seasonId":7344,
         "seasonName":"2018/2019",
         "tournamentId":22,
         "tournamentRegionId":74,
         "tournamentRegionCode":"fr",
         "tournamentRegionName":"France",
         "regionCode":"br",
         "tournamentName":"Ligue 1",
         "tournamentShortName":"FL1",
         "firstName":"Gabriel",
         "lastName":"Boschilia",
         "playerId":146765,
         "isActive":true,
         "isOpta":true,
         "teamId":302,
         "teamName":"Nantes",
         "teamRegionName":"France",
         "playedPositions":"-AMC-AML-AMR-",
         "age":22,
         "height":172,
         "weight":63,
         "positionText":"Forward",
         "apps":11,
         "subOn":0,
         "minsPlayed":849,
         "rating":7.21909090909091,
         "isManOfTheMatch":false,
         "playedPositionsShort":"AM(CLR)",
         "tackleWonTotal":2.6501766784250003,
         "tackleTotalAttempted":4.346289752617,
         "name":"Gabriel Boschilia",
         "challengeLost":1.696113074192
      },
      {
         "ranking":37,
         "seasonId":7344,
         "seasonName":"2018/2019",
         "tournamentId":22,
         "tournamentRegionId":74,
         "tournamentRegionCode":"fr",
         "tournamentRegionName":"France",
         "regionCode":"it",
         "tournamentName":"Ligue 1",
         "tournamentShortName":"FL1",
         "firstName":"Marco",
         "lastName":"Verratti",
         "playerId":91961,
         "isActive":true,
         "isOpta":true,
         "teamId":304,
         "teamName":"Paris Saint-Germain",
         "teamRegionName":"France",
         "playedPositions":"-DMC-",
         "age":26,
         "height":165,
         "weight":60,
         "positionText":"Midfielder",
         "apps":10,
         "subOn":0,
         "minsPlayed":787,
         "rating":7.1129999999999995,
         "isManOfTheMatch":false,
         "playedPositionsShort":"DMC",
         "tackleWonTotal":2.630241423112,
         "tackleTotalAttempted":4.231257941528,
         "name":"Marco Verratti",
         "challengeLost":1.601016518416
      },
      {
         "ranking":38,
         "seasonId":7361,
         "seasonName":"2018/2019",
         "tournamentId":2,
         "tournamentRegionId":252,
         "tournamentRegionCode":"gb-eng",
         "tournamentRegionName":"England",
         "regionCode":"gb-eng",
         "tournamentName":"Premier League",
         "tournamentShortName":"EPL",
         "firstName":"Will",
         "lastName":"Hughes",
         "playerId":108638,
         "isActive":true,
         "isOpta":true,
         "teamId":27,
         "teamName":"Watford",
         "teamRegionName":"England",
         "playedPositions":"-MC-",
         "age":23,
         "height":185,
         "weight":74,
         "positionText":"Midfielder",
         "apps":16,
         "subOn":0,
         "minsPlayed":1199,
         "rating":6.6831249999999986,
         "isManOfTheMatch":false,
         "playedPositionsShort":"M(C)",
         "tackleWonTotal":2.62718932441,
         "tackleTotalAttempted":3.8281901584260005,
         "name":"Will Hughes",
         "challengeLost":1.201000834016
      },
      {
         "ranking":39,
         "seasonId":7405,
         "seasonName":"2018/2019",
         "tournamentId":3,
         "tournamentRegionId":81,
         "tournamentRegionCode":"de",
         "tournamentRegionName":"Germany",
         "regionCode":"ar",
         "tournamentName":"Bundesliga",
         "tournamentShortName":"GB",
         "firstName":"Santiago",
         "lastName":"Ascacibar",
         "playerId":303899,
         "isActive":true,
         "isOpta":true,
         "teamId":41,
         "teamName":"VfB Stuttgart",
         "teamRegionName":"Germany",
         "playedPositions":"-DMC-",
         "age":21,
         "height":168,
         "weight":70,
         "positionText":"Midfielder",
         "apps":16,
         "subOn":0,
         "minsPlayed":1440,
         "rating":6.60625,
         "isManOfTheMatch":false,
         "playedPositionsShort":"DMC",
         "tackleWonTotal":2.625,
         "tackleTotalAttempted":3.625,
         "name":"Santiago Ascacibar",
         "challengeLost":1.0
      },
      {
         "ranking":40,
         "seasonId":7405,
         "seasonName":"2018/2019",
         "tournamentId":3,
         "tournamentRegionId":81,
         "tournamentRegionCode":"de",
         "tournamentRegionName":"Germany",
         "regionCode":"at",
         "tournamentName":"Bundesliga",
         "tournamentShortName":"GB",
         "firstName":"Florian",
         "lastName":"Grillitsch",
         "playerId":291937,
         "isActive":true,
         "isOpta":true,
         "teamId":1211,
         "teamName":"Hoffenheim",
         "teamRegionName":"Germany",
         "playedPositions":"-DMC-ML-",
         "age":23,
         "height":187,
         "weight":74,
         "positionText":"Midfielder",
         "apps":12,
         "subOn":0,
         "minsPlayed":928,
         "rating":6.8999999999999995,
         "isManOfTheMatch":false,
         "playedPositionsShort":"DMC,M(L)",
         "tackleWonTotal":2.61853448274,
         "tackleTotalAttempted":4.07327586204,
         "name":"Florian Grillitsch",
         "challengeLost":1.4547413793
      }
   ],
   "paging":{
      "currentPage":4,
      "totalPages":25,
      "resultsPerPage":10,
      "totalResults":246,
      "firstRecordIndex":31,
      "lastRecordIndex":40
   },
   "statColumns":[
      "apps",
      "subOn",
      "minsPlayed",
      "tackleWonTotal",
      "challengeLost",
      "tackleTotalAttempted"
   ]
}