{
   "playerTableStats":[
      {
         "height":182,
         "weight":77,
         "age":22,
         "isManOfTheMatch":false,
         "isActive":true,
         "playedPositions":"-DL-ML-",
         "playedPositionsShort":"D(L),M(L)",
         "teamRegionName":"England",
         "regionCode":"br",
         "tournamentShortName":"EPL",
         "apps":12,
         "subOn":0,
         "tackleWonTotal":1.8499486125199998,
         "tackleTotalAttempted":2.8674203494059998,
         "name":"Kenedy",
         "firstName":"Robert Kenedy",
         "lastName":"Nunes do Nascimento",
         "playerId":132838,
         "positionText":"Midfielder",
         "teamId":23,
         "teamName":"Newcastle United",
         "seasonId":7361,
         "seasonName":"2018/2019",
         "isOpta":true,
         "tournamentId":2,
         "tournamentRegionId":252,
         "tournamentRegionCode":"gb-eng",
         "tournamentRegionName":"England",
         "tournamentName":"Premier League",
         "rating":6.8474999999999993,
         "minsPlayed":973,
         "challengeLost":1.017471736886,
         "ranking":121
      },
      {
         "height":168,
         "weight":65,
         "age":27,
         "isManOfTheMatch":false,
         "isActive":true,
         "playedPositions":"-MC-",
         "playedPositionsShort":"M(C)",
         "teamRegionName":"England",
         "regionCode":"ci",
         "tournamentShortName":"EPL",
         "apps":19,
         "subOn":0,
         "tackleWonTotal":1.8391562293929997,
         "tackleTotalAttempted":3.144363876059,
         "name":"Jean Michael Seri",
         "firstName":"Jean Michael",
         "lastName":"Seri",
         "playerId":136262,
         "positionText":"Midfielder",
         "teamId":170,
         "teamName":"Fulham",
         "seasonId":7361,
         "seasonName":"2018/2019",
         "isOpta":true,
         "tournamentId":2,
         "tournamentRegionId":252,
         "tournamentRegionCode":"gb-eng",
         "tournamentRegionName":"England",
         "tournamentName":"Premier League",
         "rating":6.5642105263157893,
         "minsPlayed":1517,
         "challengeLost":1.3052076466659999,
         "ranking":122
      },
      {
         "height":185,
         "weight":75,
         "age":20,
         "isManOfTheMatch":false,
         "isActive":true,
         "playedPositions":"-MC-ML-",
         "playedPositionsShort":"M(CL)",
         "teamRegionName":"Italy",
         "regionCode":"se",
         "tournamentShortName":"ISA",
         "apps":12,
         "subOn":0,
         "tackleWonTotal":1.83083511776,
         "tackleTotalAttempted":2.60171306208,
         "name":"Mattias Svanberg",
         "firstName":"Mattias",
         "lastName":"Svanberg",
         "playerId":282348,
         "positionText":"Midfielder",
         "teamId":71,
         "teamName":"Bologna",
         "seasonId":7468,
         "seasonName":"2018/2019",
         "isOpta":true,
         "tournamentId":5,
         "tournamentRegionId":108,
         "tournamentRegionCode":"it",
         "tournamentRegionName":"Italy",
         "tournamentName":"Serie A",
         "rating":6.5424999999999995,
         "minsPlayed":934,
         "challengeLost":0.77087794432,
         "ranking":123
      },
      {
         "height":180,
         "weight":75,
         "age":23,
         "isManOfTheMatch":false,
         "isActive":true,
         "playedPositions":"-MC-",
         "playedPositionsShort":"M(C)",
         "teamRegionName":"France",
         "regionCode":"fr",
         "tournamentShortName":"FL1",
         "apps":12,
         "subOn":0,
         "tackleWonTotal":1.8126888217400001,
         "tackleTotalAttempted":2.809667673697,
         "name":"Theo Valls",
         "firstName":"Theo",
         "lastName":"Valls",
         "playerId":234373,
         "positionText":"Midfielder",
         "teamId":245,
         "teamName":"Nimes",
         "seasonId":7344,
         "seasonName":"2018/2019",
         "isOpta":true,
         "tournamentId":22,
         "tournamentRegionId":74,
         "tournamentRegionCode":"fr",
         "tournamentRegionName":"France",
         "tournamentName":"Ligue 1",
         "rating":6.6049999999999995,
         "minsPlayed":993,
         "challengeLost":0.996978851957,
         "ranking":124
      },
      {
         "height":189,
         "weight":78,
         "age":23,
         "isManOfTheMatch":false,
         "isActive":true,
         "playedPositions":"-DMC-",
         "playedPositionsShort":"DMC",
         "teamRegionName":"Spain",
         "regionCode":"rs",
         "tournamentShortName":"SLL",
         "apps":16,
         "subOn":0,
         "tackleWonTotal":1.8125,
         "tackleTotalAttempted":2.6875,
         "name":"Nemanja Maksimovic",
         "firstName":"Nemanja",
         "lastName":"Maksimovic",
         "playerId":296367,
         "positionText":"Midfielder",
         "teamId":819,
         "teamName":"Getafe",
         "seasonId":7466,
         "seasonName":"2018/2019",
         "isOpta":true,
         "tournamentId":4,
         "tournamentRegionId":206,
         "tournamentRegionCode":"es",
         "tournamentRegionName":"Spain",
         "tournamentName":"La Liga",
         "rating":6.798125,
         "minsPlayed":1440,
         "challengeLost":0.875,
         "ranking":125
      },
      {
         "height":175,
         "weight":70,
         "age":20,
         "isManOfTheMatch":false,
         "isActive":true,
         "playedPositions":"-MC-ML-",
         "playedPositionsShort":"M(CL)",
         "teamRegionName":"France",
         "regionCode":"fr",
         "tournamentShortName":"FL1",
         "apps":16,
         "subOn":0,
         "tackleWonTotal":1.8051575931200001,
         "tackleTotalAttempted":3.15902578796,
         "name":"Houssem Aouar",
         "firstName":"Houssem",
         "lastName":"Aouar",
         "playerId":322096,
         "positionText":"Midfielder",
         "teamId":228,
         "teamName":"Lyon",
         "seasonId":7344,
         "seasonName":"2018/2019",
         "isOpta":true,
         "tournamentId":22,
         "tournamentRegionId":74,
         "tournamentRegionCode":"fr",
         "tournamentRegionName":"France",
         "tournamentName":"Ligue 1",
         "rating":7.3362500000000015,
         "minsPlayed":1396,
         "challengeLost":1.3538681948400002,
         "ranking":126
      },
      {
         "height":188,
         "weight":84,
         "age":25,
         "isManOfTheMatch":false,
         "isActive":true,
         "playedPositions":"-MC-ML-MR-",
         "playedPositionsShort":"M(CLR)",
         "teamRegionName":"England",
         "regionCode":"pt",
         "tournamentShortName":"EPL",
         "apps":13,
         "subOn":0,
         "tackleWonTotal":1.776315789465,
         "tackleTotalAttempted":3.3834586466,
         "name":"André Gomes",
         "firstName":"André Filipe",
         "lastName":"Tavares Gomes",
         "playerId":118123,
         "positionText":"Midfielder",
         "teamId":31,
         "teamName":"Everton",
         "seasonId":7361,
         "seasonName":"2018/2019",
         "isOpta":true,
         "tournamentId":2,
         "tournamentRegionId":252,
         "tournamentRegionCode":"gb-eng",
         "tournamentRegionName":"England",
         "tournamentName":"Premier League",
         "rating":6.660000000000001,
         "minsPlayed":1064,
         "challengeLost":1.607142857135,
         "ranking":127
      },
      {
         "height":174,
         "weight":69,
         "age":25,
         "isManOfTheMatch":false,
         "isActive":true,
         "playedPositions":"-AMC-AML-AMR-FW-",
         "playedPositionsShort":"AM(CLR),FW",
         "teamRegionName":"Germany",
         "regionCode":"be",
         "tournamentShortName":"GB",
         "apps":17,
         "subOn":0,
         "tackleWonTotal":1.7728168089,
         "tackleTotalAttempted":2.71831910698,
         "name":"Thorgan Hazard",
         "firstName":"Thorgan",
         "lastName":"Hazard",
         "playerId":101537,
         "positionText":"Forward",
         "teamId":134,
         "teamName":"Borussia M.Gladbach",
         "seasonId":7405,
         "seasonName":"2018/2019",
         "isOpta":true,
         "tournamentId":3,
         "tournamentRegionId":81,
         "tournamentRegionCode":"de",
         "tournamentRegionName":"Germany",
         "tournamentName":"Bundesliga",
         "rating":7.7070588235294126,
         "minsPlayed":1523,
         "challengeLost":0.94550229808,
         "ranking":128
      },
      {
         "height":170,
         "weight":66,
         "age":19,
         "isManOfTheMatch":false,
         "isActive":true,
         "playedPositions":"-MC-",
         "playedPositionsShort":"M(C)",
         "teamRegionName":"Spain",
         "regionCode":"es",
         "tournamentShortName":"SLL",
         "apps":12,
         "subOn":0,
         "tackleWonTotal":1.7628865979259998,
         "tackleTotalAttempted":2.4123711340039997,
         "name":"Fran Beltrán",
         "firstName":"Francisco",
         "lastName":"Beltrán",
         "playerId":362421,
         "positionText":"Midfielder",
         "teamId":62,
         "teamName":"Celta Vigo",
         "seasonId":7466,
         "seasonName":"2018/2019",
         "isOpta":true,
         "tournamentId":4,
         "tournamentRegionId":206,
         "tournamentRegionCode":"es",
         "tournamentRegionName":"Spain",
         "tournamentName":"La Liga",
         "rating":6.5758333333333328,
         "minsPlayed":970,
         "challengeLost":0.64948453607799994,
         "ranking":129
      },
      {
         "height":181,
         "weight":78,
         "age":27,
         "isManOfTheMatch":false,
         "isActive":true,
         "playedPositions":"-MC-",
         "playedPositionsShort":"M(C)",
         "teamRegionName":"England",
         "regionCode":"de",
         "tournamentShortName":"EPL",
         "apps":12,
         "subOn":0,
         "tackleWonTotal":1.7627856365519998,
         "tackleTotalAttempted":2.546245919464,
         "name":"Pascal Groß",
         "firstName":"Pascal",
         "lastName":"Groß",
         "playerId":71824,
         "positionText":"Midfielder",
         "teamId":211,
         "teamName":"Brighton",
         "seasonId":7361,
         "seasonName":"2018/2019",
         "isOpta":true,
         "tournamentId":2,
         "tournamentRegionId":252,
         "tournamentRegionCode":"gb-eng",
         "tournamentRegionName":"England",
         "tournamentName":"Premier League",
         "rating":6.6166666666666663,
         "minsPlayed":919,
         "challengeLost":0.783460282912,
         "ranking":130
      }
   ],
   "paging":{
      "currentPage":13,
      "totalPages":25,
      "resultsPerPage":10,
      "totalResults":246,
      "firstRecordIndex":121,
      "lastRecordIndex":130
   },
   "statColumns":[
      "apps",
      "subOn",
      "minsPlayed",
      "tackleWonTotal",
      "challengeLost",
      "tackleTotalAttempted"
   ]
}