{
   "playerTableStats":[
      {
         "ranking":181,
         "seasonId":7468,
         "seasonName":"2018/2019",
         "tournamentId":5,
         "tournamentRegionId":108,
         "tournamentRegionCode":"it",
         "tournamentRegionName":"Italy",
         "regionCode":"se",
         "tournamentName":"Serie A",
         "tournamentShortName":"ISA",
         "firstName":"Oscar",
         "lastName":"Hiljemark",
         "playerId":90349,
         "isActive":true,
         "isOpta":true,
         "teamId":278,
         "teamName":"Genoa",
         "teamRegionName":"Italy",
         "playedPositions":"-AMC-",
         "age":26,
         "height":185,
         "weight":75,
         "positionText":"Midfielder",
         "apps":15,
         "subOn":0,
         "minsPlayed":1189,
         "rating":6.5413333333333332,
         "isManOfTheMatch":false,
         "playedPositionsShort":"AM(C)",
         "tackleWonTotal":1.286795626562,
         "tackleTotalAttempted":2.043734230422,
         "name":"Oscar Hiljemark",
         "challengeLost":0.75693860386
      },
      {
         "ranking":182,
         "seasonId":7344,
         "seasonName":"2018/2019",
         "tournamentId":22,
         "tournamentRegionId":74,
         "tournamentRegionCode":"fr",
         "tournamentRegionName":"France",
         "regionCode":"fr",
         "tournamentName":"Ligue 1",
         "tournamentShortName":"FL1",
         "firstName":"Florian",
         "lastName":"Thauvin",
         "playerId":99143,
         "isActive":true,
         "isOpta":true,
         "teamId":249,
         "teamName":"Marseille",
         "teamRegionName":"France",
         "playedPositions":"-AMC-AML-AMR-",
         "age":25,
         "height":179,
         "weight":70,
         "positionText":"Midfielder",
         "apps":14,
         "subOn":0,
         "minsPlayed":1195,
         "rating":7.3071428571428569,
         "isManOfTheMatch":false,
         "playedPositionsShort":"AM(CLR)",
         "tackleWonTotal":1.280334728027,
         "tackleTotalAttempted":1.8828451882750001,
         "name":"Florian Thauvin",
         "challengeLost":0.602510460248
      },
      {
         "ranking":183,
         "seasonId":7344,
         "seasonName":"2018/2019",
         "tournamentId":22,
         "tournamentRegionId":74,
         "tournamentRegionCode":"fr",
         "tournamentRegionName":"France",
         "regionCode":"fr",
         "tournamentName":"Ligue 1",
         "tournamentShortName":"FL1",
         "firstName":"Florent",
         "lastName":"Mollet",
         "playerId":114169,
         "isActive":true,
         "isOpta":true,
         "teamId":311,
         "teamName":"Montpellier",
         "teamRegionName":"France",
         "playedPositions":"-AMC-AML-",
         "age":27,
         "height":174,
         "weight":67,
         "positionText":"Midfielder",
         "apps":13,
         "subOn":0,
         "minsPlayed":1055,
         "rating":7.1692307692307686,
         "isManOfTheMatch":false,
         "playedPositionsShort":"AM(CL)",
         "tackleWonTotal":1.27962085308,
         "tackleTotalAttempted":2.388625592416,
         "name":"Florent Mollet",
         "challengeLost":1.1090047393359999
      },
      {
         "ranking":184,
         "seasonId":7344,
         "seasonName":"2018/2019",
         "tournamentId":22,
         "tournamentRegionId":74,
         "tournamentRegionCode":"fr",
         "tournamentRegionName":"France",
         "regionCode":"fr",
         "tournamentName":"Ligue 1",
         "tournamentShortName":"FL1",
         "firstName":"Benjamin",
         "lastName":"Bourigeaud",
         "playerId":129282,
         "isActive":true,
         "isOpta":true,
         "teamId":313,
         "teamName":"Rennes",
         "teamRegionName":"France",
         "playedPositions":"-MC-ML-MR-",
         "age":24,
         "height":178,
         "weight":68,
         "positionText":"Midfielder",
         "apps":13,
         "subOn":0,
         "minsPlayed":1057,
         "rating":6.7523076923076939,
         "isManOfTheMatch":false,
         "playedPositionsShort":"M(CLR)",
         "tackleWonTotal":1.27719962157,
         "tackleTotalAttempted":3.065279091768,
         "name":"Benjamin Bourigeaud",
         "challengeLost":1.788079470198
      },
      {
         "ranking":185,
         "seasonId":7361,
         "seasonName":"2018/2019",
         "tournamentId":2,
         "tournamentRegionId":252,
         "tournamentRegionCode":"gb-eng",
         "tournamentRegionName":"England",
         "regionCode":"fr",
         "tournamentName":"Premier League",
         "tournamentShortName":"EPL",
         "firstName":"Paul",
         "lastName":"Pogba",
         "playerId":97752,
         "isActive":true,
         "isOpta":true,
         "teamId":32,
         "teamName":"Manchester United",
         "teamRegionName":"England",
         "playedPositions":"-MC-",
         "age":25,
         "height":191,
         "weight":84,
         "positionText":"Midfielder",
         "apps":17,
         "subOn":0,
         "minsPlayed":1482,
         "rating":7.487058823529412,
         "isManOfTheMatch":false,
         "playedPositionsShort":"M(C)",
         "tackleWonTotal":1.275303643719,
         "tackleTotalAttempted":2.064777327926,
         "name":"Paul Pogba",
         "challengeLost":0.78947368420699993
      },
      {
         "ranking":186,
         "seasonId":7468,
         "seasonName":"2018/2019",
         "tournamentId":5,
         "tournamentRegionId":108,
         "tournamentRegionCode":"it",
         "tournamentRegionName":"Italy",
         "regionCode":"fr",
         "tournamentName":"Serie A",
         "tournamentShortName":"ISA",
         "firstName":"Soualiho",
         "lastName":"Meité",
         "playerId":105161,
         "isActive":true,
         "isOpta":true,
         "teamId":72,
         "teamName":"Torino",
         "teamRegionName":"Italy",
         "playedPositions":"-AMC-",
         "age":24,
         "height":187,
         "weight":80,
         "positionText":"Midfielder",
         "apps":17,
         "subOn":0,
         "minsPlayed":1482,
         "rating":6.9382352941176473,
         "isManOfTheMatch":false,
         "playedPositionsShort":"AM(C)",
         "tackleWonTotal":1.275303643719,
         "tackleTotalAttempted":2.064777327926,
         "name":"Soualiho Meité",
         "challengeLost":0.78947368420699993
      },
      {
         "ranking":187,
         "seasonId":7405,
         "seasonName":"2018/2019",
         "tournamentId":3,
         "tournamentRegionId":81,
         "tournamentRegionCode":"de",
         "tournamentRegionName":"Germany",
         "regionCode":"de",
         "tournamentName":"Bundesliga",
         "tournamentShortName":"GB",
         "firstName":"Robin",
         "lastName":"Koch",
         "playerId":276205,
         "isActive":true,
         "isOpta":true,
         "teamId":50,
         "teamName":"Freiburg",
         "teamRegionName":"Germany",
         "playedPositions":"-DC-DMC-",
         "age":22,
         "height":192,
         "weight":85,
         "positionText":"Defender",
         "apps":11,
         "subOn":0,
         "minsPlayed":990,
         "rating":6.9972727272727271,
         "isManOfTheMatch":false,
         "playedPositionsShort":"D(C),DMC",
         "tackleWonTotal":1.272727272726,
         "tackleTotalAttempted":2.090909090907,
         "name":"Robin Koch",
         "challengeLost":0.818181818181
      },
      {
         "ranking":188,
         "seasonId":7466,
         "seasonName":"2018/2019",
         "tournamentId":4,
         "tournamentRegionId":206,
         "tournamentRegionCode":"es",
         "tournamentRegionName":"Spain",
         "regionCode":"fr",
         "tournamentName":"La Liga",
         "tournamentShortName":"SLL",
         "firstName":"Thomas",
         "lastName":"Lemar",
         "playerId":132962,
         "isActive":true,
         "isOpta":true,
         "teamId":63,
         "teamName":"Atletico Madrid",
         "teamRegionName":"Spain",
         "playedPositions":"-AMC-AML-AMR-",
         "age":23,
         "height":171,
         "weight":62,
         "positionText":"Midfielder",
         "apps":12,
         "subOn":0,
         "minsPlayed":849,
         "rating":6.9591666666666656,
         "isManOfTheMatch":false,
         "playedPositionsShort":"AM(CLR)",
         "tackleWonTotal":1.272084805644,
         "tackleTotalAttempted":2.862190812699,
         "name":"Thomas Lemar",
         "challengeLost":1.5901060070550002
      },
      {
         "ranking":189,
         "seasonId":7344,
         "seasonName":"2018/2019",
         "tournamentId":22,
         "tournamentRegionId":74,
         "tournamentRegionCode":"fr",
         "tournamentRegionName":"France",
         "regionCode":"fr",
         "tournamentName":"Ligue 1",
         "tournamentShortName":"FL1",
         "firstName":"Eddy",
         "lastName":"Gnahore",
         "playerId":110127,
         "isActive":true,
         "isOpta":true,
         "teamId":151,
         "teamName":"Amiens",
         "teamRegionName":"France",
         "playedPositions":"-DMC-",
         "age":25,
         "height":187,
         "weight":85,
         "positionText":"Midfielder",
         "apps":15,
         "subOn":0,
         "minsPlayed":1291,
         "rating":6.6819999999999995,
         "isManOfTheMatch":false,
         "playedPositionsShort":"DMC",
         "tackleWonTotal":1.254841208352,
         "tackleTotalAttempted":2.300542215312,
         "name":"Eddy Gnahore",
         "challengeLost":1.04570100696
      },
      {
         "ranking":190,
         "seasonId":7344,
         "seasonName":"2018/2019",
         "tournamentId":22,
         "tournamentRegionId":74,
         "tournamentRegionCode":"fr",
         "tournamentRegionName":"France",
         "regionCode":"fr",
         "tournamentName":"Ligue 1",
         "tournamentShortName":"FL1",
         "firstName":"Sada",
         "lastName":"Thioub",
         "playerId":259809,
         "isActive":true,
         "isOpta":true,
         "teamId":245,
         "teamName":"Nimes",
         "teamRegionName":"France",
         "playedPositions":"-AMR-",
         "age":23,
         "height":179,
         "weight":75,
         "positionText":"Forward",
         "apps":15,
         "subOn":0,
         "minsPlayed":1230,
         "rating":6.86,
         "isManOfTheMatch":false,
         "playedPositionsShort":"AM(R)",
         "tackleWonTotal":1.243902439019,
         "tackleTotalAttempted":2.19512195121,
         "name":"Sada Thioub",
         "challengeLost":0.95121951219100009
      }
   ],
   "paging":{
      "currentPage":19,
      "totalPages":25,
      "resultsPerPage":10,
      "totalResults":246,
      "firstRecordIndex":181,
      "lastRecordIndex":190
   },
   "statColumns":[
      "apps",
      "subOn",
      "minsPlayed",
      "tackleWonTotal",
      "challengeLost",
      "tackleTotalAttempted"
   ]
}