{
   "playerTableStats":[
      {
         "ranking":141,
         "seasonId":7468,
         "seasonName":"2018/2019",
         "tournamentId":5,
         "tournamentRegionId":108,
         "tournamentRegionCode":"it",
         "tournamentRegionName":"Italy",
         "regionCode":"it",
         "tournamentName":"Serie A",
         "tournamentShortName":"ISA",
         "firstName":"Manuel",
         "lastName":"Locatelli",
         "playerId":273539,
         "isActive":true,
         "isOpta":true,
         "teamId":2889,
         "teamName":"Sassuolo",
         "teamRegionName":"Italy",
         "playedPositions":"-MC-",
         "age":21,
         "height":185,
         "weight":75,
         "positionText":"Midfielder",
         "apps":10,
         "subOn":0,
         "minsPlayed":819,
         "rating":6.8459999999999992,
         "isManOfTheMatch":false,
         "playedPositionsShort":"M(C)",
         "tackleWonTotal":1.64835164835,
         "tackleTotalAttempted":2.08791208791,
         "name":"Manuel Locatelli",
         "challengeLost":0.43956043956
      },
      {
         "ranking":142,
         "seasonId":7468,
         "seasonName":"2018/2019",
         "tournamentId":5,
         "tournamentRegionId":108,
         "tournamentRegionCode":"it",
         "tournamentRegionName":"Italy",
         "regionCode":"it",
         "tournamentName":"Serie A",
         "tournamentShortName":"ISA",
         "firstName":"Raffaele",
         "lastName":"Maiello",
         "playerId":83389,
         "isActive":true,
         "isOpta":true,
         "teamId":2732,
         "teamName":"Frosinone",
         "teamRegionName":"Italy",
         "playedPositions":"-MC-",
         "age":27,
         "height":177,
         "weight":73,
         "positionText":"Midfielder",
         "apps":14,
         "subOn":0,
         "minsPlayed":1103,
         "rating":6.6457142857142859,
         "isManOfTheMatch":false,
         "playedPositionsShort":"M(C)",
         "tackleWonTotal":1.63191296464,
         "tackleTotalAttempted":2.203082502264,
         "name":"Raffaele Maiello",
         "challengeLost":0.571169537624
      },
      {
         "ranking":143,
         "seasonId":7466,
         "seasonName":"2018/2019",
         "tournamentId":4,
         "tournamentRegionId":206,
         "tournamentRegionCode":"es",
         "tournamentRegionName":"Spain",
         "regionCode":"sn",
         "tournamentName":"La Liga",
         "tournamentShortName":"SLL",
         "firstName":"Amath",
         "lastName":"Ndiaye",
         "playerId":315298,
         "isActive":true,
         "isOpta":true,
         "teamId":819,
         "teamName":"Getafe",
         "teamRegionName":"Spain",
         "playedPositions":"-AML-",
         "age":22,
         "height":173,
         "weight":70,
         "positionText":"Forward",
         "apps":13,
         "subOn":0,
         "minsPlayed":948,
         "rating":6.634615384615385,
         "isManOfTheMatch":false,
         "playedPositionsShort":"AM(L)",
         "tackleWonTotal":1.61392405062,
         "tackleTotalAttempted":3.41772151896,
         "name":"Amath Ndiaye",
         "challengeLost":1.80379746834
      },
      {
         "ranking":144,
         "seasonId":7466,
         "seasonName":"2018/2019",
         "tournamentId":4,
         "tournamentRegionId":206,
         "tournamentRegionCode":"es",
         "tournamentRegionName":"Spain",
         "regionCode":"pt",
         "tournamentName":"La Liga",
         "tournamentShortName":"SLL",
         "firstName":"William",
         "lastName":"Silva de Carvalho",
         "playerId":99911,
         "isActive":true,
         "isOpta":true,
         "teamId":54,
         "teamName":"Real Betis",
         "teamRegionName":"Spain",
         "playedPositions":"-DMC-",
         "age":26,
         "height":187,
         "weight":79,
         "positionText":"Midfielder",
         "apps":13,
         "subOn":0,
         "minsPlayed":1117,
         "rating":6.8984615384615378,
         "isManOfTheMatch":false,
         "playedPositionsShort":"DMC",
         "tackleWonTotal":1.6114592658800002,
         "tackleTotalAttempted":1.9337511190560002,
         "name":"William Carvalho",
         "challengeLost":0.322291853176
      },
      {
         "ranking":145,
         "seasonId":7405,
         "seasonName":"2018/2019",
         "tournamentId":3,
         "tournamentRegionId":81,
         "tournamentRegionCode":"de",
         "tournamentRegionName":"Germany",
         "regionCode":"cz",
         "tournamentName":"Bundesliga",
         "tournamentShortName":"GB",
         "firstName":"Ondrej",
         "lastName":"Petrák",
         "playerId":92919,
         "isActive":true,
         "isOpta":true,
         "teamId":137,
         "teamName":"Nuernberg",
         "teamRegionName":"Germany",
         "playedPositions":"-DC-DMC-",
         "age":26,
         "height":186,
         "weight":79,
         "positionText":"Midfielder",
         "apps":13,
         "subOn":0,
         "minsPlayed":1118,
         "rating":6.6146153846153846,
         "isManOfTheMatch":false,
         "playedPositionsShort":"D(C),DMC",
         "tackleWonTotal":1.6100178890799999,
         "tackleTotalAttempted":2.173524150258,
         "name":"Ondrej Petrák",
         "challengeLost":0.563506261178
      },
      {
         "ranking":146,
         "seasonId":7466,
         "seasonName":"2018/2019",
         "tournamentId":4,
         "tournamentRegionId":206,
         "tournamentRegionCode":"es",
         "tournamentRegionName":"Spain",
         "regionCode":"es",
         "tournamentName":"La Liga",
         "tournamentShortName":"SLL",
         "firstName":"Pablo",
         "lastName":"Fornals",
         "playerId":297203,
         "isActive":true,
         "isOpta":true,
         "teamId":839,
         "teamName":"Villarreal",
         "teamRegionName":"Spain",
         "playedPositions":"-MC-ML-MR-",
         "age":22,
         "height":178,
         "weight":67,
         "positionText":"Midfielder",
         "apps":17,
         "subOn":0,
         "minsPlayed":1457,
         "rating":6.8852941176470592,
         "isManOfTheMatch":false,
         "playedPositionsShort":"M(CLR)",
         "tackleWonTotal":1.6060398078140001,
         "tackleTotalAttempted":3.582704186662,
         "name":"Pablo Fornals",
         "challengeLost":1.976664378848
      },
      {
         "ranking":147,
         "seasonId":7344,
         "seasonName":"2018/2019",
         "tournamentId":22,
         "tournamentRegionId":74,
         "tournamentRegionCode":"fr",
         "tournamentRegionName":"France",
         "regionCode":"ml",
         "tournamentName":"Ligue 1",
         "tournamentShortName":"FL1",
         "firstName":"Moussa",
         "lastName":"Doumbia",
         "playerId":234346,
         "isActive":true,
         "isOpta":true,
         "teamId":950,
         "teamName":"Reims",
         "teamRegionName":"France",
         "playedPositions":"-AMC-AML-FW-",
         "age":24,
         "height":173,
         "weight":68,
         "positionText":"Midfielder",
         "apps":14,
         "subOn":0,
         "minsPlayed":1127,
         "rating":6.8171428571428576,
         "isManOfTheMatch":false,
         "playedPositionsShort":"AM(CL),FW",
         "tackleWonTotal":1.5971606033599999,
         "tackleTotalAttempted":3.1943212067199998,
         "name":"Moussa Doumbia",
         "challengeLost":1.5971606033599999
      },
      {
         "ranking":148,
         "seasonId":7466,
         "seasonName":"2018/2019",
         "tournamentId":4,
         "tournamentRegionId":206,
         "tournamentRegionCode":"es",
         "tournamentRegionName":"Spain",
         "regionCode":"es",
         "tournamentName":"La Liga",
         "tournamentShortName":"SLL",
         "firstName":"Aleix",
         "lastName":"García",
         "playerId":280663,
         "isActive":true,
         "isOpta":true,
         "teamId":2783,
         "teamName":"Girona",
         "teamRegionName":"Spain",
         "playedPositions":"-MC-",
         "age":21,
         "height":173,
         "weight":68,
         "positionText":"Midfielder",
         "apps":10,
         "subOn":0,
         "minsPlayed":733,
         "rating":6.9399999999999995,
         "isManOfTheMatch":false,
         "playedPositionsShort":"M(C)",
         "tackleWonTotal":1.596180081847,
         "tackleTotalAttempted":2.5784447475989998,
         "name":"Aleix García",
         "challengeLost":0.982264665752
      },
      {
         "ranking":149,
         "seasonId":7361,
         "seasonName":"2018/2019",
         "tournamentId":2,
         "tournamentRegionId":252,
         "tournamentRegionCode":"gb-eng",
         "tournamentRegionName":"England",
         "regionCode":"pt",
         "tournamentName":"Premier League",
         "tournamentShortName":"EPL",
         "firstName":"Bernardo Mota",
         "lastName":"Veiga de Carvalho e Silva",
         "playerId":136741,
         "isActive":true,
         "isOpta":true,
         "teamId":167,
         "teamName":"Manchester City",
         "teamRegionName":"England",
         "playedPositions":"-AMC-AML-AMR-",
         "age":24,
         "height":173,
         "weight":64,
         "positionText":"Midfielder",
         "apps":19,
         "subOn":0,
         "minsPlayed":1640,
         "rating":7.3031578947368416,
         "isManOfTheMatch":false,
         "playedPositionsShort":"AM(CLR)",
         "tackleWonTotal":1.59146341462,
         "tackleTotalAttempted":3.0182926829000003,
         "name":"Bernardo Silva",
         "challengeLost":1.4268292682800001
      },
      {
         "ranking":150,
         "seasonId":7468,
         "seasonName":"2018/2019",
         "tournamentId":5,
         "tournamentRegionId":108,
         "tournamentRegionCode":"it",
         "tournamentRegionName":"Italy",
         "regionCode":"tr",
         "tournamentName":"Serie A",
         "tournamentShortName":"ISA",
         "firstName":"Hakan",
         "lastName":"Calhanoglu",
         "playerId":110373,
         "isActive":true,
         "isOpta":true,
         "teamId":80,
         "teamName":"AC Milan",
         "teamRegionName":"Italy",
         "playedPositions":"-FW-MC-ML-MR-",
         "age":24,
         "height":178,
         "weight":76,
         "positionText":"Midfielder",
         "apps":16,
         "subOn":0,
         "minsPlayed":1309,
         "rating":6.9787500000000007,
         "isManOfTheMatch":false,
         "playedPositionsShort":"M(CLR),FW",
         "tackleWonTotal":1.581359816651,
         "tackleTotalAttempted":2.200152788384,
         "name":"Hakan Calhanoglu",
         "challengeLost":0.618792971733
      }
   ],
   "paging":{
      "currentPage":15,
      "totalPages":25,
      "resultsPerPage":10,
      "totalResults":246,
      "firstRecordIndex":141,
      "lastRecordIndex":150
   },
   "statColumns":[
      "apps",
      "subOn",
      "minsPlayed",
      "tackleWonTotal",
      "challengeLost",
      "tackleTotalAttempted"
   ]
}