{
   "playerTableStats":[
      {
         "ranking":51,
         "seasonId":7466,
         "seasonName":"2018/2019",
         "tournamentId":4,
         "tournamentRegionId":206,
         "tournamentRegionCode":"es",
         "tournamentRegionName":"Spain",
         "regionCode":"es",
         "tournamentName":"La Liga",
         "tournamentShortName":"SLL",
         "firstName":"Joan",
         "lastName":"Jordán",
         "playerId":238941,
         "isActive":true,
         "isOpta":true,
         "teamId":824,
         "teamName":"Eibar",
         "teamRegionName":"Spain",
         "playedPositions":"-MC-",
         "age":24,
         "height":184,
         "weight":74,
         "positionText":"Midfielder",
         "apps":14,
         "subOn":0,
         "minsPlayed":1209,
         "rating":7.2957142857142845,
         "isManOfTheMatch":false,
         "playedPositionsShort":"M(C)",
         "dribbleLost":0.223325062032,
         "dribbleTotal":1.935483870944,
         "name":"Joan Jordán",
         "dribbleWon":1.7121588089120001
      },
      {
         "ranking":52,
         "seasonId":7468,
         "seasonName":"2018/2019",
         "tournamentId":5,
         "tournamentRegionId":108,
         "tournamentRegionCode":"it",
         "tournamentRegionName":"Italy",
         "regionCode":"dz",
         "tournamentName":"Serie A",
         "tournamentShortName":"ISA",
         "firstName":"Ismael",
         "lastName":"Bennacer",
         "playerId":259102,
         "isActive":true,
         "isOpta":true,
         "teamId":272,
         "teamName":"Empoli",
         "teamRegionName":"Italy",
         "playedPositions":"-MC-",
         "age":21,
         "height":175,
         "weight":70,
         "positionText":"Midfielder",
         "apps":14,
         "subOn":0,
         "minsPlayed":1211,
         "rating":6.862857142857143,
         "isManOfTheMatch":false,
         "playedPositionsShort":"M(C)",
         "dribbleLost":0.594549958704,
         "dribbleTotal":2.303881089978,
         "name":"Ismael Bennacer",
         "dribbleWon":1.7093311312739998
      },
      {
         "ranking":53,
         "seasonId":7466,
         "seasonName":"2018/2019",
         "tournamentId":4,
         "tournamentRegionId":206,
         "tournamentRegionCode":"es",
         "tournamentRegionName":"Spain",
         "regionCode":"es",
         "tournamentName":"La Liga",
         "tournamentShortName":"SLL",
         "firstName":"Marco",
         "lastName":"Asensio",
         "playerId":137467,
         "isActive":true,
         "isOpta":true,
         "teamId":52,
         "teamName":"Real Madrid",
         "teamRegionName":"Spain",
         "playedPositions":"-AMC-AML-AMR-",
         "age":22,
         "height":182,
         "weight":76,
         "positionText":"Midfielder",
         "apps":11,
         "subOn":0,
         "minsPlayed":896,
         "rating":7.0254545454545454,
         "isManOfTheMatch":false,
         "playedPositionsShort":"AM(CLR)",
         "dribbleLost":0.803571428568,
         "dribbleTotal":2.5111607142750003,
         "name":"Marco Asensio",
         "dribbleWon":1.707589285707
      },
      {
         "ranking":54,
         "seasonId":7361,
         "seasonName":"2018/2019",
         "tournamentId":2,
         "tournamentRegionId":252,
         "tournamentRegionCode":"gb-eng",
         "tournamentRegionName":"England",
         "regionCode":"gb-eng",
         "tournamentName":"Premier League",
         "tournamentShortName":"EPL",
         "firstName":"Josh",
         "lastName":"Murphy",
         "playerId":136783,
         "isActive":true,
         "isOpta":true,
         "teamId":188,
         "teamName":"Cardiff",
         "teamRegionName":"Wales",
         "playedPositions":"-AML-AMR-FW-",
         "age":23,
         "height":173,
         "weight":67,
         "positionText":"Midfielder",
         "apps":13,
         "subOn":0,
         "minsPlayed":1006,
         "rating":6.5546153846153841,
         "isManOfTheMatch":false,
         "playedPositionsShort":"AM(LR),FW",
         "dribbleLost":2.8628230616,
         "dribbleTotal":4.562624254425,
         "name":"Josh Murphy",
         "dribbleWon":1.6998011928249999
      },
      {
         "ranking":55,
         "seasonId":7361,
         "seasonName":"2018/2019",
         "tournamentId":2,
         "tournamentRegionId":252,
         "tournamentRegionCode":"gb-eng",
         "tournamentRegionName":"England",
         "regionCode":"br",
         "tournamentName":"Premier League",
         "tournamentShortName":"EPL",
         "firstName":"Bernard",
         "lastName":"Anício Caldeira Duarte",
         "playerId":101642,
         "isActive":true,
         "isOpta":true,
         "teamId":31,
         "teamName":"Everton",
         "teamRegionName":"England",
         "playedPositions":"-AML-",
         "age":26,
         "height":166,
         "weight":57,
         "positionText":"Midfielder",
         "apps":11,
         "subOn":0,
         "minsPlayed":800,
         "rating":6.6881818181818176,
         "isManOfTheMatch":false,
         "playedPositionsShort":"AM(L)",
         "dribbleLost":1.575,
         "dribbleTotal":3.2625,
         "name":"Bernard",
         "dribbleWon":1.6875
      },
      {
         "ranking":56,
         "seasonId":7468,
         "seasonName":"2018/2019",
         "tournamentId":5,
         "tournamentRegionId":108,
         "tournamentRegionCode":"it",
         "tournamentRegionName":"Italy",
         "regionCode":"gh",
         "tournamentName":"Serie A",
         "tournamentShortName":"ISA",
         "firstName":"Afriyie",
         "lastName":"Acquah",
         "playerId":91180,
         "isActive":true,
         "isOpta":true,
         "teamId":272,
         "teamName":"Empoli",
         "teamRegionName":"Italy",
         "playedPositions":"-DMC-",
         "age":27,
         "height":179,
         "weight":70,
         "positionText":"Midfielder",
         "apps":12,
         "subOn":0,
         "minsPlayed":925,
         "rating":6.5483333333333329,
         "isManOfTheMatch":false,
         "playedPositionsShort":"DMC",
         "dribbleLost":0.583783783782,
         "dribbleTotal":2.237837837831,
         "name":"Afriyie Acquah",
         "dribbleWon":1.654054054049
      },
      {
         "ranking":57,
         "seasonId":7466,
         "seasonName":"2018/2019",
         "tournamentId":4,
         "tournamentRegionId":206,
         "tournamentRegionCode":"es",
         "tournamentRegionName":"Spain",
         "regionCode":"es",
         "tournamentName":"La Liga",
         "tournamentShortName":"SLL",
         "firstName":"Sergio",
         "lastName":"Canales",
         "playerId":44189,
         "isActive":true,
         "isOpta":true,
         "teamId":54,
         "teamName":"Real Betis",
         "teamRegionName":"Spain",
         "playedPositions":"-AMC-AML-AMR-",
         "age":27,
         "height":176,
         "weight":65,
         "positionText":"Midfielder",
         "apps":15,
         "subOn":0,
         "minsPlayed":1317,
         "rating":6.9920000000000009,
         "isManOfTheMatch":false,
         "playedPositionsShort":"AM(CLR)",
         "dribbleLost":0.8200455580799999,
         "dribbleTotal":2.4601366742399997,
         "name":"Sergio Canales",
         "dribbleWon":1.6400911161599998
      },
      {
         "ranking":58,
         "seasonId":7468,
         "seasonName":"2018/2019",
         "tournamentId":5,
         "tournamentRegionId":108,
         "tournamentRegionCode":"it",
         "tournamentRegionName":"Italy",
         "regionCode":"rs",
         "tournamentName":"Serie A",
         "tournamentShortName":"ISA",
         "firstName":"Sergej",
         "lastName":"Milinkovic-Savic",
         "playerId":288767,
         "isActive":true,
         "isOpta":true,
         "teamId":77,
         "teamName":"Lazio",
         "teamRegionName":"Italy",
         "playedPositions":"-AMC-",
         "age":23,
         "height":191,
         "weight":76,
         "positionText":"Midfielder",
         "apps":18,
         "subOn":0,
         "minsPlayed":1482,
         "rating":7.2144444444444433,
         "isManOfTheMatch":false,
         "playedPositionsShort":"AM(C)",
         "dribbleLost":1.336032388658,
         "dribbleTotal":2.975708502011,
         "name":"Sergej Milinkovic-Savic",
         "dribbleWon":1.639676113353
      },
      {
         "ranking":59,
         "seasonId":7361,
         "seasonName":"2018/2019",
         "tournamentId":2,
         "tournamentRegionId":252,
         "tournamentRegionCode":"gb-eng",
         "tournamentRegionName":"England",
         "regionCode":"pt",
         "tournamentName":"Premier League",
         "tournamentShortName":"EPL",
         "firstName":"Hélder Wander",
         "lastName":"Sousa de Azevedo e Costa",
         "playerId":118127,
         "isActive":true,
         "isOpta":true,
         "teamId":161,
         "teamName":"Wolverhampton Wanderers",
         "teamRegionName":"England",
         "playedPositions":"-AMC-AML-AMR-",
         "age":24,
         "height":178,
         "weight":73,
         "positionText":"Forward",
         "apps":16,
         "subOn":0,
         "minsPlayed":1158,
         "rating":6.3937499999999989,
         "isManOfTheMatch":false,
         "playedPositionsShort":"AM(CLR)",
         "dribbleLost":2.33160621759,
         "dribbleTotal":3.963730569903,
         "name":"Hélder Costa",
         "dribbleWon":1.6321243523129998
      },
      {
         "ranking":60,
         "seasonId":7361,
         "seasonName":"2018/2019",
         "tournamentId":2,
         "tournamentRegionId":252,
         "tournamentRegionCode":"gb-eng",
         "tournamentRegionName":"England",
         "regionCode":"gb-eng",
         "tournamentName":"Premier League",
         "tournamentShortName":"EPL",
         "firstName":"Andros",
         "lastName":"Townsend",
         "playerId":71522,
         "isActive":true,
         "isOpta":true,
         "teamId":162,
         "teamName":"Crystal Palace",
         "teamRegionName":"England",
         "playedPositions":"-AML-AMR-FW-",
         "age":27,
         "height":181,
         "weight":77,
         "positionText":"Midfielder",
         "apps":12,
         "subOn":0,
         "minsPlayed":1049,
         "rating":6.9875,
         "isManOfTheMatch":false,
         "playedPositionsShort":"AM(LR),FW",
         "dribbleLost":1.1153479504180002,
         "dribbleTotal":2.745471877952,
         "name":"Andros Townsend",
         "dribbleWon":1.630123927534
      }
   ],
   "paging":{
      "currentPage":6,
      "totalPages":25,
      "resultsPerPage":10,
      "totalResults":245,
      "firstRecordIndex":51,
      "lastRecordIndex":60
   },
   "statColumns":[
      "apps",
      "subOn",
      "minsPlayed",
      "dribbleLost",
      "dribbleWon",
      "dribbleTotal"
   ]
}