{
   "playerTableStats":[
      {
         "ranking":171,
         "seasonId":7466,
         "seasonName":"2018/2019",
         "tournamentId":4,
         "tournamentRegionId":206,
         "tournamentRegionCode":"es",
         "tournamentRegionName":"Spain",
         "regionCode":"es",
         "tournamentName":"La Liga",
         "tournamentShortName":"SLL",
         "firstName":"Francisco",
         "lastName":"Beltrán",
         "playerId":362421,
         "isActive":true,
         "isOpta":true,
         "teamId":62,
         "teamName":"Celta Vigo",
         "teamRegionName":"Spain",
         "playedPositions":"-MC-",
         "age":19,
         "height":170,
         "weight":66,
         "positionText":"Midfielder",
         "apps":12,
         "subOn":0,
         "minsPlayed":970,
         "rating":6.5758333333333328,
         "isManOfTheMatch":false,
         "playedPositionsShort":"M(C)",
         "dribbleLost":0.27835051546199996,
         "dribbleTotal":1.020618556694,
         "name":"Fran Beltrán",
         "dribbleWon":0.742268041232
      },
      {
         "ranking":172,
         "seasonId":7466,
         "seasonName":"2018/2019",
         "tournamentId":4,
         "tournamentRegionId":206,
         "tournamentRegionCode":"es",
         "tournamentRegionName":"Spain",
         "regionCode":"es",
         "tournamentName":"La Liga",
         "tournamentShortName":"SLL",
         "firstName":"Aleix",
         "lastName":"García",
         "playerId":280663,
         "isActive":true,
         "isOpta":true,
         "teamId":2783,
         "teamName":"Girona",
         "teamRegionName":"Spain",
         "playedPositions":"-MC-",
         "age":21,
         "height":173,
         "weight":68,
         "positionText":"Midfielder",
         "apps":10,
         "subOn":0,
         "minsPlayed":733,
         "rating":6.9399999999999995,
         "isManOfTheMatch":false,
         "playedPositionsShort":"M(C)",
         "dribbleLost":0.613915416095,
         "dribbleTotal":1.350613915409,
         "name":"Aleix García",
         "dribbleWon":0.736698499314
      },
      {
         "ranking":173,
         "seasonId":7405,
         "seasonName":"2018/2019",
         "tournamentId":3,
         "tournamentRegionId":81,
         "tournamentRegionCode":"de",
         "tournamentRegionName":"Germany",
         "regionCode":"sk",
         "tournamentName":"Bundesliga",
         "tournamentShortName":"GB",
         "firstName":"Ondrej",
         "lastName":"Duda",
         "playerId":115257,
         "isActive":true,
         "isOpta":true,
         "teamId":47,
         "teamName":"Hertha Berlin",
         "teamRegionName":"Germany",
         "playedPositions":"-AMC-FW-",
         "age":24,
         "height":181,
         "weight":75,
         "positionText":"Midfielder",
         "apps":14,
         "subOn":0,
         "minsPlayed":1141,
         "rating":6.9321428571428561,
         "isManOfTheMatch":false,
         "playedPositionsShort":"AM(C),FW",
         "dribbleLost":0.552147239259,
         "dribbleTotal":1.262050832592,
         "name":"Ondrej Duda",
         "dribbleWon":0.7099035933329999
      },
      {
         "ranking":174,
         "seasonId":7361,
         "seasonName":"2018/2019",
         "tournamentId":2,
         "tournamentRegionId":252,
         "tournamentRegionCode":"gb-eng",
         "tournamentRegionName":"England",
         "regionCode":"dk",
         "tournamentName":"Premier League",
         "tournamentShortName":"EPL",
         "firstName":"Pierre-Emile",
         "lastName":"Højbjerg",
         "playerId":101859,
         "isActive":true,
         "isOpta":true,
         "teamId":18,
         "teamName":"Southampton",
         "teamRegionName":"England",
         "playedPositions":"-MC-",
         "age":23,
         "height":185,
         "weight":84,
         "positionText":"Midfielder",
         "apps":16,
         "subOn":0,
         "minsPlayed":1420,
         "rating":6.8362500000000015,
         "isManOfTheMatch":false,
         "playedPositionsShort":"M(C)",
         "dribbleLost":0.44366197183,
         "dribbleTotal":1.14084507042,
         "name":"Pierre-Emile Højbjerg",
         "dribbleWon":0.69718309858999994
      },
      {
         "ranking":175,
         "seasonId":7344,
         "seasonName":"2018/2019",
         "tournamentId":22,
         "tournamentRegionId":74,
         "tournamentRegionCode":"fr",
         "tournamentRegionName":"France",
         "regionCode":"fr",
         "tournamentName":"Ligue 1",
         "tournamentShortName":"FL1",
         "firstName":"Eddy",
         "lastName":"Gnahore",
         "playerId":110127,
         "isActive":true,
         "isOpta":true,
         "teamId":151,
         "teamName":"Amiens",
         "teamRegionName":"France",
         "playedPositions":"-DMC-",
         "age":25,
         "height":187,
         "weight":85,
         "positionText":"Midfielder",
         "apps":15,
         "subOn":0,
         "minsPlayed":1291,
         "rating":6.6819999999999995,
         "isManOfTheMatch":false,
         "playedPositionsShort":"DMC",
         "dribbleLost":0.418280402784,
         "dribbleTotal":1.115414407424,
         "name":"Eddy Gnahore",
         "dribbleWon":0.69713400464
      },
      {
         "ranking":176,
         "seasonId":7468,
         "seasonName":"2018/2019",
         "tournamentId":5,
         "tournamentRegionId":108,
         "tournamentRegionCode":"it",
         "tournamentRegionName":"Italy",
         "regionCode":"gh",
         "tournamentName":"Serie A",
         "tournamentShortName":"ISA",
         "firstName":"Alfred",
         "lastName":"Duncan",
         "playerId":113762,
         "isActive":true,
         "isOpta":true,
         "teamId":2889,
         "teamName":"Sassuolo",
         "teamRegionName":"Italy",
         "playedPositions":"-MC-",
         "age":25,
         "height":178,
         "weight":78,
         "positionText":"Midfielder",
         "apps":12,
         "subOn":0,
         "minsPlayed":1041,
         "rating":6.9316666666666658,
         "isManOfTheMatch":false,
         "playedPositionsShort":"M(C)",
         "dribbleLost":0.778097982708,
         "dribbleTotal":1.469740634004,
         "name":"Alfred Duncan",
         "dribbleWon":0.691642651296
      },
      {
         "ranking":177,
         "seasonId":7361,
         "seasonName":"2018/2019",
         "tournamentId":2,
         "tournamentRegionId":252,
         "tournamentRegionCode":"gb-eng",
         "tournamentRegionName":"England",
         "regionCode":"gb-eng",
         "tournamentName":"Premier League",
         "tournamentShortName":"EPL",
         "firstName":"Declan",
         "lastName":"Rice",
         "playerId":332325,
         "isActive":true,
         "isOpta":true,
         "teamId":29,
         "teamName":"West Ham",
         "teamRegionName":"England",
         "playedPositions":"-DC-DMC-",
         "age":19,
         "height":185,
         "weight":76,
         "positionText":"Midfielder",
         "apps":18,
         "subOn":0,
         "minsPlayed":1576,
         "rating":6.8999999999999986,
         "isManOfTheMatch":false,
         "playedPositionsShort":"D(C),DMC",
         "dribbleLost":0.171319796952,
         "dribbleTotal":0.85659898476,
         "name":"Declan Rice",
         "dribbleWon":0.685279187808
      },
      {
         "ranking":178,
         "seasonId":7344,
         "seasonName":"2018/2019",
         "tournamentId":22,
         "tournamentRegionId":74,
         "tournamentRegionCode":"fr",
         "tournamentRegionName":"France",
         "regionCode":"fr",
         "tournamentName":"Ligue 1",
         "tournamentShortName":"FL1",
         "firstName":"Wylan",
         "lastName":"Cyprien",
         "playerId":123873,
         "isActive":true,
         "isOpta":true,
         "teamId":613,
         "teamName":"Nice",
         "teamRegionName":"France",
         "playedPositions":"-AMC-",
         "age":23,
         "height":180,
         "weight":75,
         "positionText":"Midfielder",
         "apps":15,
         "subOn":0,
         "minsPlayed":1321,
         "rating":6.9386666666666654,
         "isManOfTheMatch":false,
         "playedPositionsShort":"AM(C)",
         "dribbleLost":0.40878122634,
         "dribbleTotal":1.09008327024,
         "name":"Wylan Cyprien",
         "dribbleWon":0.6813020439
      },
      {
         "ranking":179,
         "seasonId":7361,
         "seasonName":"2018/2019",
         "tournamentId":2,
         "tournamentRegionId":252,
         "tournamentRegionCode":"gb-eng",
         "tournamentRegionName":"England",
         "regionCode":"es",
         "tournamentName":"Premier League",
         "tournamentShortName":"EPL",
         "firstName":"Oriol",
         "lastName":"Romeu Vidal",
         "playerId":90780,
         "isActive":true,
         "isOpta":true,
         "teamId":18,
         "teamName":"Southampton",
         "teamRegionName":"England",
         "playedPositions":"-DMC-",
         "age":27,
         "height":183,
         "weight":83,
         "positionText":"Midfielder",
         "apps":10,
         "subOn":0,
         "minsPlayed":794,
         "rating":6.88,
         "isManOfTheMatch":false,
         "playedPositionsShort":"DMC",
         "dribbleLost":0.226700251888,
         "dribbleTotal":0.906801007552,
         "name":"Oriol Romeu",
         "dribbleWon":0.680100755664
      },
      {
         "ranking":180,
         "seasonId":7344,
         "seasonName":"2018/2019",
         "tournamentId":22,
         "tournamentRegionId":74,
         "tournamentRegionCode":"fr",
         "tournamentRegionName":"France",
         "regionCode":"fr",
         "tournamentName":"Ligue 1",
         "tournamentShortName":"FL1",
         "firstName":"Baptiste",
         "lastName":"Santamaría",
         "playerId":236558,
         "isActive":true,
         "isOpta":true,
         "teamId":614,
         "teamName":"Angers",
         "teamRegionName":"France",
         "playedPositions":"-DMC-",
         "age":23,
         "height":183,
         "weight":73,
         "positionText":"Midfielder",
         "apps":17,
         "subOn":0,
         "minsPlayed":1463,
         "rating":6.6400000000000006,
         "isManOfTheMatch":false,
         "playedPositionsShort":"DMC",
         "dribbleLost":0.18455228981400001,
         "dribbleTotal":0.8612440191320001,
         "name":"Baptiste Santamaría",
         "dribbleWon":0.676691729318
      }
   ],
   "paging":{
      "currentPage":18,
      "totalPages":25,
      "resultsPerPage":10,
      "totalResults":245,
      "firstRecordIndex":171,
      "lastRecordIndex":180
   },
   "statColumns":[
      "apps",
      "subOn",
      "minsPlayed",
      "dribbleLost",
      "dribbleWon",
      "dribbleTotal"
   ]
}