{
   "playerTableStats":[
      {
         "ranking":71,
         "seasonId":7466,
         "seasonName":"2018/2019",
         "tournamentId":4,
         "tournamentRegionId":206,
         "tournamentRegionCode":"es",
         "tournamentRegionName":"Spain",
         "regionCode":"pt",
         "tournamentName":"La Liga",
         "tournamentShortName":"SLL",
         "firstName":"William",
         "lastName":"Silva de Carvalho",
         "playerId":99911,
         "isActive":true,
         "isOpta":true,
         "teamId":54,
         "teamName":"Real Betis",
         "teamRegionName":"Spain",
         "playedPositions":"-DMC-",
         "age":26,
         "height":187,
         "weight":79,
         "positionText":"Midfielder",
         "apps":13,
         "subOn":0,
         "minsPlayed":1117,
         "rating":6.8984615384615378,
         "isManOfTheMatch":false,
         "playedPositionsShort":"DMC",
         "dribbleLost":0.40286481647,
         "dribbleTotal":1.933751119056,
         "name":"William Carvalho",
         "dribbleWon":1.530886302586
      },
      {
         "ranking":72,
         "seasonId":7344,
         "seasonName":"2018/2019",
         "tournamentId":22,
         "tournamentRegionId":74,
         "tournamentRegionCode":"fr",
         "tournamentRegionName":"France",
         "regionCode":"gn",
         "tournamentName":"Ligue 1",
         "tournamentShortName":"FL1",
         "firstName":"François",
         "lastName":"Kamano",
         "playerId":231150,
         "isActive":true,
         "isOpta":true,
         "teamId":315,
         "teamName":"Bordeaux",
         "teamRegionName":"France",
         "playedPositions":"-AML-AMR-FW-",
         "age":22,
         "height":175,
         "weight":77,
         "positionText":"Forward",
         "apps":16,
         "subOn":0,
         "minsPlayed":1362,
         "rating":7.006875,
         "isManOfTheMatch":false,
         "playedPositionsShort":"AM(LR),FW",
         "dribbleLost":1.7841409691580001,
         "dribbleTotal":3.3039647577,
         "name":"François Kamano",
         "dribbleWon":1.519823788542
      },
      {
         "ranking":73,
         "seasonId":7344,
         "seasonName":"2018/2019",
         "tournamentId":22,
         "tournamentRegionId":74,
         "tournamentRegionCode":"fr",
         "tournamentRegionName":"France",
         "regionCode":"ml",
         "tournamentName":"Ligue 1",
         "tournamentShortName":"FL1",
         "firstName":"Moussa",
         "lastName":"Doumbia",
         "playerId":234346,
         "isActive":true,
         "isOpta":true,
         "teamId":950,
         "teamName":"Reims",
         "teamRegionName":"France",
         "playedPositions":"-AMC-AML-FW-",
         "age":24,
         "height":173,
         "weight":68,
         "positionText":"Midfielder",
         "apps":14,
         "subOn":0,
         "minsPlayed":1127,
         "rating":6.8171428571428576,
         "isManOfTheMatch":false,
         "playedPositionsShort":"AM(CL),FW",
         "dribbleLost":1.756876663696,
         "dribbleTotal":3.274179236888,
         "name":"Moussa Doumbia",
         "dribbleWon":1.517302573192
      },
      {
         "ranking":74,
         "seasonId":7405,
         "seasonName":"2018/2019",
         "tournamentId":3,
         "tournamentRegionId":81,
         "tournamentRegionCode":"de",
         "tournamentRegionName":"Germany",
         "regionCode":"rs",
         "tournamentName":"Bundesliga",
         "tournamentShortName":"GB",
         "firstName":"Mijat",
         "lastName":"Gacinovic",
         "playerId":300318,
         "isActive":true,
         "isOpta":true,
         "teamId":45,
         "teamName":"Eintracht Frankfurt",
         "teamRegionName":"Germany",
         "playedPositions":"-MC-ML-MR-",
         "age":23,
         "height":175,
         "weight":66,
         "positionText":"Midfielder",
         "apps":10,
         "subOn":0,
         "minsPlayed":772,
         "rating":6.6480000000000006,
         "isManOfTheMatch":false,
         "playedPositionsShort":"M(CLR)",
         "dribbleLost":1.1658031088,
         "dribbleTotal":2.6813471502399997,
         "name":"Mijat Gacinovic",
         "dribbleWon":1.5155440414399999
      },
      {
         "ranking":75,
         "seasonId":7468,
         "seasonName":"2018/2019",
         "tournamentId":5,
         "tournamentRegionId":108,
         "tournamentRegionCode":"it",
         "tournamentRegionName":"Italy",
         "regionCode":"it",
         "tournamentName":"Serie A",
         "tournamentShortName":"ISA",
         "firstName":"Matteo",
         "lastName":"Politano",
         "playerId":122683,
         "isActive":true,
         "isOpta":true,
         "teamId":75,
         "teamName":"Inter",
         "teamRegionName":"Italy",
         "playedPositions":"-AML-AMR-FW-",
         "age":25,
         "height":171,
         "weight":67,
         "positionText":"Forward",
         "apps":15,
         "subOn":0,
         "minsPlayed":1195,
         "rating":7.0866666666666651,
         "isManOfTheMatch":false,
         "playedPositionsShort":"AM(LR),FW",
         "dribbleLost":1.129707112965,
         "dribbleTotal":2.6359832635850005,
         "name":"Matteo Politano",
         "dribbleWon":1.5062761506200002
      },
      {
         "ranking":76,
         "seasonId":7405,
         "seasonName":"2018/2019",
         "tournamentId":3,
         "tournamentRegionId":81,
         "tournamentRegionCode":"de",
         "tournamentRegionName":"Germany",
         "regionCode":"de",
         "tournamentName":"Bundesliga",
         "tournamentShortName":"GB",
         "firstName":"Kai",
         "lastName":"Havertz",
         "playerId":326413,
         "isActive":true,
         "isOpta":true,
         "teamId":36,
         "teamName":"Bayer Leverkusen",
         "teamRegionName":"Germany",
         "playedPositions":"-MC-MR-",
         "age":19,
         "height":188,
         "weight":83,
         "positionText":"Midfielder",
         "apps":17,
         "subOn":0,
         "minsPlayed":1496,
         "rating":7.0905882352941179,
         "isManOfTheMatch":false,
         "playedPositionsShort":"M(CR)",
         "dribbleLost":1.082887700526,
         "dribbleTotal":2.5868983957009997,
         "name":"Kai Havertz",
         "dribbleWon":1.5040106951749999
      },
      {
         "ranking":77,
         "seasonId":7361,
         "seasonName":"2018/2019",
         "tournamentId":2,
         "tournamentRegionId":252,
         "tournamentRegionCode":"gb-eng",
         "tournamentRegionName":"England",
         "regionCode":"gb-eng",
         "tournamentName":"Premier League",
         "tournamentShortName":"EPL",
         "firstName":"Kouassi Ryan",
         "lastName":"Sessegnon",
         "playerId":322611,
         "isActive":true,
         "isOpta":true,
         "teamId":170,
         "teamName":"Fulham",
         "teamRegionName":"England",
         "playedPositions":"-DL-ML-",
         "age":18,
         "height":178,
         "weight":70,
         "positionText":"Midfielder",
         "apps":10,
         "subOn":0,
         "minsPlayed":900,
         "rating":6.7649999999999988,
         "isManOfTheMatch":false,
         "playedPositionsShort":"D(L),M(L)",
         "dribbleLost":1.0,
         "dribbleTotal":2.5,
         "name":"Ryan Sessegnon",
         "dribbleWon":1.5
      },
      {
         "ranking":78,
         "seasonId":7361,
         "seasonName":"2018/2019",
         "tournamentId":2,
         "tournamentRegionId":252,
         "tournamentRegionCode":"gb-eng",
         "tournamentRegionName":"England",
         "regionCode":"dz",
         "tournamentName":"Premier League",
         "tournamentShortName":"EPL",
         "firstName":"Riyad",
         "lastName":"Mahrez",
         "playerId":104749,
         "isActive":true,
         "isOpta":true,
         "teamId":167,
         "teamName":"Manchester City",
         "teamRegionName":"England",
         "playedPositions":"-AMC-AML-AMR-",
         "age":27,
         "height":179,
         "weight":67,
         "positionText":"Midfielder",
         "apps":10,
         "subOn":0,
         "minsPlayed":801,
         "rating":7.2769999999999992,
         "isManOfTheMatch":false,
         "playedPositionsShort":"AM(CLR)",
         "dribbleLost":0.674157303366,
         "dribbleTotal":2.134831460659,
         "name":"Riyad Mahrez",
         "dribbleWon":1.460674157293
      },
      {
         "ranking":79,
         "seasonId":7361,
         "seasonName":"2018/2019",
         "tournamentId":2,
         "tournamentRegionId":252,
         "tournamentRegionCode":"gb-eng",
         "tournamentRegionName":"England",
         "regionCode":"gb-eng",
         "tournamentName":"Premier League",
         "tournamentShortName":"EPL",
         "firstName":"Bamidele",
         "lastName":"Alli",
         "playerId":131519,
         "isActive":true,
         "isOpta":true,
         "teamId":30,
         "teamName":"Tottenham",
         "teamRegionName":"England",
         "playedPositions":"-MC-ML-",
         "age":22,
         "height":188,
         "weight":76,
         "positionText":"Midfielder",
         "apps":12,
         "subOn":0,
         "minsPlayed":986,
         "rating":7.3266666666666653,
         "isManOfTheMatch":false,
         "playedPositionsShort":"M(CL)",
         "dribbleLost":1.36916835699,
         "dribbleTotal":2.829614604446,
         "name":"Dele Alli",
         "dribbleWon":1.460446247456
      },
      {
         "ranking":80,
         "seasonId":7361,
         "seasonName":"2018/2019",
         "tournamentId":2,
         "tournamentRegionId":252,
         "tournamentRegionCode":"gb-eng",
         "tournamentRegionName":"England",
         "regionCode":"gb-sct",
         "tournamentName":"Premier League",
         "tournamentShortName":"EPL",
         "firstName":"Stuart",
         "lastName":"Armstrong",
         "playerId":93677,
         "isActive":true,
         "isOpta":true,
         "teamId":18,
         "teamName":"Southampton",
         "teamRegionName":"England",
         "playedPositions":"-AMC-AML-",
         "age":26,
         "height":183,
         "weight":75,
         "positionText":"Midfielder",
         "apps":10,
         "subOn":0,
         "minsPlayed":810,
         "rating":6.937,
         "isManOfTheMatch":false,
         "playedPositionsShort":"AM(CL)",
         "dribbleLost":0.66666666666599994,
         "dribbleTotal":2.111111111109,
         "name":"Stuart Armstrong",
         "dribbleWon":1.444444444443
      }
   ],
   "paging":{
      "currentPage":8,
      "totalPages":25,
      "resultsPerPage":10,
      "totalResults":245,
      "firstRecordIndex":71,
      "lastRecordIndex":80
   },
   "statColumns":[
      "apps",
      "subOn",
      "minsPlayed",
      "dribbleLost",
      "dribbleWon",
      "dribbleTotal"
   ]
}