{
   "playerTableStats":[
      {
         "ranking":81,
         "seasonId":7344,
         "seasonName":"2018/2019",
         "tournamentId":22,
         "tournamentRegionId":74,
         "tournamentRegionCode":"fr",
         "tournamentRegionName":"France",
         "regionCode":"es",
         "tournamentName":"Ligue 1",
         "tournamentShortName":"FL1",
         "firstName":"Manuel",
         "lastName":"Garcia Alonso",
         "playerId":295950,
         "isActive":true,
         "isOpta":true,
         "teamId":246,
         "teamName":"Toulouse",
         "teamRegionName":"France",
         "playedPositions":"-MC-ML-",
         "age":21,
         "height":170,
         "weight":65,
         "positionText":"Midfielder",
         "apps":15,
         "subOn":0,
         "minsPlayed":1201,
         "rating":6.4800000000000013,
         "isManOfTheMatch":false,
         "playedPositionsShort":"M(CL)",
         "dribbleLost":1.348875936702,
         "dribbleTotal":2.772689425443,
         "name":"Manu García",
         "dribbleWon":1.423813488741
      },
      {
         "ranking":82,
         "seasonId":7468,
         "seasonName":"2018/2019",
         "tournamentId":5,
         "tournamentRegionId":108,
         "tournamentRegionCode":"it",
         "tournamentRegionName":"Italy",
         "regionCode":"fr",
         "tournamentName":"Serie A",
         "tournamentShortName":"ISA",
         "firstName":"Soualiho",
         "lastName":"Meité",
         "playerId":105161,
         "isActive":true,
         "isOpta":true,
         "teamId":72,
         "teamName":"Torino",
         "teamRegionName":"Italy",
         "playedPositions":"-AMC-",
         "age":24,
         "height":187,
         "weight":80,
         "positionText":"Midfielder",
         "apps":17,
         "subOn":0,
         "minsPlayed":1482,
         "rating":6.9382352941176473,
         "isManOfTheMatch":false,
         "playedPositionsShort":"AM(C)",
         "dribbleLost":0.60728744939,
         "dribbleTotal":2.004048582987,
         "name":"Soualiho Meité",
         "dribbleWon":1.3967611335969998
      },
      {
         "ranking":83,
         "seasonId":7361,
         "seasonName":"2018/2019",
         "tournamentId":2,
         "tournamentRegionId":252,
         "tournamentRegionCode":"gb-eng",
         "tournamentRegionName":"England",
         "regionCode":"gb-eng",
         "tournamentName":"Premier League",
         "tournamentShortName":"EPL",
         "firstName":"James",
         "lastName":"Maddison",
         "playerId":137015,
         "isActive":true,
         "isOpta":true,
         "teamId":14,
         "teamName":"Leicester",
         "teamRegionName":"England",
         "playedPositions":"-AMC-AML-AMR-",
         "age":22,
         "height":175,
         "weight":73,
         "positionText":"Midfielder",
         "apps":19,
         "subOn":0,
         "minsPlayed":1487,
         "rating":7.1484210526315772,
         "isManOfTheMatch":false,
         "playedPositionsShort":"AM(CLR)",
         "dribbleLost":0.72629455278,
         "dribbleTotal":2.118359112275,
         "name":"James Maddison",
         "dribbleWon":1.3920645594949999
      },
      {
         "ranking":84,
         "seasonId":7466,
         "seasonName":"2018/2019",
         "tournamentId":4,
         "tournamentRegionId":206,
         "tournamentRegionCode":"es",
         "tournamentRegionName":"Spain",
         "regionCode":"es",
         "tournamentName":"La Liga",
         "tournamentShortName":"SLL",
         "firstName":"Óscar",
         "lastName":"Rodríguez",
         "playerId":353783,
         "isActive":true,
         "isOpta":true,
         "teamId":825,
         "teamName":"Leganes",
         "teamRegionName":"Spain",
         "playedPositions":"-AMC-",
         "age":20,
         "height":174,
         "weight":67,
         "positionText":"Midfielder",
         "apps":13,
         "subOn":0,
         "minsPlayed":1102,
         "rating":6.9669230769230763,
         "isManOfTheMatch":false,
         "playedPositionsShort":"AM(C)",
         "dribbleLost":1.30671506352,
         "dribbleTotal":2.69509981851,
         "name":"Óscar Rodríguez",
         "dribbleWon":1.38838475499
      },
      {
         "ranking":85,
         "seasonId":7466,
         "seasonName":"2018/2019",
         "tournamentId":4,
         "tournamentRegionId":206,
         "tournamentRegionCode":"es",
         "tournamentRegionName":"Spain",
         "regionCode":"es",
         "tournamentName":"La Liga",
         "tournamentShortName":"SLL",
         "firstName":"Moisés",
         "lastName":"Gómez Bardonado",
         "playerId":101238,
         "isActive":true,
         "isOpta":true,
         "teamId":5006,
         "teamName":"SD Huesca",
         "teamRegionName":"Spain",
         "playedPositions":"-MC-ML-MR-",
         "age":24,
         "height":176,
         "weight":71,
         "positionText":"Midfielder",
         "apps":16,
         "subOn":0,
         "minsPlayed":1364,
         "rating":6.691875,
         "isManOfTheMatch":false,
         "playedPositionsShort":"M(CLR)",
         "dribbleLost":0.85777126099599987,
         "dribbleTotal":2.2434017595279996,
         "name":"Moi Gómez",
         "dribbleWon":1.3856304985319998
      },
      {
         "ranking":86,
         "seasonId":7468,
         "seasonName":"2018/2019",
         "tournamentId":5,
         "tournamentRegionId":108,
         "tournamentRegionCode":"it",
         "tournamentRegionName":"Italy",
         "regionCode":"fr",
         "tournamentName":"Serie A",
         "tournamentShortName":"ISA",
         "firstName":"Mehdi",
         "lastName":"Bourabia",
         "playerId":82109,
         "isActive":true,
         "isOpta":true,
         "teamId":2889,
         "teamName":"Sassuolo",
         "teamRegionName":"Italy",
         "playedPositions":"-MC-",
         "age":27,
         "height":183,
         "weight":73,
         "positionText":"Midfielder",
         "apps":11,
         "subOn":0,
         "minsPlayed":922,
         "rating":7.00090909090909,
         "isManOfTheMatch":false,
         "playedPositionsShort":"M(C)",
         "dribbleLost":0.780911062904,
         "dribbleTotal":2.1475054229860002,
         "name":"Mehdi Bourabia",
         "dribbleWon":1.366594360082
      },
      {
         "ranking":87,
         "seasonId":7361,
         "seasonName":"2018/2019",
         "tournamentId":2,
         "tournamentRegionId":252,
         "tournamentRegionCode":"gb-eng",
         "tournamentRegionName":"England",
         "regionCode":"hr",
         "tournamentName":"Premier League",
         "tournamentShortName":"EPL",
         "firstName":"Mateo",
         "lastName":"Kovacic",
         "playerId":93894,
         "isActive":true,
         "isOpta":true,
         "teamId":15,
         "teamName":"Chelsea",
         "teamRegionName":"England",
         "playedPositions":"-MC-ML-",
         "age":24,
         "height":178,
         "weight":78,
         "positionText":"Midfielder",
         "apps":13,
         "subOn":0,
         "minsPlayed":925,
         "rating":6.8230769230769246,
         "isManOfTheMatch":false,
         "playedPositionsShort":"M(CL)",
         "dribbleLost":0.875675675673,
         "dribbleTotal":2.237837837831,
         "name":"Mateo Kovacic",
         "dribbleWon":1.362162162158
      },
      {
         "ranking":88,
         "seasonId":7344,
         "seasonName":"2018/2019",
         "tournamentId":22,
         "tournamentRegionId":74,
         "tournamentRegionCode":"fr",
         "tournamentRegionName":"France",
         "regionCode":"de",
         "tournamentName":"Ligue 1",
         "tournamentShortName":"FL1",
         "firstName":"Julian",
         "lastName":"Draxler",
         "playerId":96449,
         "isActive":true,
         "isOpta":true,
         "teamId":304,
         "teamName":"Paris Saint-Germain",
         "teamRegionName":"France",
         "playedPositions":"-AMC-AML-AMR-",
         "age":25,
         "height":187,
         "weight":72,
         "positionText":"Midfielder",
         "apps":11,
         "subOn":0,
         "minsPlayed":928,
         "rating":7.3854545454545448,
         "isManOfTheMatch":false,
         "playedPositionsShort":"AM(CLR)",
         "dribbleLost":0.58189655172,
         "dribbleTotal":1.9396551723999997,
         "name":"Julian Draxler",
         "dribbleWon":1.3577586206799999
      },
      {
         "ranking":89,
         "seasonId":7361,
         "seasonName":"2018/2019",
         "tournamentId":2,
         "tournamentRegionId":252,
         "tournamentRegionCode":"gb-eng",
         "tournamentRegionName":"England",
         "regionCode":"es",
         "tournamentName":"Premier League",
         "tournamentShortName":"EPL",
         "firstName":"Ayoze",
         "lastName":"Pérez Gutiérrez",
         "playerId":135366,
         "isActive":true,
         "isOpta":true,
         "teamId":23,
         "teamName":"Newcastle United",
         "teamRegionName":"England",
         "playedPositions":"-AMC-AML-AMR-FW-",
         "age":25,
         "height":178,
         "weight":72,
         "positionText":"Forward",
         "apps":17,
         "subOn":0,
         "minsPlayed":1410,
         "rating":6.7541176470588233,
         "isManOfTheMatch":false,
         "playedPositionsShort":"AM(CLR),FW",
         "dribbleLost":1.0851063829779999,
         "dribbleTotal":2.425531914892,
         "name":"Ayoze Pérez",
         "dribbleWon":1.340425531914
      },
      {
         "ranking":90,
         "seasonId":7405,
         "seasonName":"2018/2019",
         "tournamentId":3,
         "tournamentRegionId":81,
         "tournamentRegionCode":"de",
         "tournamentRegionName":"Germany",
         "regionCode":"dk",
         "tournamentName":"Bundesliga",
         "tournamentShortName":"GB",
         "firstName":"Jacob",
         "lastName":"Bruun Larsen",
         "playerId":307202,
         "isActive":true,
         "isOpta":true,
         "teamId":44,
         "teamName":"Borussia Dortmund",
         "teamRegionName":"Germany",
         "playedPositions":"-AML-",
         "age":20,
         "height":183,
         "weight":75,
         "positionText":"Forward",
         "apps":11,
         "subOn":0,
         "minsPlayed":819,
         "rating":6.9572727272727262,
         "isManOfTheMatch":false,
         "playedPositionsShort":"AM(L)",
         "dribbleLost":1.31868131868,
         "dribbleTotal":2.63736263736,
         "name":"Jacob Bruun Larsen",
         "dribbleWon":1.31868131868
      }
   ],
   "paging":{
      "currentPage":9,
      "totalPages":25,
      "resultsPerPage":10,
      "totalResults":245,
      "firstRecordIndex":81,
      "lastRecordIndex":90
   },
   "statColumns":[
      "apps",
      "subOn",
      "minsPlayed",
      "dribbleLost",
      "dribbleWon",
      "dribbleTotal"
   ]
}