{
   "playerTableStats":[
      {
         "ranking":151,
         "seasonId":7361,
         "seasonName":"2018/2019",
         "tournamentId":2,
         "tournamentRegionId":252,
         "tournamentRegionCode":"gb-eng",
         "tournamentRegionName":"England",
         "regionCode":"de",
         "tournamentName":"Premier League",
         "tournamentShortName":"EPL",
         "firstName":"Max",
         "lastName":"Meyer",
         "playerId":124598,
         "isActive":true,
         "isOpta":true,
         "teamId":162,
         "teamName":"Crystal Palace",
         "teamRegionName":"England",
         "playedPositions":"-FW-MC-ML-",
         "age":23,
         "height":173,
         "weight":67,
         "positionText":"Midfielder",
         "apps":10,
         "subOn":0,
         "minsPlayed":819,
         "rating":6.625,
         "isManOfTheMatch":false,
         "playedPositionsShort":"M(CL),FW",
         "dribbleLost":0.43956043956,
         "dribbleTotal":1.31868131868,
         "name":"Max Meyer",
         "dribbleWon":0.87912087912
      },
      {
         "ranking":152,
         "seasonId":7361,
         "seasonName":"2018/2019",
         "tournamentId":2,
         "tournamentRegionId":252,
         "tournamentRegionCode":"gb-eng",
         "tournamentRegionName":"England",
         "regionCode":"dk",
         "tournamentName":"Premier League",
         "tournamentShortName":"EPL",
         "firstName":"Philip",
         "lastName":"Billing",
         "playerId":145277,
         "isActive":true,
         "isOpta":true,
         "teamId":166,
         "teamName":"Huddersfield",
         "teamRegionName":"England",
         "playedPositions":"-DMC-",
         "age":22,
         "height":193,
         "weight":83,
         "positionText":"Midfielder",
         "apps":20,
         "subOn":0,
         "minsPlayed":1753,
         "rating":7.1724999999999994,
         "isManOfTheMatch":false,
         "playedPositionsShort":"DMC",
         "dribbleLost":0.61608670849200009,
         "dribbleTotal":1.488876212189,
         "name":"Philip Billing",
         "dribbleWon":0.872789503697
      },
      {
         "ranking":153,
         "seasonId":7344,
         "seasonName":"2018/2019",
         "tournamentId":22,
         "tournamentRegionId":74,
         "tournamentRegionCode":"fr",
         "tournamentRegionName":"France",
         "regionCode":"fr",
         "tournamentName":"Ligue 1",
         "tournamentShortName":"FL1",
         "firstName":"Adrien",
         "lastName":"Tameze",
         "playerId":124721,
         "isActive":true,
         "isOpta":true,
         "teamId":613,
         "teamName":"Nice",
         "teamRegionName":"France",
         "playedPositions":"-MC-",
         "age":24,
         "height":180,
         "weight":78,
         "positionText":"Midfielder",
         "apps":17,
         "subOn":0,
         "minsPlayed":1450,
         "rating":6.7870588235294118,
         "isManOfTheMatch":false,
         "playedPositionsShort":"M(C)",
         "dribbleLost":0.806896551721,
         "dribbleTotal":1.675862068959,
         "name":"Adrien Tameze",
         "dribbleWon":0.868965517238
      },
      {
         "ranking":154,
         "seasonId":7344,
         "seasonName":"2018/2019",
         "tournamentId":22,
         "tournamentRegionId":74,
         "tournamentRegionCode":"fr",
         "tournamentRegionName":"France",
         "regionCode":"be",
         "tournamentName":"Ligue 1",
         "tournamentShortName":"FL1",
         "firstName":"Youri",
         "lastName":"Tielemans",
         "playerId":136345,
         "isActive":true,
         "isOpta":true,
         "teamId":248,
         "teamName":"Monaco",
         "teamRegionName":"France",
         "playedPositions":"-MC-",
         "age":21,
         "height":176,
         "weight":72,
         "positionText":"Midfielder",
         "apps":16,
         "subOn":0,
         "minsPlayed":1347,
         "rating":6.9312499999999986,
         "isManOfTheMatch":false,
         "playedPositionsShort":"M(C)",
         "dribbleLost":0.86859688195800011,
         "dribbleTotal":1.7371937639160002,
         "name":"Youri Tielemans",
         "dribbleWon":0.86859688195800011
      },
      {
         "ranking":155,
         "seasonId":7405,
         "seasonName":"2018/2019",
         "tournamentId":3,
         "tournamentRegionId":81,
         "tournamentRegionCode":"de",
         "tournamentRegionName":"Germany",
         "regionCode":"de",
         "tournamentName":"Bundesliga",
         "tournamentShortName":"GB",
         "firstName":"Julian",
         "lastName":"Brandt",
         "playerId":141556,
         "isActive":true,
         "isOpta":true,
         "teamId":36,
         "teamName":"Bayer Leverkusen",
         "teamRegionName":"Germany",
         "playedPositions":"-AMC-AML-AMR-FW-",
         "age":22,
         "height":186,
         "weight":84,
         "positionText":"Forward",
         "apps":13,
         "subOn":0,
         "minsPlayed":1058,
         "rating":7.0084615384615372,
         "isManOfTheMatch":false,
         "playedPositionsShort":"AM(CLR),FW",
         "dribbleLost":1.61625708883,
         "dribbleTotal":2.4669187145300002,
         "name":"Julian Brandt",
         "dribbleWon":0.8506616257
      },
      {
         "ranking":156,
         "seasonId":7466,
         "seasonName":"2018/2019",
         "tournamentId":4,
         "tournamentRegionId":206,
         "tournamentRegionCode":"es",
         "tournamentRegionName":"Spain",
         "regionCode":"es",
         "tournamentName":"La Liga",
         "tournamentShortName":"SLL",
         "firstName":"Pablo",
         "lastName":"Sarabia",
         "playerId":94868,
         "isActive":true,
         "isOpta":true,
         "teamId":67,
         "teamName":"Sevilla",
         "teamRegionName":"Spain",
         "playedPositions":"-DL-MC-ML-MR-",
         "age":26,
         "height":178,
         "weight":70,
         "positionText":"Midfielder",
         "apps":16,
         "subOn":0,
         "minsPlayed":1380,
         "rating":7.1850000000000005,
         "isManOfTheMatch":false,
         "playedPositionsShort":"D(L),M(CLR)",
         "dribbleLost":1.2391304347760002,
         "dribbleTotal":2.086956521728,
         "name":"Pablo Sarabia",
         "dribbleWon":0.847826086952
      },
      {
         "ranking":157,
         "seasonId":7468,
         "seasonName":"2018/2019",
         "tournamentId":5,
         "tournamentRegionId":108,
         "tournamentRegionCode":"it",
         "tournamentRegionName":"Italy",
         "regionCode":"it",
         "tournamentName":"Serie A",
         "tournamentShortName":"ISA",
         "firstName":"Federico",
         "lastName":"Di Francesco",
         "playerId":128605,
         "isActive":true,
         "isOpta":true,
         "teamId":2889,
         "teamName":"Sassuolo",
         "teamRegionName":"Italy",
         "playedPositions":"-ML-MR-",
         "age":24,
         "height":178,
         "weight":75,
         "positionText":"Forward",
         "apps":10,
         "subOn":0,
         "minsPlayed":758,
         "rating":6.6819999999999995,
         "isManOfTheMatch":false,
         "playedPositionsShort":"M(LR)",
         "dribbleLost":0.59366754617000006,
         "dribbleTotal":1.424802110808,
         "name":"Federico Di Francesco",
         "dribbleWon":0.831134564638
      },
      {
         "ranking":158,
         "seasonId":7361,
         "seasonName":"2018/2019",
         "tournamentId":2,
         "tournamentRegionId":252,
         "tournamentRegionCode":"gb-eng",
         "tournamentRegionName":"England",
         "regionCode":"fr",
         "tournamentName":"Premier League",
         "tournamentShortName":"EPL",
         "firstName":"Matteo",
         "lastName":"Guendouzi",
         "playerId":328983,
         "isActive":true,
         "isOpta":true,
         "teamId":13,
         "teamName":"Arsenal",
         "teamRegionName":"England",
         "playedPositions":"-DMC-",
         "age":19,
         "height":185,
         "weight":64,
         "positionText":"Midfielder",
         "apps":12,
         "subOn":0,
         "minsPlayed":982,
         "rating":6.7741666666666669,
         "isManOfTheMatch":false,
         "playedPositionsShort":"DMC",
         "dribbleLost":0.366598778004,
         "dribbleTotal":1.191446028513,
         "name":"Matteo Guendouzi",
         "dribbleWon":0.824847250509
      },
      {
         "ranking":159,
         "seasonId":7468,
         "seasonName":"2018/2019",
         "tournamentId":5,
         "tournamentRegionId":108,
         "tournamentRegionCode":"it",
         "tournamentRegionName":"Italy",
         "regionCode":"pl",
         "tournamentName":"Serie A",
         "tournamentShortName":"ISA",
         "firstName":"Piotr",
         "lastName":"Zielinski",
         "playerId":118169,
         "isActive":true,
         "isOpta":true,
         "teamId":276,
         "teamName":"Napoli",
         "teamRegionName":"Italy",
         "playedPositions":"-AMC-AML-",
         "age":24,
         "height":180,
         "weight":75,
         "positionText":"Midfielder",
         "apps":16,
         "subOn":0,
         "minsPlayed":1318,
         "rating":6.9275000000000011,
         "isManOfTheMatch":false,
         "playedPositionsShort":"AM(CL)",
         "dribbleLost":0.409711684368,
         "dribbleTotal":1.229135053104,
         "name":"Piotr Zielinski",
         "dribbleWon":0.819423368736
      },
      {
         "ranking":160,
         "seasonId":7361,
         "seasonName":"2018/2019",
         "tournamentId":2,
         "tournamentRegionId":252,
         "tournamentRegionCode":"gb-eng",
         "tournamentRegionName":"England",
         "regionCode":"ie",
         "tournamentName":"Premier League",
         "tournamentShortName":"EPL",
         "firstName":"Jeff",
         "lastName":"Hendrick",
         "playerId":86454,
         "isActive":true,
         "isOpta":true,
         "teamId":184,
         "teamName":"Burnley",
         "teamRegionName":"England",
         "playedPositions":"-MC-MR-",
         "age":26,
         "height":185,
         "weight":79,
         "positionText":"Midfielder",
         "apps":10,
         "subOn":0,
         "minsPlayed":771,
         "rating":6.142,
         "isManOfTheMatch":false,
         "playedPositionsShort":"M(CR)",
         "dribbleLost":1.050583657581,
         "dribbleTotal":1.8677042801439998,
         "name":"Jeff Hendrick",
         "dribbleWon":0.817120622563
      }
   ],
   "paging":{
      "currentPage":16,
      "totalPages":25,
      "resultsPerPage":10,
      "totalResults":245,
      "firstRecordIndex":151,
      "lastRecordIndex":160
   },
   "statColumns":[
      "apps",
      "subOn",
      "minsPlayed",
      "dribbleLost",
      "dribbleWon",
      "dribbleTotal"
   ]
}