{
   "playerTableStats":[
      {
         "ranking":111,
         "seasonId":7344,
         "seasonName":"2018/2019",
         "tournamentId":22,
         "tournamentRegionId":74,
         "tournamentRegionCode":"fr",
         "tournamentRegionName":"France",
         "regionCode":"fr",
         "tournamentName":"Ligue 1",
         "tournamentShortName":"FL1",
         "firstName":"Florent",
         "lastName":"Mollet",
         "playerId":114169,
         "isActive":true,
         "isOpta":true,
         "teamId":311,
         "teamName":"Montpellier",
         "teamRegionName":"France",
         "playedPositions":"-AMC-AML-",
         "age":27,
         "height":174,
         "weight":67,
         "positionText":"Midfielder",
         "apps":13,
         "subOn":0,
         "minsPlayed":1055,
         "rating":7.1692307692307686,
         "isManOfTheMatch":false,
         "playedPositionsShort":"AM(CL)",
         "dribbleLost":1.1090047393359999,
         "dribbleTotal":2.2180094786719997,
         "name":"Florent Mollet",
         "dribbleWon":1.1090047393359999
      },
      {
         "ranking":112,
         "seasonId":7405,
         "seasonName":"2018/2019",
         "tournamentId":3,
         "tournamentRegionId":81,
         "tournamentRegionCode":"de",
         "tournamentRegionName":"Germany",
         "regionCode":"de",
         "tournamentName":"Bundesliga",
         "tournamentShortName":"GB",
         "firstName":"Janik",
         "lastName":"Haberer",
         "playerId":110272,
         "isActive":true,
         "isOpta":true,
         "teamId":50,
         "teamName":"Freiburg",
         "teamRegionName":"Germany",
         "playedPositions":"-FW-MC-ML-MR-",
         "age":24,
         "height":186,
         "weight":77,
         "positionText":"Midfielder",
         "apps":11,
         "subOn":0,
         "minsPlayed":989,
         "rating":6.9272727272727277,
         "isManOfTheMatch":false,
         "playedPositionsShort":"M(CLR),FW",
         "dribbleLost":0.637007077854,
         "dribbleTotal":1.729019211318,
         "name":"Janik Haberer",
         "dribbleWon":1.092012133464
      },
      {
         "ranking":113,
         "seasonId":7361,
         "seasonName":"2018/2019",
         "tournamentId":2,
         "tournamentRegionId":252,
         "tournamentRegionCode":"gb-eng",
         "tournamentRegionName":"England",
         "regionCode":"fr",
         "tournamentName":"Premier League",
         "tournamentShortName":"EPL",
         "firstName":"Anthony",
         "lastName":"Martial",
         "playerId":122366,
         "isActive":true,
         "isOpta":true,
         "teamId":32,
         "teamName":"Manchester United",
         "teamRegionName":"England",
         "playedPositions":"-AML-AMR-FW-",
         "age":23,
         "height":181,
         "weight":76,
         "positionText":"Forward",
         "apps":10,
         "subOn":0,
         "minsPlayed":826,
         "rating":7.253,
         "isManOfTheMatch":false,
         "playedPositionsShort":"AM(LR),FW",
         "dribbleLost":1.416464891036,
         "dribbleTotal":2.506053268756,
         "name":"Anthony Martial",
         "dribbleWon":1.08958837772
      },
      {
         "ranking":114,
         "seasonId":7405,
         "seasonName":"2018/2019",
         "tournamentId":3,
         "tournamentRegionId":81,
         "tournamentRegionCode":"de",
         "tournamentRegionName":"Germany",
         "regionCode":"de",
         "tournamentName":"Bundesliga",
         "tournamentShortName":"GB",
         "firstName":"Florian",
         "lastName":"Neuhaus",
         "playerId":319448,
         "isActive":true,
         "isOpta":true,
         "teamId":134,
         "teamName":"Borussia M.Gladbach",
         "teamRegionName":"Germany",
         "playedPositions":"-DMC-",
         "age":21,
         "height":183,
         "weight":74,
         "positionText":"Midfielder",
         "apps":13,
         "subOn":0,
         "minsPlayed":1076,
         "rating":6.86153846153846,
         "isManOfTheMatch":false,
         "playedPositionsShort":"DMC",
         "dribbleLost":1.087360594788,
         "dribbleTotal":2.174721189576,
         "name":"Florian Neuhaus",
         "dribbleWon":1.087360594788
      },
      {
         "ranking":115,
         "seasonId":7405,
         "seasonName":"2018/2019",
         "tournamentId":3,
         "tournamentRegionId":81,
         "tournamentRegionCode":"de",
         "tournamentRegionName":"Germany",
         "regionCode":"dz",
         "tournamentName":"Bundesliga",
         "tournamentShortName":"GB",
         "firstName":"Nabil",
         "lastName":"Bentaleb",
         "playerId":137521,
         "isActive":true,
         "isOpta":true,
         "teamId":39,
         "teamName":"Schalke 04",
         "teamRegionName":"Germany",
         "playedPositions":"-DMC-",
         "age":24,
         "height":187,
         "weight":78,
         "positionText":"Midfielder",
         "apps":14,
         "subOn":0,
         "minsPlayed":1167,
         "rating":7.1142857142857139,
         "isManOfTheMatch":false,
         "playedPositionsShort":"DMC",
         "dribbleLost":0.38560411311,
         "dribbleTotal":1.4652956298179998,
         "name":"Nabil Bentaleb",
         "dribbleWon":1.079691516708
      },
      {
         "ranking":116,
         "seasonId":7405,
         "seasonName":"2018/2019",
         "tournamentId":3,
         "tournamentRegionId":81,
         "tournamentRegionCode":"de",
         "tournamentRegionName":"Germany",
         "regionCode":"at",
         "tournamentName":"Bundesliga",
         "tournamentShortName":"GB",
         "firstName":"Florian",
         "lastName":"Grillitsch",
         "playerId":291937,
         "isActive":true,
         "isOpta":true,
         "teamId":1211,
         "teamName":"Hoffenheim",
         "teamRegionName":"Germany",
         "playedPositions":"-DMC-ML-",
         "age":23,
         "height":187,
         "weight":74,
         "positionText":"Midfielder",
         "apps":12,
         "subOn":0,
         "minsPlayed":928,
         "rating":6.8999999999999995,
         "isManOfTheMatch":false,
         "playedPositionsShort":"DMC,M(L)",
         "dribbleLost":0.19396551724,
         "dribbleTotal":1.26077586206,
         "name":"Florian Grillitsch",
         "dribbleWon":1.06681034482
      },
      {
         "ranking":117,
         "seasonId":7361,
         "seasonName":"2018/2019",
         "tournamentId":2,
         "tournamentRegionId":252,
         "tournamentRegionCode":"gb-eng",
         "tournamentRegionName":"England",
         "regionCode":"gb-eng",
         "tournamentName":"Premier League",
         "tournamentShortName":"EPL",
         "firstName":"Jesse",
         "lastName":"Lingard",
         "playerId":109000,
         "isActive":true,
         "isOpta":true,
         "teamId":32,
         "teamName":"Manchester United",
         "teamRegionName":"England",
         "playedPositions":"-AMC-AML-AMR-",
         "age":26,
         "height":175,
         "weight":62,
         "positionText":"Midfielder",
         "apps":12,
         "subOn":0,
         "minsPlayed":932,
         "rating":6.9325,
         "isManOfTheMatch":false,
         "playedPositionsShort":"AM(CLR)",
         "dribbleLost":0.96566523605,
         "dribbleTotal":2.027896995705,
         "name":"Jesse Lingard",
         "dribbleWon":1.062231759655
      },
      {
         "ranking":118,
         "seasonId":7466,
         "seasonName":"2018/2019",
         "tournamentId":4,
         "tournamentRegionId":206,
         "tournamentRegionCode":"es",
         "tournamentRegionName":"Spain",
         "regionCode":"es",
         "tournamentName":"La Liga",
         "tournamentShortName":"SLL",
         "firstName":"Sergi",
         "lastName":"Darder",
         "playerId":106596,
         "isActive":true,
         "isOpta":true,
         "teamId":70,
         "teamName":"Espanyol",
         "teamRegionName":"Spain",
         "playedPositions":"-DMC-",
         "age":25,
         "height":180,
         "weight":71,
         "positionText":"Midfielder",
         "apps":15,
         "subOn":0,
         "minsPlayed":1272,
         "rating":6.7133333333333338,
         "isManOfTheMatch":false,
         "playedPositionsShort":"DMC",
         "dribbleLost":0.566037735848,
         "dribbleTotal":1.627358490563,
         "name":"Sergi Darder",
         "dribbleWon":1.061320754715
      },
      {
         "ranking":119,
         "seasonId":7468,
         "seasonName":"2018/2019",
         "tournamentId":5,
         "tournamentRegionId":108,
         "tournamentRegionCode":"it",
         "tournamentRegionName":"Italy",
         "regionCode":"br",
         "tournamentName":"Serie A",
         "tournamentShortName":"ISA",
         "firstName":"Gerson",
         "lastName":"Santos da Silva",
         "playerId":242791,
         "isActive":true,
         "isOpta":true,
         "teamId":73,
         "teamName":"Fiorentina",
         "teamRegionName":"Italy",
         "playedPositions":"-AMC-AMR-",
         "age":21,
         "height":175,
         "weight":66,
         "positionText":"Midfielder",
         "apps":14,
         "subOn":0,
         "minsPlayed":1107,
         "rating":6.8335714285714291,
         "isManOfTheMatch":false,
         "playedPositionsShort":"AM(CR)",
         "dribbleLost":0.56910569105600006,
         "dribbleTotal":1.6260162601600001,
         "name":"Gerson",
         "dribbleWon":1.056910569104
      },
      {
         "ranking":120,
         "seasonId":7466,
         "seasonName":"2018/2019",
         "tournamentId":4,
         "tournamentRegionId":206,
         "tournamentRegionCode":"es",
         "tournamentRegionName":"Spain",
         "regionCode":null,
         "tournamentName":"La Liga",
         "tournamentShortName":"SLL",
         "firstName":"Santiago",
         "lastName":"Comesaña",
         "playerId":362735,
         "isActive":true,
         "isOpta":true,
         "teamId":64,
         "teamName":"Rayo Vallecano",
         "teamRegionName":"Spain",
         "playedPositions":"-DMC-",
         "age":22,
         "height":184,
         "weight":75,
         "positionText":"Midfielder",
         "apps":15,
         "subOn":0,
         "minsPlayed":1299,
         "rating":6.7446666666666681,
         "isManOfTheMatch":false,
         "playedPositionsShort":"DMC",
         "dribbleLost":0.484988452655,
         "dribbleTotal":1.52424942263,
         "name":"Santiago Comesaña",
         "dribbleWon":1.0392609699750002
      }
   ],
   "paging":{
      "currentPage":12,
      "totalPages":25,
      "resultsPerPage":10,
      "totalResults":245,
      "firstRecordIndex":111,
      "lastRecordIndex":120
   },
   "statColumns":[
      "apps",
      "subOn",
      "minsPlayed",
      "dribbleLost",
      "dribbleWon",
      "dribbleTotal"
   ]
}