{
   "playerTableStats":[
      {
         "ranking":61,
         "seasonId":7361,
         "seasonName":"2018/2019",
         "tournamentId":2,
         "tournamentRegionId":252,
         "tournamentRegionCode":"gb-eng",
         "tournamentRegionName":"England",
         "regionCode":"br",
         "tournamentName":"Premier League",
         "tournamentShortName":"EPL",
         "firstName":"Lucas",
         "lastName":"Rodrigues Moura da Silva",
         "playerId":92508,
         "isActive":true,
         "isOpta":true,
         "teamId":30,
         "teamName":"Tottenham",
         "teamRegionName":"England",
         "playedPositions":"-AMC-AML-AMR-FW-",
         "age":26,
         "height":172,
         "weight":72,
         "positionText":"Midfielder",
         "apps":10,
         "subOn":0,
         "minsPlayed":786,
         "rating":7.0240000000000009,
         "isManOfTheMatch":false,
         "playedPositionsShort":"AM(CLR),FW",
         "dribbleLost":2.29007633586,
         "dribbleTotal":3.8931297709619996,
         "name":"Lucas Moura",
         "dribbleWon":1.6030534351019998
      },
      {
         "ranking":62,
         "seasonId":7466,
         "seasonName":"2018/2019",
         "tournamentId":4,
         "tournamentRegionId":206,
         "tournamentRegionCode":"es",
         "tournamentRegionName":"Spain",
         "regionCode":"sk",
         "tournamentName":"La Liga",
         "tournamentShortName":"SLL",
         "firstName":"Stanislav",
         "lastName":"Lobotka",
         "playerId":111892,
         "isActive":true,
         "isOpta":true,
         "teamId":62,
         "teamName":"Celta Vigo",
         "teamRegionName":"Spain",
         "playedPositions":"-DMC-",
         "age":24,
         "height":170,
         "weight":64,
         "positionText":"Midfielder",
         "apps":11,
         "subOn":0,
         "minsPlayed":955,
         "rating":6.664545454545455,
         "isManOfTheMatch":false,
         "playedPositionsShort":"DMC",
         "dribbleLost":0.376963350784,
         "dribbleTotal":1.979057591616,
         "name":"Stanislav Lobotka",
         "dribbleWon":1.602094240832
      },
      {
         "ranking":63,
         "seasonId":7344,
         "seasonName":"2018/2019",
         "tournamentId":22,
         "tournamentRegionId":74,
         "tournamentRegionCode":"fr",
         "tournamentRegionName":"France",
         "regionCode":"fr",
         "tournamentName":"Ligue 1",
         "tournamentShortName":"FL1",
         "firstName":"Nicolas",
         "lastName":"Benezet",
         "playerId":93147,
         "isActive":true,
         "isOpta":true,
         "teamId":426,
         "teamName":"Guingamp",
         "teamRegionName":"France",
         "playedPositions":"-AMC-AML-AMR-",
         "age":27,
         "height":170,
         "weight":65,
         "positionText":"Midfielder",
         "apps":13,
         "subOn":0,
         "minsPlayed":1069,
         "rating":6.9976923076923088,
         "isManOfTheMatch":false,
         "playedPositionsShort":"AM(CLR)",
         "dribbleLost":0.926099158083,
         "dribbleTotal":2.5257249765900003,
         "name":"Nicolas Benezet",
         "dribbleWon":1.599625818507
      },
      {
         "ranking":64,
         "seasonId":7466,
         "seasonName":"2018/2019",
         "tournamentId":4,
         "tournamentRegionId":206,
         "tournamentRegionCode":"es",
         "tournamentRegionName":"Spain",
         "regionCode":"es",
         "tournamentName":"La Liga",
         "tournamentShortName":"SLL",
         "firstName":"Adrián",
         "lastName":"Embarba",
         "playerId":135572,
         "isActive":true,
         "isOpta":true,
         "teamId":64,
         "teamName":"Rayo Vallecano",
         "teamRegionName":"Spain",
         "playedPositions":"-AML-AMR-",
         "age":26,
         "height":173,
         "weight":66,
         "positionText":"Forward",
         "apps":10,
         "subOn":0,
         "minsPlayed":802,
         "rating":7.0980000000000008,
         "isManOfTheMatch":false,
         "playedPositionsShort":"AM(LR)",
         "dribbleLost":1.6832917705650001,
         "dribbleTotal":3.254364089759,
         "name":"Adrián Embarba",
         "dribbleWon":1.5710723191940001
      },
      {
         "ranking":65,
         "seasonId":7468,
         "seasonName":"2018/2019",
         "tournamentId":5,
         "tournamentRegionId":108,
         "tournamentRegionCode":"it",
         "tournamentRegionName":"Italy",
         "regionCode":"gh",
         "tournamentName":"Serie A",
         "tournamentShortName":"ISA",
         "firstName":"Raman",
         "lastName":"Chibsah",
         "playerId":121023,
         "isActive":true,
         "isOpta":true,
         "teamId":2732,
         "teamName":"Frosinone",
         "teamRegionName":"Italy",
         "playedPositions":"-MC-",
         "age":25,
         "height":177,
         "weight":72,
         "positionText":"Midfielder",
         "apps":19,
         "subOn":0,
         "minsPlayed":1662,
         "rating":6.477368421052633,
         "isManOfTheMatch":false,
         "playedPositionsShort":"M(C)",
         "dribbleLost":1.028880866412,
         "dribbleTotal":2.5992779783040003,
         "name":"Raman Chibsah",
         "dribbleWon":1.5703971118920002
      },
      {
         "ranking":66,
         "seasonId":7344,
         "seasonName":"2018/2019",
         "tournamentId":22,
         "tournamentRegionId":74,
         "tournamentRegionCode":"fr",
         "tournamentRegionName":"France",
         "regionCode":"fr",
         "tournamentName":"Ligue 1",
         "tournamentShortName":"FL1",
         "firstName":"Flavien",
         "lastName":"Tait",
         "playerId":296241,
         "isActive":true,
         "isOpta":true,
         "teamId":614,
         "teamName":"Angers",
         "teamRegionName":"France",
         "playedPositions":"-AMC-AML-AMR-",
         "age":25,
         "height":175,
         "weight":70,
         "positionText":"Midfielder",
         "apps":16,
         "subOn":0,
         "minsPlayed":1261,
         "rating":7.06875,
         "isManOfTheMatch":false,
         "playedPositionsShort":"AM(CLR)",
         "dribbleLost":1.42743854084,
         "dribbleTotal":2.997620935764,
         "name":"Flavien Tait",
         "dribbleWon":1.5701823949240001
      },
      {
         "ranking":67,
         "seasonId":7405,
         "seasonName":"2018/2019",
         "tournamentId":3,
         "tournamentRegionId":81,
         "tournamentRegionCode":"de",
         "tournamentRegionName":"Germany",
         "regionCode":"de",
         "tournamentName":"Bundesliga",
         "tournamentShortName":"GB",
         "firstName":"Suat",
         "lastName":"Serdar",
         "playerId":296119,
         "isActive":true,
         "isOpta":true,
         "teamId":39,
         "teamName":"Schalke 04",
         "teamRegionName":"Germany",
         "playedPositions":"-MC-",
         "age":21,
         "height":184,
         "weight":75,
         "positionText":"Midfielder",
         "apps":10,
         "subOn":0,
         "minsPlayed":751,
         "rating":6.694,
         "isManOfTheMatch":false,
         "playedPositionsShort":"M(C)",
         "dribbleLost":0.958721704392,
         "dribbleTotal":2.516644474029,
         "name":"Suat Serdar",
         "dribbleWon":1.557922769637
      },
      {
         "ranking":68,
         "seasonId":7468,
         "seasonName":"2018/2019",
         "tournamentId":5,
         "tournamentRegionId":108,
         "tournamentRegionCode":"it",
         "tournamentRegionName":"Italy",
         "regionCode":"tr",
         "tournamentName":"Serie A",
         "tournamentShortName":"ISA",
         "firstName":"Cengiz",
         "lastName":"Ünder",
         "playerId":255071,
         "isActive":true,
         "isOpta":true,
         "teamId":84,
         "teamName":"Roma",
         "teamRegionName":"Italy",
         "playedPositions":"-AML-AMR-",
         "age":21,
         "height":173,
         "weight":66,
         "positionText":"Midfielder",
         "apps":13,
         "subOn":0,
         "minsPlayed":1043,
         "rating":7.1438461538461535,
         "isManOfTheMatch":false,
         "playedPositionsShort":"AM(LR)",
         "dribbleLost":1.208053691264,
         "dribbleTotal":2.761265580032,
         "name":"Cengiz Ünder",
         "dribbleWon":1.553211888768
      },
      {
         "ranking":69,
         "seasonId":7361,
         "seasonName":"2018/2019",
         "tournamentId":2,
         "tournamentRegionId":252,
         "tournamentRegionCode":"gb-eng",
         "tournamentRegionName":"England",
         "regionCode":"fr",
         "tournamentName":"Premier League",
         "tournamentShortName":"EPL",
         "firstName":"Anthony",
         "lastName":"Knockaert",
         "playerId":86794,
         "isActive":true,
         "isOpta":true,
         "teamId":211,
         "teamName":"Brighton",
         "teamRegionName":"England",
         "playedPositions":"-AML-AMR-",
         "age":27,
         "height":172,
         "weight":69,
         "positionText":"Midfielder",
         "apps":12,
         "subOn":0,
         "minsPlayed":987,
         "rating":7.0066666666666668,
         "isManOfTheMatch":false,
         "playedPositionsShort":"AM(LR)",
         "dribbleLost":1.185410334342,
         "dribbleTotal":2.7355623100199997,
         "name":"Anthony Knockaert",
         "dribbleWon":1.550151975678
      },
      {
         "ranking":70,
         "seasonId":7466,
         "seasonName":"2018/2019",
         "tournamentId":4,
         "tournamentRegionId":206,
         "tournamentRegionCode":"es",
         "tournamentRegionName":"Spain",
         "regionCode":"es",
         "tournamentName":"La Liga",
         "tournamentShortName":"SLL",
         "firstName":"Pablo",
         "lastName":"Fornals",
         "playerId":297203,
         "isActive":true,
         "isOpta":true,
         "teamId":839,
         "teamName":"Villarreal",
         "teamRegionName":"Spain",
         "playedPositions":"-MC-ML-MR-",
         "age":22,
         "height":178,
         "weight":67,
         "positionText":"Midfielder",
         "apps":17,
         "subOn":0,
         "minsPlayed":1457,
         "rating":6.8852941176470592,
         "isManOfTheMatch":false,
         "playedPositionsShort":"M(CLR)",
         "dribbleLost":0.988332189424,
         "dribbleTotal":2.5326012353990004,
         "name":"Pablo Fornals",
         "dribbleWon":1.5442690459750001
      }
   ],
   "paging":{
      "currentPage":7,
      "totalPages":25,
      "resultsPerPage":10,
      "totalResults":245,
      "firstRecordIndex":61,
      "lastRecordIndex":70
   },
   "statColumns":[
      "apps",
      "subOn",
      "minsPlayed",
      "dribbleLost",
      "dribbleWon",
      "dribbleTotal"
   ]
}