{
   "playerTableStats":[
      {
         "ranking":131,
         "seasonId":7361,
         "seasonName":"2018/2019",
         "tournamentId":2,
         "tournamentRegionId":252,
         "tournamentRegionCode":"gb-eng",
         "tournamentRegionName":"England",
         "regionCode":"fr",
         "tournamentName":"Premier League",
         "tournamentShortName":"EPL",
         "firstName":"Abdoulaye",
         "lastName":"Doucouré",
         "playerId":116317,
         "isActive":true,
         "isOpta":true,
         "teamId":27,
         "teamName":"Watford",
         "teamRegionName":"England",
         "playedPositions":"-MC-",
         "age":26,
         "height":184,
         "weight":75,
         "positionText":"Midfielder",
         "apps":20,
         "subOn":0,
         "minsPlayed":1766,
         "rating":6.7799999999999994,
         "isManOfTheMatch":false,
         "playedPositionsShort":"M(C)",
         "dribbleLost":0.560588901466,
         "dribbleTotal":1.52887882218,
         "name":"Abdoulaye Doucouré",
         "dribbleWon":0.968289920714
      },
      {
         "ranking":132,
         "seasonId":7405,
         "seasonName":"2018/2019",
         "tournamentId":3,
         "tournamentRegionId":81,
         "tournamentRegionCode":"de",
         "tournamentRegionName":"Germany",
         "regionCode":"de",
         "tournamentName":"Bundesliga",
         "tournamentShortName":"GB",
         "firstName":"Leon",
         "lastName":"Goretzka",
         "playerId":115519,
         "isActive":true,
         "isOpta":true,
         "teamId":37,
         "teamName":"Bayern Munich",
         "teamRegionName":"Germany",
         "playedPositions":"-MC-MR-",
         "age":23,
         "height":189,
         "weight":79,
         "positionText":"Midfielder",
         "apps":10,
         "subOn":0,
         "minsPlayed":838,
         "rating":7.106,
         "isManOfTheMatch":false,
         "playedPositionsShort":"M(CR)",
         "dribbleLost":0.107398568019,
         "dribbleTotal":1.0739856801899998,
         "name":"Leon Goretzka",
         "dribbleWon":0.96658711217099991
      },
      {
         "ranking":133,
         "seasonId":7466,
         "seasonName":"2018/2019",
         "tournamentId":4,
         "tournamentRegionId":206,
         "tournamentRegionCode":"es",
         "tournamentRegionName":"Spain",
         "regionCode":"es",
         "tournamentName":"La Liga",
         "tournamentShortName":"SLL",
         "firstName":"Brais",
         "lastName":"Méndez",
         "playerId":344542,
         "isActive":true,
         "isOpta":true,
         "teamId":62,
         "teamName":"Celta Vigo",
         "teamRegionName":"Spain",
         "playedPositions":"-AMC-AMR-",
         "age":22,
         "height":187,
         "weight":76,
         "positionText":"Midfielder",
         "apps":13,
         "subOn":0,
         "minsPlayed":1121,
         "rating":7.5053846153846147,
         "isManOfTheMatch":false,
         "playedPositionsShort":"AM(CR)",
         "dribbleLost":1.204281891165,
         "dribbleTotal":2.167707404097,
         "name":"Brais Méndez",
         "dribbleWon":0.963425512932
      },
      {
         "ranking":134,
         "seasonId":7361,
         "seasonName":"2018/2019",
         "tournamentId":2,
         "tournamentRegionId":252,
         "tournamentRegionCode":"gb-eng",
         "tournamentRegionName":"England",
         "regionCode":"nl",
         "tournamentName":"Premier League",
         "tournamentShortName":"EPL",
         "firstName":"Davy",
         "lastName":"Pröpper",
         "playerId":77429,
         "isActive":true,
         "isOpta":true,
         "teamId":211,
         "teamName":"Brighton",
         "teamRegionName":"England",
         "playedPositions":"-MC-",
         "age":27,
         "height":185,
         "weight":79,
         "positionText":"Midfielder",
         "apps":17,
         "subOn":0,
         "minsPlayed":1504,
         "rating":6.6670588235294117,
         "isManOfTheMatch":false,
         "playedPositionsShort":"M(C)",
         "dribbleLost":0.59840425531,
         "dribbleTotal":1.555851063806,
         "name":"Davy Pröpper",
         "dribbleWon":0.957446808496
      },
      {
         "ranking":135,
         "seasonId":7468,
         "seasonName":"2018/2019",
         "tournamentId":5,
         "tournamentRegionId":108,
         "tournamentRegionCode":"it",
         "tournamentRegionName":"Italy",
         "regionCode":"it",
         "tournamentName":"Serie A",
         "tournamentShortName":"ISA",
         "firstName":"Daniele",
         "lastName":"Baselli",
         "playerId":83716,
         "isActive":true,
         "isOpta":true,
         "teamId":72,
         "teamName":"Torino",
         "teamRegionName":"Italy",
         "playedPositions":"-MC-",
         "age":26,
         "height":182,
         "weight":70,
         "positionText":"Midfielder",
         "apps":15,
         "subOn":0,
         "minsPlayed":1223,
         "rating":6.9500000000000011,
         "isManOfTheMatch":false,
         "playedPositionsShort":"M(C)",
         "dribbleLost":0.220768601796,
         "dribbleTotal":1.177432542912,
         "name":"Daniele Baselli",
         "dribbleWon":0.95666394111600006
      },
      {
         "ranking":136,
         "seasonId":7344,
         "seasonName":"2018/2019",
         "tournamentId":22,
         "tournamentRegionId":74,
         "tournamentRegionCode":"fr",
         "tournamentRegionName":"France",
         "regionCode":"br",
         "tournamentName":"Ligue 1",
         "tournamentShortName":"FL1",
         "firstName":"Gabriel",
         "lastName":"Boschilia",
         "playerId":146765,
         "isActive":true,
         "isOpta":true,
         "teamId":302,
         "teamName":"Nantes",
         "teamRegionName":"France",
         "playedPositions":"-AMC-AML-AMR-",
         "age":22,
         "height":172,
         "weight":63,
         "positionText":"Forward",
         "apps":11,
         "subOn":0,
         "minsPlayed":849,
         "rating":7.21909090909091,
         "isManOfTheMatch":false,
         "playedPositionsShort":"AM(CLR)",
         "dribbleLost":0.848056537096,
         "dribbleTotal":1.802120141329,
         "name":"Gabriel Boschilia",
         "dribbleWon":0.95406360423300007
      },
      {
         "ranking":137,
         "seasonId":7361,
         "seasonName":"2018/2019",
         "tournamentId":2,
         "tournamentRegionId":252,
         "tournamentRegionCode":"gb-eng",
         "tournamentRegionName":"England",
         "regionCode":"gb-wls",
         "tournamentName":"Premier League",
         "tournamentShortName":"EPL",
         "firstName":"David",
         "lastName":"Brooks",
         "playerId":295084,
         "isActive":true,
         "isOpta":true,
         "teamId":183,
         "teamName":"Bournemouth",
         "teamRegionName":"England",
         "playedPositions":"-AMC-AMR-",
         "age":21,
         "height":173,
         "weight":62,
         "positionText":"Midfielder",
         "apps":18,
         "subOn":0,
         "minsPlayed":1340,
         "rating":6.8538888888888891,
         "isManOfTheMatch":false,
         "playedPositionsShort":"AM(CR)",
         "dribbleLost":1.4104477611839998,
         "dribbleTotal":2.35074626864,
         "name":"David Brooks",
         "dribbleWon":0.940298507456
      },
      {
         "ranking":138,
         "seasonId":7361,
         "seasonName":"2018/2019",
         "tournamentId":2,
         "tournamentRegionId":252,
         "tournamentRegionCode":"gb-eng",
         "tournamentRegionName":"England",
         "regionCode":"gb-eng",
         "tournamentName":"Premier League",
         "tournamentShortName":"EPL",
         "firstName":"Solomon",
         "lastName":"March",
         "playerId":122926,
         "isActive":true,
         "isOpta":true,
         "teamId":211,
         "teamName":"Brighton",
         "teamRegionName":"England",
         "playedPositions":"-AMC-AML-AMR-",
         "age":24,
         "height":180,
         "weight":88,
         "positionText":"Midfielder",
         "apps":20,
         "subOn":0,
         "minsPlayed":1629,
         "rating":6.8595000000000015,
         "isManOfTheMatch":false,
         "playedPositionsShort":"AM(CLR)",
         "dribbleLost":0.939226519328,
         "dribbleTotal":1.878453038656,
         "name":"Solly March",
         "dribbleWon":0.939226519328
      },
      {
         "ranking":139,
         "seasonId":7344,
         "seasonName":"2018/2019",
         "tournamentId":22,
         "tournamentRegionId":74,
         "tournamentRegionCode":"fr",
         "tournamentRegionName":"France",
         "regionCode":"fr",
         "tournamentName":"Ligue 1",
         "tournamentShortName":"FL1",
         "firstName":"Mathieu",
         "lastName":"Cafaro",
         "playerId":297211,
         "isActive":true,
         "isOpta":true,
         "teamId":950,
         "teamName":"Reims",
         "teamRegionName":"France",
         "playedPositions":"-AMC-",
         "age":21,
         "height":178,
         "weight":74,
         "positionText":"Midfielder",
         "apps":10,
         "subOn":0,
         "minsPlayed":782,
         "rating":6.7900000000000009,
         "isManOfTheMatch":false,
         "playedPositionsShort":"AM(C)",
         "dribbleLost":1.15089514066,
         "dribbleTotal":2.071611253188,
         "name":"Mathieu Cafaro",
         "dribbleWon":0.920716112528
      },
      {
         "ranking":140,
         "seasonId":7361,
         "seasonName":"2018/2019",
         "tournamentId":2,
         "tournamentRegionId":252,
         "tournamentRegionCode":"gb-eng",
         "tournamentRegionName":"England",
         "regionCode":"gb-eng",
         "tournamentName":"Premier League",
         "tournamentShortName":"EPL",
         "firstName":"Harry",
         "lastName":"Winks",
         "playerId":143990,
         "isActive":true,
         "isOpta":true,
         "teamId":30,
         "teamName":"Tottenham",
         "teamRegionName":"England",
         "playedPositions":"-DMC-",
         "age":22,
         "height":178,
         "weight":65,
         "positionText":"Midfielder",
         "apps":10,
         "subOn":0,
         "minsPlayed":883,
         "rating":6.7039999999999988,
         "isManOfTheMatch":false,
         "playedPositionsShort":"DMC",
         "dribbleLost":0.203850509626,
         "dribbleTotal":1.121177802943,
         "name":"Harry Winks",
         "dribbleWon":0.91732729331699991
      }
   ],
   "paging":{
      "currentPage":14,
      "totalPages":25,
      "resultsPerPage":10,
      "totalResults":245,
      "firstRecordIndex":131,
      "lastRecordIndex":140
   },
   "statColumns":[
      "apps",
      "subOn",
      "minsPlayed",
      "dribbleLost",
      "dribbleWon",
      "dribbleTotal"
   ]
}