{
   "playerTableStats":[
      {
         "ranking":31,
         "seasonId":7344,
         "seasonName":"2018/2019",
         "tournamentId":22,
         "tournamentRegionId":74,
         "tournamentRegionCode":"fr",
         "tournamentRegionName":"France",
         "regionCode":"ci",
         "tournamentName":"Ligue 1",
         "tournamentShortName":"FL1",
         "firstName":"Nicolas",
         "lastName":"Pepe",
         "playerId":239872,
         "isActive":true,
         "isOpta":true,
         "teamId":607,
         "teamName":"Lille",
         "teamRegionName":"France",
         "playedPositions":"-AMR-FW-",
         "age":23,
         "height":183,
         "weight":73,
         "positionText":"Forward",
         "apps":19,
         "subOn":0,
         "minsPlayed":1700,
         "rating":7.445263157894737,
         "isManOfTheMatch":false,
         "playedPositionsShort":"AM(R),FW",
         "dribbleLost":2.3294117646799997,
         "dribbleTotal":4.28823529407,
         "name":"Nicolas Pepe",
         "dribbleWon":1.9588235293899998
      },
      {
         "ranking":32,
         "seasonId":7344,
         "seasonName":"2018/2019",
         "tournamentId":22,
         "tournamentRegionId":74,
         "tournamentRegionCode":"fr",
         "tournamentRegionName":"France",
         "regionCode":"fr",
         "tournamentName":"Ligue 1",
         "tournamentShortName":"FL1",
         "firstName":"Florian",
         "lastName":"Thauvin",
         "playerId":99143,
         "isActive":true,
         "isOpta":true,
         "teamId":249,
         "teamName":"Marseille",
         "teamRegionName":"France",
         "playedPositions":"-AMC-AML-AMR-",
         "age":25,
         "height":179,
         "weight":70,
         "positionText":"Midfielder",
         "apps":14,
         "subOn":0,
         "minsPlayed":1195,
         "rating":7.3071428571428569,
         "isManOfTheMatch":false,
         "playedPositionsShort":"AM(CLR)",
         "dribbleLost":1.732217573213,
         "dribbleTotal":3.6903765690190005,
         "name":"Florian Thauvin",
         "dribbleWon":1.9581589958060002
      },
      {
         "ranking":33,
         "seasonId":7468,
         "seasonName":"2018/2019",
         "tournamentId":5,
         "tournamentRegionId":108,
         "tournamentRegionCode":"it",
         "tournamentRegionName":"Italy",
         "regionCode":"es",
         "tournamentName":"Serie A",
         "tournamentShortName":"ISA",
         "firstName":"Jesús",
         "lastName":"Fernández Saez",
         "playerId":105591,
         "isActive":true,
         "isOpta":true,
         "teamId":80,
         "teamName":"AC Milan",
         "teamRegionName":"Italy",
         "playedPositions":"-AMC-AML-AMR-FW-",
         "age":25,
         "height":177,
         "weight":70,
         "positionText":"Forward",
         "apps":18,
         "subOn":0,
         "minsPlayed":1613,
         "rating":7.4766666666666675,
         "isManOfTheMatch":false,
         "playedPositionsShort":"AM(CLR),FW",
         "dribbleLost":0.6695598264,
         "dribbleTotal":2.6224426534,
         "name":"Suso",
         "dribbleWon":1.9528828269999998
      },
      {
         "ranking":34,
         "seasonId":7361,
         "seasonName":"2018/2019",
         "tournamentId":2,
         "tournamentRegionId":252,
         "tournamentRegionCode":"gb-eng",
         "tournamentRegionName":"England",
         "regionCode":"fr",
         "tournamentName":"Premier League",
         "tournamentShortName":"EPL",
         "firstName":"Paul",
         "lastName":"Pogba",
         "playerId":97752,
         "isActive":true,
         "isOpta":true,
         "teamId":32,
         "teamName":"Manchester United",
         "teamRegionName":"England",
         "playedPositions":"-MC-",
         "age":25,
         "height":191,
         "weight":84,
         "positionText":"Midfielder",
         "apps":17,
         "subOn":0,
         "minsPlayed":1482,
         "rating":7.487058823529412,
         "isManOfTheMatch":false,
         "playedPositionsShort":"M(C)",
         "dribbleLost":1.275303643719,
         "dribbleTotal":3.2186234817669996,
         "name":"Paul Pogba",
         "dribbleWon":1.943319838048
      },
      {
         "ranking":35,
         "seasonId":7468,
         "seasonName":"2018/2019",
         "tournamentId":5,
         "tournamentRegionId":108,
         "tournamentRegionCode":"it",
         "tournamentRegionName":"Italy",
         "regionCode":"ci",
         "tournamentName":"Serie A",
         "tournamentShortName":"ISA",
         "firstName":"Seko",
         "lastName":"Fofana",
         "playerId":254562,
         "isActive":true,
         "isOpta":true,
         "teamId":86,
         "teamName":"Udinese",
         "teamRegionName":"Italy",
         "playedPositions":"-MC-",
         "age":23,
         "height":183,
         "weight":74,
         "positionText":"Midfielder",
         "apps":19,
         "subOn":0,
         "minsPlayed":1668,
         "rating":6.7221052631578946,
         "isManOfTheMatch":false,
         "playedPositionsShort":"M(C)",
         "dribbleLost":0.70143884891600006,
         "dribbleTotal":2.6438848920680003,
         "name":"Seko Fofana",
         "dribbleWon":1.942446043152
      },
      {
         "ranking":36,
         "seasonId":7344,
         "seasonName":"2018/2019",
         "tournamentId":22,
         "tournamentRegionId":74,
         "tournamentRegionCode":"fr",
         "tournamentRegionName":"France",
         "regionCode":"fr",
         "tournamentName":"Ligue 1",
         "tournamentShortName":"FL1",
         "firstName":"Nanitamo Jonathan",
         "lastName":"Ikone",
         "playerId":322094,
         "isActive":true,
         "isOpta":true,
         "teamId":607,
         "teamName":"Lille",
         "teamRegionName":"France",
         "playedPositions":"-AMC-AML-AMR-",
         "age":20,
         "height":175,
         "weight":67,
         "positionText":"Midfielder",
         "apps":16,
         "subOn":0,
         "minsPlayed":1263,
         "rating":6.6593750000000007,
         "isManOfTheMatch":false,
         "playedPositionsShort":"AM(CLR)",
         "dribbleLost":1.2114014251710001,
         "dribbleTotal":3.135391923972,
         "name":"Jonathan Ikone",
         "dribbleWon":1.923990498801
      },
      {
         "ranking":37,
         "seasonId":7344,
         "seasonName":"2018/2019",
         "tournamentId":22,
         "tournamentRegionId":74,
         "tournamentRegionCode":"fr",
         "tournamentRegionName":"France",
         "regionCode":"ar",
         "tournamentName":"Ligue 1",
         "tournamentShortName":"FL1",
         "firstName":"Lucas",
         "lastName":"Ocampos",
         "playerId":115587,
         "isActive":true,
         "isOpta":true,
         "teamId":249,
         "teamName":"Marseille",
         "teamRegionName":"France",
         "playedPositions":"-AMC-AML-AMR-FW-",
         "age":24,
         "height":187,
         "weight":84,
         "positionText":"Midfielder",
         "apps":11,
         "subOn":0,
         "minsPlayed":855,
         "rating":6.9336363636363618,
         "isManOfTheMatch":false,
         "playedPositionsShort":"AM(CLR),FW",
         "dribbleLost":1.473684210516,
         "dribbleTotal":3.368421052608,
         "name":"Lucas Ocampos",
         "dribbleWon":1.8947368420919999
      },
      {
         "ranking":38,
         "seasonId":7361,
         "seasonName":"2018/2019",
         "tournamentId":2,
         "tournamentRegionId":252,
         "tournamentRegionCode":"gb-eng",
         "tournamentRegionName":"England",
         "regionCode":"gb-sct",
         "tournamentName":"Premier League",
         "tournamentShortName":"EPL",
         "firstName":"Tom",
         "lastName":"Cairney",
         "playerId":79583,
         "isActive":true,
         "isOpta":true,
         "teamId":170,
         "teamName":"Fulham",
         "teamRegionName":"England",
         "playedPositions":"-MC-MR-",
         "age":27,
         "height":185,
         "weight":83,
         "positionText":"Midfielder",
         "apps":12,
         "subOn":0,
         "minsPlayed":958,
         "rating":6.5649999999999986,
         "isManOfTheMatch":false,
         "playedPositionsShort":"M(CR)",
         "dribbleLost":0.375782881,
         "dribbleTotal":2.2546972860000003,
         "name":"Tom Cairney",
         "dribbleWon":1.8789144050000002
      },
      {
         "ranking":39,
         "seasonId":7361,
         "seasonName":"2018/2019",
         "tournamentId":2,
         "tournamentRegionId":252,
         "tournamentRegionCode":"gb-eng",
         "tournamentRegionName":"England",
         "regionCode":"pt",
         "tournamentName":"Premier League",
         "tournamentShortName":"EPL",
         "firstName":"André Filipe",
         "lastName":"Tavares Gomes",
         "playerId":118123,
         "isActive":true,
         "isOpta":true,
         "teamId":31,
         "teamName":"Everton",
         "teamRegionName":"England",
         "playedPositions":"-MC-ML-MR-",
         "age":25,
         "height":188,
         "weight":84,
         "positionText":"Midfielder",
         "apps":13,
         "subOn":0,
         "minsPlayed":1064,
         "rating":6.660000000000001,
         "isManOfTheMatch":false,
         "playedPositionsShort":"M(CLR)",
         "dribbleLost":0.33834586466,
         "dribbleTotal":2.19924812029,
         "name":"André Gomes",
         "dribbleWon":1.86090225563
      },
      {
         "ranking":40,
         "seasonId":7361,
         "seasonName":"2018/2019",
         "tournamentId":2,
         "tournamentRegionId":252,
         "tournamentRegionCode":"gb-eng",
         "tournamentRegionName":"England",
         "regionCode":"sn",
         "tournamentName":"Premier League",
         "tournamentShortName":"EPL",
         "firstName":"Sadio",
         "lastName":"Mané",
         "playerId":109915,
         "isActive":true,
         "isOpta":true,
         "teamId":26,
         "teamName":"Liverpool",
         "teamRegionName":"England",
         "playedPositions":"-AMC-AML-AMR-",
         "age":26,
         "height":175,
         "weight":69,
         "positionText":"Forward",
         "apps":18,
         "subOn":0,
         "minsPlayed":1552,
         "rating":7.3716666666666661,
         "isManOfTheMatch":false,
         "playedPositionsShort":"AM(CLR)",
         "dribbleLost":1.333762886583,
         "dribbleTotal":3.1894329896549998,
         "name":"Sadio Mané",
         "dribbleWon":1.855670103072
      }
   ],
   "paging":{
      "currentPage":4,
      "totalPages":25,
      "resultsPerPage":10,
      "totalResults":245,
      "firstRecordIndex":31,
      "lastRecordIndex":40
   },
   "statColumns":[
      "apps",
      "subOn",
      "minsPlayed",
      "dribbleLost",
      "dribbleWon",
      "dribbleTotal"
   ]
}