{
   "playerTableStats":[
      {
         "ranking":161,
         "seasonId":7361,
         "seasonName":"2018/2019",
         "tournamentId":2,
         "tournamentRegionId":252,
         "tournamentRegionCode":"gb-eng",
         "tournamentRegionName":"England",
         "regionCode":"fr",
         "tournamentName":"Premier League",
         "tournamentShortName":"EPL",
         "firstName":"N'Golo",
         "lastName":"Kanté",
         "playerId":114075,
         "isActive":true,
         "isOpta":true,
         "teamId":15,
         "teamName":"Chelsea",
         "teamRegionName":"England",
         "playedPositions":"-DMC-",
         "age":27,
         "height":168,
         "weight":68,
         "positionText":"Midfielder",
         "apps":21,
         "subOn":0,
         "minsPlayed":1877,
         "rating":7.0185714285714305,
         "isManOfTheMatch":false,
         "playedPositionsShort":"DMC",
         "dribbleLost":0.623335109215,
         "dribbleTotal":1.4384656366500002,
         "name":"N'Golo Kanté",
         "dribbleWon":0.815130527435
      },
      {
         "ranking":162,
         "seasonId":7361,
         "seasonName":"2018/2019",
         "tournamentId":2,
         "tournamentRegionId":252,
         "tournamentRegionCode":"gb-eng",
         "tournamentRegionName":"England",
         "regionCode":"ng",
         "tournamentName":"Premier League",
         "tournamentShortName":"EPL",
         "firstName":"Onyinye Wilfred",
         "lastName":"Ndidi",
         "playerId":327683,
         "isActive":true,
         "isOpta":true,
         "teamId":14,
         "teamName":"Leicester",
         "teamRegionName":"England",
         "playedPositions":"-DMC-",
         "age":22,
         "height":183,
         "weight":74,
         "positionText":"Midfielder",
         "apps":20,
         "subOn":0,
         "minsPlayed":1800,
         "rating":7.2150000000000007,
         "isManOfTheMatch":false,
         "playedPositionsShort":"DMC",
         "dribbleLost":0.45,
         "dribbleTotal":1.25,
         "name":"Wilfred Ndidi",
         "dribbleWon":0.8
      },
      {
         "ranking":163,
         "seasonId":7468,
         "seasonName":"2018/2019",
         "tournamentId":5,
         "tournamentRegionId":108,
         "tournamentRegionCode":"it",
         "tournamentRegionName":"Italy",
         "regionCode":"it",
         "tournamentName":"Serie A",
         "tournamentShortName":"ISA",
         "firstName":"Nicolò",
         "lastName":"Barella",
         "playerId":148684,
         "isActive":true,
         "isOpta":true,
         "teamId":78,
         "teamName":"Cagliari",
         "teamRegionName":"Italy",
         "playedPositions":"-AMC-",
         "age":21,
         "height":175,
         "weight":68,
         "positionText":"Midfielder",
         "apps":18,
         "subOn":0,
         "minsPlayed":1592,
         "rating":6.708333333333333,
         "isManOfTheMatch":false,
         "playedPositionsShort":"AM(C)",
         "dribbleLost":0.734924623108,
         "dribbleTotal":1.5263819095320001,
         "name":"Nicolò Barella",
         "dribbleWon":0.791457286424
      },
      {
         "ranking":164,
         "seasonId":7344,
         "seasonName":"2018/2019",
         "tournamentId":22,
         "tournamentRegionId":74,
         "tournamentRegionCode":"fr",
         "tournamentRegionName":"France",
         "regionCode":"br",
         "tournamentName":"Ligue 1",
         "tournamentShortName":"FL1",
         "firstName":"Thiago Henrique",
         "lastName":"Mendes Ribeiro",
         "playerId":117776,
         "isActive":true,
         "isOpta":true,
         "teamId":607,
         "teamName":"Lille",
         "teamRegionName":"France",
         "playedPositions":"-DR-MC-MR-",
         "age":26,
         "height":176,
         "weight":78,
         "positionText":"Midfielder",
         "apps":17,
         "subOn":0,
         "minsPlayed":1479,
         "rating":7.2258823529411762,
         "isManOfTheMatch":false,
         "playedPositionsShort":"D(R),M(CR)",
         "dribbleLost":0.365111561862,
         "dribbleTotal":1.156186612563,
         "name":"Thiago Mendes",
         "dribbleWon":0.791075050701
      },
      {
         "ranking":165,
         "seasonId":7466,
         "seasonName":"2018/2019",
         "tournamentId":4,
         "tournamentRegionId":206,
         "tournamentRegionCode":"es",
         "tournamentRegionName":"Spain",
         "regionCode":"tr",
         "tournamentName":"La Liga",
         "tournamentShortName":"SLL",
         "firstName":"Okay",
         "lastName":"Yokuslu",
         "playerId":93805,
         "isActive":true,
         "isOpta":true,
         "teamId":62,
         "teamName":"Celta Vigo",
         "teamRegionName":"Spain",
         "playedPositions":"-DC-DMC-",
         "age":24,
         "height":190,
         "weight":79,
         "positionText":"Midfielder",
         "apps":10,
         "subOn":0,
         "minsPlayed":808,
         "rating":7.008,
         "isManOfTheMatch":false,
         "playedPositionsShort":"D(C),DMC",
         "dribbleLost":0.111386138613,
         "dribbleTotal":0.891089108904,
         "name":"Okay Yokuslu",
         "dribbleWon":0.779702970291
      },
      {
         "ranking":166,
         "seasonId":7468,
         "seasonName":"2018/2019",
         "tournamentId":5,
         "tournamentRegionId":108,
         "tournamentRegionCode":"it",
         "tournamentRegionName":"Italy",
         "regionCode":"se",
         "tournamentName":"Serie A",
         "tournamentShortName":"ISA",
         "firstName":"Mattias",
         "lastName":"Svanberg",
         "playerId":282348,
         "isActive":true,
         "isOpta":true,
         "teamId":71,
         "teamName":"Bologna",
         "teamRegionName":"Italy",
         "playedPositions":"-MC-ML-",
         "age":20,
         "height":185,
         "weight":75,
         "positionText":"Midfielder",
         "apps":12,
         "subOn":0,
         "minsPlayed":934,
         "rating":6.5424999999999995,
         "isManOfTheMatch":false,
         "playedPositionsShort":"M(CL)",
         "dribbleLost":0.4817987152,
         "dribbleTotal":1.25267665952,
         "name":"Mattias Svanberg",
         "dribbleWon":0.77087794432
      },
      {
         "ranking":167,
         "seasonId":7466,
         "seasonName":"2018/2019",
         "tournamentId":4,
         "tournamentRegionId":206,
         "tournamentRegionCode":"es",
         "tournamentRegionName":"Spain",
         "regionCode":"es",
         "tournamentName":"La Liga",
         "tournamentShortName":"SLL",
         "firstName":"Saúl",
         "lastName":"Ñíguez",
         "playerId":112161,
         "isActive":true,
         "isOpta":true,
         "teamId":63,
         "teamName":"Atletico Madrid",
         "teamRegionName":"Spain",
         "playedPositions":"-DC-DL-MC-ML-MR-",
         "age":24,
         "height":184,
         "weight":77,
         "positionText":"Midfielder",
         "apps":13,
         "subOn":0,
         "minsPlayed":1170,
         "rating":7.050769230769232,
         "isManOfTheMatch":false,
         "playedPositionsShort":"D(CL),M(CLR)",
         "dribbleLost":0.615384615384,
         "dribbleTotal":1.384615384614,
         "name":"Saúl Ñíguez",
         "dribbleWon":0.76923076923
      },
      {
         "ranking":168,
         "seasonId":7344,
         "seasonName":"2018/2019",
         "tournamentId":22,
         "tournamentRegionId":74,
         "tournamentRegionCode":"fr",
         "tournamentRegionName":"France",
         "regionCode":"fr",
         "tournamentName":"Ligue 1",
         "tournamentShortName":"FL1",
         "firstName":"Abdoulaye",
         "lastName":"Touré",
         "playerId":128880,
         "isActive":true,
         "isOpta":true,
         "teamId":302,
         "teamName":"Nantes",
         "teamRegionName":"France",
         "playedPositions":"-DMC-",
         "age":24,
         "height":186,
         "weight":88,
         "positionText":"Midfielder",
         "apps":12,
         "subOn":0,
         "minsPlayed":1068,
         "rating":7.0166666666666666,
         "isManOfTheMatch":false,
         "playedPositionsShort":"DMC",
         "dribbleLost":0.674157303368,
         "dribbleTotal":1.432584269657,
         "name":"Abdoulaye Touré",
         "dribbleWon":0.758426966289
      },
      {
         "ranking":169,
         "seasonId":7405,
         "seasonName":"2018/2019",
         "tournamentId":3,
         "tournamentRegionId":81,
         "tournamentRegionCode":"de",
         "tournamentRegionName":"Germany",
         "regionCode":"de",
         "tournamentName":"Bundesliga",
         "tournamentShortName":"GB",
         "firstName":"Arne",
         "lastName":"Maier",
         "playerId":333350,
         "isActive":true,
         "isOpta":true,
         "teamId":47,
         "teamName":"Hertha Berlin",
         "teamRegionName":"Germany",
         "playedPositions":"-DMC-",
         "age":20,
         "height":183,
         "weight":79,
         "positionText":"Midfielder",
         "apps":16,
         "subOn":0,
         "minsPlayed":1440,
         "rating":6.69375,
         "isManOfTheMatch":false,
         "playedPositionsShort":"DMC",
         "dribbleLost":0.4375,
         "dribbleTotal":1.1875,
         "name":"Arne Maier",
         "dribbleWon":0.75
      },
      {
         "ranking":170,
         "seasonId":7468,
         "seasonName":"2018/2019",
         "tournamentId":5,
         "tournamentRegionId":108,
         "tournamentRegionCode":"it",
         "tournamentRegionName":"Italy",
         "regionCode":"ch",
         "tournamentName":"Serie A",
         "tournamentShortName":"ISA",
         "firstName":"Remo",
         "lastName":"Freuler",
         "playerId":302691,
         "isActive":true,
         "isOpta":true,
         "teamId":300,
         "teamName":"Atalanta",
         "teamRegionName":"Italy",
         "playedPositions":"-DMC-",
         "age":26,
         "height":181,
         "weight":77,
         "positionText":"Midfielder",
         "apps":18,
         "subOn":0,
         "minsPlayed":1567,
         "rating":7.0100000000000007,
         "isManOfTheMatch":false,
         "playedPositionsShort":"DMC",
         "dribbleLost":0.402042118695,
         "dribbleTotal":1.1486917677,
         "name":"Remo Freuler",
         "dribbleWon":0.746649649005
      }
   ],
   "paging":{
      "currentPage":17,
      "totalPages":25,
      "resultsPerPage":10,
      "totalResults":245,
      "firstRecordIndex":161,
      "lastRecordIndex":170
   },
   "statColumns":[
      "apps",
      "subOn",
      "minsPlayed",
      "dribbleLost",
      "dribbleWon",
      "dribbleTotal"
   ]
}