{
   "playerTableStats":[
      {
         "height":180,
         "weight":73,
         "age":21,
         "isManOfTheMatch":false,
         "isActive":true,
         "playedPositions":"-MC-ML-MR-",
         "playedPositionsShort":"M(CLR)",
         "teamRegionName":"France",
         "regionCode":"fr",
         "tournamentShortName":"FL1",
         "apps":14,
         "subOn":0,
         "dribbleLost":0.77386070506999993,
         "dribbleTotal":2.089423903689,
         "name":"Ludovic Blas",
         "firstName":"Ludovic",
         "lastName":"Blas",
         "playerId":299562,
         "positionText":"Midfielder",
         "teamId":426,
         "teamName":"Guingamp",
         "seasonId":7344,
         "seasonName":"2018/2019",
         "isOpta":true,
         "tournamentId":22,
         "tournamentRegionId":74,
         "tournamentRegionCode":"fr",
         "tournamentRegionName":"France",
         "tournamentName":"Ligue 1",
         "rating":6.7228571428571424,
         "minsPlayed":1163,
         "dribbleWon":1.315563198619,
         "ranking":91
      },
      {
         "height":184,
         "weight":82,
         "age":26,
         "isManOfTheMatch":false,
         "isActive":true,
         "playedPositions":"-AML-AMR-FW-",
         "playedPositionsShort":"AM(LR),FW",
         "teamRegionName":"Germany",
         "regionCode":"rs",
         "tournamentShortName":"GB",
         "apps":14,
         "subOn":0,
         "dribbleLost":0.72289156626,
         "dribbleTotal":2.024096385528,
         "name":"Filip Kostic",
         "firstName":"Filip",
         "lastName":"Kostic",
         "playerId":105995,
         "positionText":"Midfielder",
         "teamId":45,
         "teamName":"Eintracht Frankfurt",
         "seasonId":7405,
         "seasonName":"2018/2019",
         "isOpta":true,
         "tournamentId":3,
         "tournamentRegionId":81,
         "tournamentRegionCode":"de",
         "tournamentRegionName":"Germany",
         "tournamentName":"Bundesliga",
         "rating":7.232857142857144,
         "minsPlayed":1245,
         "dribbleWon":1.301204819268,
         "ranking":92
      },
      {
         "height":172,
         "weight":67,
         "age":23,
         "isManOfTheMatch":false,
         "isActive":true,
         "playedPositions":"-AMC-AML-",
         "playedPositionsShort":"AM(CL)",
         "teamRegionName":"Spain",
         "regionCode":"mk",
         "tournamentShortName":"SLL",
         "apps":15,
         "subOn":0,
         "dribbleLost":1.159969673995,
         "dribbleTotal":2.45640636846,
         "name":"Enis Bardhi",
         "firstName":"Enis",
         "lastName":"Bardhi",
         "playerId":275687,
         "positionText":"Midfielder",
         "teamId":832,
         "teamName":"Levante",
         "seasonId":7466,
         "seasonName":"2018/2019",
         "isOpta":true,
         "tournamentId":4,
         "tournamentRegionId":206,
         "tournamentRegionCode":"es",
         "tournamentRegionName":"Spain",
         "tournamentName":"La Liga",
         "rating":6.817333333333333,
         "minsPlayed":1319,
         "dribbleWon":1.296436694465,
         "ranking":93
      },
      {
         "height":188,
         "weight":71,
         "age":23,
         "isManOfTheMatch":false,
         "isActive":true,
         "playedPositions":"-DMC-",
         "playedPositionsShort":"DMC",
         "teamRegionName":"France",
         "regionCode":"fr",
         "tournamentShortName":"FL1",
         "apps":12,
         "subOn":0,
         "dribbleLost":0.59885931558599992,
         "dribbleTotal":1.882129277556,
         "name":"Adrien Rabiot",
         "firstName":"Adrien",
         "lastName":"Rabiot",
         "playerId":116609,
         "positionText":"Midfielder",
         "teamId":304,
         "teamName":"Paris Saint-Germain",
         "seasonId":7344,
         "seasonName":"2018/2019",
         "isOpta":true,
         "tournamentId":22,
         "tournamentRegionId":74,
         "tournamentRegionCode":"fr",
         "tournamentRegionName":"France",
         "tournamentName":"Ligue 1",
         "rating":7.4999999999999991,
         "minsPlayed":1052,
         "dribbleWon":1.2832699619699999,
         "ranking":94
      },
      {
         "height":186,
         "weight":81,
         "age":25,
         "isManOfTheMatch":false,
         "isActive":true,
         "playedPositions":"-AML-AMR-FW-",
         "playedPositionsShort":"AM(LR),FW",
         "teamRegionName":"France",
         "regionCode":"td",
         "tournamentShortName":"FL1",
         "apps":12,
         "subOn":0,
         "dribbleLost":2.565789473676,
         "dribbleTotal":3.8486842105139996,
         "name":"Casimir Ninga",
         "firstName":"Rodrigue Casimir",
         "lastName":"Ninga",
         "playerId":298542,
         "positionText":"Forward",
         "teamId":347,
         "teamName":"Caen",
         "seasonId":7344,
         "seasonName":"2018/2019",
         "isOpta":true,
         "tournamentId":22,
         "tournamentRegionId":74,
         "tournamentRegionCode":"fr",
         "tournamentRegionName":"France",
         "tournamentName":"Ligue 1",
         "rating":6.6033333333333317,
         "minsPlayed":912,
         "dribbleWon":1.282894736838,
         "ranking":95
      },
      {
         "height":184,
         "weight":83,
         "age":27,
         "isManOfTheMatch":false,
         "isActive":true,
         "playedPositions":"-DMC-",
         "playedPositionsShort":"DMC",
         "teamRegionName":"France",
         "regionCode":"fr",
         "tournamentShortName":"FL1",
         "apps":15,
         "subOn":0,
         "dribbleLost":0.80777860881599994,
         "dribbleTotal":2.0867614061079998,
         "name":"Thomas Monconduit",
         "firstName":"Thomas",
         "lastName":"Monconduit",
         "playerId":100869,
         "positionText":"Midfielder",
         "teamId":151,
         "teamName":"Amiens",
         "seasonId":7344,
         "seasonName":"2018/2019",
         "isOpta":true,
         "tournamentId":22,
         "tournamentRegionId":74,
         "tournamentRegionCode":"fr",
         "tournamentRegionName":"France",
         "tournamentName":"Ligue 1",
         "rating":6.826,
         "minsPlayed":1337,
         "dribbleWon":1.278982797292,
         "ranking":96
      },
      {
         "height":180,
         "weight":79,
         "age":21,
         "isManOfTheMatch":false,
         "isActive":true,
         "playedPositions":"-DMC-",
         "playedPositionsShort":"DMC",
         "teamRegionName":"Spain",
         "regionCode":"es",
         "tournamentShortName":"SLL",
         "apps":15,
         "subOn":0,
         "dribbleLost":0.141509433962,
         "dribbleTotal":1.41509433962,
         "name":"Igor Zubeldia",
         "firstName":"Igor",
         "lastName":"Zubeldia",
         "playerId":315566,
         "positionText":"Midfielder",
         "teamId":68,
         "teamName":"Real Sociedad",
         "seasonId":7466,
         "seasonName":"2018/2019",
         "isOpta":true,
         "tournamentId":4,
         "tournamentRegionId":206,
         "tournamentRegionCode":"es",
         "tournamentRegionName":"Spain",
         "tournamentName":"La Liga",
         "rating":6.9013333333333353,
         "minsPlayed":1272,
         "dribbleWon":1.273584905658,
         "ranking":97
      },
      {
         "height":181,
         "weight":78,
         "age":21,
         "isManOfTheMatch":false,
         "isActive":true,
         "playedPositions":"-AMC-AML-AMR-",
         "playedPositionsShort":"AM(CLR)",
         "teamRegionName":"Spain",
         "regionCode":"es",
         "tournamentShortName":"SLL",
         "apps":16,
         "subOn":0,
         "dribbleLost":1.469933184852,
         "dribbleTotal":2.739420935406,
         "name":"Mikel Oyarzabal",
         "firstName":"Mikel",
         "lastName":"Oyarzabal",
         "playerId":298839,
         "positionText":"Forward",
         "teamId":68,
         "teamName":"Real Sociedad",
         "seasonId":7466,
         "seasonName":"2018/2019",
         "isOpta":true,
         "tournamentId":4,
         "tournamentRegionId":206,
         "tournamentRegionCode":"es",
         "tournamentRegionName":"Spain",
         "tournamentName":"La Liga",
         "rating":6.8362500000000006,
         "minsPlayed":1347,
         "dribbleWon":1.269487750554,
         "ranking":98
      },
      {
         "height":173,
         "weight":64,
         "age":24,
         "isManOfTheMatch":false,
         "isActive":true,
         "playedPositions":"-AMC-AML-AMR-",
         "playedPositionsShort":"AM(CLR)",
         "teamRegionName":"England",
         "regionCode":"pt",
         "tournamentShortName":"EPL",
         "apps":19,
         "subOn":0,
         "dribbleLost":1.04268292682,
         "dribbleTotal":2.30487804876,
         "name":"Bernardo Silva",
         "firstName":"Bernardo Mota",
         "lastName":"Veiga de Carvalho e Silva",
         "playerId":136741,
         "positionText":"Midfielder",
         "teamId":167,
         "teamName":"Manchester City",
         "seasonId":7361,
         "seasonName":"2018/2019",
         "isOpta":true,
         "tournamentId":2,
         "tournamentRegionId":252,
         "tournamentRegionCode":"gb-eng",
         "tournamentRegionName":"England",
         "tournamentName":"Premier League",
         "rating":7.3031578947368416,
         "minsPlayed":1640,
         "dribbleWon":1.26219512194,
         "ranking":99
      },
      {
         "height":165,
         "weight":60,
         "age":26,
         "isManOfTheMatch":false,
         "isActive":true,
         "playedPositions":"-DMC-",
         "playedPositionsShort":"DMC",
         "teamRegionName":"France",
         "regionCode":"it",
         "tournamentShortName":"FL1",
         "apps":10,
         "subOn":0,
         "dribbleLost":0.114358322744,
         "dribbleTotal":1.3722998729279998,
         "name":"Marco Verratti",
         "firstName":"Marco",
         "lastName":"Verratti",
         "playerId":91961,
         "positionText":"Midfielder",
         "teamId":304,
         "teamName":"Paris Saint-Germain",
         "seasonId":7344,
         "seasonName":"2018/2019",
         "isOpta":true,
         "tournamentId":22,
         "tournamentRegionId":74,
         "tournamentRegionCode":"fr",
         "tournamentRegionName":"France",
         "tournamentName":"Ligue 1",
         "rating":7.1129999999999995,
         "minsPlayed":787,
         "dribbleWon":1.257941550184,
         "ranking":100
      }
   ],
   "paging":{
      "currentPage":10,
      "totalPages":25,
      "resultsPerPage":10,
      "totalResults":245,
      "firstRecordIndex":91,
      "lastRecordIndex":100
   },
   "statColumns":[
      "apps",
      "subOn",
      "minsPlayed",
      "dribbleLost",
      "dribbleWon",
      "dribbleTotal"
   ]
}