{
   "playerTableStats":[
      {
         "ranking":41,
         "seasonId":7468,
         "seasonName":"2018/2019",
         "tournamentId":5,
         "tournamentRegionId":108,
         "tournamentRegionCode":"it",
         "tournamentRegionName":"Italy",
         "regionCode":"it",
         "tournamentName":"Serie A",
         "tournamentShortName":"ISA",
         "firstName":"Stephan",
         "lastName":"El Shaarawy",
         "playerId":70087,
         "isActive":true,
         "isOpta":true,
         "teamId":84,
         "teamName":"Roma",
         "teamRegionName":"Italy",
         "playedPositions":"-AMC-AML-AMR-FW-",
         "age":26,
         "height":178,
         "weight":72,
         "positionText":"Forward",
         "apps":10,
         "subOn":0,
         "minsPlayed":835,
         "rating":7.4380000000000006,
         "isManOfTheMatch":false,
         "playedPositionsShort":"AM(CLR),FW",
         "dribbleLost":1.832335329329,
         "dribbleTotal":3.664670658658,
         "name":"Stephan El Shaarawy",
         "dribbleWon":1.832335329329
      },
      {
         "ranking":42,
         "seasonId":7361,
         "seasonName":"2018/2019",
         "tournamentId":2,
         "tournamentRegionId":252,
         "tournamentRegionCode":"gb-eng",
         "tournamentRegionName":"England",
         "regionCode":"br",
         "tournamentName":"Premier League",
         "tournamentShortName":"EPL",
         "firstName":"Felipe Anderson",
         "lastName":"Pereira Gomes",
         "playerId":93026,
         "isActive":true,
         "isOpta":true,
         "teamId":29,
         "teamName":"West Ham",
         "teamRegionName":"England",
         "playedPositions":"-FW-MC-ML-MR-",
         "age":25,
         "height":175,
         "weight":70,
         "positionText":"Midfielder",
         "apps":21,
         "subOn":0,
         "minsPlayed":1776,
         "rating":7.2980952380952386,
         "isManOfTheMatch":false,
         "playedPositionsShort":"M(CLR),FW",
         "dribbleLost":2.12837837835,
         "dribbleTotal":3.95270270265,
         "name":"Felipe Anderson",
         "dribbleWon":1.8243243242999998
      },
      {
         "ranking":43,
         "seasonId":7344,
         "seasonName":"2018/2019",
         "tournamentId":22,
         "tournamentRegionId":74,
         "tournamentRegionCode":"fr",
         "tournamentRegionName":"France",
         "regionCode":"fr",
         "tournamentName":"Ligue 1",
         "tournamentShortName":"FL1",
         "firstName":"Houssem",
         "lastName":"Aouar",
         "playerId":322096,
         "isActive":true,
         "isOpta":true,
         "teamId":228,
         "teamName":"Lyon",
         "teamRegionName":"France",
         "playedPositions":"-MC-ML-",
         "age":20,
         "height":175,
         "weight":70,
         "positionText":"Midfielder",
         "apps":16,
         "subOn":0,
         "minsPlayed":1396,
         "rating":7.3362500000000015,
         "isManOfTheMatch":false,
         "playedPositionsShort":"M(CL)",
         "dribbleLost":1.2249283667600002,
         "dribbleTotal":3.03008595988,
         "name":"Houssem Aouar",
         "dribbleWon":1.8051575931200001
      },
      {
         "ranking":44,
         "seasonId":7466,
         "seasonName":"2018/2019",
         "tournamentId":4,
         "tournamentRegionId":206,
         "tournamentRegionCode":"es",
         "tournamentRegionName":"Spain",
         "regionCode":"sn",
         "tournamentName":"La Liga",
         "tournamentShortName":"SLL",
         "firstName":"Amath",
         "lastName":"Ndiaye",
         "playerId":315298,
         "isActive":true,
         "isOpta":true,
         "teamId":819,
         "teamName":"Getafe",
         "teamRegionName":"Spain",
         "playedPositions":"-AML-",
         "age":22,
         "height":173,
         "weight":70,
         "positionText":"Forward",
         "apps":13,
         "subOn":0,
         "minsPlayed":948,
         "rating":6.634615384615385,
         "isManOfTheMatch":false,
         "playedPositionsShort":"AM(L)",
         "dribbleLost":2.08860759492,
         "dribbleTotal":3.89240506326,
         "name":"Amath Ndiaye",
         "dribbleWon":1.80379746834
      },
      {
         "ranking":45,
         "seasonId":7466,
         "seasonName":"2018/2019",
         "tournamentId":4,
         "tournamentRegionId":206,
         "tournamentRegionCode":"es",
         "tournamentRegionName":"Spain",
         "regionCode":"es",
         "tournamentName":"La Liga",
         "tournamentShortName":"SLL",
         "firstName":"Jonathan",
         "lastName":"Rodríguez Menéndez",
         "playerId":294140,
         "isActive":true,
         "isOpta":true,
         "teamId":60,
         "teamName":"Deportivo Alaves",
         "teamRegionName":"Spain",
         "playedPositions":"-AML-AMR-",
         "age":27,
         "height":179,
         "weight":76,
         "positionText":"Midfielder",
         "apps":17,
         "subOn":0,
         "minsPlayed":1436,
         "rating":6.9170588235294117,
         "isManOfTheMatch":false,
         "playedPositionsShort":"AM(LR)",
         "dribbleLost":2.318941504159,
         "dribbleTotal":4.073816155955,
         "name":"Jony",
         "dribbleWon":1.7548746517959999
      },
      {
         "ranking":46,
         "seasonId":7468,
         "seasonName":"2018/2019",
         "tournamentId":5,
         "tournamentRegionId":108,
         "tournamentRegionCode":"it",
         "tournamentRegionName":"Italy",
         "regionCode":"si",
         "tournamentName":"Serie A",
         "tournamentShortName":"ISA",
         "firstName":"Miha",
         "lastName":"Zajc",
         "playerId":120601,
         "isActive":true,
         "isOpta":true,
         "teamId":272,
         "teamName":"Empoli",
         "teamRegionName":"Italy",
         "playedPositions":"-AMC-",
         "age":24,
         "height":180,
         "weight":76,
         "positionText":"Midfielder",
         "apps":10,
         "subOn":0,
         "minsPlayed":774,
         "rating":6.814,
         "isManOfTheMatch":false,
         "playedPositionsShort":"AM(C)",
         "dribbleLost":0.930232558136,
         "dribbleTotal":2.674418604641,
         "name":"Miha Zajc",
         "dribbleWon":1.744186046505
      },
      {
         "ranking":47,
         "seasonId":7468,
         "seasonName":"2018/2019",
         "tournamentId":5,
         "tournamentRegionId":108,
         "tournamentRegionCode":"it",
         "tournamentRegionName":"Italy",
         "regionCode":"it",
         "tournamentName":"Serie A",
         "tournamentShortName":"ISA",
         "firstName":"Domenico",
         "lastName":"Berardi",
         "playerId":118542,
         "isActive":true,
         "isOpta":true,
         "teamId":2889,
         "teamName":"Sassuolo",
         "teamRegionName":"Italy",
         "playedPositions":"-AMR-FW-",
         "age":24,
         "height":183,
         "weight":72,
         "positionText":"Forward",
         "apps":15,
         "subOn":0,
         "minsPlayed":1293,
         "rating":7.128,
         "isManOfTheMatch":false,
         "playedPositionsShort":"AM(R),FW",
         "dribbleLost":1.3921113689,
         "dribbleTotal":3.132250580025,
         "name":"Domenico Berardi",
         "dribbleWon":1.740139211125
      },
      {
         "ranking":48,
         "seasonId":7466,
         "seasonName":"2018/2019",
         "tournamentId":4,
         "tournamentRegionId":206,
         "tournamentRegionCode":"es",
         "tournamentRegionName":"Spain",
         "regionCode":"es",
         "tournamentName":"La Liga",
         "tournamentShortName":"SLL",
         "firstName":"José",
         "lastName":"Campaña",
         "playerId":91214,
         "isActive":true,
         "isOpta":true,
         "teamId":832,
         "teamName":"Levante",
         "teamRegionName":"Spain",
         "playedPositions":"-MC-",
         "age":25,
         "height":179,
         "weight":70,
         "positionText":"Midfielder",
         "apps":17,
         "subOn":0,
         "minsPlayed":1508,
         "rating":7.0111764705882358,
         "isManOfTheMatch":false,
         "playedPositionsShort":"M(C)",
         "dribbleLost":0.775862068956,
         "dribbleTotal":2.506631299704,
         "name":"José Campaña",
         "dribbleWon":1.730769230748
      },
      {
         "ranking":49,
         "seasonId":7468,
         "seasonName":"2018/2019",
         "tournamentId":5,
         "tournamentRegionId":108,
         "tournamentRegionCode":"it",
         "tournamentRegionName":"Italy",
         "regionCode":null,
         "tournamentName":"Serie A",
         "tournamentShortName":"ISA",
         "firstName":"Hamed Junior",
         "lastName":"Traore",
         "playerId":362551,
         "isActive":true,
         "isOpta":true,
         "teamId":272,
         "teamName":"Empoli",
         "teamRegionName":"Italy",
         "playedPositions":"-MC-",
         "age":18,
         "height":0,
         "weight":0,
         "positionText":"Midfielder",
         "apps":11,
         "subOn":0,
         "minsPlayed":888,
         "rating":6.5827272727272721,
         "isManOfTheMatch":false,
         "playedPositionsShort":"M(C)",
         "dribbleLost":0.912162162159,
         "dribbleTotal":2.635135135126,
         "name":"Hamed Junior Traore",
         "dribbleWon":1.722972972967
      },
      {
         "ranking":50,
         "seasonId":7405,
         "seasonName":"2018/2019",
         "tournamentId":3,
         "tournamentRegionId":81,
         "tournamentRegionCode":"de",
         "tournamentRegionName":"Germany",
         "regionCode":"be",
         "tournamentName":"Bundesliga",
         "tournamentShortName":"GB",
         "firstName":"Thorgan",
         "lastName":"Hazard",
         "playerId":101537,
         "isActive":true,
         "isOpta":true,
         "teamId":134,
         "teamName":"Borussia M.Gladbach",
         "teamRegionName":"Germany",
         "playedPositions":"-AMC-AML-AMR-FW-",
         "age":25,
         "height":174,
         "weight":69,
         "positionText":"Forward",
         "apps":17,
         "subOn":0,
         "minsPlayed":1523,
         "rating":7.7070588235294126,
         "isManOfTheMatch":false,
         "playedPositionsShort":"AM(CLR),FW",
         "dribbleLost":1.47734734075,
         "dribbleTotal":3.1910702560199997,
         "name":"Thorgan Hazard",
         "dribbleWon":1.71372291527
      }
   ],
   "paging":{
      "currentPage":5,
      "totalPages":25,
      "resultsPerPage":10,
      "totalResults":245,
      "firstRecordIndex":41,
      "lastRecordIndex":50
   },
   "statColumns":[
      "apps",
      "subOn",
      "minsPlayed",
      "dribbleLost",
      "dribbleWon",
      "dribbleTotal"
   ]
}