{
   "playerTableStats":[
      {
         "ranking":181,
         "seasonId":7468,
         "seasonName":"2018/2019",
         "tournamentId":5,
         "tournamentRegionId":108,
         "tournamentRegionCode":"it",
         "tournamentRegionName":"Italy",
         "regionCode":"it",
         "tournamentName":"Serie A",
         "tournamentShortName":"ISA",
         "firstName":"Stefano",
         "lastName":"Sensi",
         "playerId":136306,
         "isActive":true,
         "isOpta":true,
         "teamId":2889,
         "teamName":"Sassuolo",
         "teamRegionName":"Italy",
         "playedPositions":"-MC-",
         "age":23,
         "height":168,
         "weight":62,
         "positionText":"Midfielder",
         "apps":10,
         "subOn":0,
         "minsPlayed":799,
         "rating":7.0409999999999995,
         "isManOfTheMatch":false,
         "playedPositionsShort":"M(C)",
         "dribbleLost":0.901126408008,
         "dribbleTotal":1.5769712140140002,
         "name":"Stefano Sensi",
         "dribbleWon":0.675844806006
      },
      {
         "ranking":182,
         "seasonId":7466,
         "seasonName":"2018/2019",
         "tournamentId":4,
         "tournamentRegionId":206,
         "tournamentRegionCode":"es",
         "tournamentRegionName":"Spain",
         "regionCode":"es",
         "tournamentName":"La Liga",
         "tournamentShortName":"SLL",
         "firstName":"Rubén",
         "lastName":"Alcaraz",
         "playerId":279711,
         "isActive":true,
         "isOpta":true,
         "teamId":58,
         "teamName":"Real Valladolid",
         "teamRegionName":"Spain",
         "playedPositions":"-DMC-",
         "age":27,
         "height":180,
         "weight":78,
         "positionText":"Midfielder",
         "apps":17,
         "subOn":0,
         "minsPlayed":1470,
         "rating":7.0264705882352931,
         "isManOfTheMatch":false,
         "playedPositionsShort":"DMC",
         "dribbleLost":0.24489795918,
         "dribbleTotal":0.918367346925,
         "name":"Rubén Alcaraz",
         "dribbleWon":0.673469387745
      },
      {
         "ranking":183,
         "seasonId":7468,
         "seasonName":"2018/2019",
         "tournamentId":5,
         "tournamentRegionId":108,
         "tournamentRegionCode":"it",
         "tournamentRegionName":"Italy",
         "regionCode":"it",
         "tournamentName":"Serie A",
         "tournamentShortName":"ISA",
         "firstName":"Manuel",
         "lastName":"Locatelli",
         "playerId":273539,
         "isActive":true,
         "isOpta":true,
         "teamId":2889,
         "teamName":"Sassuolo",
         "teamRegionName":"Italy",
         "playedPositions":"-MC-",
         "age":21,
         "height":185,
         "weight":75,
         "positionText":"Midfielder",
         "apps":10,
         "subOn":0,
         "minsPlayed":819,
         "rating":6.8459999999999992,
         "isManOfTheMatch":false,
         "playedPositionsShort":"M(C)",
         "dribbleLost":0.43956043956,
         "dribbleTotal":1.0989010988999999,
         "name":"Manuel Locatelli",
         "dribbleWon":0.65934065934
      },
      {
         "ranking":184,
         "seasonId":7344,
         "seasonName":"2018/2019",
         "tournamentId":22,
         "tournamentRegionId":74,
         "tournamentRegionCode":"fr",
         "tournamentRegionName":"France",
         "regionCode":"fr",
         "tournamentName":"Ligue 1",
         "tournamentShortName":"FL1",
         "firstName":"Adrien",
         "lastName":"Thomasson",
         "playerId":113747,
         "isActive":true,
         "isOpta":true,
         "teamId":148,
         "teamName":"Strasbourg",
         "teamRegionName":"France",
         "playedPositions":"-MC-ML-MR-",
         "age":25,
         "height":177,
         "weight":72,
         "positionText":"Midfielder",
         "apps":15,
         "subOn":0,
         "minsPlayed":1240,
         "rating":6.8786666666666667,
         "isManOfTheMatch":false,
         "playedPositionsShort":"M(CLR)",
         "dribbleLost":0.362903225805,
         "dribbleTotal":1.0161290322540002,
         "name":"Adrien Thomasson",
         "dribbleWon":0.65322580644900008
      },
      {
         "ranking":185,
         "seasonId":7361,
         "seasonName":"2018/2019",
         "tournamentId":2,
         "tournamentRegionId":252,
         "tournamentRegionCode":"gb-eng",
         "tournamentRegionName":"England",
         "regionCode":"co",
         "tournamentName":"Premier League",
         "tournamentShortName":"EPL",
         "firstName":"Jefferson",
         "lastName":"Lerma",
         "playerId":133464,
         "isActive":true,
         "isOpta":true,
         "teamId":183,
         "teamName":"Bournemouth",
         "teamRegionName":"England",
         "playedPositions":"-DMC-DR-",
         "age":24,
         "height":179,
         "weight":70,
         "positionText":"Midfielder",
         "apps":16,
         "subOn":0,
         "minsPlayed":1382,
         "rating":6.95625,
         "isManOfTheMatch":false,
         "playedPositionsShort":"D(R),DMC",
         "dribbleLost":0.13024602026,
         "dribbleTotal":0.78147612156,
         "name":"Jefferson Lerma",
         "dribbleWon":0.6512301013
      },
      {
         "ranking":186,
         "seasonId":7361,
         "seasonName":"2018/2019",
         "tournamentId":2,
         "tournamentRegionId":252,
         "tournamentRegionCode":"gb-eng",
         "tournamentRegionName":"England",
         "regionCode":"fr",
         "tournamentName":"Premier League",
         "tournamentShortName":"EPL",
         "firstName":"Nampalys",
         "lastName":"Mendy",
         "playerId":90278,
         "isActive":true,
         "isOpta":true,
         "teamId":14,
         "teamName":"Leicester",
         "teamRegionName":"England",
         "playedPositions":"-MC-",
         "age":26,
         "height":167,
         "weight":73,
         "positionText":"Midfielder",
         "apps":19,
         "subOn":0,
         "minsPlayed":1680,
         "rating":6.5378947368421061,
         "isManOfTheMatch":false,
         "playedPositionsShort":"M(C)",
         "dribbleLost":0.321428571426,
         "dribbleTotal":0.964285714278,
         "name":"Nampalys Mendy",
         "dribbleWon":0.642857142852
      },
      {
         "ranking":187,
         "seasonId":7466,
         "seasonName":"2018/2019",
         "tournamentId":4,
         "tournamentRegionId":206,
         "tournamentRegionCode":"es",
         "tournamentRegionName":"Spain",
         "regionCode":"es",
         "tournamentName":"La Liga",
         "tournamentShortName":"SLL",
         "firstName":"Gonzalo",
         "lastName":"Melero",
         "playerId":261698,
         "isActive":true,
         "isOpta":true,
         "teamId":5006,
         "teamName":"SD Huesca",
         "teamRegionName":"Spain",
         "playedPositions":"-MC-",
         "age":25,
         "height":183,
         "weight":77,
         "positionText":"Midfielder",
         "apps":10,
         "subOn":0,
         "minsPlayed":842,
         "rating":6.5329999999999995,
         "isManOfTheMatch":false,
         "playedPositionsShort":"M(C)",
         "dribbleLost":0.85510688836,
         "dribbleTotal":1.49643705463,
         "name":"Gonzalo Melero",
         "dribbleWon":0.64133016627000006
      },
      {
         "ranking":188,
         "seasonId":7405,
         "seasonName":"2018/2019",
         "tournamentId":3,
         "tournamentRegionId":81,
         "tournamentRegionCode":"de",
         "tournamentRegionName":"Germany",
         "regionCode":"at",
         "tournamentName":"Bundesliga",
         "tournamentShortName":"GB",
         "firstName":"Kevin",
         "lastName":"Stöger",
         "playerId":104011,
         "isActive":true,
         "isOpta":true,
         "teamId":1150,
         "teamName":"Fortuna Duesseldorf",
         "teamRegionName":"Germany",
         "playedPositions":"-AMC-AML-",
         "age":25,
         "height":175,
         "weight":73,
         "positionText":"Midfielder",
         "apps":10,
         "subOn":0,
         "minsPlayed":852,
         "rating":7.0210000000000008,
         "isManOfTheMatch":false,
         "playedPositionsShort":"AM(CL)",
         "dribbleLost":0.52816901408,
         "dribbleTotal":1.161971830976,
         "name":"Kevin Stöger",
         "dribbleWon":0.633802816896
      },
      {
         "ranking":189,
         "seasonId":7405,
         "seasonName":"2018/2019",
         "tournamentId":3,
         "tournamentRegionId":81,
         "tournamentRegionCode":"de",
         "tournamentRegionName":"Germany",
         "regionCode":"nl",
         "tournamentName":"Bundesliga",
         "tournamentShortName":"GB",
         "firstName":"Davy",
         "lastName":"Klaassen",
         "playerId":108860,
         "isActive":true,
         "isOpta":true,
         "teamId":42,
         "teamName":"Werder Bremen",
         "teamRegionName":"Germany",
         "playedPositions":"-AMC-",
         "age":25,
         "height":179,
         "weight":70,
         "positionText":"Midfielder",
         "apps":17,
         "subOn":0,
         "minsPlayed":1426,
         "rating":6.895294117647059,
         "isManOfTheMatch":false,
         "playedPositionsShort":"AM(C)",
         "dribbleLost":0.378681626928,
         "dribbleTotal":1.009817671808,
         "name":"Davy Klaassen",
         "dribbleWon":0.63113604488000008
      },
      {
         "ranking":190,
         "seasonId":7344,
         "seasonName":"2018/2019",
         "tournamentId":22,
         "tournamentRegionId":74,
         "tournamentRegionCode":"fr",
         "tournamentRegionName":"France",
         "regionCode":"fr",
         "tournamentName":"Ligue 1",
         "tournamentShortName":"FL1",
         "firstName":"Valentin",
         "lastName":"Rongier",
         "playerId":231144,
         "isActive":true,
         "isOpta":true,
         "teamId":302,
         "teamName":"Nantes",
         "teamRegionName":"France",
         "playedPositions":"-MC-",
         "age":24,
         "height":172,
         "weight":70,
         "positionText":"Midfielder",
         "apps":16,
         "subOn":0,
         "minsPlayed":1428,
         "rating":6.8275000000000006,
         "isManOfTheMatch":false,
         "playedPositionsShort":"M(C)",
         "dribbleLost":0.693277310924,
         "dribbleTotal":1.323529411764,
         "name":"Valentin Rongier",
         "dribbleWon":0.63025210083999994
      }
   ],
   "paging":{
      "currentPage":19,
      "totalPages":25,
      "resultsPerPage":10,
      "totalResults":245,
      "firstRecordIndex":181,
      "lastRecordIndex":190
   },
   "statColumns":[
      "apps",
      "subOn",
      "minsPlayed",
      "dribbleLost",
      "dribbleWon",
      "dribbleTotal"
   ]
}