{
   "playerTableStats":[
      {
         "ranking":141,
         "seasonId":7466,
         "seasonName":"2018/2019",
         "tournamentId":4,
         "tournamentRegionId":206,
         "tournamentRegionCode":"es",
         "tournamentRegionName":"Spain",
         "regionCode":"es",
         "tournamentName":"La Liga",
         "tournamentShortName":"SLL",
         "firstName":"Carlos",
         "lastName":"Soler",
         "playerId":313542,
         "isActive":true,
         "isOpta":true,
         "teamId":55,
         "teamName":"Valencia",
         "teamRegionName":"Spain",
         "playedPositions":"-MC-MR-",
         "age":22,
         "height":180,
         "weight":76,
         "positionText":"Midfielder",
         "apps":15,
         "subOn":0,
         "minsPlayed":1282,
         "rating":6.5786666666666669,
         "isManOfTheMatch":false,
         "playedPositionsShort":"M(CR)",
         "dribbleLost":1.193447737904,
         "dribbleTotal":2.1060842433599998,
         "name":"Carlos Soler",
         "dribbleWon":0.912636505456
      },
      {
         "ranking":142,
         "seasonId":7405,
         "seasonName":"2018/2019",
         "tournamentId":3,
         "tournamentRegionId":81,
         "tournamentRegionCode":"de",
         "tournamentRegionName":"Germany",
         "regionCode":"br",
         "tournamentName":"Bundesliga",
         "tournamentShortName":"GB",
         "firstName":"Walace",
         "lastName":"Souza Silva",
         "playerId":147923,
         "isActive":true,
         "isOpta":true,
         "teamId":110,
         "teamName":"Hannover 96",
         "teamRegionName":"Germany",
         "playedPositions":"-DMC-",
         "age":23,
         "height":188,
         "weight":75,
         "positionText":"Midfielder",
         "apps":16,
         "subOn":0,
         "minsPlayed":1390,
         "rating":6.8625000000000007,
         "isManOfTheMatch":false,
         "playedPositionsShort":"DMC",
         "dribbleLost":0.517985611504,
         "dribbleTotal":1.4244604316360001,
         "name":"Walace",
         "dribbleWon":0.90647482013200009
      },
      {
         "ranking":143,
         "seasonId":7361,
         "seasonName":"2018/2019",
         "tournamentId":2,
         "tournamentRegionId":252,
         "tournamentRegionCode":"gb-eng",
         "tournamentRegionName":"England",
         "regionCode":"gb-eng",
         "tournamentName":"Premier League",
         "tournamentShortName":"EPL",
         "firstName":"Will",
         "lastName":"Hughes",
         "playerId":108638,
         "isActive":true,
         "isOpta":true,
         "teamId":27,
         "teamName":"Watford",
         "teamRegionName":"England",
         "playedPositions":"-MC-",
         "age":23,
         "height":185,
         "weight":74,
         "positionText":"Midfielder",
         "apps":16,
         "subOn":0,
         "minsPlayed":1199,
         "rating":6.6831249999999986,
         "isManOfTheMatch":false,
         "playedPositionsShort":"M(C)",
         "dribbleLost":0.600500417008,
         "dribbleTotal":1.5012510425200003,
         "name":"Will Hughes",
         "dribbleWon":0.90075062551200014
      },
      {
         "ranking":144,
         "seasonId":7344,
         "seasonName":"2018/2019",
         "tournamentId":22,
         "tournamentRegionId":74,
         "tournamentRegionCode":"fr",
         "tournamentRegionName":"France",
         "regionCode":"tn",
         "tournamentName":"Ligue 1",
         "tournamentShortName":"FL1",
         "firstName":"Ellyes",
         "lastName":"Skhiri",
         "playerId":238903,
         "isActive":true,
         "isOpta":true,
         "teamId":311,
         "teamName":"Montpellier",
         "teamRegionName":"France",
         "playedPositions":"-DMC-",
         "age":23,
         "height":185,
         "weight":73,
         "positionText":"Midfielder",
         "apps":17,
         "subOn":0,
         "minsPlayed":1500,
         "rating":6.9799999999999995,
         "isManOfTheMatch":false,
         "playedPositionsShort":"DMC",
         "dribbleLost":0.36,
         "dribbleTotal":1.2599999999999998,
         "name":"Ellyes Skhiri",
         "dribbleWon":0.89999999999999991
      },
      {
         "ranking":145,
         "seasonId":7405,
         "seasonName":"2018/2019",
         "tournamentId":3,
         "tournamentRegionId":81,
         "tournamentRegionCode":"de",
         "tournamentRegionName":"Germany",
         "regionCode":"ci",
         "tournamentName":"Bundesliga",
         "tournamentShortName":"GB",
         "firstName":"Jean-Philippe",
         "lastName":"Gbamin",
         "playerId":129758,
         "isActive":true,
         "isOpta":true,
         "teamId":219,
         "teamName":"Mainz 05",
         "teamRegionName":"Germany",
         "playedPositions":"-DC-DMC-DR-",
         "age":23,
         "height":186,
         "weight":83,
         "positionText":"Midfielder",
         "apps":15,
         "subOn":0,
         "minsPlayed":1300,
         "rating":6.6566666666666672,
         "isManOfTheMatch":false,
         "playedPositionsShort":"D(CR),DMC",
         "dribbleLost":1.17692307691,
         "dribbleTotal":2.0769230769,
         "name":"Jean-Philippe Gbamin",
         "dribbleWon":0.89999999999
      },
      {
         "ranking":146,
         "seasonId":7344,
         "seasonName":"2018/2019",
         "tournamentId":22,
         "tournamentRegionId":74,
         "tournamentRegionCode":"fr",
         "tournamentRegionName":"France",
         "regionCode":"fr",
         "tournamentName":"Ligue 1",
         "tournamentShortName":"FL1",
         "firstName":"Morgan",
         "lastName":"Sanson",
         "playerId":115508,
         "isActive":true,
         "isOpta":true,
         "teamId":249,
         "teamName":"Marseille",
         "teamRegionName":"France",
         "playedPositions":"-MC-ML-MR-",
         "age":24,
         "height":180,
         "weight":73,
         "positionText":"Midfielder",
         "apps":13,
         "subOn":0,
         "minsPlayed":1103,
         "rating":6.9861538461538464,
         "isManOfTheMatch":false,
         "playedPositionsShort":"M(CLR)",
         "dribbleLost":0.489573889392,
         "dribbleTotal":1.387126019944,
         "name":"Morgan Sanson",
         "dribbleWon":0.897552130552
      },
      {
         "ranking":147,
         "seasonId":7405,
         "seasonName":"2018/2019",
         "tournamentId":3,
         "tournamentRegionId":81,
         "tournamentRegionCode":"de",
         "tournamentRegionName":"Germany",
         "regionCode":"hr",
         "tournamentName":"Bundesliga",
         "tournamentShortName":"GB",
         "firstName":"Andrej",
         "lastName":"Kramaric",
         "playerId":75217,
         "isActive":true,
         "isOpta":true,
         "teamId":1211,
         "teamName":"Hoffenheim",
         "teamRegionName":"Germany",
         "playedPositions":"-AMC-AML-AMR-FW-",
         "age":27,
         "height":177,
         "weight":73,
         "positionText":"Forward",
         "apps":10,
         "subOn":0,
         "minsPlayed":805,
         "rating":6.9019999999999992,
         "isManOfTheMatch":false,
         "playedPositionsShort":"AM(CLR),FW",
         "dribbleLost":0.670807453416,
         "dribbleTotal":1.565217391304,
         "name":"Andrej Kramaric",
         "dribbleWon":0.894409937888
      },
      {
         "ranking":148,
         "seasonId":7466,
         "seasonName":"2018/2019",
         "tournamentId":4,
         "tournamentRegionId":206,
         "tournamentRegionCode":"es",
         "tournamentRegionName":"Spain",
         "regionCode":"es",
         "tournamentName":"La Liga",
         "tournamentShortName":"SLL",
         "firstName":"Marc",
         "lastName":"Roca",
         "playerId":323148,
         "isActive":true,
         "isOpta":true,
         "teamId":70,
         "teamName":"Espanyol",
         "teamRegionName":"Spain",
         "playedPositions":"-DMC-",
         "age":22,
         "height":184,
         "weight":74,
         "positionText":"Midfielder",
         "apps":16,
         "subOn":0,
         "minsPlayed":1430,
         "rating":6.8543749999999992,
         "isManOfTheMatch":false,
         "playedPositionsShort":"DMC",
         "dribbleLost":0.251748251748,
         "dribbleTotal":1.132867132866,
         "name":"Marc Roca",
         "dribbleWon":0.881118881118
      },
      {
         "ranking":149,
         "seasonId":7466,
         "seasonName":"2018/2019",
         "tournamentId":4,
         "tournamentRegionId":206,
         "tournamentRegionCode":"es",
         "tournamentRegionName":"Spain",
         "regionCode":"uy",
         "tournamentName":"La Liga",
         "tournamentShortName":"SLL",
         "firstName":"Mauro",
         "lastName":"Arambarri",
         "playerId":303016,
         "isActive":true,
         "isOpta":true,
         "teamId":819,
         "teamName":"Getafe",
         "teamRegionName":"Spain",
         "playedPositions":"-DMC-",
         "age":23,
         "height":175,
         "weight":74,
         "positionText":"Midfielder",
         "apps":17,
         "subOn":0,
         "minsPlayed":1431,
         "rating":6.7111764705882342,
         "isManOfTheMatch":false,
         "playedPositionsShort":"DMC",
         "dribbleLost":0.314465408805,
         "dribbleTotal":1.194968553459,
         "name":"Mauro Arambarri",
         "dribbleWon":0.880503144654
      },
      {
         "ranking":150,
         "seasonId":7405,
         "seasonName":"2018/2019",
         "tournamentId":3,
         "tournamentRegionId":81,
         "tournamentRegionCode":"de",
         "tournamentRegionName":"Germany",
         "regionCode":"de",
         "tournamentName":"Bundesliga",
         "tournamentShortName":"GB",
         "firstName":"Leonardo",
         "lastName":"Bittencourt",
         "playerId":100805,
         "isActive":true,
         "isOpta":true,
         "teamId":1211,
         "teamName":"Hoffenheim",
         "teamRegionName":"Germany",
         "playedPositions":"-AMC-AML-AMR-",
         "age":25,
         "height":171,
         "weight":63,
         "positionText":"Midfielder",
         "apps":10,
         "subOn":0,
         "minsPlayed":716,
         "rating":6.9620000000000006,
         "isManOfTheMatch":false,
         "playedPositionsShort":"AM(CLR)",
         "dribbleLost":0.87988826815400012,
         "dribbleTotal":1.7597765363080002,
         "name":"Leonardo Bittencourt",
         "dribbleWon":0.87988826815400012
      }
   ],
   "paging":{
      "currentPage":15,
      "totalPages":25,
      "resultsPerPage":10,
      "totalResults":245,
      "firstRecordIndex":141,
      "lastRecordIndex":150
   },
   "statColumns":[
      "apps",
      "subOn",
      "minsPlayed",
      "dribbleLost",
      "dribbleWon",
      "dribbleTotal"
   ]
}