{
   "playerTableStats":[
      {
         "ranking":121,
         "seasonId":7468,
         "seasonName":"2018/2019",
         "tournamentId":5,
         "tournamentRegionId":108,
         "tournamentRegionCode":"it",
         "tournamentRegionName":"Italy",
         "regionCode":"tr",
         "tournamentName":"Serie A",
         "tournamentShortName":"ISA",
         "firstName":"Hakan",
         "lastName":"Calhanoglu",
         "playerId":110373,
         "isActive":true,
         "isOpta":true,
         "teamId":80,
         "teamName":"AC Milan",
         "teamRegionName":"Italy",
         "playedPositions":"-FW-MC-ML-MR-",
         "age":24,
         "height":178,
         "weight":76,
         "positionText":"Midfielder",
         "apps":16,
         "subOn":0,
         "minsPlayed":1309,
         "rating":6.9787500000000007,
         "isManOfTheMatch":false,
         "playedPositionsShort":"M(CLR),FW",
         "dribbleLost":0.618792971733,
         "dribbleTotal":1.6501145912879998,
         "name":"Hakan Calhanoglu",
         "dribbleWon":1.031321619555
      },
      {
         "ranking":122,
         "seasonId":7466,
         "seasonName":"2018/2019",
         "tournamentId":4,
         "tournamentRegionId":206,
         "tournamentRegionCode":"es",
         "tournamentRegionName":"Spain",
         "regionCode":"es",
         "tournamentName":"La Liga",
         "tournamentShortName":"SLL",
         "firstName":"Óscar",
         "lastName":"Plano",
         "playerId":141533,
         "isActive":true,
         "isOpta":true,
         "teamId":58,
         "teamName":"Real Valladolid",
         "teamRegionName":"Spain",
         "playedPositions":"-AML-",
         "age":27,
         "height":180,
         "weight":72,
         "positionText":"Forward",
         "apps":11,
         "subOn":0,
         "minsPlayed":964,
         "rating":7.0290909090909084,
         "isManOfTheMatch":false,
         "playedPositionsShort":"AM(L)",
         "dribbleLost":0.5601659751,
         "dribbleTotal":1.5871369294500002,
         "name":"Óscar Plano",
         "dribbleWon":1.02697095435
      },
      {
         "ranking":123,
         "seasonId":7361,
         "seasonName":"2018/2019",
         "tournamentId":2,
         "tournamentRegionId":252,
         "tournamentRegionCode":"gb-eng",
         "tournamentRegionName":"England",
         "regionCode":"gb-eng",
         "tournamentName":"Premier League",
         "tournamentShortName":"EPL",
         "firstName":"Alex",
         "lastName":"Pritchard",
         "playerId":107848,
         "isActive":true,
         "isOpta":true,
         "teamId":166,
         "teamName":"Huddersfield",
         "teamRegionName":"England",
         "playedPositions":"-AMC-AML-AMR-",
         "age":25,
         "height":171,
         "weight":62,
         "positionText":"Midfielder",
         "apps":16,
         "subOn":0,
         "minsPlayed":1232,
         "rating":6.4562500000000007,
         "isManOfTheMatch":false,
         "playedPositionsShort":"AM(CLR)",
         "dribbleLost":1.534090909071,
         "dribbleTotal":2.556818181785,
         "name":"Alex Pritchard",
         "dribbleWon":1.022727272714
      },
      {
         "ranking":124,
         "seasonId":7468,
         "seasonName":"2018/2019",
         "tournamentId":5,
         "tournamentRegionId":108,
         "tournamentRegionCode":"it",
         "tournamentRegionName":"Italy",
         "regionCode":"be",
         "tournamentName":"Serie A",
         "tournamentShortName":"ISA",
         "firstName":"Dennis",
         "lastName":"Praet",
         "playerId":106413,
         "isActive":true,
         "isOpta":true,
         "teamId":271,
         "teamName":"Sampdoria",
         "teamRegionName":"Italy",
         "playedPositions":"-AMC-",
         "age":24,
         "height":181,
         "weight":78,
         "positionText":"Midfielder",
         "apps":15,
         "subOn":0,
         "minsPlayed":1242,
         "rating":6.998,
         "isManOfTheMatch":false,
         "playedPositionsShort":"AM(C)",
         "dribbleLost":0.57971014492,
         "dribbleTotal":1.5942028985299999,
         "name":"Dennis Praet",
         "dribbleWon":1.01449275361
      },
      {
         "ranking":125,
         "seasonId":7361,
         "seasonName":"2018/2019",
         "tournamentId":2,
         "tournamentRegionId":252,
         "tournamentRegionCode":"gb-eng",
         "tournamentRegionName":"England",
         "regionCode":"pt",
         "tournamentName":"Premier League",
         "tournamentShortName":"EPL",
         "firstName":"Diogo José",
         "lastName":"Teixeira da Silva",
         "playerId":235755,
         "isActive":true,
         "isOpta":true,
         "teamId":161,
         "teamName":"Wolverhampton Wanderers",
         "teamRegionName":"England",
         "playedPositions":"-AMC-AML-FW-",
         "age":22,
         "height":178,
         "weight":70,
         "positionText":"Midfielder",
         "apps":11,
         "subOn":0,
         "minsPlayed":895,
         "rating":6.6154545454545453,
         "isManOfTheMatch":false,
         "playedPositionsShort":"AM(CL),FW",
         "dribbleLost":1.810055865906,
         "dribbleTotal":2.8156424580759998,
         "name":"Diogo Jota",
         "dribbleWon":1.00558659217
      },
      {
         "ranking":126,
         "seasonId":7344,
         "seasonName":"2018/2019",
         "tournamentId":22,
         "tournamentRegionId":74,
         "tournamentRegionCode":"fr",
         "tournamentRegionName":"France",
         "regionCode":"dz",
         "tournamentName":"Ligue 1",
         "tournamentShortName":"FL1",
         "firstName":"Mehdi",
         "lastName":"Abeid",
         "playerId":109526,
         "isActive":true,
         "isOpta":true,
         "teamId":1364,
         "teamName":"Dijon",
         "teamRegionName":"France",
         "playedPositions":"-DMC-",
         "age":26,
         "height":178,
         "weight":85,
         "positionText":"Midfielder",
         "apps":12,
         "subOn":0,
         "minsPlayed":1005,
         "rating":6.9958333333333345,
         "isManOfTheMatch":false,
         "playedPositionsShort":"DMC",
         "dribbleLost":1.2537313432700001,
         "dribbleTotal":2.238805970125,
         "name":"Mehdi Abeid",
         "dribbleWon":0.985074626855
      },
      {
         "ranking":127,
         "seasonId":7344,
         "seasonName":"2018/2019",
         "tournamentId":22,
         "tournamentRegionId":74,
         "tournamentRegionCode":"fr",
         "tournamentRegionName":"France",
         "regionCode":"fr",
         "tournamentName":"Ligue 1",
         "tournamentShortName":"FL1",
         "firstName":"Jonathan",
         "lastName":"Bamba",
         "playerId":241019,
         "isActive":true,
         "isOpta":true,
         "teamId":607,
         "teamName":"Lille",
         "teamRegionName":"France",
         "playedPositions":"-AML-AMR-FW-",
         "age":22,
         "height":175,
         "weight":72,
         "positionText":"Midfielder",
         "apps":17,
         "subOn":0,
         "minsPlayed":1463,
         "rating":7.0823529411764694,
         "isManOfTheMatch":false,
         "playedPositionsShort":"AM(LR),FW",
         "dribbleLost":1.353383458636,
         "dribbleTotal":2.337662337644,
         "name":"Jonathan Bamba",
         "dribbleWon":0.984278879008
      },
      {
         "ranking":128,
         "seasonId":7344,
         "seasonName":"2018/2019",
         "tournamentId":22,
         "tournamentRegionId":74,
         "tournamentRegionCode":"fr",
         "tournamentRegionName":"France",
         "regionCode":"co",
         "tournamentName":"Ligue 1",
         "tournamentShortName":"FL1",
         "firstName":"Juan Ferney",
         "lastName":"Otero",
         "playerId":334654,
         "isActive":true,
         "isOpta":true,
         "teamId":151,
         "teamName":"Amiens",
         "teamRegionName":"France",
         "playedPositions":"-AMR-FW-",
         "age":23,
         "height":179,
         "weight":70,
         "positionText":"Forward",
         "apps":11,
         "subOn":0,
         "minsPlayed":915,
         "rating":6.5236363636363643,
         "isManOfTheMatch":false,
         "playedPositionsShort":"AM(R),FW",
         "dribbleLost":1.4754098360549999,
         "dribbleTotal":2.459016393425,
         "name":"Juan Ferney Otero",
         "dribbleWon":0.98360655736999991
      },
      {
         "ranking":129,
         "seasonId":7468,
         "seasonName":"2018/2019",
         "tournamentId":5,
         "tournamentRegionId":108,
         "tournamentRegionCode":"it",
         "tournamentRegionName":"Italy",
         "regionCode":"it",
         "tournamentName":"Serie A",
         "tournamentShortName":"ISA",
         "firstName":"Raffaele",
         "lastName":"Maiello",
         "playerId":83389,
         "isActive":true,
         "isOpta":true,
         "teamId":2732,
         "teamName":"Frosinone",
         "teamRegionName":"Italy",
         "playedPositions":"-MC-",
         "age":27,
         "height":177,
         "weight":73,
         "positionText":"Midfielder",
         "apps":14,
         "subOn":0,
         "minsPlayed":1103,
         "rating":6.6457142857142859,
         "isManOfTheMatch":false,
         "playedPositionsShort":"M(C)",
         "dribbleLost":0.163191296464,
         "dribbleTotal":1.142339075248,
         "name":"Raffaele Maiello",
         "dribbleWon":0.979147778784
      },
      {
         "ranking":130,
         "seasonId":7468,
         "seasonName":"2018/2019",
         "tournamentId":5,
         "tournamentRegionId":108,
         "tournamentRegionCode":"it",
         "tournamentRegionName":"Italy",
         "regionCode":"ch",
         "tournamentName":"Serie A",
         "tournamentShortName":"ISA",
         "firstName":"Edimilson",
         "lastName":"Fernandes",
         "playerId":130964,
         "isActive":true,
         "isOpta":true,
         "teamId":73,
         "teamName":"Fiorentina",
         "teamRegionName":"Italy",
         "playedPositions":"-MC-MR-",
         "age":22,
         "height":190,
         "weight":70,
         "positionText":"Midfielder",
         "apps":12,
         "subOn":0,
         "minsPlayed":920,
         "rating":6.6875,
         "isManOfTheMatch":false,
         "playedPositionsShort":"M(CR)",
         "dribbleLost":0.97826086955999991,
         "dribbleTotal":1.9565217391199998,
         "name":"Edimilson Fernandes",
         "dribbleWon":0.97826086955999991
      }
   ],
   "paging":{
      "currentPage":13,
      "totalPages":25,
      "resultsPerPage":10,
      "totalResults":245,
      "firstRecordIndex":121,
      "lastRecordIndex":130
   },
   "statColumns":[
      "apps",
      "subOn",
      "minsPlayed",
      "dribbleLost",
      "dribbleWon",
      "dribbleTotal"
   ]
}