{
   "playerTableStats":[
      {
         "ranking":191,
         "seasonId":7466,
         "seasonName":"2018/2019",
         "tournamentId":4,
         "tournamentRegionId":206,
         "tournamentRegionCode":"es",
         "tournamentRegionName":"Spain",
         "regionCode":"ar",
         "tournamentName":"La Liga",
         "tournamentShortName":"SLL",
         "firstName":"Santiago",
         "lastName":"Cáseres",
         "playerId":328517,
         "isActive":true,
         "isOpta":true,
         "teamId":839,
         "teamName":"Villarreal",
         "teamRegionName":"Spain",
         "playedPositions":"-DMC-",
         "age":21,
         "height":177,
         "weight":75,
         "positionText":"Midfielder",
         "apps":12,
         "subOn":0,
         "minsPlayed":1029,
         "rating":6.7941666666666665,
         "isManOfTheMatch":false,
         "playedPositionsShort":"DMC",
         "dribbleLost":0.0,
         "dribbleTotal":0.612244897957,
         "name":"Santiago Cáseres",
         "dribbleWon":0.612244897957
      },
      {
         "ranking":192,
         "seasonId":7468,
         "seasonName":"2018/2019",
         "tournamentId":5,
         "tournamentRegionId":108,
         "tournamentRegionCode":"it",
         "tournamentRegionName":"Italy",
         "regionCode":"se",
         "tournamentName":"Serie A",
         "tournamentShortName":"ISA",
         "firstName":"Oscar",
         "lastName":"Hiljemark",
         "playerId":90349,
         "isActive":true,
         "isOpta":true,
         "teamId":278,
         "teamName":"Genoa",
         "teamRegionName":"Italy",
         "playedPositions":"-AMC-",
         "age":26,
         "height":185,
         "weight":75,
         "positionText":"Midfielder",
         "apps":15,
         "subOn":0,
         "minsPlayed":1189,
         "rating":6.5413333333333332,
         "isManOfTheMatch":false,
         "playedPositionsShort":"AM(C)",
         "dribbleLost":0.529857022702,
         "dribbleTotal":1.13540790579,
         "name":"Oscar Hiljemark",
         "dribbleWon":0.605550883088
      },
      {
         "ranking":193,
         "seasonId":7468,
         "seasonName":"2018/2019",
         "tournamentId":5,
         "tournamentRegionId":108,
         "tournamentRegionCode":"it",
         "tournamentRegionName":"Italy",
         "regionCode":"hr",
         "tournamentName":"Serie A",
         "tournamentShortName":"ISA",
         "firstName":"Marcelo",
         "lastName":"Brozovic",
         "playerId":87449,
         "isActive":true,
         "isOpta":true,
         "teamId":75,
         "teamName":"Inter",
         "teamRegionName":"Italy",
         "playedPositions":"-MC-MR-",
         "age":26,
         "height":181,
         "weight":68,
         "positionText":"Midfielder",
         "apps":15,
         "subOn":0,
         "minsPlayed":1343,
         "rating":7.2260000000000009,
         "isManOfTheMatch":false,
         "playedPositionsShort":"M(CR)",
         "dribbleLost":0.33507073715499996,
         "dribbleTotal":0.938198064034,
         "name":"Marcelo Brozovic",
         "dribbleWon":0.603127326879
      },
      {
         "ranking":194,
         "seasonId":7466,
         "seasonName":"2018/2019",
         "tournamentId":4,
         "tournamentRegionId":206,
         "tournamentRegionCode":"es",
         "tournamentRegionName":"Spain",
         "regionCode":"es",
         "tournamentName":"La Liga",
         "tournamentShortName":"SLL",
         "firstName":"Rodrigo",
         "lastName":"Hernández",
         "playerId":303139,
         "isActive":true,
         "isOpta":true,
         "teamId":63,
         "teamName":"Atletico Madrid",
         "teamRegionName":"Spain",
         "playedPositions":"-DMC-",
         "age":22,
         "height":191,
         "weight":82,
         "positionText":"Midfielder",
         "apps":15,
         "subOn":0,
         "minsPlayed":1224,
         "rating":7.3546666666666658,
         "isManOfTheMatch":false,
         "playedPositionsShort":"DMC",
         "dribbleLost":0.220588235292,
         "dribbleTotal":0.808823529404,
         "name":"Rodrigo",
         "dribbleWon":0.588235294112
      },
      {
         "ranking":195,
         "seasonId":7361,
         "seasonName":"2018/2019",
         "tournamentId":2,
         "tournamentRegionId":252,
         "tournamentRegionCode":"gb-eng",
         "tournamentRegionName":"England",
         "regionCode":"gb-sct",
         "tournamentName":"Premier League",
         "tournamentShortName":"EPL",
         "firstName":"Ryan",
         "lastName":"Fraser",
         "playerId":93160,
         "isActive":true,
         "isOpta":true,
         "teamId":183,
         "teamName":"Bournemouth",
         "teamRegionName":"England",
         "playedPositions":"-MC-ML-MR-",
         "age":24,
         "height":163,
         "weight":70,
         "positionText":"Midfielder",
         "apps":18,
         "subOn":0,
         "minsPlayed":1537,
         "rating":7.1494444444444447,
         "isManOfTheMatch":false,
         "playedPositionsShort":"M(CLR)",
         "dribbleLost":0.936890045536,
         "dribbleTotal":1.522446323996,
         "name":"Ryan Fraser",
         "dribbleWon":0.58555627846
      },
      {
         "ranking":196,
         "seasonId":7405,
         "seasonName":"2018/2019",
         "tournamentId":3,
         "tournamentRegionId":81,
         "tournamentRegionCode":"de",
         "tournamentRegionName":"Germany",
         "regionCode":"dk",
         "tournamentName":"Bundesliga",
         "tournamentShortName":"GB",
         "firstName":"Thomas",
         "lastName":"Delaney",
         "playerId":73744,
         "isActive":true,
         "isOpta":true,
         "teamId":44,
         "teamName":"Borussia Dortmund",
         "teamRegionName":"Germany",
         "playedPositions":"-DMC-",
         "age":27,
         "height":182,
         "weight":71,
         "positionText":"Midfielder",
         "apps":13,
         "subOn":0,
         "minsPlayed":1076,
         "rating":7.1653846153846148,
         "isManOfTheMatch":false,
         "playedPositionsShort":"DMC",
         "dribbleLost":0.167286245352,
         "dribbleTotal":0.752788104084,
         "name":"Thomas Delaney",
         "dribbleWon":0.585501858732
      },
      {
         "ranking":197,
         "seasonId":7344,
         "seasonName":"2018/2019",
         "tournamentId":22,
         "tournamentRegionId":74,
         "tournamentRegionCode":"fr",
         "tournamentRegionName":"France",
         "regionCode":"no",
         "tournamentName":"Ligue 1",
         "tournamentShortName":"FL1",
         "firstName":"Ole",
         "lastName":"Selnaes",
         "playerId":99537,
         "isActive":true,
         "isOpta":true,
         "teamId":145,
         "teamName":"Saint-Etienne",
         "teamRegionName":"France",
         "playedPositions":"-DMC-",
         "age":24,
         "height":187,
         "weight":77,
         "positionText":"Midfielder",
         "apps":16,
         "subOn":0,
         "minsPlayed":1387,
         "rating":6.945,
         "isManOfTheMatch":false,
         "playedPositionsShort":"DMC",
         "dribbleLost":0.129776496034,
         "dribbleTotal":0.71377072818699994,
         "name":"Ole Selnaes",
         "dribbleWon":0.583994232153
      },
      {
         "ranking":198,
         "seasonId":7361,
         "seasonName":"2018/2019",
         "tournamentId":2,
         "tournamentRegionId":252,
         "tournamentRegionCode":"gb-eng",
         "tournamentRegionName":"England",
         "regionCode":"uy",
         "tournamentName":"Premier League",
         "tournamentShortName":"EPL",
         "firstName":"Lucas",
         "lastName":"Torreira",
         "playerId":248109,
         "isActive":true,
         "isOpta":true,
         "teamId":13,
         "teamName":"Arsenal",
         "teamRegionName":"England",
         "playedPositions":"-DMC-",
         "age":22,
         "height":168,
         "weight":64,
         "positionText":"Midfielder",
         "apps":14,
         "subOn":0,
         "minsPlayed":1249,
         "rating":7.0721428571428566,
         "isManOfTheMatch":false,
         "playedPositionsShort":"DMC",
         "dribbleLost":0.144115292232,
         "dribbleTotal":0.72057646116000007,
         "name":"Lucas Torreira",
         "dribbleWon":0.576461168928
      },
      {
         "ranking":199,
         "seasonId":7344,
         "seasonName":"2018/2019",
         "tournamentId":22,
         "tournamentRegionId":74,
         "tournamentRegionCode":"fr",
         "tournamentRegionName":"France",
         "regionCode":"fr",
         "tournamentName":"Ligue 1",
         "tournamentShortName":"FL1",
         "firstName":"Xavier",
         "lastName":"Chavalerin",
         "playerId":236556,
         "isActive":true,
         "isOpta":true,
         "teamId":950,
         "teamName":"Reims",
         "teamRegionName":"France",
         "playedPositions":"-DMC-",
         "age":27,
         "height":178,
         "weight":66,
         "positionText":"Midfielder",
         "apps":18,
         "subOn":0,
         "minsPlayed":1620,
         "rating":6.9527777777777784,
         "isManOfTheMatch":false,
         "playedPositionsShort":"DMC",
         "dribbleLost":0.166666666665,
         "dribbleTotal":0.722222222215,
         "name":"Xavier Chavalerin",
         "dribbleWon":0.55555555555
      },
      {
         "ranking":200,
         "seasonId":7466,
         "seasonName":"2018/2019",
         "tournamentId":4,
         "tournamentRegionId":206,
         "tournamentRegionCode":"es",
         "tournamentRegionName":"Spain",
         "regionCode":"es",
         "tournamentName":"La Liga",
         "tournamentShortName":"SLL",
         "firstName":"Pere",
         "lastName":"Pons",
         "playerId":140929,
         "isActive":true,
         "isOpta":true,
         "teamId":2783,
         "teamName":"Girona",
         "teamRegionName":"Spain",
         "playedPositions":"-MC-",
         "age":25,
         "height":177,
         "weight":70,
         "positionText":"Midfielder",
         "apps":13,
         "subOn":0,
         "minsPlayed":1138,
         "rating":6.7884615384615383,
         "isManOfTheMatch":false,
         "playedPositionsShort":"M(C)",
         "dribbleLost":0.632688927936,
         "dribbleTotal":1.18629173988,
         "name":"Pere Pons",
         "dribbleWon":0.553602811944
      }
   ],
   "paging":{
      "currentPage":20,
      "totalPages":25,
      "resultsPerPage":10,
      "totalResults":245,
      "firstRecordIndex":191,
      "lastRecordIndex":200
   },
   "statColumns":[
      "apps",
      "subOn",
      "minsPlayed",
      "dribbleLost",
      "dribbleWon",
      "dribbleTotal"
   ]
}