{
   "playerTableStats":[
      {
         "ranking":21,
         "seasonId":7361,
         "seasonName":"2018/2019",
         "tournamentId":2,
         "tournamentRegionId":252,
         "tournamentRegionCode":"gb-eng",
         "tournamentRegionName":"England",
         "regionCode":"gb-eng",
         "tournamentName":"Premier League",
         "tournamentShortName":"EPL",
         "firstName":"Raheem",
         "lastName":"Sterling",
         "playerId":97692,
         "isActive":true,
         "isOpta":true,
         "teamId":167,
         "teamName":"Manchester City",
         "teamRegionName":"England",
         "playedPositions":"-FW-MC-ML-MR-",
         "age":24,
         "height":170,
         "weight":69,
         "positionText":"Forward",
         "apps":16,
         "subOn":0,
         "minsPlayed":1365,
         "rating":7.713125,
         "isManOfTheMatch":false,
         "playedPositionsShort":"M(CLR),FW",
         "dribbleLost":2.241758241756,
         "dribbleTotal":4.417582417578,
         "name":"Raheem Sterling",
         "dribbleWon":2.175824175822
      },
      {
         "ranking":22,
         "seasonId":7344,
         "seasonName":"2018/2019",
         "tournamentId":22,
         "tournamentRegionId":74,
         "tournamentRegionCode":"fr",
         "tournamentRegionName":"France",
         "regionCode":"fr",
         "tournamentName":"Ligue 1",
         "tournamentShortName":"FL1",
         "firstName":"Téji",
         "lastName":"Savanier",
         "playerId":234377,
         "isActive":true,
         "isOpta":true,
         "teamId":245,
         "teamName":"Nimes",
         "teamRegionName":"France",
         "playedPositions":"-MC-",
         "age":27,
         "height":171,
         "weight":62,
         "positionText":"Midfielder",
         "apps":13,
         "subOn":0,
         "minsPlayed":1170,
         "rating":7.7476923076923088,
         "isManOfTheMatch":false,
         "playedPositionsShort":"M(C)",
         "dribbleLost":0.615384615384,
         "dribbleTotal":2.769230769228,
         "name":"Téji Savanier",
         "dribbleWon":2.153846153844
      },
      {
         "ranking":23,
         "seasonId":7344,
         "seasonName":"2018/2019",
         "tournamentId":22,
         "tournamentRegionId":74,
         "tournamentRegionCode":"fr",
         "tournamentRegionName":"France",
         "regionCode":"sn",
         "tournamentName":"Ligue 1",
         "tournamentShortName":"FL1",
         "firstName":"Ismaila",
         "lastName":"Sarr",
         "playerId":322670,
         "isActive":true,
         "isOpta":true,
         "teamId":313,
         "teamName":"Rennes",
         "teamRegionName":"France",
         "playedPositions":"-AML-AMR-FW-",
         "age":20,
         "height":185,
         "weight":76,
         "positionText":"Forward",
         "apps":12,
         "subOn":0,
         "minsPlayed":964,
         "rating":7.0975,
         "isManOfTheMatch":false,
         "playedPositionsShort":"AM(LR),FW",
         "dribbleLost":1.3070539419,
         "dribbleTotal":3.45435684645,
         "name":"Ismaila Sarr",
         "dribbleWon":2.14730290455
      },
      {
         "ranking":24,
         "seasonId":7361,
         "seasonName":"2018/2019",
         "tournamentId":2,
         "tournamentRegionId":252,
         "tournamentRegionCode":"gb-eng",
         "tournamentRegionName":"England",
         "regionCode":"gb-eng",
         "tournamentName":"Premier League",
         "tournamentShortName":"EPL",
         "firstName":"Demarai",
         "lastName":"Gray",
         "playerId":136945,
         "isActive":true,
         "isOpta":true,
         "teamId":14,
         "teamName":"Leicester",
         "teamRegionName":"England",
         "playedPositions":"-AMC-AML-AMR-",
         "age":22,
         "height":180,
         "weight":74,
         "positionText":"Midfielder",
         "apps":11,
         "subOn":0,
         "minsPlayed":842,
         "rating":6.6863636363636365,
         "isManOfTheMatch":false,
         "playedPositionsShort":"AM(CLR)",
         "dribbleLost":1.49643705463,
         "dribbleTotal":3.63420427553,
         "name":"Demarai Gray",
         "dribbleWon":2.1377672209000003
      },
      {
         "ranking":25,
         "seasonId":7466,
         "seasonName":"2018/2019",
         "tournamentId":4,
         "tournamentRegionId":206,
         "tournamentRegionCode":"es",
         "tournamentRegionName":"Spain",
         "regionCode":"fr",
         "tournamentName":"La Liga",
         "tournamentShortName":"SLL",
         "firstName":"Thomas",
         "lastName":"Lemar",
         "playerId":132962,
         "isActive":true,
         "isOpta":true,
         "teamId":63,
         "teamName":"Atletico Madrid",
         "teamRegionName":"Spain",
         "playedPositions":"-AMC-AML-AMR-",
         "age":23,
         "height":171,
         "weight":62,
         "positionText":"Midfielder",
         "apps":12,
         "subOn":0,
         "minsPlayed":849,
         "rating":6.9591666666666656,
         "isManOfTheMatch":false,
         "playedPositionsShort":"AM(CLR)",
         "dribbleLost":1.06007067137,
         "dribbleTotal":3.1802120141100003,
         "name":"Thomas Lemar",
         "dribbleWon":2.12014134274
      },
      {
         "ranking":26,
         "seasonId":7361,
         "seasonName":"2018/2019",
         "tournamentId":2,
         "tournamentRegionId":252,
         "tournamentRegionCode":"gb-eng",
         "tournamentRegionName":"England",
         "regionCode":"ng",
         "tournamentName":"Premier League",
         "tournamentShortName":"EPL",
         "firstName":"Alex",
         "lastName":"Iwobi",
         "playerId":136824,
         "isActive":true,
         "isOpta":true,
         "teamId":13,
         "teamName":"Arsenal",
         "teamRegionName":"England",
         "playedPositions":"-AMC-AML-AMR-",
         "age":22,
         "height":180,
         "weight":75,
         "positionText":"Midfielder",
         "apps":12,
         "subOn":0,
         "minsPlayed":850,
         "rating":6.6916666666666655,
         "isManOfTheMatch":false,
         "playedPositionsShort":"AM(CLR)",
         "dribbleLost":1.799999999997,
         "dribbleTotal":3.917647058817,
         "name":"Alex Iwobi",
         "dribbleWon":2.11764705882
      },
      {
         "ranking":27,
         "seasonId":7468,
         "seasonName":"2018/2019",
         "tournamentId":5,
         "tournamentRegionId":108,
         "tournamentRegionCode":"it",
         "tournamentRegionName":"Italy",
         "regionCode":"ar",
         "tournamentName":"Serie A",
         "tournamentShortName":"ISA",
         "firstName":"Rodrigo",
         "lastName":"de Paul",
         "playerId":125547,
         "isActive":true,
         "isOpta":true,
         "teamId":86,
         "teamName":"Udinese",
         "teamRegionName":"Italy",
         "playedPositions":"-AMC-AML-AMR-FW-",
         "age":24,
         "height":180,
         "weight":70,
         "positionText":"Midfielder",
         "apps":12,
         "subOn":0,
         "minsPlayed":1077,
         "rating":7.354166666666667,
         "isManOfTheMatch":false,
         "playedPositionsShort":"AM(CLR),FW",
         "dribbleLost":1.25348189415,
         "dribbleTotal":3.3426183844,
         "name":"Rodrigo de Paul",
         "dribbleWon":2.08913649025
      },
      {
         "ranking":28,
         "seasonId":7344,
         "seasonName":"2018/2019",
         "tournamentId":22,
         "tournamentRegionId":74,
         "tournamentRegionCode":"fr",
         "tournamentRegionName":"France",
         "regionCode":"fr",
         "tournamentName":"Ligue 1",
         "tournamentShortName":"FL1",
         "firstName":"Denis",
         "lastName":"Bouanga",
         "playerId":249857,
         "isActive":true,
         "isOpta":true,
         "teamId":245,
         "teamName":"Nimes",
         "teamRegionName":"France",
         "playedPositions":"-AML-",
         "age":24,
         "height":180,
         "weight":71,
         "positionText":"Midfielder",
         "apps":13,
         "subOn":0,
         "minsPlayed":1102,
         "rating":6.93076923076923,
         "isManOfTheMatch":false,
         "playedPositionsShort":"AM(L)",
         "dribbleLost":2.77676950998,
         "dribbleTotal":4.81851179673,
         "name":"Denis Bouanga",
         "dribbleWon":2.04174228675
      },
      {
         "ranking":29,
         "seasonId":7468,
         "seasonName":"2018/2019",
         "tournamentId":5,
         "tournamentRegionId":108,
         "tournamentRegionCode":"it",
         "tournamentRegionName":"Italy",
         "regionCode":"ar",
         "tournamentName":"Serie A",
         "tournamentShortName":"ISA",
         "firstName":"Paulo",
         "lastName":"Dybala",
         "playerId":114863,
         "isActive":true,
         "isOpta":true,
         "teamId":87,
         "teamName":"Juventus",
         "teamRegionName":"Italy",
         "playedPositions":"-AMC-AMR-FW-",
         "age":25,
         "height":177,
         "weight":75,
         "positionText":"Forward",
         "apps":13,
         "subOn":0,
         "minsPlayed":1081,
         "rating":7.2023076923076932,
         "isManOfTheMatch":false,
         "playedPositionsShort":"AM(CR),FW",
         "dribbleLost":1.748381128578,
         "dribbleTotal":3.74653098981,
         "name":"Paulo Dybala",
         "dribbleWon":1.9981498612320001
      },
      {
         "ranking":30,
         "seasonId":7344,
         "seasonName":"2018/2019",
         "tournamentId":22,
         "tournamentRegionId":74,
         "tournamentRegionCode":"fr",
         "tournamentRegionName":"France",
         "regionCode":"fr",
         "tournamentName":"Ligue 1",
         "tournamentShortName":"FL1",
         "firstName":"Tanguy",
         "lastName":"NDombele",
         "playerId":321389,
         "isActive":true,
         "isOpta":true,
         "teamId":228,
         "teamName":"Lyon",
         "teamRegionName":"France",
         "playedPositions":"-DMC-",
         "age":22,
         "height":181,
         "weight":76,
         "positionText":"Midfielder",
         "apps":15,
         "subOn":0,
         "minsPlayed":1175,
         "rating":6.8593333333333337,
         "isManOfTheMatch":false,
         "playedPositionsShort":"DMC",
         "dribbleLost":1.07234042552,
         "dribbleTotal":3.0638297871999995,
         "name":"Tanguy NDombele",
         "dribbleWon":1.9914893616799998
      }
   ],
   "paging":{
      "currentPage":3,
      "totalPages":25,
      "resultsPerPage":10,
      "totalResults":245,
      "firstRecordIndex":21,
      "lastRecordIndex":30
   },
   "statColumns":[
      "apps",
      "subOn",
      "minsPlayed",
      "dribbleLost",
      "dribbleWon",
      "dribbleTotal"
   ]
}