{
   "playerTableStats":[
      {
         "ranking":11,
         "seasonId":7361,
         "seasonName":"2018/2019",
         "tournamentId":2,
         "tournamentRegionId":252,
         "tournamentRegionCode":"gb-eng",
         "tournamentRegionName":"England",
         "regionCode":"de",
         "tournamentName":"Premier League",
         "tournamentShortName":"EPL",
         "firstName":"Leroy",
         "lastName":"Sané",
         "playerId":144711,
         "isActive":true,
         "isOpta":true,
         "teamId":167,
         "teamName":"Manchester City",
         "teamRegionName":"England",
         "playedPositions":"-MC-ML-MR-",
         "age":23,
         "height":183,
         "weight":75,
         "positionText":"Forward",
         "apps":13,
         "subOn":0,
         "minsPlayed":1090,
         "rating":7.9461538461538472,
         "isManOfTheMatch":false,
         "playedPositionsShort":"M(CLR)",
         "dribbleLost":2.229357798153,
         "dribbleTotal":4.8715596330010005,
         "name":"Leroy Sané",
         "dribbleWon":2.642201834848
      },
      {
         "ranking":12,
         "seasonId":7405,
         "seasonName":"2018/2019",
         "tournamentId":3,
         "tournamentRegionId":81,
         "tournamentRegionCode":"de",
         "tournamentRegionName":"Germany",
         "regionCode":"nl",
         "tournamentName":"Bundesliga",
         "tournamentShortName":"GB",
         "firstName":"Virgil",
         "lastName":"Misidjan",
         "playerId":120454,
         "isActive":true,
         "isOpta":true,
         "teamId":137,
         "teamName":"Nuernberg",
         "teamRegionName":"Germany",
         "playedPositions":"-AML-AMR-",
         "age":25,
         "height":173,
         "weight":70,
         "positionText":"Forward",
         "apps":11,
         "subOn":0,
         "minsPlayed":886,
         "rating":6.4090909090909092,
         "isManOfTheMatch":false,
         "playedPositionsShort":"AM(LR)",
         "dribbleLost":3.4537246049599997,
         "dribbleTotal":6.0948081263999994,
         "name":"Virgil Misidjan",
         "dribbleWon":2.6410835214399997
      },
      {
         "ranking":13,
         "seasonId":7466,
         "seasonName":"2018/2019",
         "tournamentId":4,
         "tournamentRegionId":206,
         "tournamentRegionCode":"es",
         "tournamentRegionName":"Spain",
         "regionCode":"es",
         "tournamentName":"La Liga",
         "tournamentShortName":"SLL",
         "firstName":"Laureano Antonio",
         "lastName":"Villa Suárez",
         "playerId":362355,
         "isActive":true,
         "isOpta":true,
         "teamId":58,
         "teamName":"Real Valladolid",
         "teamRegionName":"Spain",
         "playedPositions":"-AML-",
         "age":24,
         "height":172,
         "weight":63,
         "positionText":"Midfielder",
         "apps":14,
         "subOn":0,
         "minsPlayed":1162,
         "rating":7.0178571428571441,
         "isManOfTheMatch":false,
         "playedPositionsShort":"AM(L)",
         "dribbleLost":1.7039586919079999,
         "dribbleTotal":4.3373493975839992,
         "name":"Toni Villa",
         "dribbleWon":2.6333907056759998
      },
      {
         "ranking":14,
         "seasonId":7466,
         "seasonName":"2018/2019",
         "tournamentId":4,
         "tournamentRegionId":206,
         "tournamentRegionCode":"es",
         "tournamentRegionName":"Spain",
         "regionCode":"es",
         "tournamentName":"La Liga",
         "tournamentShortName":"SLL",
         "firstName":"Iker",
         "lastName":"Muniain",
         "playerId":77922,
         "isActive":true,
         "isOpta":true,
         "teamId":53,
         "teamName":"Athletic Bilbao",
         "teamRegionName":"Spain",
         "playedPositions":"-AMC-AML-AMR-",
         "age":26,
         "height":170,
         "weight":65,
         "positionText":"Forward",
         "apps":12,
         "subOn":0,
         "minsPlayed":996,
         "rating":7.0233333333333334,
         "isManOfTheMatch":false,
         "playedPositionsShort":"AM(CLR)",
         "dribbleLost":1.626506024094,
         "dribbleTotal":4.246987951801,
         "name":"Iker Muniain",
         "dribbleWon":2.620481927707
      },
      {
         "ranking":15,
         "seasonId":7344,
         "seasonName":"2018/2019",
         "tournamentId":22,
         "tournamentRegionId":74,
         "tournamentRegionCode":"fr",
         "tournamentRegionName":"France",
         "regionCode":"fr",
         "tournamentName":"Ligue 1",
         "tournamentShortName":"FL1",
         "firstName":"Sada",
         "lastName":"Thioub",
         "playerId":259809,
         "isActive":true,
         "isOpta":true,
         "teamId":245,
         "teamName":"Nimes",
         "teamRegionName":"France",
         "playedPositions":"-AMR-",
         "age":23,
         "height":179,
         "weight":75,
         "positionText":"Forward",
         "apps":15,
         "subOn":0,
         "minsPlayed":1230,
         "rating":6.86,
         "isManOfTheMatch":false,
         "playedPositionsShort":"AM(R)",
         "dribbleLost":1.9024390243820002,
         "dribbleTotal":4.39024390242,
         "name":"Sada Thioub",
         "dribbleWon":2.487804878038
      },
      {
         "ranking":16,
         "seasonId":7468,
         "seasonName":"2018/2019",
         "tournamentId":5,
         "tournamentRegionId":108,
         "tournamentRegionCode":"it",
         "tournamentRegionName":"Italy",
         "regionCode":"it",
         "tournamentName":"Serie A",
         "tournamentShortName":"ISA",
         "firstName":"Federico",
         "lastName":"Chiesa",
         "playerId":322971,
         "isActive":true,
         "isOpta":true,
         "teamId":73,
         "teamName":"Fiorentina",
         "teamRegionName":"Italy",
         "playedPositions":"-ML-MR-",
         "age":21,
         "height":175,
         "weight":70,
         "positionText":"Forward",
         "apps":18,
         "subOn":0,
         "minsPlayed":1572,
         "rating":7.1261111111111086,
         "isManOfTheMatch":false,
         "playedPositionsShort":"M(LR)",
         "dribbleLost":3.549618320552,
         "dribbleTotal":6.0114503815800004,
         "name":"Federico Chiesa",
         "dribbleWon":2.4618320610280002
      },
      {
         "ranking":17,
         "seasonId":7361,
         "seasonName":"2018/2019",
         "tournamentId":2,
         "tournamentRegionId":252,
         "tournamentRegionCode":"gb-eng",
         "tournamentRegionName":"England",
         "regionCode":"br",
         "tournamentName":"Premier League",
         "tournamentShortName":"EPL",
         "firstName":"Robert Kenedy",
         "lastName":"Nunes do Nascimento",
         "playerId":132838,
         "isActive":true,
         "isOpta":true,
         "teamId":23,
         "teamName":"Newcastle United",
         "teamRegionName":"England",
         "playedPositions":"-DL-ML-",
         "age":22,
         "height":182,
         "weight":77,
         "positionText":"Midfielder",
         "apps":12,
         "subOn":0,
         "minsPlayed":973,
         "rating":6.8474999999999993,
         "isManOfTheMatch":false,
         "playedPositionsShort":"D(L),M(L)",
         "dribbleLost":1.664953751268,
         "dribbleTotal":4.0698869475439992,
         "name":"Kenedy",
         "dribbleWon":2.4049331962759997
      },
      {
         "ranking":18,
         "seasonId":7361,
         "seasonName":"2018/2019",
         "tournamentId":2,
         "tournamentRegionId":252,
         "tournamentRegionCode":"gb-eng",
         "tournamentRegionName":"England",
         "regionCode":"eg",
         "tournamentName":"Premier League",
         "tournamentShortName":"EPL",
         "firstName":"Mohamed",
         "lastName":"Salah Ghaly",
         "playerId":108226,
         "isActive":true,
         "isOpta":true,
         "teamId":26,
         "teamName":"Liverpool",
         "teamRegionName":"England",
         "playedPositions":"-AMC-AML-AMR-FW-",
         "age":26,
         "height":175,
         "weight":71,
         "positionText":"Forward",
         "apps":10,
         "subOn":0,
         "minsPlayed":854,
         "rating":7.2870000000000008,
         "isManOfTheMatch":false,
         "playedPositionsShort":"AM(CLR),FW",
         "dribbleLost":1.264637002332,
         "dribbleTotal":3.583138173274,
         "name":"Mohamed Salah",
         "dribbleWon":2.318501170942
      },
      {
         "ranking":19,
         "seasonId":7466,
         "seasonName":"2018/2019",
         "tournamentId":4,
         "tournamentRegionId":206,
         "tournamentRegionCode":"es",
         "tournamentRegionName":"Spain",
         "regionCode":"ar",
         "tournamentName":"La Liga",
         "tournamentShortName":"SLL",
         "firstName":"Giovani",
         "lastName":"Lo Celso",
         "playerId":303908,
         "isActive":true,
         "isOpta":true,
         "teamId":54,
         "teamName":"Real Betis",
         "teamRegionName":"Spain",
         "playedPositions":"-AMC-",
         "age":22,
         "height":177,
         "weight":68,
         "positionText":"Midfielder",
         "apps":10,
         "subOn":0,
         "minsPlayed":872,
         "rating":7.2220000000000013,
         "isManOfTheMatch":false,
         "playedPositionsShort":"AM(C)",
         "dribbleLost":1.651376146784,
         "dribbleTotal":3.922018348612,
         "name":"Giovani Lo Celso",
         "dribbleWon":2.270642201828
      },
      {
         "ranking":20,
         "seasonId":7361,
         "seasonName":"2018/2019",
         "tournamentId":2,
         "tournamentRegionId":252,
         "tournamentRegionCode":"gb-eng",
         "tournamentRegionName":"England",
         "regionCode":"gb-eng",
         "tournamentName":"Premier League",
         "tournamentShortName":"EPL",
         "firstName":"Nathan",
         "lastName":"Redmond",
         "playerId":86425,
         "isActive":true,
         "isOpta":true,
         "teamId":18,
         "teamName":"Southampton",
         "teamRegionName":"England",
         "playedPositions":"-AMC-AML-AMR-FW-",
         "age":24,
         "height":173,
         "weight":69,
         "positionText":"Midfielder",
         "apps":19,
         "subOn":0,
         "minsPlayed":1666,
         "rating":6.7710526315789465,
         "isManOfTheMatch":false,
         "playedPositionsShort":"AM(CLR),FW",
         "dribbleLost":2.539015606221,
         "dribbleTotal":4.753901560584,
         "name":"Nathan Redmond",
         "dribbleWon":2.214885954363
      }
   ],
   "paging":{
      "currentPage":2,
      "totalPages":25,
      "resultsPerPage":10,
      "totalResults":245,
      "firstRecordIndex":11,
      "lastRecordIndex":20
   },
   "statColumns":[
      "apps",
      "subOn",
      "minsPlayed",
      "dribbleLost",
      "dribbleWon",
      "dribbleTotal"
   ]
}