{
   "playerTableStats":[
      {
         "ranking":1,
         "seasonId":7466,
         "seasonName":"2018/2019",
         "tournamentId":4,
         "tournamentRegionId":206,
         "tournamentRegionCode":"es",
         "tournamentRegionName":"Spain",
         "regionCode":"ma",
         "tournamentName":"La Liga",
         "tournamentShortName":"SLL",
         "firstName":"Sofiane",
         "lastName":"Boufal",
         "playerId":234363,
         "isActive":true,
         "isOpta":true,
         "teamId":62,
         "teamName":"Celta Vigo",
         "teamRegionName":"Spain",
         "playedPositions":"-AMC-AML-AMR-FW-",
         "age":25,
         "height":170,
         "weight":60,
         "positionText":"Midfielder",
         "apps":10,
         "subOn":0,
         "minsPlayed":683,
         "rating":7.206999999999999,
         "isManOfTheMatch":false,
         "playedPositionsShort":"AM(CLR),FW",
         "dribbleLost":2.635431918,
         "dribbleTotal":9.7510980966,
         "name":"Sofiane Boufal",
         "dribbleWon":7.1156661786000006
      },
      {
         "ranking":2,
         "seasonId":7344,
         "seasonName":"2018/2019",
         "tournamentId":22,
         "tournamentRegionId":74,
         "tournamentRegionCode":"fr",
         "tournamentRegionName":"France",
         "regionCode":"br",
         "tournamentName":"Ligue 1",
         "tournamentShortName":"FL1",
         "firstName":"Neymar da Silva",
         "lastName":"Santos Júnior",
         "playerId":50835,
         "isActive":true,
         "isOpta":true,
         "teamId":304,
         "teamName":"Paris Saint-Germain",
         "teamRegionName":"France",
         "playedPositions":"-AMC-AML-AMR-FW-",
         "age":26,
         "height":175,
         "weight":68,
         "positionText":"Forward",
         "apps":10,
         "subOn":0,
         "minsPlayed":867,
         "rating":8.3779999999999983,
         "isManOfTheMatch":false,
         "playedPositionsShort":"AM(CLR),FW",
         "dribbleLost":2.802768166071,
         "dribbleTotal":6.643598615872,
         "name":"Neymar",
         "dribbleWon":3.8408304498010004
      },
      {
         "ranking":3,
         "seasonId":7344,
         "seasonName":"2018/2019",
         "tournamentId":22,
         "tournamentRegionId":74,
         "tournamentRegionCode":"fr",
         "tournamentRegionName":"France",
         "regionCode":"fr",
         "tournamentName":"Ligue 1",
         "tournamentShortName":"FL1",
         "firstName":"Jeff",
         "lastName":"Reine-Adélaïde",
         "playerId":277239,
         "isActive":true,
         "isOpta":true,
         "teamId":614,
         "teamName":"Angers",
         "teamRegionName":"France",
         "playedPositions":"-AMC-AMR-",
         "age":20,
         "height":183,
         "weight":75,
         "positionText":"Midfielder",
         "apps":12,
         "subOn":0,
         "minsPlayed":1023,
         "rating":7.0549999999999988,
         "isManOfTheMatch":false,
         "playedPositionsShort":"AM(CR)",
         "dribbleLost":2.551319648081,
         "dribbleTotal":6.246334310819,
         "name":"Jeff Reine-Adélaïde",
         "dribbleWon":3.6950146627379996
      },
      {
         "ranking":4,
         "seasonId":7466,
         "seasonName":"2018/2019",
         "tournamentId":4,
         "tournamentRegionId":206,
         "tournamentRegionCode":"es",
         "tournamentRegionName":"Spain",
         "regionCode":"fr",
         "tournamentName":"La Liga",
         "tournamentShortName":"SLL",
         "firstName":"Giannelli",
         "lastName":"Imbula",
         "playerId":81959,
         "isActive":true,
         "isOpta":true,
         "teamId":64,
         "teamName":"Rayo Vallecano",
         "teamRegionName":"Spain",
         "playedPositions":"-MC-",
         "age":26,
         "height":186,
         "weight":78,
         "positionText":"Midfielder",
         "apps":13,
         "subOn":0,
         "minsPlayed":1113,
         "rating":6.7484615384615374,
         "isManOfTheMatch":false,
         "playedPositionsShort":"M(C)",
         "dribbleLost":0.970350404304,
         "dribbleTotal":4.204851751984,
         "name":"Giannelli Imbula",
         "dribbleWon":3.23450134768
      },
      {
         "ranking":5,
         "seasonId":7405,
         "seasonName":"2018/2019",
         "tournamentId":3,
         "tournamentRegionId":81,
         "tournamentRegionCode":"de",
         "tournamentRegionName":"Germany",
         "regionCode":"gb-eng",
         "tournamentName":"Bundesliga",
         "tournamentShortName":"GB",
         "firstName":"Jadon",
         "lastName":"Sancho",
         "playerId":346300,
         "isActive":true,
         "isOpta":true,
         "teamId":44,
         "teamName":"Borussia Dortmund",
         "teamRegionName":"Germany",
         "playedPositions":"-AML-AMR-",
         "age":18,
         "height":180,
         "weight":76,
         "positionText":"Midfielder",
         "apps":10,
         "subOn":0,
         "minsPlayed":869,
         "rating":7.5239999999999991,
         "isManOfTheMatch":false,
         "playedPositionsShort":"AM(LR)",
         "dribbleLost":1.967779056383,
         "dribbleTotal":5.17836593785,
         "name":"Jadon Sancho",
         "dribbleWon":3.210586881467
      },
      {
         "ranking":6,
         "seasonId":7466,
         "seasonName":"2018/2019",
         "tournamentId":4,
         "tournamentRegionId":206,
         "tournamentRegionCode":"es",
         "tournamentRegionName":"Spain",
         "regionCode":"fr",
         "tournamentName":"La Liga",
         "tournamentShortName":"SLL",
         "firstName":"Ousmane",
         "lastName":"Dembélé",
         "playerId":299513,
         "isActive":true,
         "isOpta":true,
         "teamId":65,
         "teamName":"Barcelona",
         "teamRegionName":"Spain",
         "playedPositions":"-AMC-AML-AMR-",
         "age":21,
         "height":178,
         "weight":67,
         "positionText":"Forward",
         "apps":11,
         "subOn":0,
         "minsPlayed":827,
         "rating":7.6854545454545447,
         "isManOfTheMatch":false,
         "playedPositionsShort":"AM(CLR)",
         "dribbleLost":2.394195888744,
         "dribbleTotal":5.3325272067480007,
         "name":"Ousmane Dembélé",
         "dribbleWon":2.9383313180040003
      },
      {
         "ranking":7,
         "seasonId":7405,
         "seasonName":"2018/2019",
         "tournamentId":3,
         "tournamentRegionId":81,
         "tournamentRegionCode":"de",
         "tournamentRegionName":"Germany",
         "regionCode":"es",
         "tournamentName":"Bundesliga",
         "tournamentShortName":"GB",
         "firstName":"Thiago",
         "lastName":"Alcántara do Nascimento",
         "playerId":74939,
         "isActive":true,
         "isOpta":true,
         "teamId":37,
         "teamName":"Bayern Munich",
         "teamRegionName":"Germany",
         "playedPositions":"-MC-",
         "age":27,
         "height":174,
         "weight":70,
         "positionText":"Midfielder",
         "apps":11,
         "subOn":0,
         "minsPlayed":990,
         "rating":7.7145454545454548,
         "isManOfTheMatch":false,
         "playedPositionsShort":"M(C)",
         "dribbleLost":0.181818181818,
         "dribbleTotal":2.999999999997,
         "name":"Thiago Alcántara",
         "dribbleWon":2.818181818179
      },
      {
         "ranking":8,
         "seasonId":7344,
         "seasonName":"2018/2019",
         "tournamentId":22,
         "tournamentRegionId":74,
         "tournamentRegionCode":"fr",
         "tournamentRegionName":"France",
         "regionCode":"tn",
         "tournamentName":"Ligue 1",
         "tournamentShortName":"FL1",
         "firstName":"Naim",
         "lastName":"Sliti",
         "playerId":296226,
         "isActive":true,
         "isOpta":true,
         "teamId":1364,
         "teamName":"Dijon",
         "teamRegionName":"France",
         "playedPositions":"-AMC-AML-",
         "age":26,
         "height":173,
         "weight":76,
         "positionText":"Midfielder",
         "apps":14,
         "subOn":0,
         "minsPlayed":1165,
         "rating":7.1692857142857127,
         "isManOfTheMatch":false,
         "playedPositionsShort":"AM(CL)",
         "dribbleLost":1.4678111587959999,
         "dribbleTotal":4.24892703862,
         "name":"Naim Sliti",
         "dribbleWon":2.781115879824
      },
      {
         "ranking":9,
         "seasonId":7405,
         "seasonName":"2018/2019",
         "tournamentId":3,
         "tournamentRegionId":81,
         "tournamentRegionCode":"de",
         "tournamentRegionName":"Germany",
         "regionCode":"de",
         "tournamentName":"Bundesliga",
         "tournamentShortName":"GB",
         "firstName":"Serge",
         "lastName":"Gnabry",
         "playerId":119501,
         "isActive":true,
         "isOpta":true,
         "teamId":37,
         "teamName":"Bayern Munich",
         "teamRegionName":"Germany",
         "playedPositions":"-AMC-AML-AMR-FW-",
         "age":23,
         "height":175,
         "weight":75,
         "positionText":"Midfielder",
         "apps":10,
         "subOn":0,
         "minsPlayed":671,
         "rating":7.3290000000000006,
         "isManOfTheMatch":false,
         "playedPositionsShort":"AM(CLR),FW",
         "dribbleLost":2.4143070044700004,
         "dribbleTotal":5.0968703427700008,
         "name":"Serge Gnabry",
         "dribbleWon":2.6825633383000005
      },
      {
         "ranking":10,
         "seasonId":7466,
         "seasonName":"2018/2019",
         "tournamentId":4,
         "tournamentRegionId":206,
         "tournamentRegionCode":"es",
         "tournamentRegionName":"Spain",
         "regionCode":"ar",
         "tournamentName":"La Liga",
         "tournamentShortName":"SLL",
         "firstName":"Ángel",
         "lastName":"Correa",
         "playerId":127604,
         "isActive":true,
         "isOpta":true,
         "teamId":63,
         "teamName":"Atletico Madrid",
         "teamRegionName":"Spain",
         "playedPositions":"-AML-AMR-FW-",
         "age":23,
         "height":171,
         "weight":68,
         "positionText":"Forward",
         "apps":10,
         "subOn":0,
         "minsPlayed":740,
         "rating":6.875,
         "isManOfTheMatch":false,
         "playedPositionsShort":"AM(LR),FW",
         "dribbleLost":1.337837837831,
         "dribbleTotal":4.0135135134930007,
         "name":"Ángel Correa",
         "dribbleWon":2.675675675662
      }
   ],
   "paging":{
      "currentPage":1,
      "totalPages":25,
      "resultsPerPage":10,
      "totalResults":245,
      "firstRecordIndex":1,
      "lastRecordIndex":10
   },
   "statColumns":[
      "apps",
      "subOn",
      "minsPlayed",
      "dribbleLost",
      "dribbleWon",
      "dribbleTotal"
   ]
}