{
   "playerTableStats":[
      {
         "ranking":181,
         "seasonId":7468,
         "seasonName":"2018/2019",
         "tournamentId":5,
         "tournamentRegionId":108,
         "tournamentRegionCode":"it",
         "tournamentRegionName":"Italy",
         "regionCode":"se",
         "tournamentName":"Serie A",
         "tournamentShortName":"ISA",
         "firstName":"Oscar",
         "lastName":"Hiljemark",
         "playerId":90349,
         "isActive":true,
         "isOpta":true,
         "teamId":278,
         "teamName":"Genoa",
         "teamRegionName":"Italy",
         "playedPositions":"-AMC-",
         "age":26,
         "height":185,
         "weight":75,
         "positionText":"Midfielder",
         "apps":15,
         "subOn":0,
         "minsPlayed":1189,
         "rating":6.5413333333333332,
         "isManOfTheMatch":false,
         "playedPositionsShort":"AM(C)",
         "name":"Oscar Hiljemark",
         "keyPassLong":0.075693860386,
         "keyPassShort":0.75693860386,
         "keyPassesTotal":0.832632464246
      },
      {
         "ranking":182,
         "seasonId":7468,
         "seasonName":"2018/2019",
         "tournamentId":5,
         "tournamentRegionId":108,
         "tournamentRegionCode":"it",
         "tournamentRegionName":"Italy",
         "regionCode":"it",
         "tournamentName":"Serie A",
         "tournamentShortName":"ISA",
         "firstName":"Federico",
         "lastName":"Di Francesco",
         "playerId":128605,
         "isActive":true,
         "isOpta":true,
         "teamId":2889,
         "teamName":"Sassuolo",
         "teamRegionName":"Italy",
         "playedPositions":"-ML-MR-",
         "age":24,
         "height":178,
         "weight":75,
         "positionText":"Forward",
         "apps":10,
         "subOn":0,
         "minsPlayed":758,
         "rating":6.6819999999999995,
         "isManOfTheMatch":false,
         "playedPositionsShort":"M(LR)",
         "name":"Federico Di Francesco",
         "keyPassLong":0.0,
         "keyPassShort":0.831134564638,
         "keyPassesTotal":0.831134564638
      },
      {
         "ranking":183,
         "seasonId":7466,
         "seasonName":"2018/2019",
         "tournamentId":4,
         "tournamentRegionId":206,
         "tournamentRegionCode":"es",
         "tournamentRegionName":"Spain",
         "regionCode":"ar",
         "tournamentName":"La Liga",
         "tournamentShortName":"SLL",
         "firstName":"Giovani",
         "lastName":"Lo Celso",
         "playerId":303908,
         "isActive":true,
         "isOpta":true,
         "teamId":54,
         "teamName":"Real Betis",
         "teamRegionName":"Spain",
         "playedPositions":"-AMC-",
         "age":22,
         "height":177,
         "weight":68,
         "positionText":"Midfielder",
         "apps":10,
         "subOn":0,
         "minsPlayed":872,
         "rating":7.2220000000000013,
         "isManOfTheMatch":false,
         "playedPositionsShort":"AM(C)",
         "name":"Giovani Lo Celso",
         "keyPassLong":0.103211009174,
         "keyPassShort":0.72247706421800006,
         "keyPassesTotal":0.825688073392
      },
      {
         "ranking":184,
         "seasonId":7361,
         "seasonName":"2018/2019",
         "tournamentId":2,
         "tournamentRegionId":252,
         "tournamentRegionCode":"gb-eng",
         "tournamentRegionName":"England",
         "regionCode":"dk",
         "tournamentName":"Premier League",
         "tournamentShortName":"EPL",
         "firstName":"Pierre-Emile",
         "lastName":"Højbjerg",
         "playerId":101859,
         "isActive":true,
         "isOpta":true,
         "teamId":18,
         "teamName":"Southampton",
         "teamRegionName":"England",
         "playedPositions":"-MC-",
         "age":23,
         "height":185,
         "weight":84,
         "positionText":"Midfielder",
         "apps":16,
         "subOn":0,
         "minsPlayed":1420,
         "rating":6.8362500000000015,
         "isManOfTheMatch":false,
         "playedPositionsShort":"M(C)",
         "name":"Pierre-Emile Højbjerg",
         "keyPassLong":0.19014084507,
         "keyPassShort":0.6338028169,
         "keyPassesTotal":0.82394366197
      },
      {
         "ranking":185,
         "seasonId":7405,
         "seasonName":"2018/2019",
         "tournamentId":3,
         "tournamentRegionId":81,
         "tournamentRegionCode":"de",
         "tournamentRegionName":"Germany",
         "regionCode":"es",
         "tournamentName":"Bundesliga",
         "tournamentShortName":"GB",
         "firstName":"Thiago",
         "lastName":"Alcántara do Nascimento",
         "playerId":74939,
         "isActive":true,
         "isOpta":true,
         "teamId":37,
         "teamName":"Bayern Munich",
         "teamRegionName":"Germany",
         "playedPositions":"-MC-",
         "age":27,
         "height":174,
         "weight":70,
         "positionText":"Midfielder",
         "apps":11,
         "subOn":0,
         "minsPlayed":990,
         "rating":7.7145454545454548,
         "isManOfTheMatch":false,
         "playedPositionsShort":"M(C)",
         "name":"Thiago Alcántara",
         "keyPassLong":0.0,
         "keyPassShort":0.818181818181,
         "keyPassesTotal":0.818181818181
      },
      {
         "ranking":186,
         "seasonId":7466,
         "seasonName":"2018/2019",
         "tournamentId":4,
         "tournamentRegionId":206,
         "tournamentRegionCode":"es",
         "tournamentRegionName":"Spain",
         "regionCode":"uy",
         "tournamentName":"La Liga",
         "tournamentShortName":"SLL",
         "firstName":"Mauro",
         "lastName":"Arambarri",
         "playerId":303016,
         "isActive":true,
         "isOpta":true,
         "teamId":819,
         "teamName":"Getafe",
         "teamRegionName":"Spain",
         "playedPositions":"-DMC-",
         "age":23,
         "height":175,
         "weight":74,
         "positionText":"Midfielder",
         "apps":17,
         "subOn":0,
         "minsPlayed":1431,
         "rating":6.7111764705882342,
         "isManOfTheMatch":false,
         "playedPositionsShort":"DMC",
         "name":"Mauro Arambarri",
         "keyPassLong":0.251572327044,
         "keyPassShort":0.56603773584900008,
         "keyPassesTotal":0.81761006289300009
      },
      {
         "ranking":187,
         "seasonId":7466,
         "seasonName":"2018/2019",
         "tournamentId":4,
         "tournamentRegionId":206,
         "tournamentRegionCode":"es",
         "tournamentRegionName":"Spain",
         "regionCode":"br",
         "tournamentName":"La Liga",
         "tournamentShortName":"SLL",
         "firstName":"Carlos Henrique Jose",
         "lastName":"Francisco Venancio",
         "playerId":88526,
         "isActive":true,
         "isOpta":true,
         "teamId":52,
         "teamName":"Real Madrid",
         "teamRegionName":"Spain",
         "playedPositions":"-DMC-",
         "age":26,
         "height":185,
         "weight":84,
         "positionText":"Midfielder",
         "apps":12,
         "subOn":0,
         "minsPlayed":914,
         "rating":7.0225000000000017,
         "isManOfTheMatch":false,
         "playedPositionsShort":"DMC",
         "name":"Casemiro",
         "keyPassLong":0.0,
         "keyPassShort":0.787746170672,
         "keyPassesTotal":0.787746170672
      },
      {
         "ranking":188,
         "seasonId":7361,
         "seasonName":"2018/2019",
         "tournamentId":2,
         "tournamentRegionId":252,
         "tournamentRegionCode":"gb-eng",
         "tournamentRegionName":"England",
         "regionCode":"br",
         "tournamentName":"Premier League",
         "tournamentShortName":"EPL",
         "firstName":"Robert Kenedy",
         "lastName":"Nunes do Nascimento",
         "playerId":132838,
         "isActive":true,
         "isOpta":true,
         "teamId":23,
         "teamName":"Newcastle United",
         "teamRegionName":"England",
         "playedPositions":"-DL-ML-",
         "age":22,
         "height":182,
         "weight":77,
         "positionText":"Midfielder",
         "apps":12,
         "subOn":0,
         "minsPlayed":973,
         "rating":6.8474999999999993,
         "isManOfTheMatch":false,
         "playedPositionsShort":"D(L),M(L)",
         "name":"Kenedy",
         "keyPassLong":0.184994861252,
         "keyPassShort":0.55498458375599991,
         "keyPassesTotal":0.739979445008
      },
      {
         "ranking":189,
         "seasonId":7466,
         "seasonName":"2018/2019",
         "tournamentId":4,
         "tournamentRegionId":206,
         "tournamentRegionCode":"es",
         "tournamentRegionName":"Spain",
         "regionCode":"pt",
         "tournamentName":"La Liga",
         "tournamentShortName":"SLL",
         "firstName":"William",
         "lastName":"Silva de Carvalho",
         "playerId":99911,
         "isActive":true,
         "isOpta":true,
         "teamId":54,
         "teamName":"Real Betis",
         "teamRegionName":"Spain",
         "playedPositions":"-DMC-",
         "age":26,
         "height":187,
         "weight":79,
         "positionText":"Midfielder",
         "apps":13,
         "subOn":0,
         "minsPlayed":1117,
         "rating":6.8984615384615378,
         "isManOfTheMatch":false,
         "playedPositionsShort":"DMC",
         "name":"William Carvalho",
         "keyPassLong":0.40286481647,
         "keyPassShort":0.322291853176,
         "keyPassesTotal":0.725156669646
      },
      {
         "ranking":190,
         "seasonId":7405,
         "seasonName":"2018/2019",
         "tournamentId":3,
         "tournamentRegionId":81,
         "tournamentRegionCode":"de",
         "tournamentRegionName":"Germany",
         "regionCode":"de",
         "tournamentName":"Bundesliga",
         "tournamentShortName":"GB",
         "firstName":"Kai",
         "lastName":"Havertz",
         "playerId":326413,
         "isActive":true,
         "isOpta":true,
         "teamId":36,
         "teamName":"Bayer Leverkusen",
         "teamRegionName":"Germany",
         "playedPositions":"-MC-MR-",
         "age":19,
         "height":188,
         "weight":83,
         "positionText":"Midfielder",
         "apps":17,
         "subOn":0,
         "minsPlayed":1496,
         "rating":7.0905882352941179,
         "isManOfTheMatch":false,
         "playedPositionsShort":"M(CR)",
         "name":"Kai Havertz",
         "keyPassLong":0.180481283421,
         "keyPassShort":0.541443850263,
         "keyPassesTotal":0.721925133684
      }
   ],
   "paging":{
      "currentPage":19,
      "totalPages":25,
      "resultsPerPage":10,
      "totalResults":246,
      "firstRecordIndex":181,
      "lastRecordIndex":190
   },
   "statColumns":[
      "apps",
      "subOn",
      "minsPlayed",
      "keyPassesTotal",
      "keyPassLong",
      "keyPassShort"
   ]
}