{
   "playerTableStats":[
      {
         "height":180,
         "weight":71,
         "age":25,
         "isManOfTheMatch":false,
         "isActive":true,
         "playedPositions":"-DMC-",
         "playedPositionsShort":"DMC",
         "teamRegionName":"Spain",
         "regionCode":"es",
         "tournamentShortName":"SLL",
         "apps":15,
         "subOn":0,
         "name":"Sergi Darder",
         "firstName":"Sergi",
         "lastName":"Darder",
         "playerId":106596,
         "positionText":"Midfielder",
         "teamId":70,
         "teamName":"Espanyol",
         "seasonId":7466,
         "seasonName":"2018/2019",
         "isOpta":true,
         "tournamentId":4,
         "tournamentRegionId":206,
         "tournamentRegionCode":"es",
         "tournamentRegionName":"Spain",
         "tournamentName":"La Liga",
         "rating":6.7133333333333338,
         "minsPlayed":1272,
         "keyPassLong":0.212264150943,
         "keyPassShort":0.990566037734,
         "keyPassesTotal":1.2028301886769999,
         "ranking":121
      },
      {
         "height":186,
         "weight":77,
         "age":24,
         "isManOfTheMatch":false,
         "isActive":true,
         "playedPositions":"-FW-MC-ML-MR-",
         "playedPositionsShort":"M(CLR),FW",
         "teamRegionName":"Germany",
         "regionCode":"de",
         "tournamentShortName":"GB",
         "apps":11,
         "subOn":0,
         "name":"Janik Haberer",
         "firstName":"Janik",
         "lastName":"Haberer",
         "playerId":110272,
         "positionText":"Midfielder",
         "teamId":50,
         "teamName":"Freiburg",
         "seasonId":7405,
         "seasonName":"2018/2019",
         "isOpta":true,
         "tournamentId":3,
         "tournamentRegionId":81,
         "tournamentRegionCode":"de",
         "tournamentRegionName":"Germany",
         "tournamentName":"Bundesliga",
         "rating":6.9272727272727277,
         "minsPlayed":989,
         "keyPassLong":0.273003033366,
         "keyPassShort":0.91001011122,
         "keyPassesTotal":1.183013144586,
         "ranking":122
      },
      {
         "height":179,
         "weight":70,
         "age":23,
         "isManOfTheMatch":false,
         "isActive":true,
         "playedPositions":"-AMR-FW-",
         "playedPositionsShort":"AM(R),FW",
         "teamRegionName":"France",
         "regionCode":"co",
         "tournamentShortName":"FL1",
         "apps":11,
         "subOn":0,
         "name":"Juan Ferney Otero",
         "firstName":"Juan Ferney",
         "lastName":"Otero",
         "playerId":334654,
         "positionText":"Forward",
         "teamId":151,
         "teamName":"Amiens",
         "seasonId":7344,
         "seasonName":"2018/2019",
         "isOpta":true,
         "tournamentId":22,
         "tournamentRegionId":74,
         "tournamentRegionCode":"fr",
         "tournamentRegionName":"France",
         "tournamentName":"Ligue 1",
         "rating":6.5236363636363643,
         "minsPlayed":915,
         "keyPassLong":0.196721311474,
         "keyPassShort":0.98360655736999991,
         "keyPassesTotal":1.180327868844,
         "ranking":123
      },
      {
         "height":170,
         "weight":65,
         "age":26,
         "isManOfTheMatch":false,
         "isActive":true,
         "playedPositions":"-AMC-AML-AMR-",
         "playedPositionsShort":"AM(CLR)",
         "teamRegionName":"Spain",
         "regionCode":"es",
         "tournamentShortName":"SLL",
         "apps":12,
         "subOn":0,
         "name":"Iker Muniain",
         "firstName":"Iker",
         "lastName":"Muniain",
         "playerId":77922,
         "positionText":"Forward",
         "teamId":53,
         "teamName":"Athletic Bilbao",
         "seasonId":7466,
         "seasonName":"2018/2019",
         "isOpta":true,
         "tournamentId":4,
         "tournamentRegionId":206,
         "tournamentRegionCode":"es",
         "tournamentRegionName":"Spain",
         "tournamentName":"La Liga",
         "rating":7.0233333333333334,
         "minsPlayed":996,
         "keyPassLong":0.0,
         "keyPassShort":1.174698795179,
         "keyPassesTotal":1.174698795179,
         "ranking":124
      },
      {
         "height":184,
         "weight":75,
         "age":26,
         "isManOfTheMatch":false,
         "isActive":true,
         "playedPositions":"-MC-",
         "playedPositionsShort":"M(C)",
         "teamRegionName":"England",
         "regionCode":"fr",
         "tournamentShortName":"EPL",
         "apps":20,
         "subOn":0,
         "name":"Abdoulaye Doucouré",
         "firstName":"Abdoulaye",
         "lastName":"Doucouré",
         "playerId":116317,
         "positionText":"Midfielder",
         "teamId":27,
         "teamName":"Watford",
         "seasonId":7361,
         "seasonName":"2018/2019",
         "isOpta":true,
         "tournamentId":2,
         "tournamentRegionId":252,
         "tournamentRegionCode":"gb-eng",
         "tournamentRegionName":"England",
         "tournamentName":"Premier League",
         "rating":6.7799999999999994,
         "minsPlayed":1766,
         "keyPassLong":0.101925254812,
         "keyPassShort":1.070215175526,
         "keyPassesTotal":1.172140430338,
         "ranking":125
      },
      {
         "height":179,
         "weight":75,
         "age":23,
         "isManOfTheMatch":false,
         "isActive":true,
         "playedPositions":"-AMR-",
         "playedPositionsShort":"AM(R)",
         "teamRegionName":"France",
         "regionCode":"fr",
         "tournamentShortName":"FL1",
         "apps":15,
         "subOn":0,
         "name":"Sada Thioub",
         "firstName":"Sada",
         "lastName":"Thioub",
         "playerId":259809,
         "positionText":"Forward",
         "teamId":245,
         "teamName":"Nimes",
         "seasonId":7344,
         "seasonName":"2018/2019",
         "isOpta":true,
         "tournamentId":22,
         "tournamentRegionId":74,
         "tournamentRegionCode":"fr",
         "tournamentRegionName":"France",
         "tournamentName":"Ligue 1",
         "rating":6.86,
         "minsPlayed":1230,
         "keyPassLong":0.073170731707,
         "keyPassShort":1.097560975605,
         "keyPassesTotal":1.170731707312,
         "ranking":126
      },
      {
         "height":185,
         "weight":69,
         "age":25,
         "isManOfTheMatch":false,
         "isActive":true,
         "playedPositions":"-AMC-AML-AMR-",
         "playedPositionsShort":"AM(CLR)",
         "teamRegionName":"France",
         "regionCode":"fr",
         "tournamentShortName":"FL1",
         "apps":14,
         "subOn":0,
         "name":"Pierre Lees-Melou",
         "firstName":"Pierre",
         "lastName":"Lees-Melou",
         "playerId":301243,
         "positionText":"Midfielder",
         "teamId":613,
         "teamName":"Nice",
         "seasonId":7344,
         "seasonName":"2018/2019",
         "isOpta":true,
         "tournamentId":22,
         "tournamentRegionId":74,
         "tournamentRegionCode":"fr",
         "tournamentRegionName":"France",
         "tournamentName":"Ligue 1",
         "rating":6.9142857142857137,
         "minsPlayed":1233,
         "keyPassLong":0.43795620437400007,
         "keyPassShort":0.72992700729,
         "keyPassesTotal":1.167883211664,
         "ranking":127
      },
      {
         "height":180,
         "weight":75,
         "age":22,
         "isManOfTheMatch":false,
         "isActive":true,
         "playedPositions":"-AMC-AML-AMR-",
         "playedPositionsShort":"AM(CLR)",
         "teamRegionName":"England",
         "regionCode":"ng",
         "tournamentShortName":"EPL",
         "apps":12,
         "subOn":0,
         "name":"Alex Iwobi",
         "firstName":"Alex",
         "lastName":"Iwobi",
         "playerId":136824,
         "positionText":"Midfielder",
         "teamId":13,
         "teamName":"Arsenal",
         "seasonId":7361,
         "seasonName":"2018/2019",
         "isOpta":true,
         "tournamentId":2,
         "tournamentRegionId":252,
         "tournamentRegionCode":"gb-eng",
         "tournamentRegionName":"England",
         "tournamentName":"Premier League",
         "rating":6.6916666666666655,
         "minsPlayed":850,
         "keyPassLong":0.0,
         "keyPassShort":1.164705882351,
         "keyPassesTotal":1.164705882351,
         "ranking":128
      },
      {
         "height":178,
         "weight":85,
         "age":26,
         "isManOfTheMatch":false,
         "isActive":true,
         "playedPositions":"-DMC-",
         "playedPositionsShort":"DMC",
         "teamRegionName":"France",
         "regionCode":"dz",
         "tournamentShortName":"FL1",
         "apps":12,
         "subOn":0,
         "name":"Mehdi Abeid",
         "firstName":"Mehdi",
         "lastName":"Abeid",
         "playerId":109526,
         "positionText":"Midfielder",
         "teamId":1364,
         "teamName":"Dijon",
         "seasonId":7344,
         "seasonName":"2018/2019",
         "isOpta":true,
         "tournamentId":22,
         "tournamentRegionId":74,
         "tournamentRegionCode":"fr",
         "tournamentRegionName":"France",
         "tournamentName":"Ligue 1",
         "rating":6.9958333333333345,
         "minsPlayed":1005,
         "keyPassLong":0.35820895522,
         "keyPassShort":0.805970149245,
         "keyPassesTotal":1.164179104465,
         "ranking":129
      },
      {
         "height":172,
         "weight":67,
         "age":23,
         "isManOfTheMatch":false,
         "isActive":true,
         "playedPositions":"-AMC-AML-",
         "playedPositionsShort":"AM(CL)",
         "teamRegionName":"Spain",
         "regionCode":"mk",
         "tournamentShortName":"SLL",
         "apps":15,
         "subOn":0,
         "name":"Enis Bardhi",
         "firstName":"Enis",
         "lastName":"Bardhi",
         "playerId":275687,
         "positionText":"Midfielder",
         "teamId":832,
         "teamName":"Levante",
         "seasonId":7466,
         "seasonName":"2018/2019",
         "isOpta":true,
         "tournamentId":4,
         "tournamentRegionId":206,
         "tournamentRegionCode":"es",
         "tournamentRegionName":"Spain",
         "tournamentName":"La Liga",
         "rating":6.817333333333333,
         "minsPlayed":1319,
         "keyPassLong":0.27293404094,
         "keyPassShort":0.887035633055,
         "keyPassesTotal":1.159969673995,
         "ranking":130
      }
   ],
   "paging":{
      "currentPage":13,
      "totalPages":25,
      "resultsPerPage":10,
      "totalResults":246,
      "firstRecordIndex":121,
      "lastRecordIndex":130
   },
   "statColumns":[
      "apps",
      "subOn",
      "minsPlayed",
      "keyPassesTotal",
      "keyPassLong",
      "keyPassShort"
   ]
}