{
   "playerTableStats":[
      {
         "ranking":191,
         "seasonId":7405,
         "seasonName":"2018/2019",
         "tournamentId":3,
         "tournamentRegionId":81,
         "tournamentRegionCode":"de",
         "tournamentRegionName":"Germany",
         "regionCode":"de",
         "tournamentName":"Bundesliga",
         "tournamentShortName":"GB",
         "firstName":"Suat",
         "lastName":"Serdar",
         "playerId":296119,
         "isActive":true,
         "isOpta":true,
         "teamId":39,
         "teamName":"Schalke 04",
         "teamRegionName":"Germany",
         "playedPositions":"-MC-",
         "age":21,
         "height":184,
         "weight":75,
         "positionText":"Midfielder",
         "apps":10,
         "subOn":0,
         "minsPlayed":751,
         "rating":6.694,
         "isManOfTheMatch":false,
         "playedPositionsShort":"M(C)",
         "name":"Suat Serdar",
         "keyPassLong":0.119840213049,
         "keyPassShort":0.59920106524499994,
         "keyPassesTotal":0.71904127829399989
      },
      {
         "ranking":192,
         "seasonId":7405,
         "seasonName":"2018/2019",
         "tournamentId":3,
         "tournamentRegionId":81,
         "tournamentRegionCode":"de",
         "tournamentRegionName":"Germany",
         "regionCode":"nl",
         "tournamentName":"Bundesliga",
         "tournamentShortName":"GB",
         "firstName":"Virgil",
         "lastName":"Misidjan",
         "playerId":120454,
         "isActive":true,
         "isOpta":true,
         "teamId":137,
         "teamName":"Nuernberg",
         "teamRegionName":"Germany",
         "playedPositions":"-AML-AMR-",
         "age":25,
         "height":173,
         "weight":70,
         "positionText":"Forward",
         "apps":11,
         "subOn":0,
         "minsPlayed":886,
         "rating":6.4090909090909092,
         "isManOfTheMatch":false,
         "playedPositionsShort":"AM(LR)",
         "name":"Virgil Misidjan",
         "keyPassLong":0.30474040632,
         "keyPassShort":0.40632054176,
         "keyPassesTotal":0.71106094808
      },
      {
         "ranking":193,
         "seasonId":7361,
         "seasonName":"2018/2019",
         "tournamentId":2,
         "tournamentRegionId":252,
         "tournamentRegionCode":"gb-eng",
         "tournamentRegionName":"England",
         "regionCode":"ng",
         "tournamentName":"Premier League",
         "tournamentShortName":"EPL",
         "firstName":"Onyinye Wilfred",
         "lastName":"Ndidi",
         "playerId":327683,
         "isActive":true,
         "isOpta":true,
         "teamId":14,
         "teamName":"Leicester",
         "teamRegionName":"England",
         "playedPositions":"-DMC-",
         "age":22,
         "height":183,
         "weight":74,
         "positionText":"Midfielder",
         "apps":20,
         "subOn":0,
         "minsPlayed":1800,
         "rating":7.2150000000000007,
         "isManOfTheMatch":false,
         "playedPositionsShort":"DMC",
         "name":"Wilfred Ndidi",
         "keyPassLong":0.2,
         "keyPassShort":0.5,
         "keyPassesTotal":0.7
      },
      {
         "ranking":194,
         "seasonId":7405,
         "seasonName":"2018/2019",
         "tournamentId":3,
         "tournamentRegionId":81,
         "tournamentRegionCode":"de",
         "tournamentRegionName":"Germany",
         "regionCode":"rs",
         "tournamentName":"Bundesliga",
         "tournamentShortName":"GB",
         "firstName":"Mijat",
         "lastName":"Gacinovic",
         "playerId":300318,
         "isActive":true,
         "isOpta":true,
         "teamId":45,
         "teamName":"Eintracht Frankfurt",
         "teamRegionName":"Germany",
         "playedPositions":"-MC-ML-MR-",
         "age":23,
         "height":175,
         "weight":66,
         "positionText":"Midfielder",
         "apps":10,
         "subOn":0,
         "minsPlayed":772,
         "rating":6.6480000000000006,
         "isManOfTheMatch":false,
         "playedPositionsShort":"M(CLR)",
         "name":"Mijat Gacinovic",
         "keyPassLong":0.0,
         "keyPassShort":0.69948186528,
         "keyPassesTotal":0.69948186528
      },
      {
         "ranking":195,
         "seasonId":7468,
         "seasonName":"2018/2019",
         "tournamentId":5,
         "tournamentRegionId":108,
         "tournamentRegionCode":"it",
         "tournamentRegionName":"Italy",
         "regionCode":"gh",
         "tournamentName":"Serie A",
         "tournamentShortName":"ISA",
         "firstName":"Afriyie",
         "lastName":"Acquah",
         "playerId":91180,
         "isActive":true,
         "isOpta":true,
         "teamId":272,
         "teamName":"Empoli",
         "teamRegionName":"Italy",
         "playedPositions":"-DMC-",
         "age":27,
         "height":179,
         "weight":70,
         "positionText":"Midfielder",
         "apps":12,
         "subOn":0,
         "minsPlayed":925,
         "rating":6.5483333333333329,
         "isManOfTheMatch":false,
         "playedPositionsShort":"DMC",
         "name":"Afriyie Acquah",
         "keyPassLong":0.194594594594,
         "keyPassShort":0.486486486485,
         "keyPassesTotal":0.681081081079
      },
      {
         "ranking":196,
         "seasonId":7466,
         "seasonName":"2018/2019",
         "tournamentId":4,
         "tournamentRegionId":206,
         "tournamentRegionCode":"es",
         "tournamentRegionName":"Spain",
         "regionCode":"es",
         "tournamentName":"La Liga",
         "tournamentShortName":"SLL",
         "firstName":"Rubén",
         "lastName":"Alcaraz",
         "playerId":279711,
         "isActive":true,
         "isOpta":true,
         "teamId":58,
         "teamName":"Real Valladolid",
         "teamRegionName":"Spain",
         "playedPositions":"-DMC-",
         "age":27,
         "height":180,
         "weight":78,
         "positionText":"Midfielder",
         "apps":17,
         "subOn":0,
         "minsPlayed":1470,
         "rating":7.0264705882352931,
         "isManOfTheMatch":false,
         "playedPositionsShort":"DMC",
         "name":"Rubén Alcaraz",
         "keyPassLong":0.183673469385,
         "keyPassShort":0.48979591836,
         "keyPassesTotal":0.673469387745
      },
      {
         "ranking":197,
         "seasonId":7344,
         "seasonName":"2018/2019",
         "tournamentId":22,
         "tournamentRegionId":74,
         "tournamentRegionCode":"fr",
         "tournamentRegionName":"France",
         "regionCode":"fr",
         "tournamentName":"Ligue 1",
         "tournamentShortName":"FL1",
         "firstName":"Thomas",
         "lastName":"Monconduit",
         "playerId":100869,
         "isActive":true,
         "isOpta":true,
         "teamId":151,
         "teamName":"Amiens",
         "teamRegionName":"France",
         "playedPositions":"-DMC-",
         "age":27,
         "height":184,
         "weight":83,
         "positionText":"Midfielder",
         "apps":15,
         "subOn":0,
         "minsPlayed":1337,
         "rating":6.826,
         "isManOfTheMatch":false,
         "playedPositionsShort":"DMC",
         "name":"Thomas Monconduit",
         "keyPassLong":0.134629768136,
         "keyPassShort":0.538519072544,
         "keyPassesTotal":0.67314884068
      },
      {
         "ranking":198,
         "seasonId":7344,
         "seasonName":"2018/2019",
         "tournamentId":22,
         "tournamentRegionId":74,
         "tournamentRegionCode":"fr",
         "tournamentRegionName":"France",
         "regionCode":"dk",
         "tournamentName":"Ligue 1",
         "tournamentShortName":"FL1",
         "firstName":"Lukas",
         "lastName":"Lerager",
         "playerId":342577,
         "isActive":true,
         "isOpta":true,
         "teamId":315,
         "teamName":"Bordeaux",
         "teamRegionName":"France",
         "playedPositions":"-DMC-",
         "age":25,
         "height":185,
         "weight":80,
         "positionText":"Midfielder",
         "apps":13,
         "subOn":0,
         "minsPlayed":1071,
         "rating":6.7546153846153851,
         "isManOfTheMatch":false,
         "playedPositionsShort":"DMC",
         "name":"Lukas Lerager",
         "keyPassLong":0.16806722689,
         "keyPassShort":0.50420168067,
         "keyPassesTotal":0.67226890756
      },
      {
         "ranking":199,
         "seasonId":7468,
         "seasonName":"2018/2019",
         "tournamentId":5,
         "tournamentRegionId":108,
         "tournamentRegionCode":"it",
         "tournamentRegionName":"Italy",
         "regionCode":"nl",
         "tournamentName":"Serie A",
         "tournamentShortName":"ISA",
         "firstName":"Marten",
         "lastName":"de Roon",
         "playerId":85070,
         "isActive":true,
         "isOpta":true,
         "teamId":300,
         "teamName":"Atalanta",
         "teamRegionName":"Italy",
         "playedPositions":"-DMC-",
         "age":27,
         "height":185,
         "weight":76,
         "positionText":"Midfielder",
         "apps":16,
         "subOn":0,
         "minsPlayed":1340,
         "rating":7.120625,
         "isManOfTheMatch":false,
         "playedPositionsShort":"DMC",
         "name":"Marten de Roon",
         "keyPassLong":0.134328358208,
         "keyPassShort":0.537313432832,
         "keyPassesTotal":0.67164179103999988
      },
      {
         "ranking":200,
         "seasonId":7405,
         "seasonName":"2018/2019",
         "tournamentId":3,
         "tournamentRegionId":81,
         "tournamentRegionCode":"de",
         "tournamentRegionName":"Germany",
         "regionCode":"dk",
         "tournamentName":"Bundesliga",
         "tournamentShortName":"GB",
         "firstName":"Thomas",
         "lastName":"Delaney",
         "playerId":73744,
         "isActive":true,
         "isOpta":true,
         "teamId":44,
         "teamName":"Borussia Dortmund",
         "teamRegionName":"Germany",
         "playedPositions":"-DMC-",
         "age":27,
         "height":182,
         "weight":71,
         "positionText":"Midfielder",
         "apps":13,
         "subOn":0,
         "minsPlayed":1076,
         "rating":7.1653846153846148,
         "isManOfTheMatch":false,
         "playedPositionsShort":"DMC",
         "name":"Thomas Delaney",
         "keyPassLong":0.083643122676,
         "keyPassShort":0.585501858732,
         "keyPassesTotal":0.669144981408
      }
   ],
   "paging":{
      "currentPage":20,
      "totalPages":25,
      "resultsPerPage":10,
      "totalResults":246,
      "firstRecordIndex":191,
      "lastRecordIndex":200
   },
   "statColumns":[
      "apps",
      "subOn",
      "minsPlayed",
      "keyPassesTotal",
      "keyPassLong",
      "keyPassShort"
   ]
}