{
   "playerTableStats":[
      {
         "height":181,
         "weight":77,
         "age":26,
         "isManOfTheMatch":false,
         "isActive":true,
         "playedPositions":"-DMC-",
         "playedPositionsShort":"DMC",
         "teamRegionName":"Italy",
         "regionCode":"ch",
         "tournamentShortName":"ISA",
         "apps":18,
         "subOn":0,
         "name":"Remo Freuler",
         "firstName":"Remo",
         "lastName":"Freuler",
         "playerId":302691,
         "positionText":"Midfielder",
         "teamId":300,
         "teamName":"Atalanta",
         "seasonId":7468,
         "seasonName":"2018/2019",
         "isOpta":true,
         "tournamentId":5,
         "tournamentRegionId":108,
         "tournamentRegionCode":"it",
         "tournamentRegionName":"Italy",
         "tournamentName":"Serie A",
         "rating":7.0100000000000007,
         "minsPlayed":1567,
         "keyPassLong":0.0,
         "keyPassShort":1.1486917677,
         "keyPassesTotal":1.1486917677,
         "ranking":131
      },
      {
         "height":177,
         "weight":77,
         "age":24,
         "isManOfTheMatch":false,
         "isActive":true,
         "playedPositions":"-AMC-AML-AMR-FW-",
         "playedPositionsShort":"AM(CLR),FW",
         "teamRegionName":"Germany",
         "regionCode":"at",
         "tournamentShortName":"GB",
         "apps":12,
         "subOn":0,
         "name":"Marcel Sabitzer",
         "firstName":"Marcel",
         "lastName":"Sabitzer",
         "playerId":92051,
         "positionText":"Midfielder",
         "teamId":7614,
         "teamName":"RasenBallsport Leipzig",
         "seasonId":7405,
         "seasonName":"2018/2019",
         "isOpta":true,
         "tournamentId":3,
         "tournamentRegionId":81,
         "tournamentRegionCode":"de",
         "tournamentRegionName":"Germany",
         "tournamentName":"Bundesliga",
         "rating":6.9916666666666663,
         "minsPlayed":1029,
         "keyPassLong":0.0,
         "keyPassShort":1.1370262390630002,
         "keyPassesTotal":1.1370262390630002,
         "ranking":132
      },
      {
         "height":177,
         "weight":73,
         "age":27,
         "isManOfTheMatch":false,
         "isActive":true,
         "playedPositions":"-AMC-AML-AMR-FW-",
         "playedPositionsShort":"AM(CLR),FW",
         "teamRegionName":"Germany",
         "regionCode":"hr",
         "tournamentShortName":"GB",
         "apps":10,
         "subOn":0,
         "name":"Andrej Kramaric",
         "firstName":"Andrej",
         "lastName":"Kramaric",
         "playerId":75217,
         "positionText":"Forward",
         "teamId":1211,
         "teamName":"Hoffenheim",
         "seasonId":7405,
         "seasonName":"2018/2019",
         "isOpta":true,
         "tournamentId":3,
         "tournamentRegionId":81,
         "tournamentRegionCode":"de",
         "tournamentRegionName":"Germany",
         "tournamentName":"Bundesliga",
         "rating":6.9019999999999992,
         "minsPlayed":805,
         "keyPassLong":0.111801242236,
         "keyPassShort":1.0062111801240001,
         "keyPassesTotal":1.11801242236,
         "ranking":133
      },
      {
         "height":173,
         "weight":68,
         "age":24,
         "isManOfTheMatch":false,
         "isActive":true,
         "playedPositions":"-AMC-AML-FW-",
         "playedPositionsShort":"AM(CL),FW",
         "teamRegionName":"France",
         "regionCode":"ml",
         "tournamentShortName":"FL1",
         "apps":14,
         "subOn":0,
         "name":"Moussa Doumbia",
         "firstName":"Moussa",
         "lastName":"Doumbia",
         "playerId":234346,
         "positionText":"Midfielder",
         "teamId":950,
         "teamName":"Reims",
         "seasonId":7344,
         "seasonName":"2018/2019",
         "isOpta":true,
         "tournamentId":22,
         "tournamentRegionId":74,
         "tournamentRegionCode":"fr",
         "tournamentRegionName":"France",
         "tournamentName":"Ligue 1",
         "rating":6.8171428571428576,
         "minsPlayed":1127,
         "keyPassLong":0.0,
         "keyPassShort":1.118012422352,
         "keyPassesTotal":1.118012422352,
         "ranking":134
      },
      {
         "height":171,
         "weight":62,
         "age":25,
         "isManOfTheMatch":false,
         "isActive":true,
         "playedPositions":"-AMC-AML-AMR-",
         "playedPositionsShort":"AM(CLR)",
         "teamRegionName":"England",
         "regionCode":"gb-eng",
         "tournamentShortName":"EPL",
         "apps":16,
         "subOn":0,
         "name":"Alex Pritchard",
         "firstName":"Alex",
         "lastName":"Pritchard",
         "playerId":107848,
         "positionText":"Midfielder",
         "teamId":166,
         "teamName":"Huddersfield",
         "seasonId":7361,
         "seasonName":"2018/2019",
         "isOpta":true,
         "tournamentId":2,
         "tournamentRegionId":252,
         "tournamentRegionCode":"gb-eng",
         "tournamentRegionName":"England",
         "tournamentName":"Premier League",
         "rating":6.4562500000000007,
         "minsPlayed":1232,
         "keyPassLong":0.146103896102,
         "keyPassShort":0.949675324663,
         "keyPassesTotal":1.095779220765,
         "ranking":135
      },
      {
         "height":186,
         "weight":81,
         "age":25,
         "isManOfTheMatch":false,
         "isActive":true,
         "playedPositions":"-AML-AMR-FW-",
         "playedPositionsShort":"AM(LR),FW",
         "teamRegionName":"France",
         "regionCode":"td",
         "tournamentShortName":"FL1",
         "apps":12,
         "subOn":0,
         "name":"Casimir Ninga",
         "firstName":"Rodrigue Casimir",
         "lastName":"Ninga",
         "playerId":298542,
         "positionText":"Forward",
         "teamId":347,
         "teamName":"Caen",
         "seasonId":7344,
         "seasonName":"2018/2019",
         "isOpta":true,
         "tournamentId":22,
         "tournamentRegionId":74,
         "tournamentRegionCode":"fr",
         "tournamentRegionName":"France",
         "tournamentName":"Ligue 1",
         "rating":6.6033333333333317,
         "minsPlayed":912,
         "keyPassLong":0.098684210526,
         "keyPassShort":0.98684210526,
         "keyPassesTotal":1.085526315786,
         "ranking":136
      },
      {
         "height":172,
         "weight":63,
         "age":24,
         "isManOfTheMatch":false,
         "isActive":true,
         "playedPositions":"-AML-",
         "playedPositionsShort":"AM(L)",
         "teamRegionName":"Spain",
         "regionCode":"es",
         "tournamentShortName":"SLL",
         "apps":14,
         "subOn":0,
         "name":"Toni Villa",
         "firstName":"Laureano Antonio",
         "lastName":"Villa Suárez",
         "playerId":362355,
         "positionText":"Midfielder",
         "teamId":58,
         "teamName":"Real Valladolid",
         "seasonId":7466,
         "seasonName":"2018/2019",
         "isOpta":true,
         "tournamentId":4,
         "tournamentRegionId":206,
         "tournamentRegionCode":"es",
         "tournamentRegionName":"Spain",
         "tournamentName":"La Liga",
         "rating":7.0178571428571441,
         "minsPlayed":1162,
         "keyPassLong":0.077452667814,
         "keyPassShort":1.0068846815819998,
         "keyPassesTotal":1.0843373493959998,
         "ranking":137
      },
      {
         "height":183,
         "weight":70,
         "age":25,
         "isManOfTheMatch":false,
         "isActive":true,
         "playedPositions":"-DMC-ML-",
         "playedPositionsShort":"DMC,M(L)",
         "teamRegionName":"Wales",
         "regionCode":"gb-eng",
         "tournamentShortName":"EPL",
         "apps":13,
         "subOn":0,
         "name":"Joe Ralls",
         "firstName":"Joe",
         "lastName":"Ralls",
         "playerId":108093,
         "positionText":"Midfielder",
         "teamId":188,
         "teamName":"Cardiff",
         "seasonId":7361,
         "seasonName":"2018/2019",
         "isOpta":true,
         "tournamentId":2,
         "tournamentRegionId":252,
         "tournamentRegionCode":"gb-eng",
         "tournamentRegionName":"England",
         "tournamentName":"Premier League",
         "rating":6.536153846153848,
         "minsPlayed":1087,
         "keyPassLong":0.41398344066000003,
         "keyPassShort":0.662373505056,
         "keyPassesTotal":1.076356945716,
         "ranking":138
      },
      {
         "height":175,
         "weight":68,
         "age":21,
         "isManOfTheMatch":false,
         "isActive":true,
         "playedPositions":"-AMC-",
         "playedPositionsShort":"AM(C)",
         "teamRegionName":"Italy",
         "regionCode":"it",
         "tournamentShortName":"ISA",
         "apps":18,
         "subOn":0,
         "name":"Nicolò Barella",
         "firstName":"Nicolò",
         "lastName":"Barella",
         "playerId":148684,
         "positionText":"Midfielder",
         "teamId":78,
         "teamName":"Cagliari",
         "seasonId":7468,
         "seasonName":"2018/2019",
         "isOpta":true,
         "tournamentId":5,
         "tournamentRegionId":108,
         "tournamentRegionCode":"it",
         "tournamentRegionName":"Italy",
         "tournamentName":"Serie A",
         "rating":6.708333333333333,
         "minsPlayed":1592,
         "keyPassLong":0.28266331658,
         "keyPassShort":0.791457286424,
         "keyPassesTotal":1.074120603004,
         "ranking":139
      },
      {
         "height":176,
         "weight":72,
         "age":21,
         "isManOfTheMatch":false,
         "isActive":true,
         "playedPositions":"-MC-",
         "playedPositionsShort":"M(C)",
         "teamRegionName":"France",
         "regionCode":"be",
         "tournamentShortName":"FL1",
         "apps":16,
         "subOn":0,
         "name":"Youri Tielemans",
         "firstName":"Youri",
         "lastName":"Tielemans",
         "playerId":136345,
         "positionText":"Midfielder",
         "teamId":248,
         "teamName":"Monaco",
         "seasonId":7344,
         "seasonName":"2018/2019",
         "isOpta":true,
         "tournamentId":22,
         "tournamentRegionId":74,
         "tournamentRegionCode":"fr",
         "tournamentRegionName":"France",
         "tournamentName":"Ligue 1",
         "rating":6.9312499999999986,
         "minsPlayed":1347,
         "keyPassLong":0.40089086859600004,
         "keyPassShort":0.66815144766000012,
         "keyPassesTotal":1.069042316256,
         "ranking":140
      }
   ],
   "paging":{
      "currentPage":14,
      "totalPages":25,
      "resultsPerPage":10,
      "totalResults":246,
      "firstRecordIndex":131,
      "lastRecordIndex":140
   },
   "statColumns":[
      "apps",
      "subOn",
      "minsPlayed",
      "keyPassesTotal",
      "keyPassLong",
      "keyPassShort"
   ]
}