{
   "playerTableStats":[
      {
         "height":175,
         "weight":75,
         "age":23,
         "isManOfTheMatch":false,
         "isActive":true,
         "playedPositions":"-AMC-AML-AMR-FW-",
         "playedPositionsShort":"AM(CLR),FW",
         "teamRegionName":"Germany",
         "regionCode":"de",
         "tournamentShortName":"GB",
         "apps":10,
         "subOn":0,
         "name":"Serge Gnabry",
         "firstName":"Serge",
         "lastName":"Gnabry",
         "playerId":119501,
         "positionText":"Midfielder",
         "teamId":37,
         "teamName":"Bayern Munich",
         "seasonId":7405,
         "seasonName":"2018/2019",
         "isOpta":true,
         "tournamentId":3,
         "tournamentRegionId":81,
         "tournamentRegionCode":"de",
         "tournamentRegionName":"Germany",
         "tournamentName":"Bundesliga",
         "rating":7.3290000000000006,
         "minsPlayed":671,
         "keyPassLong":0.0,
         "keyPassShort":1.6095380029800002,
         "keyPassesTotal":1.6095380029800002,
         "ranking":71
      },
      {
         "height":182,
         "weight":76,
         "age":22,
         "isManOfTheMatch":false,
         "isActive":true,
         "playedPositions":"-AMC-AML-AMR-",
         "playedPositionsShort":"AM(CLR)",
         "teamRegionName":"Spain",
         "regionCode":"es",
         "tournamentShortName":"SLL",
         "apps":11,
         "subOn":0,
         "name":"Marco Asensio",
         "firstName":"Marco",
         "lastName":"Asensio",
         "playerId":137467,
         "positionText":"Midfielder",
         "teamId":52,
         "teamName":"Real Madrid",
         "seasonId":7466,
         "seasonName":"2018/2019",
         "isOpta":true,
         "tournamentId":4,
         "tournamentRegionId":206,
         "tournamentRegionCode":"es",
         "tournamentRegionName":"Spain",
         "tournamentName":"La Liga",
         "rating":7.0254545454545454,
         "minsPlayed":896,
         "keyPassLong":0.301339285713,
         "keyPassShort":1.305803571423,
         "keyPassesTotal":1.607142857136,
         "ranking":72
      },
      {
         "height":183,
         "weight":77,
         "age":25,
         "isManOfTheMatch":false,
         "isActive":true,
         "playedPositions":"-MC-",
         "playedPositionsShort":"M(C)",
         "teamRegionName":"Spain",
         "regionCode":"es",
         "tournamentShortName":"SLL",
         "apps":10,
         "subOn":0,
         "name":"Gonzalo Melero",
         "firstName":"Gonzalo",
         "lastName":"Melero",
         "playerId":261698,
         "positionText":"Midfielder",
         "teamId":5006,
         "teamName":"SD Huesca",
         "seasonId":7466,
         "seasonName":"2018/2019",
         "isOpta":true,
         "tournamentId":4,
         "tournamentRegionId":206,
         "tournamentRegionCode":"es",
         "tournamentRegionName":"Spain",
         "tournamentName":"La Liga",
         "rating":6.5329999999999995,
         "minsPlayed":842,
         "keyPassLong":0.21377672209,
         "keyPassShort":1.389548693585,
         "keyPassesTotal":1.603325415675,
         "ranking":73
      },
      {
         "height":180,
         "weight":88,
         "age":24,
         "isManOfTheMatch":false,
         "isActive":true,
         "playedPositions":"-AMC-AML-AMR-",
         "playedPositionsShort":"AM(CLR)",
         "teamRegionName":"England",
         "regionCode":"gb-eng",
         "tournamentShortName":"EPL",
         "apps":20,
         "subOn":0,
         "name":"Solly March",
         "firstName":"Solomon",
         "lastName":"March",
         "playerId":122926,
         "positionText":"Midfielder",
         "teamId":211,
         "teamName":"Brighton",
         "seasonId":7361,
         "seasonName":"2018/2019",
         "isOpta":true,
         "tournamentId":2,
         "tournamentRegionId":252,
         "tournamentRegionCode":"gb-eng",
         "tournamentRegionName":"England",
         "tournamentName":"Premier League",
         "rating":6.8595000000000015,
         "minsPlayed":1629,
         "keyPassLong":0.662983425408,
         "keyPassShort":0.939226519328,
         "keyPassesTotal":1.602209944736,
         "ranking":74
      },
      {
         "height":178,
         "weight":70,
         "age":18,
         "isManOfTheMatch":false,
         "isActive":true,
         "playedPositions":"-DL-ML-",
         "playedPositionsShort":"D(L),M(L)",
         "teamRegionName":"England",
         "regionCode":"gb-eng",
         "tournamentShortName":"EPL",
         "apps":10,
         "subOn":0,
         "name":"Ryan Sessegnon",
         "firstName":"Kouassi Ryan",
         "lastName":"Sessegnon",
         "playerId":322611,
         "positionText":"Midfielder",
         "teamId":170,
         "teamName":"Fulham",
         "seasonId":7361,
         "seasonName":"2018/2019",
         "isOpta":true,
         "tournamentId":2,
         "tournamentRegionId":252,
         "tournamentRegionCode":"gb-eng",
         "tournamentRegionName":"England",
         "tournamentName":"Premier League",
         "rating":6.7649999999999988,
         "minsPlayed":900,
         "keyPassLong":0.70000000000000007,
         "keyPassShort":0.9,
         "keyPassesTotal":1.6,
         "ranking":75
      },
      {
         "height":184,
         "weight":74,
         "age":24,
         "isManOfTheMatch":false,
         "isActive":true,
         "playedPositions":"-MC-MR-",
         "playedPositionsShort":"M(CR)",
         "teamRegionName":"Germany",
         "regionCode":"de",
         "tournamentShortName":"GB",
         "apps":17,
         "subOn":0,
         "name":"Maximilian Arnold",
         "firstName":"Maximilian",
         "lastName":"Arnold",
         "playerId":108919,
         "positionText":"Midfielder",
         "teamId":33,
         "teamName":"Wolfsburg",
         "seasonId":7405,
         "seasonName":"2018/2019",
         "isOpta":true,
         "tournamentId":3,
         "tournamentRegionId":81,
         "tournamentRegionCode":"de",
         "tournamentRegionName":"Germany",
         "tournamentName":"Bundesliga",
         "rating":7.0235294117647058,
         "minsPlayed":1465,
         "keyPassLong":0.491467576784,
         "keyPassShort":1.105802047764,
         "keyPassesTotal":1.597269624548,
         "ranking":76
      },
      {
         "height":172,
         "weight":63,
         "age":22,
         "isManOfTheMatch":false,
         "isActive":true,
         "playedPositions":"-AMC-AML-AMR-",
         "playedPositionsShort":"AM(CLR)",
         "teamRegionName":"France",
         "regionCode":"br",
         "tournamentShortName":"FL1",
         "apps":11,
         "subOn":0,
         "name":"Gabriel Boschilia",
         "firstName":"Gabriel",
         "lastName":"Boschilia",
         "playerId":146765,
         "positionText":"Forward",
         "teamId":302,
         "teamName":"Nantes",
         "seasonId":7344,
         "seasonName":"2018/2019",
         "isOpta":true,
         "tournamentId":22,
         "tournamentRegionId":74,
         "tournamentRegionCode":"fr",
         "tournamentRegionName":"France",
         "tournamentName":"Ligue 1",
         "rating":7.21909090909091,
         "minsPlayed":849,
         "keyPassLong":0.424028268548,
         "keyPassShort":1.166077738507,
         "keyPassesTotal":1.5901060070550002,
         "ranking":77
      },
      {
         "height":170,
         "weight":60,
         "age":25,
         "isManOfTheMatch":false,
         "isActive":true,
         "playedPositions":"-AMC-AML-AMR-FW-",
         "playedPositionsShort":"AM(CLR),FW",
         "teamRegionName":"Spain",
         "regionCode":"ma",
         "tournamentShortName":"SLL",
         "apps":10,
         "subOn":0,
         "name":"Sofiane Boufal",
         "firstName":"Sofiane",
         "lastName":"Boufal",
         "playerId":234363,
         "positionText":"Midfielder",
         "teamId":62,
         "teamName":"Celta Vigo",
         "seasonId":7466,
         "seasonName":"2018/2019",
         "isOpta":true,
         "tournamentId":4,
         "tournamentRegionId":206,
         "tournamentRegionCode":"es",
         "tournamentRegionName":"Spain",
         "tournamentName":"La Liga",
         "rating":7.206999999999999,
         "minsPlayed":683,
         "keyPassLong":0.0,
         "keyPassShort":1.5812591508000002,
         "keyPassesTotal":1.5812591508000002,
         "ranking":78
      },
      {
         "height":183,
         "weight":73,
         "age":27,
         "isManOfTheMatch":false,
         "isActive":true,
         "playedPositions":"-MC-",
         "playedPositionsShort":"M(C)",
         "teamRegionName":"Italy",
         "regionCode":"fr",
         "tournamentShortName":"ISA",
         "apps":11,
         "subOn":0,
         "name":"Mehdi Bourabia",
         "firstName":"Mehdi",
         "lastName":"Bourabia",
         "playerId":82109,
         "positionText":"Midfielder",
         "teamId":2889,
         "teamName":"Sassuolo",
         "seasonId":7468,
         "seasonName":"2018/2019",
         "isOpta":true,
         "tournamentId":5,
         "tournamentRegionId":108,
         "tournamentRegionCode":"it",
         "tournamentRegionName":"Italy",
         "tournamentName":"Serie A",
         "rating":7.00090909090909,
         "minsPlayed":922,
         "keyPassLong":0.390455531452,
         "keyPassShort":1.171366594356,
         "keyPassesTotal":1.561822125808,
         "ranking":79
      },
      {
         "height":186,
         "weight":78,
         "age":24,
         "isManOfTheMatch":false,
         "isActive":true,
         "playedPositions":"-DMC-",
         "playedPositionsShort":"DMC",
         "teamRegionName":"Italy",
         "regionCode":"cl",
         "tournamentShortName":"ISA",
         "apps":10,
         "subOn":0,
         "name":"Erick Pulgar",
         "firstName":"Erick",
         "lastName":"Pulgar",
         "playerId":117055,
         "positionText":"Midfielder",
         "teamId":71,
         "teamName":"Bologna",
         "seasonId":7468,
         "seasonName":"2018/2019",
         "isOpta":true,
         "tournamentId":5,
         "tournamentRegionId":108,
         "tournamentRegionCode":"it",
         "tournamentRegionName":"Italy",
         "tournamentName":"Serie A",
         "rating":6.606,
         "minsPlayed":866,
         "keyPassLong":0.623556581982,
         "keyPassShort":0.935334872973,
         "keyPassesTotal":1.558891454955,
         "ranking":80
      }
   ],
   "paging":{
      "currentPage":8,
      "totalPages":25,
      "resultsPerPage":10,
      "totalResults":246,
      "firstRecordIndex":71,
      "lastRecordIndex":80
   },
   "statColumns":[
      "apps",
      "subOn",
      "minsPlayed",
      "keyPassesTotal",
      "keyPassLong",
      "keyPassShort"
   ]
}