{
   "playerTableStats":[
      {
         "height":175,
         "weight":70,
         "age":21,
         "isManOfTheMatch":false,
         "isActive":true,
         "playedPositions":"-ML-MR-",
         "playedPositionsShort":"M(LR)",
         "teamRegionName":"Italy",
         "regionCode":"it",
         "tournamentShortName":"ISA",
         "apps":18,
         "subOn":0,
         "name":"Federico Chiesa",
         "firstName":"Federico",
         "lastName":"Chiesa",
         "playerId":322971,
         "positionText":"Forward",
         "teamId":73,
         "teamName":"Fiorentina",
         "seasonId":7468,
         "seasonName":"2018/2019",
         "isOpta":true,
         "tournamentId":5,
         "tournamentRegionId":108,
         "tournamentRegionCode":"it",
         "tournamentRegionName":"Italy",
         "tournamentName":"Serie A",
         "rating":7.1261111111111086,
         "minsPlayed":1572,
         "keyPassLong":0.0,
         "keyPassShort":1.71755725188,
         "keyPassesTotal":1.71755725188,
         "ranking":61
      },
      {
         "height":180,
         "weight":75,
         "age":24,
         "isManOfTheMatch":false,
         "isActive":true,
         "playedPositions":"-AMC-AML-",
         "playedPositionsShort":"AM(CL)",
         "teamRegionName":"Italy",
         "regionCode":"pl",
         "tournamentShortName":"ISA",
         "apps":16,
         "subOn":0,
         "name":"Piotr Zielinski",
         "firstName":"Piotr",
         "lastName":"Zielinski",
         "playerId":118169,
         "positionText":"Midfielder",
         "teamId":276,
         "teamName":"Napoli",
         "seasonId":7468,
         "seasonName":"2018/2019",
         "isOpta":true,
         "tournamentId":5,
         "tournamentRegionId":108,
         "tournamentRegionCode":"it",
         "tournamentRegionName":"Italy",
         "tournamentName":"Serie A",
         "rating":6.9275000000000011,
         "minsPlayed":1318,
         "keyPassLong":0.0,
         "keyPassShort":1.7071320181999998,
         "keyPassesTotal":1.7071320181999998,
         "ranking":62
      },
      {
         "height":191,
         "weight":84,
         "age":25,
         "isManOfTheMatch":false,
         "isActive":true,
         "playedPositions":"-MC-",
         "playedPositionsShort":"M(C)",
         "teamRegionName":"England",
         "regionCode":"fr",
         "tournamentShortName":"EPL",
         "apps":17,
         "subOn":0,
         "name":"Paul Pogba",
         "firstName":"Paul",
         "lastName":"Pogba",
         "playerId":97752,
         "positionText":"Midfielder",
         "teamId":32,
         "teamName":"Manchester United",
         "seasonId":7361,
         "seasonName":"2018/2019",
         "isOpta":true,
         "tournamentId":2,
         "tournamentRegionId":252,
         "tournamentRegionCode":"gb-eng",
         "tournamentRegionName":"England",
         "tournamentName":"Premier League",
         "rating":7.487058823529412,
         "minsPlayed":1482,
         "keyPassLong":0.121457489878,
         "keyPassShort":1.5789473684139999,
         "keyPassesTotal":1.700404858292,
         "ranking":63
      },
      {
         "height":185,
         "weight":83,
         "age":27,
         "isManOfTheMatch":false,
         "isActive":true,
         "playedPositions":"-MC-MR-",
         "playedPositionsShort":"M(CR)",
         "teamRegionName":"England",
         "regionCode":"gb-sct",
         "tournamentShortName":"EPL",
         "apps":12,
         "subOn":0,
         "name":"Tom Cairney",
         "firstName":"Tom",
         "lastName":"Cairney",
         "playerId":79583,
         "positionText":"Midfielder",
         "teamId":170,
         "teamName":"Fulham",
         "seasonId":7361,
         "seasonName":"2018/2019",
         "isOpta":true,
         "tournamentId":2,
         "tournamentRegionId":252,
         "tournamentRegionCode":"gb-eng",
         "tournamentRegionName":"England",
         "tournamentName":"Premier League",
         "rating":6.5649999999999986,
         "minsPlayed":958,
         "keyPassLong":0.28183716075,
         "keyPassShort":1.40918580375,
         "keyPassesTotal":1.6910229645000001,
         "ranking":64
      },
      {
         "height":181,
         "weight":76,
         "age":22,
         "isManOfTheMatch":false,
         "isActive":true,
         "playedPositions":"-DMC-",
         "playedPositionsShort":"DMC",
         "teamRegionName":"France",
         "regionCode":"fr",
         "tournamentShortName":"FL1",
         "apps":15,
         "subOn":0,
         "name":"Tanguy NDombele",
         "firstName":"Tanguy",
         "lastName":"NDombele",
         "playerId":321389,
         "positionText":"Midfielder",
         "teamId":228,
         "teamName":"Lyon",
         "seasonId":7344,
         "seasonName":"2018/2019",
         "isOpta":true,
         "tournamentId":22,
         "tournamentRegionId":74,
         "tournamentRegionCode":"fr",
         "tournamentRegionName":"France",
         "tournamentName":"Ligue 1",
         "rating":6.8593333333333337,
         "minsPlayed":1175,
         "keyPassLong":0.15319148936,
         "keyPassShort":1.5319148935999998,
         "keyPassesTotal":1.6851063829599997,
         "ranking":65
      },
      {
         "height":179,
         "weight":70,
         "age":25,
         "isManOfTheMatch":false,
         "isActive":true,
         "playedPositions":"-MC-",
         "playedPositionsShort":"M(C)",
         "teamRegionName":"Spain",
         "regionCode":"es",
         "tournamentShortName":"SLL",
         "apps":17,
         "subOn":0,
         "name":"José Campaña",
         "firstName":"José",
         "lastName":"Campaña",
         "playerId":91214,
         "positionText":"Midfielder",
         "teamId":832,
         "teamName":"Levante",
         "seasonId":7466,
         "seasonName":"2018/2019",
         "isOpta":true,
         "tournamentId":4,
         "tournamentRegionId":206,
         "tournamentRegionCode":"es",
         "tournamentRegionName":"Spain",
         "tournamentName":"La Liga",
         "rating":7.0111764705882358,
         "minsPlayed":1508,
         "keyPassLong":0.358090185672,
         "keyPassShort":1.312997347464,
         "keyPassesTotal":1.671087533136,
         "ranking":66
      },
      {
         "height":178,
         "weight":66,
         "age":27,
         "isManOfTheMatch":false,
         "isActive":true,
         "playedPositions":"-DMC-",
         "playedPositionsShort":"DMC",
         "teamRegionName":"France",
         "regionCode":"fr",
         "tournamentShortName":"FL1",
         "apps":18,
         "subOn":0,
         "name":"Xavier Chavalerin",
         "firstName":"Xavier",
         "lastName":"Chavalerin",
         "playerId":236556,
         "positionText":"Midfielder",
         "teamId":950,
         "teamName":"Reims",
         "seasonId":7344,
         "seasonName":"2018/2019",
         "isOpta":true,
         "tournamentId":22,
         "tournamentRegionId":74,
         "tournamentRegionCode":"fr",
         "tournamentRegionName":"France",
         "tournamentName":"Ligue 1",
         "rating":6.9527777777777784,
         "minsPlayed":1620,
         "keyPassLong":0.44444444444,
         "keyPassShort":1.2222222222099999,
         "keyPassesTotal":1.6666666666499999,
         "ranking":67
      },
      {
         "height":178,
         "weight":78,
         "age":24,
         "isManOfTheMatch":false,
         "isActive":true,
         "playedPositions":"-MC-ML-",
         "playedPositionsShort":"M(CL)",
         "teamRegionName":"England",
         "regionCode":"hr",
         "tournamentShortName":"EPL",
         "apps":13,
         "subOn":0,
         "name":"Mateo Kovacic",
         "firstName":"Mateo",
         "lastName":"Kovacic",
         "playerId":93894,
         "positionText":"Midfielder",
         "teamId":15,
         "teamName":"Chelsea",
         "seasonId":7361,
         "seasonName":"2018/2019",
         "isOpta":true,
         "tournamentId":2,
         "tournamentRegionId":252,
         "tournamentRegionCode":"gb-eng",
         "tournamentRegionName":"England",
         "tournamentName":"Premier League",
         "rating":6.8230769230769246,
         "minsPlayed":925,
         "keyPassLong":0.0,
         "keyPassShort":1.654054054049,
         "keyPassesTotal":1.654054054049,
         "ranking":68
      },
      {
         "height":172,
         "weight":69,
         "age":27,
         "isManOfTheMatch":false,
         "isActive":true,
         "playedPositions":"-AML-AMR-",
         "playedPositionsShort":"AM(LR)",
         "teamRegionName":"England",
         "regionCode":"fr",
         "tournamentShortName":"EPL",
         "apps":12,
         "subOn":0,
         "name":"Anthony Knockaert",
         "firstName":"Anthony",
         "lastName":"Knockaert",
         "playerId":86794,
         "positionText":"Midfielder",
         "teamId":211,
         "teamName":"Brighton",
         "seasonId":7361,
         "seasonName":"2018/2019",
         "isOpta":true,
         "tournamentId":2,
         "tournamentRegionId":252,
         "tournamentRegionCode":"gb-eng",
         "tournamentRegionName":"England",
         "tournamentName":"Premier League",
         "rating":7.0066666666666668,
         "minsPlayed":987,
         "keyPassLong":1.003039513674,
         "keyPassShort":0.63829787233800006,
         "keyPassesTotal":1.6413373860120002,
         "ranking":69
      },
      {
         "height":175,
         "weight":67,
         "age":20,
         "isManOfTheMatch":false,
         "isActive":true,
         "playedPositions":"-AMC-AML-AMR-",
         "playedPositionsShort":"AM(CLR)",
         "teamRegionName":"France",
         "regionCode":"fr",
         "tournamentShortName":"FL1",
         "apps":16,
         "subOn":0,
         "name":"Jonathan Ikone",
         "firstName":"Nanitamo Jonathan",
         "lastName":"Ikone",
         "playerId":322094,
         "positionText":"Midfielder",
         "teamId":607,
         "teamName":"Lille",
         "seasonId":7344,
         "seasonName":"2018/2019",
         "isOpta":true,
         "tournamentId":22,
         "tournamentRegionId":74,
         "tournamentRegionCode":"fr",
         "tournamentRegionName":"France",
         "tournamentName":"Ligue 1",
         "rating":6.6593750000000007,
         "minsPlayed":1263,
         "keyPassLong":0.0,
         "keyPassShort":1.638954869349,
         "keyPassesTotal":1.638954869349,
         "ranking":70
      }
   ],
   "paging":{
      "currentPage":7,
      "totalPages":25,
      "resultsPerPage":10,
      "totalResults":246,
      "firstRecordIndex":61,
      "lastRecordIndex":70
   },
   "statColumns":[
      "apps",
      "subOn",
      "minsPlayed",
      "keyPassesTotal",
      "keyPassLong",
      "keyPassShort"
   ]
}