{
   "playerTableStats":[
      {
         "ranking":41,
         "seasonId":7468,
         "seasonName":"2018/2019",
         "tournamentId":5,
         "tournamentRegionId":108,
         "tournamentRegionCode":"it",
         "tournamentRegionName":"Italy",
         "regionCode":"it",
         "tournamentName":"Serie A",
         "tournamentShortName":"ISA",
         "firstName":"Matteo",
         "lastName":"Politano",
         "playerId":122683,
         "isActive":true,
         "isOpta":true,
         "teamId":75,
         "teamName":"Inter",
         "teamRegionName":"Italy",
         "playedPositions":"-AML-AMR-FW-",
         "age":25,
         "height":171,
         "weight":67,
         "positionText":"Forward",
         "apps":15,
         "subOn":0,
         "minsPlayed":1195,
         "rating":7.0866666666666651,
         "isManOfTheMatch":false,
         "playedPositionsShort":"AM(LR),FW",
         "name":"Matteo Politano",
         "keyPassLong":0.602510460248,
         "keyPassShort":1.3556485355580001,
         "keyPassesTotal":1.9581589958060002
      },
      {
         "ranking":42,
         "seasonId":7468,
         "seasonName":"2018/2019",
         "tournamentId":5,
         "tournamentRegionId":108,
         "tournamentRegionCode":"it",
         "tournamentRegionName":"Italy",
         "regionCode":"it",
         "tournamentName":"Serie A",
         "tournamentShortName":"ISA",
         "firstName":"Stephan",
         "lastName":"El Shaarawy",
         "playerId":70087,
         "isActive":true,
         "isOpta":true,
         "teamId":84,
         "teamName":"Roma",
         "teamRegionName":"Italy",
         "playedPositions":"-AMC-AML-AMR-FW-",
         "age":26,
         "height":178,
         "weight":72,
         "positionText":"Forward",
         "apps":10,
         "subOn":0,
         "minsPlayed":835,
         "rating":7.4380000000000006,
         "isManOfTheMatch":false,
         "playedPositionsShort":"AM(CLR),FW",
         "name":"Stephan El Shaarawy",
         "keyPassLong":0.323353293411,
         "keyPassShort":1.616766467055,
         "keyPassesTotal":1.9401197604659999
      },
      {
         "ranking":43,
         "seasonId":7466,
         "seasonName":"2018/2019",
         "tournamentId":4,
         "tournamentRegionId":206,
         "tournamentRegionCode":"es",
         "tournamentRegionName":"Spain",
         "regionCode":"es",
         "tournamentName":"La Liga",
         "tournamentShortName":"SLL",
         "firstName":"Jorge",
         "lastName":"Resurrección",
         "playerId":80764,
         "isActive":true,
         "isOpta":true,
         "teamId":63,
         "teamName":"Atletico Madrid",
         "teamRegionName":"Spain",
         "playedPositions":"-MC-ML-MR-",
         "age":27,
         "height":176,
         "weight":74,
         "positionText":"Midfielder",
         "apps":14,
         "subOn":0,
         "minsPlayed":1260,
         "rating":7.0371428571428556,
         "isManOfTheMatch":false,
         "playedPositionsShort":"M(CLR)",
         "name":"Koke",
         "keyPassLong":0.49999999999600003,
         "keyPassShort":1.4285714285600002,
         "keyPassesTotal":1.9285714285560003
      },
      {
         "ranking":44,
         "seasonId":7361,
         "seasonName":"2018/2019",
         "tournamentId":2,
         "tournamentRegionId":252,
         "tournamentRegionCode":"gb-eng",
         "tournamentRegionName":"England",
         "regionCode":"br",
         "tournamentName":"Premier League",
         "tournamentShortName":"EPL",
         "firstName":"Bernard",
         "lastName":"Anício Caldeira Duarte",
         "playerId":101642,
         "isActive":true,
         "isOpta":true,
         "teamId":31,
         "teamName":"Everton",
         "teamRegionName":"England",
         "playedPositions":"-AML-",
         "age":26,
         "height":166,
         "weight":57,
         "positionText":"Midfielder",
         "apps":11,
         "subOn":0,
         "minsPlayed":800,
         "rating":6.6881818181818176,
         "isManOfTheMatch":false,
         "playedPositionsShort":"AM(L)",
         "name":"Bernard",
         "keyPassLong":0.0,
         "keyPassShort":1.9125,
         "keyPassesTotal":1.9125
      },
      {
         "ranking":45,
         "seasonId":7466,
         "seasonName":"2018/2019",
         "tournamentId":4,
         "tournamentRegionId":206,
         "tournamentRegionCode":"es",
         "tournamentRegionName":"Spain",
         "regionCode":"fr",
         "tournamentName":"La Liga",
         "tournamentShortName":"SLL",
         "firstName":"Thomas",
         "lastName":"Lemar",
         "playerId":132962,
         "isActive":true,
         "isOpta":true,
         "teamId":63,
         "teamName":"Atletico Madrid",
         "teamRegionName":"Spain",
         "playedPositions":"-AMC-AML-AMR-",
         "age":23,
         "height":171,
         "weight":62,
         "positionText":"Midfielder",
         "apps":12,
         "subOn":0,
         "minsPlayed":849,
         "rating":6.9591666666666656,
         "isManOfTheMatch":false,
         "playedPositionsShort":"AM(CLR)",
         "name":"Thomas Lemar",
         "keyPassLong":0.530035335685,
         "keyPassShort":1.378091872781,
         "keyPassesTotal":1.9081272084660001
      },
      {
         "ranking":46,
         "seasonId":7344,
         "seasonName":"2018/2019",
         "tournamentId":22,
         "tournamentRegionId":74,
         "tournamentRegionCode":"fr",
         "tournamentRegionName":"France",
         "regionCode":"ci",
         "tournamentName":"Ligue 1",
         "tournamentShortName":"FL1",
         "firstName":"Nicolas",
         "lastName":"Pepe",
         "playerId":239872,
         "isActive":true,
         "isOpta":true,
         "teamId":607,
         "teamName":"Lille",
         "teamRegionName":"France",
         "playedPositions":"-AMR-FW-",
         "age":23,
         "height":183,
         "weight":73,
         "positionText":"Forward",
         "apps":19,
         "subOn":0,
         "minsPlayed":1700,
         "rating":7.445263157894737,
         "isManOfTheMatch":false,
         "playedPositionsShort":"AM(R),FW",
         "name":"Nicolas Pepe",
         "keyPassLong":0.05294117647,
         "keyPassShort":1.85294117645,
         "keyPassesTotal":1.90588235292
      },
      {
         "ranking":47,
         "seasonId":7361,
         "seasonName":"2018/2019",
         "tournamentId":2,
         "tournamentRegionId":252,
         "tournamentRegionCode":"gb-eng",
         "tournamentRegionName":"England",
         "regionCode":"gb-sct",
         "tournamentName":"Premier League",
         "tournamentShortName":"EPL",
         "firstName":"Stuart",
         "lastName":"Armstrong",
         "playerId":93677,
         "isActive":true,
         "isOpta":true,
         "teamId":18,
         "teamName":"Southampton",
         "teamRegionName":"England",
         "playedPositions":"-AMC-AML-",
         "age":26,
         "height":183,
         "weight":75,
         "positionText":"Midfielder",
         "apps":10,
         "subOn":0,
         "minsPlayed":810,
         "rating":6.937,
         "isManOfTheMatch":false,
         "playedPositionsShort":"AM(CL)",
         "name":"Stuart Armstrong",
         "keyPassLong":0.111111111111,
         "keyPassShort":1.777777777776,
         "keyPassesTotal":1.888888888887
      },
      {
         "ranking":48,
         "seasonId":7468,
         "seasonName":"2018/2019",
         "tournamentId":5,
         "tournamentRegionId":108,
         "tournamentRegionCode":"it",
         "tournamentRegionName":"Italy",
         "regionCode":"it",
         "tournamentName":"Serie A",
         "tournamentShortName":"ISA",
         "firstName":"Domenico",
         "lastName":"Berardi",
         "playerId":118542,
         "isActive":true,
         "isOpta":true,
         "teamId":2889,
         "teamName":"Sassuolo",
         "teamRegionName":"Italy",
         "playedPositions":"-AMR-FW-",
         "age":24,
         "height":183,
         "weight":72,
         "positionText":"Forward",
         "apps":15,
         "subOn":0,
         "minsPlayed":1293,
         "rating":7.128,
         "isManOfTheMatch":false,
         "playedPositionsShort":"AM(R),FW",
         "name":"Domenico Berardi",
         "keyPassLong":0.27842227378,
         "keyPassShort":1.600928074235,
         "keyPassesTotal":1.879350348015
      },
      {
         "ranking":49,
         "seasonId":7361,
         "seasonName":"2018/2019",
         "tournamentId":2,
         "tournamentRegionId":252,
         "tournamentRegionCode":"gb-eng",
         "tournamentRegionName":"England",
         "regionCode":"br",
         "tournamentName":"Premier League",
         "tournamentShortName":"EPL",
         "firstName":"Felipe Anderson",
         "lastName":"Pereira Gomes",
         "playerId":93026,
         "isActive":true,
         "isOpta":true,
         "teamId":29,
         "teamName":"West Ham",
         "teamRegionName":"England",
         "playedPositions":"-FW-MC-ML-MR-",
         "age":25,
         "height":175,
         "weight":70,
         "positionText":"Midfielder",
         "apps":21,
         "subOn":0,
         "minsPlayed":1776,
         "rating":7.2980952380952386,
         "isManOfTheMatch":false,
         "playedPositionsShort":"M(CLR),FW",
         "name":"Felipe Anderson",
         "keyPassLong":0.50675675675,
         "keyPassShort":1.368243243225,
         "keyPassesTotal":1.874999999975
      },
      {
         "ranking":50,
         "seasonId":7405,
         "seasonName":"2018/2019",
         "tournamentId":3,
         "tournamentRegionId":81,
         "tournamentRegionCode":"de",
         "tournamentRegionName":"Germany",
         "regionCode":"gb-eng",
         "tournamentName":"Bundesliga",
         "tournamentShortName":"GB",
         "firstName":"Jadon",
         "lastName":"Sancho",
         "playerId":346300,
         "isActive":true,
         "isOpta":true,
         "teamId":44,
         "teamName":"Borussia Dortmund",
         "teamRegionName":"Germany",
         "playedPositions":"-AML-AMR-",
         "age":18,
         "height":180,
         "weight":76,
         "positionText":"Midfielder",
         "apps":10,
         "subOn":0,
         "minsPlayed":869,
         "rating":7.5239999999999991,
         "isManOfTheMatch":false,
         "playedPositionsShort":"AM(LR)",
         "name":"Jadon Sancho",
         "keyPassLong":0.310701956271,
         "keyPassShort":1.5535097813549998,
         "keyPassesTotal":1.864211737626
      }
   ],
   "paging":{
      "currentPage":5,
      "totalPages":25,
      "resultsPerPage":10,
      "totalResults":246,
      "firstRecordIndex":41,
      "lastRecordIndex":50
   },
   "statColumns":[
      "apps",
      "subOn",
      "minsPlayed",
      "keyPassesTotal",
      "keyPassLong",
      "keyPassShort"
   ]
}