{
   "playerTableStats":[
      {
         "ranking":161,
         "seasonId":7468,
         "seasonName":"2018/2019",
         "tournamentId":5,
         "tournamentRegionId":108,
         "tournamentRegionCode":"it",
         "tournamentRegionName":"Italy",
         "regionCode":"it",
         "tournamentName":"Serie A",
         "tournamentShortName":"ISA",
         "firstName":"Rolando",
         "lastName":"Mandragora",
         "playerId":241020,
         "isActive":true,
         "isOpta":true,
         "teamId":86,
         "teamName":"Udinese",
         "teamRegionName":"Italy",
         "playedPositions":"-MC-",
         "age":21,
         "height":183,
         "weight":76,
         "positionText":"Midfielder",
         "apps":17,
         "subOn":0,
         "minsPlayed":1496,
         "rating":6.7335294117647067,
         "isManOfTheMatch":false,
         "playedPositionsShort":"M(C)",
         "name":"Rolando Mandragora",
         "keyPassLong":0.30080213903499997,
         "keyPassShort":0.661764705877,
         "keyPassesTotal":0.962566844912
      },
      {
         "ranking":162,
         "seasonId":7405,
         "seasonName":"2018/2019",
         "tournamentId":3,
         "tournamentRegionId":81,
         "tournamentRegionCode":"de",
         "tournamentRegionName":"Germany",
         "regionCode":"de",
         "tournamentName":"Bundesliga",
         "tournamentShortName":"GB",
         "firstName":"Yannick",
         "lastName":"Gerhardt",
         "playerId":130899,
         "isActive":true,
         "isOpta":true,
         "teamId":33,
         "teamName":"Wolfsburg",
         "teamRegionName":"Germany",
         "playedPositions":"-DL-MC-ML-",
         "age":24,
         "height":184,
         "weight":81,
         "positionText":"Defender",
         "apps":13,
         "subOn":0,
         "minsPlayed":1133,
         "rating":6.8707692307692314,
         "isManOfTheMatch":false,
         "playedPositionsShort":"D(L),M(CL)",
         "name":"Yannick Gerhardt",
         "keyPassLong":0.158870255956,
         "keyPassShort":0.79435127978,
         "keyPassesTotal":0.953221535736
      },
      {
         "ranking":163,
         "seasonId":7405,
         "seasonName":"2018/2019",
         "tournamentId":3,
         "tournamentRegionId":81,
         "tournamentRegionCode":"de",
         "tournamentRegionName":"Germany",
         "regionCode":"cm",
         "tournamentName":"Bundesliga",
         "tournamentShortName":"GB",
         "firstName":"Pierre",
         "lastName":"Kunde",
         "playerId":362751,
         "isActive":true,
         "isOpta":true,
         "teamId":219,
         "teamName":"Mainz 05",
         "teamRegionName":"Germany",
         "playedPositions":"-MC-",
         "age":23,
         "height":180,
         "weight":85,
         "positionText":"Midfielder",
         "apps":14,
         "subOn":0,
         "minsPlayed":1134,
         "rating":6.8364285714285717,
         "isManOfTheMatch":false,
         "playedPositionsShort":"M(C)",
         "name":"Pierre Kunde",
         "keyPassLong":0.55555555555499991,
         "keyPassShort":0.39682539682499995,
         "keyPassesTotal":0.95238095237999987
      },
      {
         "ranking":164,
         "seasonId":7344,
         "seasonName":"2018/2019",
         "tournamentId":22,
         "tournamentRegionId":74,
         "tournamentRegionCode":"fr",
         "tournamentRegionName":"France",
         "regionCode":"fr",
         "tournamentName":"Ligue 1",
         "tournamentShortName":"FL1",
         "firstName":"Benjamin",
         "lastName":"Bourigeaud",
         "playerId":129282,
         "isActive":true,
         "isOpta":true,
         "teamId":313,
         "teamName":"Rennes",
         "teamRegionName":"France",
         "playedPositions":"-MC-ML-MR-",
         "age":24,
         "height":178,
         "weight":68,
         "positionText":"Midfielder",
         "apps":13,
         "subOn":0,
         "minsPlayed":1057,
         "rating":6.7523076923076939,
         "isManOfTheMatch":false,
         "playedPositionsShort":"M(CLR)",
         "name":"Benjamin Bourigeaud",
         "keyPassLong":0.42573320719,
         "keyPassShort":0.51087984862800007,
         "keyPassesTotal":0.93661305581800014
      },
      {
         "ranking":165,
         "seasonId":7466,
         "seasonName":"2018/2019",
         "tournamentId":4,
         "tournamentRegionId":206,
         "tournamentRegionCode":"es",
         "tournamentRegionName":"Spain",
         "regionCode":"es",
         "tournamentName":"La Liga",
         "tournamentShortName":"SLL",
         "firstName":"Óscar",
         "lastName":"Plano",
         "playerId":141533,
         "isActive":true,
         "isOpta":true,
         "teamId":58,
         "teamName":"Real Valladolid",
         "teamRegionName":"Spain",
         "playedPositions":"-AML-",
         "age":27,
         "height":180,
         "weight":72,
         "positionText":"Forward",
         "apps":11,
         "subOn":0,
         "minsPlayed":964,
         "rating":7.0290909090909084,
         "isManOfTheMatch":false,
         "playedPositionsShort":"AM(L)",
         "name":"Óscar Plano",
         "keyPassLong":0.09336099585,
         "keyPassShort":0.84024896265,
         "keyPassesTotal":0.93360995850000006
      },
      {
         "ranking":166,
         "seasonId":7361,
         "seasonName":"2018/2019",
         "tournamentId":2,
         "tournamentRegionId":252,
         "tournamentRegionCode":"gb-eng",
         "tournamentRegionName":"England",
         "regionCode":"pt",
         "tournamentName":"Premier League",
         "tournamentShortName":"EPL",
         "firstName":"Hélder Wander",
         "lastName":"Sousa de Azevedo e Costa",
         "playerId":118127,
         "isActive":true,
         "isOpta":true,
         "teamId":161,
         "teamName":"Wolverhampton Wanderers",
         "teamRegionName":"England",
         "playedPositions":"-AMC-AML-AMR-",
         "age":24,
         "height":178,
         "weight":73,
         "positionText":"Forward",
         "apps":16,
         "subOn":0,
         "minsPlayed":1158,
         "rating":6.3937499999999989,
         "isManOfTheMatch":false,
         "playedPositionsShort":"AM(CLR)",
         "name":"Hélder Costa",
         "keyPassLong":0.077720207253,
         "keyPassShort":0.854922279783,
         "keyPassesTotal":0.932642487036
      },
      {
         "ranking":167,
         "seasonId":7361,
         "seasonName":"2018/2019",
         "tournamentId":2,
         "tournamentRegionId":252,
         "tournamentRegionCode":"gb-eng",
         "tournamentRegionName":"England",
         "regionCode":"gb-eng",
         "tournamentName":"Premier League",
         "tournamentShortName":"EPL",
         "firstName":"Bamidele",
         "lastName":"Alli",
         "playerId":131519,
         "isActive":true,
         "isOpta":true,
         "teamId":30,
         "teamName":"Tottenham",
         "teamRegionName":"England",
         "playedPositions":"-MC-ML-",
         "age":22,
         "height":188,
         "weight":76,
         "positionText":"Midfielder",
         "apps":12,
         "subOn":0,
         "minsPlayed":986,
         "rating":7.3266666666666653,
         "isManOfTheMatch":false,
         "playedPositionsShort":"M(CL)",
         "name":"Dele Alli",
         "keyPassLong":0.182555780932,
         "keyPassShort":0.730223123728,
         "keyPassesTotal":0.91277890466
      },
      {
         "ranking":168,
         "seasonId":7468,
         "seasonName":"2018/2019",
         "tournamentId":5,
         "tournamentRegionId":108,
         "tournamentRegionCode":"it",
         "tournamentRegionName":"Italy",
         "regionCode":"nl",
         "tournamentName":"Serie A",
         "tournamentShortName":"ISA",
         "firstName":"Hans",
         "lastName":"Hateboer",
         "playerId":135890,
         "isActive":true,
         "isOpta":true,
         "teamId":300,
         "teamName":"Atalanta",
         "teamRegionName":"Italy",
         "playedPositions":"-DR-MR-",
         "age":25,
         "height":188,
         "weight":74,
         "positionText":"Defender",
         "apps":11,
         "subOn":0,
         "minsPlayed":990,
         "rating":6.72909090909091,
         "isManOfTheMatch":false,
         "playedPositionsShort":"D(R),M(R)",
         "name":"Hans Hateboer",
         "keyPassLong":0.181818181818,
         "keyPassShort":0.727272727272,
         "keyPassesTotal":0.90909090909
      },
      {
         "ranking":169,
         "seasonId":7344,
         "seasonName":"2018/2019",
         "tournamentId":22,
         "tournamentRegionId":74,
         "tournamentRegionCode":"fr",
         "tournamentRegionName":"France",
         "regionCode":"es",
         "tournamentName":"Ligue 1",
         "tournamentShortName":"FL1",
         "firstName":"Manuel",
         "lastName":"Garcia Alonso",
         "playerId":295950,
         "isActive":true,
         "isOpta":true,
         "teamId":246,
         "teamName":"Toulouse",
         "teamRegionName":"France",
         "playedPositions":"-MC-ML-",
         "age":21,
         "height":170,
         "weight":65,
         "positionText":"Midfielder",
         "apps":15,
         "subOn":0,
         "minsPlayed":1201,
         "rating":6.4800000000000013,
         "isManOfTheMatch":false,
         "playedPositionsShort":"M(CL)",
         "name":"Manu García",
         "keyPassLong":0.149875104078,
         "keyPassShort":0.74937552039,
         "keyPassesTotal":0.899250624468
      },
      {
         "ranking":170,
         "seasonId":7468,
         "seasonName":"2018/2019",
         "tournamentId":5,
         "tournamentRegionId":108,
         "tournamentRegionCode":"it",
         "tournamentRegionName":"Italy",
         "regionCode":"it",
         "tournamentName":"Serie A",
         "tournamentShortName":"ISA",
         "firstName":"Raffaele",
         "lastName":"Maiello",
         "playerId":83389,
         "isActive":true,
         "isOpta":true,
         "teamId":2732,
         "teamName":"Frosinone",
         "teamRegionName":"Italy",
         "playedPositions":"-MC-",
         "age":27,
         "height":177,
         "weight":73,
         "positionText":"Midfielder",
         "apps":14,
         "subOn":0,
         "minsPlayed":1103,
         "rating":6.6457142857142859,
         "isManOfTheMatch":false,
         "playedPositionsShort":"M(C)",
         "name":"Raffaele Maiello",
         "keyPassLong":0.326382592928,
         "keyPassShort":0.571169537624,
         "keyPassesTotal":0.897552130552
      }
   ],
   "paging":{
      "currentPage":17,
      "totalPages":25,
      "resultsPerPage":10,
      "totalResults":246,
      "firstRecordIndex":161,
      "lastRecordIndex":170
   },
   "statColumns":[
      "apps",
      "subOn",
      "minsPlayed",
      "keyPassesTotal",
      "keyPassLong",
      "keyPassShort"
   ]
}