{
   "playerTableStats":[
      {
         "ranking":171,
         "seasonId":7466,
         "seasonName":"2018/2019",
         "tournamentId":4,
         "tournamentRegionId":206,
         "tournamentRegionCode":"es",
         "tournamentRegionName":"Spain",
         "regionCode":"fr",
         "tournamentName":"La Liga",
         "tournamentShortName":"SLL",
         "firstName":"Giannelli",
         "lastName":"Imbula",
         "playerId":81959,
         "isActive":true,
         "isOpta":true,
         "teamId":64,
         "teamName":"Rayo Vallecano",
         "teamRegionName":"Spain",
         "playedPositions":"-MC-",
         "age":26,
         "height":186,
         "weight":78,
         "positionText":"Midfielder",
         "apps":13,
         "subOn":0,
         "minsPlayed":1113,
         "rating":6.7484615384615374,
         "isManOfTheMatch":false,
         "playedPositionsShort":"M(C)",
         "name":"Giannelli Imbula",
         "keyPassLong":0.080862533692,
         "keyPassShort":0.80862533692,
         "keyPassesTotal":0.88948787061200008
      },
      {
         "ranking":172,
         "seasonId":7405,
         "seasonName":"2018/2019",
         "tournamentId":3,
         "tournamentRegionId":81,
         "tournamentRegionCode":"de",
         "tournamentRegionName":"Germany",
         "regionCode":"de",
         "tournamentName":"Bundesliga",
         "tournamentShortName":"GB",
         "firstName":"Maximilian",
         "lastName":"Eggestein",
         "playerId":254557,
         "isActive":true,
         "isOpta":true,
         "teamId":42,
         "teamName":"Werder Bremen",
         "teamRegionName":"Germany",
         "playedPositions":"-MC-",
         "age":22,
         "height":181,
         "weight":75,
         "positionText":"Midfielder",
         "apps":17,
         "subOn":0,
         "minsPlayed":1523,
         "rating":6.83235294117647,
         "isManOfTheMatch":false,
         "playedPositionsShort":"M(C)",
         "name":"Maximilian Eggestein",
         "keyPassLong":0.0,
         "keyPassShort":0.88640840445,
         "keyPassesTotal":0.88640840445
      },
      {
         "ranking":173,
         "seasonId":7405,
         "seasonName":"2018/2019",
         "tournamentId":3,
         "tournamentRegionId":81,
         "tournamentRegionCode":"de",
         "tournamentRegionName":"Germany",
         "regionCode":"at",
         "tournamentName":"Bundesliga",
         "tournamentShortName":"GB",
         "firstName":"Florian",
         "lastName":"Grillitsch",
         "playerId":291937,
         "isActive":true,
         "isOpta":true,
         "teamId":1211,
         "teamName":"Hoffenheim",
         "teamRegionName":"Germany",
         "playedPositions":"-DMC-ML-",
         "age":23,
         "height":187,
         "weight":74,
         "positionText":"Midfielder",
         "apps":12,
         "subOn":0,
         "minsPlayed":928,
         "rating":6.8999999999999995,
         "isManOfTheMatch":false,
         "playedPositionsShort":"DMC,M(L)",
         "name":"Florian Grillitsch",
         "keyPassLong":0.0,
         "keyPassShort":0.87284482758,
         "keyPassesTotal":0.87284482758
      },
      {
         "ranking":174,
         "seasonId":7361,
         "seasonName":"2018/2019",
         "tournamentId":2,
         "tournamentRegionId":252,
         "tournamentRegionCode":"gb-eng",
         "tournamentRegionName":"England",
         "regionCode":"gb-eng",
         "tournamentName":"Premier League",
         "tournamentShortName":"EPL",
         "firstName":"Jesse",
         "lastName":"Lingard",
         "playerId":109000,
         "isActive":true,
         "isOpta":true,
         "teamId":32,
         "teamName":"Manchester United",
         "teamRegionName":"England",
         "playedPositions":"-AMC-AML-AMR-",
         "age":26,
         "height":175,
         "weight":62,
         "positionText":"Midfielder",
         "apps":12,
         "subOn":0,
         "minsPlayed":932,
         "rating":6.9325,
         "isManOfTheMatch":false,
         "playedPositionsShort":"AM(CLR)",
         "name":"Jesse Lingard",
         "keyPassLong":0.0,
         "keyPassShort":0.86909871244499992,
         "keyPassesTotal":0.86909871244499992
      },
      {
         "ranking":175,
         "seasonId":7466,
         "seasonName":"2018/2019",
         "tournamentId":4,
         "tournamentRegionId":206,
         "tournamentRegionCode":"es",
         "tournamentRegionName":"Spain",
         "regionCode":"sn",
         "tournamentName":"La Liga",
         "tournamentShortName":"SLL",
         "firstName":"Amath",
         "lastName":"Ndiaye",
         "playerId":315298,
         "isActive":true,
         "isOpta":true,
         "teamId":819,
         "teamName":"Getafe",
         "teamRegionName":"Spain",
         "playedPositions":"-AML-",
         "age":22,
         "height":173,
         "weight":70,
         "positionText":"Forward",
         "apps":13,
         "subOn":0,
         "minsPlayed":948,
         "rating":6.634615384615385,
         "isManOfTheMatch":false,
         "playedPositionsShort":"AM(L)",
         "name":"Amath Ndiaye",
         "keyPassLong":0.0,
         "keyPassShort":0.85443037973999991,
         "keyPassesTotal":0.85443037973999991
      },
      {
         "ranking":176,
         "seasonId":7344,
         "seasonName":"2018/2019",
         "tournamentId":22,
         "tournamentRegionId":74,
         "tournamentRegionCode":"fr",
         "tournamentRegionName":"France",
         "regionCode":"fr",
         "tournamentName":"Ligue 1",
         "tournamentShortName":"FL1",
         "firstName":"Ludovic",
         "lastName":"Blas",
         "playerId":299562,
         "isActive":true,
         "isOpta":true,
         "teamId":426,
         "teamName":"Guingamp",
         "teamRegionName":"France",
         "playedPositions":"-MC-ML-MR-",
         "age":21,
         "height":180,
         "weight":73,
         "positionText":"Midfielder",
         "apps":14,
         "subOn":0,
         "minsPlayed":1163,
         "rating":6.7228571428571424,
         "isManOfTheMatch":false,
         "playedPositionsShort":"M(CLR)",
         "name":"Ludovic Blas",
         "keyPassLong":0.309544282028,
         "keyPassShort":0.541702493549,
         "keyPassesTotal":0.851246775577
      },
      {
         "ranking":177,
         "seasonId":7466,
         "seasonName":"2018/2019",
         "tournamentId":4,
         "tournamentRegionId":206,
         "tournamentRegionCode":"es",
         "tournamentRegionName":"Spain",
         "regionCode":"sk",
         "tournamentName":"La Liga",
         "tournamentShortName":"SLL",
         "firstName":"Stanislav",
         "lastName":"Lobotka",
         "playerId":111892,
         "isActive":true,
         "isOpta":true,
         "teamId":62,
         "teamName":"Celta Vigo",
         "teamRegionName":"Spain",
         "playedPositions":"-DMC-",
         "age":24,
         "height":170,
         "weight":64,
         "positionText":"Midfielder",
         "apps":11,
         "subOn":0,
         "minsPlayed":955,
         "rating":6.664545454545455,
         "isManOfTheMatch":false,
         "playedPositionsShort":"DMC",
         "name":"Stanislav Lobotka",
         "keyPassLong":0.094240837696,
         "keyPassShort":0.753926701568,
         "keyPassesTotal":0.848167539264
      },
      {
         "ranking":178,
         "seasonId":7466,
         "seasonName":"2018/2019",
         "tournamentId":4,
         "tournamentRegionId":206,
         "tournamentRegionCode":"es",
         "tournamentRegionName":"Spain",
         "regionCode":"es",
         "tournamentName":"La Liga",
         "tournamentShortName":"SLL",
         "firstName":"Carlos",
         "lastName":"Soler",
         "playerId":313542,
         "isActive":true,
         "isOpta":true,
         "teamId":55,
         "teamName":"Valencia",
         "teamRegionName":"Spain",
         "playedPositions":"-MC-MR-",
         "age":22,
         "height":180,
         "weight":76,
         "positionText":"Midfielder",
         "apps":15,
         "subOn":0,
         "minsPlayed":1282,
         "rating":6.5786666666666669,
         "isManOfTheMatch":false,
         "playedPositionsShort":"M(CR)",
         "name":"Carlos Soler",
         "keyPassLong":0.070202808112,
         "keyPassShort":0.772230889232,
         "keyPassesTotal":0.842433697344
      },
      {
         "ranking":179,
         "seasonId":7344,
         "seasonName":"2018/2019",
         "tournamentId":22,
         "tournamentRegionId":74,
         "tournamentRegionCode":"fr",
         "tournamentRegionName":"France",
         "regionCode":"ar",
         "tournamentName":"Ligue 1",
         "tournamentShortName":"FL1",
         "firstName":"Lucas",
         "lastName":"Ocampos",
         "playerId":115587,
         "isActive":true,
         "isOpta":true,
         "teamId":249,
         "teamName":"Marseille",
         "teamRegionName":"France",
         "playedPositions":"-AMC-AML-AMR-FW-",
         "age":24,
         "height":187,
         "weight":84,
         "positionText":"Midfielder",
         "apps":11,
         "subOn":0,
         "minsPlayed":855,
         "rating":6.9336363636363618,
         "isManOfTheMatch":false,
         "playedPositionsShort":"AM(CLR),FW",
         "name":"Lucas Ocampos",
         "keyPassLong":0.0,
         "keyPassShort":0.842105263152,
         "keyPassesTotal":0.842105263152
      },
      {
         "ranking":180,
         "seasonId":7361,
         "seasonName":"2018/2019",
         "tournamentId":2,
         "tournamentRegionId":252,
         "tournamentRegionCode":"gb-eng",
         "tournamentRegionName":"England",
         "regionCode":"pt",
         "tournamentName":"Premier League",
         "tournamentShortName":"EPL",
         "firstName":"Rúben Diogo",
         "lastName":"da Silva Neves",
         "playerId":238244,
         "isActive":true,
         "isOpta":true,
         "teamId":161,
         "teamName":"Wolverhampton Wanderers",
         "teamRegionName":"England",
         "playedPositions":"-DMC-",
         "age":21,
         "height":180,
         "weight":72,
         "positionText":"Midfielder",
         "apps":18,
         "subOn":0,
         "minsPlayed":1620,
         "rating":6.9222222222222234,
         "isManOfTheMatch":false,
         "playedPositionsShort":"DMC",
         "name":"Rúben Neves",
         "keyPassLong":0.166666666665,
         "keyPassShort":0.66666666666,
         "keyPassesTotal":0.83333333332499993
      }
   ],
   "paging":{
      "currentPage":18,
      "totalPages":25,
      "resultsPerPage":10,
      "totalResults":246,
      "firstRecordIndex":171,
      "lastRecordIndex":180
   },
   "statColumns":[
      "apps",
      "subOn",
      "minsPlayed",
      "keyPassesTotal",
      "keyPassLong",
      "keyPassShort"
   ]
}