{
   "playerTableStats":[
      {
         "height":178,
         "weight":78,
         "age":25,
         "isManOfTheMatch":false,
         "isActive":true,
         "playedPositions":"-MC-",
         "playedPositionsShort":"M(C)",
         "teamRegionName":"Italy",
         "regionCode":"gh",
         "tournamentShortName":"ISA",
         "apps":12,
         "subOn":0,
         "name":"Alfred Duncan",
         "firstName":"Alfred",
         "lastName":"Duncan",
         "playerId":113762,
         "positionText":"Midfielder",
         "teamId":2889,
         "teamName":"Sassuolo",
         "seasonId":7468,
         "seasonName":"2018/2019",
         "isOpta":true,
         "tournamentId":5,
         "tournamentRegionId":108,
         "tournamentRegionCode":"it",
         "tournamentRegionName":"Italy",
         "tournamentName":"Serie A",
         "rating":6.9316666666666658,
         "minsPlayed":1041,
         "keyPassLong":0.259365994236,
         "keyPassShort":1.29682997118,
         "keyPassesTotal":1.556195965416,
         "ranking":81
      },
      {
         "height":178,
         "weight":72,
         "age":25,
         "isManOfTheMatch":false,
         "isActive":true,
         "playedPositions":"-AMC-AML-AMR-FW-",
         "playedPositionsShort":"AM(CLR),FW",
         "teamRegionName":"England",
         "regionCode":"es",
         "tournamentShortName":"EPL",
         "apps":17,
         "subOn":0,
         "name":"Ayoze Pérez",
         "firstName":"Ayoze",
         "lastName":"Pérez Gutiérrez",
         "playerId":135366,
         "positionText":"Forward",
         "teamId":23,
         "teamName":"Newcastle United",
         "seasonId":7361,
         "seasonName":"2018/2019",
         "isOpta":true,
         "tournamentId":2,
         "tournamentRegionId":252,
         "tournamentRegionCode":"gb-eng",
         "tournamentRegionName":"England",
         "tournamentName":"Premier League",
         "rating":6.7541176470588233,
         "minsPlayed":1410,
         "keyPassLong":0.19148936170199998,
         "keyPassShort":1.340425531914,
         "keyPassesTotal":1.5319148936159999,
         "ranking":82
      },
      {
         "height":175,
         "weight":77,
         "age":22,
         "isManOfTheMatch":false,
         "isActive":true,
         "playedPositions":"-AML-AMR-FW-",
         "playedPositionsShort":"AM(LR),FW",
         "teamRegionName":"France",
         "regionCode":"gn",
         "tournamentShortName":"FL1",
         "apps":16,
         "subOn":0,
         "name":"François Kamano",
         "firstName":"François",
         "lastName":"Kamano",
         "playerId":231150,
         "positionText":"Forward",
         "teamId":315,
         "teamName":"Bordeaux",
         "seasonId":7344,
         "seasonName":"2018/2019",
         "isOpta":true,
         "tournamentId":22,
         "tournamentRegionId":74,
         "tournamentRegionCode":"fr",
         "tournamentRegionName":"France",
         "tournamentName":"Ligue 1",
         "rating":7.006875,
         "minsPlayed":1362,
         "keyPassLong":0.066079295154,
         "keyPassShort":1.4537444933880002,
         "keyPassesTotal":1.519823788542,
         "ranking":83
      },
      {
         "height":183,
         "weight":75,
         "age":20,
         "isManOfTheMatch":false,
         "isActive":true,
         "playedPositions":"-AMC-AMR-",
         "playedPositionsShort":"AM(CR)",
         "teamRegionName":"France",
         "regionCode":"fr",
         "tournamentShortName":"FL1",
         "apps":12,
         "subOn":0,
         "name":"Jeff Reine-Adélaïde",
         "firstName":"Jeff",
         "lastName":"Reine-Adélaïde",
         "playerId":277239,
         "positionText":"Midfielder",
         "teamId":614,
         "teamName":"Angers",
         "seasonId":7344,
         "seasonName":"2018/2019",
         "isOpta":true,
         "tournamentId":22,
         "tournamentRegionId":74,
         "tournamentRegionCode":"fr",
         "tournamentRegionName":"France",
         "tournamentName":"Ligue 1",
         "rating":7.0549999999999988,
         "minsPlayed":1023,
         "keyPassLong":0.087976539589,
         "keyPassShort":1.407624633424,
         "keyPassesTotal":1.4956011730129999,
         "ranking":84
      },
      {
         "height":187,
         "weight":85,
         "age":25,
         "isManOfTheMatch":false,
         "isActive":true,
         "playedPositions":"-DMC-",
         "playedPositionsShort":"DMC",
         "teamRegionName":"France",
         "regionCode":"fr",
         "tournamentShortName":"FL1",
         "apps":15,
         "subOn":0,
         "name":"Eddy Gnahore",
         "firstName":"Eddy",
         "lastName":"Gnahore",
         "playerId":110127,
         "positionText":"Midfielder",
         "teamId":151,
         "teamName":"Amiens",
         "seasonId":7344,
         "seasonName":"2018/2019",
         "isOpta":true,
         "tournamentId":22,
         "tournamentRegionId":74,
         "tournamentRegionCode":"fr",
         "tournamentRegionName":"France",
         "tournamentName":"Ligue 1",
         "rating":6.6819999999999995,
         "minsPlayed":1291,
         "keyPassLong":0.209140201392,
         "keyPassShort":1.254841208352,
         "keyPassesTotal":1.463981409744,
         "ranking":85
      },
      {
         "height":175,
         "weight":66,
         "age":21,
         "isManOfTheMatch":false,
         "isActive":true,
         "playedPositions":"-AMC-AMR-",
         "playedPositionsShort":"AM(CR)",
         "teamRegionName":"Italy",
         "regionCode":"br",
         "tournamentShortName":"ISA",
         "apps":14,
         "subOn":0,
         "name":"Gerson",
         "firstName":"Gerson",
         "lastName":"Santos da Silva",
         "playerId":242791,
         "positionText":"Midfielder",
         "teamId":73,
         "teamName":"Fiorentina",
         "seasonId":7468,
         "seasonName":"2018/2019",
         "isOpta":true,
         "tournamentId":5,
         "tournamentRegionId":108,
         "tournamentRegionCode":"it",
         "tournamentRegionName":"Italy",
         "tournamentName":"Serie A",
         "rating":6.8335714285714291,
         "minsPlayed":1107,
         "keyPassLong":0.081300813008,
         "keyPassShort":1.382113821136,
         "keyPassesTotal":1.463414634144,
         "ranking":86
      },
      {
         "height":179,
         "weight":67,
         "age":27,
         "isManOfTheMatch":false,
         "isActive":true,
         "playedPositions":"-AMC-AML-AMR-",
         "playedPositionsShort":"AM(CLR)",
         "teamRegionName":"England",
         "regionCode":"dz",
         "tournamentShortName":"EPL",
         "apps":10,
         "subOn":0,
         "name":"Riyad Mahrez",
         "firstName":"Riyad",
         "lastName":"Mahrez",
         "playerId":104749,
         "positionText":"Midfielder",
         "teamId":167,
         "teamName":"Manchester City",
         "seasonId":7361,
         "seasonName":"2018/2019",
         "isOpta":true,
         "tournamentId":2,
         "tournamentRegionId":252,
         "tournamentRegionCode":"gb-eng",
         "tournamentRegionName":"England",
         "tournamentName":"Premier League",
         "rating":7.2769999999999992,
         "minsPlayed":801,
         "keyPassLong":0.449438202244,
         "keyPassShort":1.011235955049,
         "keyPassesTotal":1.460674157293,
         "ranking":87
      },
      {
         "height":179,
         "weight":70,
         "age":25,
         "isManOfTheMatch":false,
         "isActive":true,
         "playedPositions":"-AMC-",
         "playedPositionsShort":"AM(C)",
         "teamRegionName":"Germany",
         "regionCode":"nl",
         "tournamentShortName":"GB",
         "apps":17,
         "subOn":0,
         "name":"Davy Klaassen",
         "firstName":"Davy",
         "lastName":"Klaassen",
         "playerId":108860,
         "positionText":"Midfielder",
         "teamId":42,
         "teamName":"Werder Bremen",
         "seasonId":7405,
         "seasonName":"2018/2019",
         "isOpta":true,
         "tournamentId":3,
         "tournamentRegionId":81,
         "tournamentRegionCode":"de",
         "tournamentRegionName":"Germany",
         "tournamentName":"Bundesliga",
         "rating":6.895294117647059,
         "minsPlayed":1426,
         "keyPassLong":0.0,
         "keyPassShort":1.4516129032240002,
         "keyPassesTotal":1.4516129032240002,
         "ranking":88
      },
      {
         "height":176,
         "weight":71,
         "age":24,
         "isManOfTheMatch":false,
         "isActive":true,
         "playedPositions":"-MC-ML-MR-",
         "playedPositionsShort":"M(CLR)",
         "teamRegionName":"Spain",
         "regionCode":"es",
         "tournamentShortName":"SLL",
         "apps":16,
         "subOn":0,
         "name":"Moi Gómez",
         "firstName":"Moisés",
         "lastName":"Gómez Bardonado",
         "playerId":101238,
         "positionText":"Midfielder",
         "teamId":5006,
         "teamName":"SD Huesca",
         "seasonId":7466,
         "seasonName":"2018/2019",
         "isOpta":true,
         "tournamentId":4,
         "tournamentRegionId":206,
         "tournamentRegionCode":"es",
         "tournamentRegionName":"Spain",
         "tournamentName":"La Liga",
         "rating":6.691875,
         "minsPlayed":1364,
         "keyPassLong":0.39589442815199993,
         "keyPassShort":1.055718475072,
         "keyPassesTotal":1.451612903224,
         "ranking":89
      },
      {
         "height":170,
         "weight":68,
         "age":27,
         "isManOfTheMatch":false,
         "isActive":true,
         "playedPositions":"-DMC-",
         "playedPositionsShort":"DMC",
         "teamRegionName":"Germany",
         "regionCode":"de",
         "tournamentShortName":"GB",
         "apps":17,
         "subOn":0,
         "name":"Diego Demme",
         "firstName":"Diego",
         "lastName":"Demme",
         "playerId":133886,
         "positionText":"Midfielder",
         "teamId":7614,
         "teamName":"RasenBallsport Leipzig",
         "seasonId":7405,
         "seasonName":"2018/2019",
         "isOpta":true,
         "tournamentId":3,
         "tournamentRegionId":81,
         "tournamentRegionCode":"de",
         "tournamentRegionName":"Germany",
         "tournamentName":"Bundesliga",
         "rating":7.0535294117647052,
         "minsPlayed":1491,
         "keyPassLong":0.241448692152,
         "keyPassShort":1.20724346076,
         "keyPassesTotal":1.448692152912,
         "ranking":90
      }
   ],
   "paging":{
      "currentPage":9,
      "totalPages":25,
      "resultsPerPage":10,
      "totalResults":246,
      "firstRecordIndex":81,
      "lastRecordIndex":90
   },
   "statColumns":[
      "apps",
      "subOn",
      "minsPlayed",
      "keyPassesTotal",
      "keyPassLong",
      "keyPassShort"
   ]
}