{
   "playerTableStats":[
      {
         "height":181,
         "weight":78,
         "age":27,
         "isManOfTheMatch":false,
         "isActive":true,
         "playedPositions":"-MC-",
         "playedPositionsShort":"M(C)",
         "teamRegionName":"England",
         "regionCode":"de",
         "tournamentShortName":"EPL",
         "apps":12,
         "subOn":0,
         "name":"Pascal Groß",
         "firstName":"Pascal",
         "lastName":"Groß",
         "playerId":71824,
         "positionText":"Midfielder",
         "teamId":211,
         "teamName":"Brighton",
         "seasonId":7361,
         "seasonName":"2018/2019",
         "isOpta":true,
         "tournamentId":2,
         "tournamentRegionId":252,
         "tournamentRegionCode":"gb-eng",
         "tournamentRegionName":"England",
         "tournamentName":"Premier League",
         "rating":6.6166666666666663,
         "minsPlayed":919,
         "keyPassLong":0.587595212184,
         "keyPassShort":1.273122959732,
         "keyPassesTotal":1.860718171916,
         "ranking":51
      },
      {
         "height":183,
         "weight":74,
         "age":22,
         "isManOfTheMatch":false,
         "isActive":true,
         "playedPositions":"-MC-",
         "playedPositionsShort":"M(C)",
         "teamRegionName":"Italy",
         "regionCode":"ci",
         "tournamentShortName":"ISA",
         "apps":18,
         "subOn":0,
         "name":"Franck Kessié",
         "firstName":"Franck",
         "lastName":"Kessié",
         "playerId":277269,
         "positionText":"Midfielder",
         "teamId":80,
         "teamName":"AC Milan",
         "seasonId":7468,
         "seasonName":"2018/2019",
         "isOpta":true,
         "tournamentId":5,
         "tournamentRegionId":108,
         "tournamentRegionCode":"it",
         "tournamentRegionName":"Italy",
         "tournamentName":"Serie A",
         "rating":6.9166666666666679,
         "minsPlayed":1602,
         "keyPassLong":0.16853932583999998,
         "keyPassShort":1.6853932584,
         "keyPassesTotal":1.8539325842399998,
         "ranking":52
      },
      {
         "height":176,
         "weight":65,
         "age":27,
         "isManOfTheMatch":false,
         "isActive":true,
         "playedPositions":"-AMC-AML-AMR-",
         "playedPositionsShort":"AM(CLR)",
         "teamRegionName":"Spain",
         "regionCode":"es",
         "tournamentShortName":"SLL",
         "apps":15,
         "subOn":0,
         "name":"Sergio Canales",
         "firstName":"Sergio",
         "lastName":"Canales",
         "playerId":44189,
         "positionText":"Midfielder",
         "teamId":54,
         "teamName":"Real Betis",
         "seasonId":7466,
         "seasonName":"2018/2019",
         "isOpta":true,
         "tournamentId":4,
         "tournamentRegionId":206,
         "tournamentRegionCode":"es",
         "tournamentRegionName":"Spain",
         "tournamentName":"La Liga",
         "rating":6.9920000000000009,
         "minsPlayed":1317,
         "keyPassLong":0.41002277903999995,
         "keyPassShort":1.43507972664,
         "keyPassesTotal":1.84510250568,
         "ranking":53
      },
      {
         "height":183,
         "weight":76,
         "age":24,
         "isManOfTheMatch":false,
         "isActive":true,
         "playedPositions":"-MC-MR-",
         "playedPositionsShort":"M(CR)",
         "teamRegionName":"Wales",
         "regionCode":"es",
         "tournamentShortName":"EPL",
         "apps":20,
         "subOn":0,
         "name":"Víctor Camarasa",
         "firstName":"Víctor",
         "lastName":"Camarasa",
         "playerId":140957,
         "positionText":"Midfielder",
         "teamId":188,
         "teamName":"Cardiff",
         "seasonId":7361,
         "seasonName":"2018/2019",
         "isOpta":true,
         "tournamentId":2,
         "tournamentRegionId":252,
         "tournamentRegionCode":"gb-eng",
         "tournamentRegionName":"England",
         "tournamentName":"Premier League",
         "rating":6.7805000000000009,
         "minsPlayed":1734,
         "keyPassLong":0.622837370232,
         "keyPassShort":1.193771626278,
         "keyPassesTotal":1.81660899651,
         "ranking":54
      },
      {
         "height":178,
         "weight":67,
         "age":22,
         "isManOfTheMatch":false,
         "isActive":true,
         "playedPositions":"-MC-ML-MR-",
         "playedPositionsShort":"M(CLR)",
         "teamRegionName":"Spain",
         "regionCode":"es",
         "tournamentShortName":"SLL",
         "apps":17,
         "subOn":0,
         "name":"Pablo Fornals",
         "firstName":"Pablo",
         "lastName":"Fornals",
         "playerId":297203,
         "positionText":"Midfielder",
         "teamId":839,
         "teamName":"Villarreal",
         "seasonId":7466,
         "seasonName":"2018/2019",
         "isOpta":true,
         "tournamentId":4,
         "tournamentRegionId":206,
         "tournamentRegionCode":"es",
         "tournamentRegionName":"Spain",
         "tournamentName":"La Liga",
         "rating":6.8852941176470592,
         "minsPlayed":1457,
         "keyPassLong":0.308853809195,
         "keyPassShort":1.4824982841360002,
         "keyPassesTotal":1.791352093331,
         "ranking":55
      },
      {
         "height":175,
         "weight":70,
         "age":25,
         "isManOfTheMatch":false,
         "isActive":true,
         "playedPositions":"-AMC-AML-AMR-",
         "playedPositionsShort":"AM(CLR)",
         "teamRegionName":"France",
         "regionCode":"fr",
         "tournamentShortName":"FL1",
         "apps":16,
         "subOn":0,
         "name":"Flavien Tait",
         "firstName":"Flavien",
         "lastName":"Tait",
         "playerId":296241,
         "positionText":"Midfielder",
         "teamId":614,
         "teamName":"Angers",
         "seasonId":7344,
         "seasonName":"2018/2019",
         "isOpta":true,
         "tournamentId":22,
         "tournamentRegionId":74,
         "tournamentRegionCode":"fr",
         "tournamentRegionName":"France",
         "tournamentName":"Ligue 1",
         "rating":7.06875,
         "minsPlayed":1261,
         "keyPassLong":0.642347343378,
         "keyPassShort":1.141950832672,
         "keyPassesTotal":1.78429817605,
         "ranking":56
      },
      {
         "height":172,
         "weight":70,
         "age":24,
         "isManOfTheMatch":false,
         "isActive":true,
         "playedPositions":"-MC-",
         "playedPositionsShort":"M(C)",
         "teamRegionName":"France",
         "regionCode":"fr",
         "tournamentShortName":"FL1",
         "apps":16,
         "subOn":0,
         "name":"Valentin Rongier",
         "firstName":"Valentin",
         "lastName":"Rongier",
         "playerId":231144,
         "positionText":"Midfielder",
         "teamId":302,
         "teamName":"Nantes",
         "seasonId":7344,
         "seasonName":"2018/2019",
         "isOpta":true,
         "tournamentId":22,
         "tournamentRegionId":74,
         "tournamentRegionCode":"fr",
         "tournamentRegionName":"France",
         "tournamentName":"Ligue 1",
         "rating":6.8275000000000006,
         "minsPlayed":1428,
         "keyPassLong":0.31512605041999997,
         "keyPassShort":1.449579831932,
         "keyPassesTotal":1.7647058823519999,
         "ranking":57
      },
      {
         "height":190,
         "weight":70,
         "age":22,
         "isManOfTheMatch":false,
         "isActive":true,
         "playedPositions":"-MC-MR-",
         "playedPositionsShort":"M(CR)",
         "teamRegionName":"Italy",
         "regionCode":"ch",
         "tournamentShortName":"ISA",
         "apps":12,
         "subOn":0,
         "name":"Edimilson Fernandes",
         "firstName":"Edimilson",
         "lastName":"Fernandes",
         "playerId":130964,
         "positionText":"Midfielder",
         "teamId":73,
         "teamName":"Fiorentina",
         "seasonId":7468,
         "seasonName":"2018/2019",
         "isOpta":true,
         "tournamentId":5,
         "tournamentRegionId":108,
         "tournamentRegionCode":"it",
         "tournamentRegionName":"Italy",
         "tournamentName":"Serie A",
         "rating":6.6875,
         "minsPlayed":920,
         "keyPassLong":0.097826086956,
         "keyPassShort":1.6630434782519998,
         "keyPassesTotal":1.7608695652079998,
         "ranking":58
      },
      {
         "height":178,
         "weight":74,
         "age":21,
         "isManOfTheMatch":false,
         "isActive":true,
         "playedPositions":"-AMC-",
         "playedPositionsShort":"AM(C)",
         "teamRegionName":"France",
         "regionCode":"fr",
         "tournamentShortName":"FL1",
         "apps":10,
         "subOn":0,
         "name":"Mathieu Cafaro",
         "firstName":"Mathieu",
         "lastName":"Cafaro",
         "playerId":297211,
         "positionText":"Midfielder",
         "teamId":950,
         "teamName":"Reims",
         "seasonId":7344,
         "seasonName":"2018/2019",
         "isOpta":true,
         "tournamentId":22,
         "tournamentRegionId":74,
         "tournamentRegionCode":"fr",
         "tournamentRegionName":"France",
         "tournamentName":"Ligue 1",
         "rating":6.7900000000000009,
         "minsPlayed":782,
         "keyPassLong":0.460358056264,
         "keyPassShort":1.265984654726,
         "keyPassesTotal":1.72634271099,
         "ranking":59
      },
      {
         "height":173,
         "weight":68,
         "age":25,
         "isManOfTheMatch":false,
         "isActive":true,
         "playedPositions":"-AMC-",
         "playedPositionsShort":"AM(C)",
         "teamRegionName":"Italy",
         "regionCode":"it",
         "tournamentShortName":"ISA",
         "apps":13,
         "subOn":0,
         "name":"Daniel Bessa",
         "firstName":"Daniel",
         "lastName":"Bessa",
         "playerId":122964,
         "positionText":"Midfielder",
         "teamId":278,
         "teamName":"Genoa",
         "seasonId":7468,
         "seasonName":"2018/2019",
         "isOpta":true,
         "tournamentId":5,
         "tournamentRegionId":108,
         "tournamentRegionCode":"it",
         "tournamentRegionName":"Italy",
         "tournamentName":"Serie A",
         "rating":6.6238461538461531,
         "minsPlayed":1149,
         "keyPassLong":0.548302872061,
         "keyPassShort":1.174934725845,
         "keyPassesTotal":1.723237597906,
         "ranking":60
      }
   ],
   "paging":{
      "currentPage":6,
      "totalPages":25,
      "resultsPerPage":10,
      "totalResults":246,
      "firstRecordIndex":51,
      "lastRecordIndex":60
   },
   "statColumns":[
      "apps",
      "subOn",
      "minsPlayed",
      "keyPassesTotal",
      "keyPassLong",
      "keyPassShort"
   ]
}