{
   "playerTableStats":[
      {
         "ranking":151,
         "seasonId":7405,
         "seasonName":"2018/2019",
         "tournamentId":3,
         "tournamentRegionId":81,
         "tournamentRegionCode":"de",
         "tournamentRegionName":"Germany",
         "regionCode":"de",
         "tournamentName":"Bundesliga",
         "tournamentShortName":"GB",
         "firstName":"Danny",
         "lastName":"da Costa",
         "playerId":94934,
         "isActive":true,
         "isOpta":true,
         "teamId":45,
         "teamName":"Eintracht Frankfurt",
         "teamRegionName":"Germany",
         "playedPositions":"-DR-MR-",
         "age":25,
         "height":187,
         "weight":85,
         "positionText":"Defender",
         "apps":11,
         "subOn":0,
         "minsPlayed":981,
         "rating":6.9218181818181828,
         "isManOfTheMatch":false,
         "playedPositionsShort":"D(R),M(R)",
         "name":"Danny da Costa",
         "keyPassLong":0.275229357798,
         "keyPassShort":0.733944954128,
         "keyPassesTotal":1.009174311926
      },
      {
         "ranking":152,
         "seasonId":7361,
         "seasonName":"2018/2019",
         "tournamentId":2,
         "tournamentRegionId":252,
         "tournamentRegionCode":"gb-eng",
         "tournamentRegionName":"England",
         "regionCode":"fr",
         "tournamentName":"Premier League",
         "tournamentShortName":"EPL",
         "firstName":"Matteo",
         "lastName":"Guendouzi",
         "playerId":328983,
         "isActive":true,
         "isOpta":true,
         "teamId":13,
         "teamName":"Arsenal",
         "teamRegionName":"England",
         "playedPositions":"-DMC-",
         "age":19,
         "height":185,
         "weight":64,
         "positionText":"Midfielder",
         "apps":12,
         "subOn":0,
         "minsPlayed":982,
         "rating":6.7741666666666669,
         "isManOfTheMatch":false,
         "playedPositionsShort":"DMC",
         "name":"Matteo Guendouzi",
         "keyPassLong":0.183299389002,
         "keyPassShort":0.824847250509,
         "keyPassesTotal":1.008146639511
      },
      {
         "ranking":153,
         "seasonId":7361,
         "seasonName":"2018/2019",
         "tournamentId":2,
         "tournamentRegionId":252,
         "tournamentRegionCode":"gb-eng",
         "tournamentRegionName":"England",
         "regionCode":"pt",
         "tournamentName":"Premier League",
         "tournamentShortName":"EPL",
         "firstName":"Diogo José",
         "lastName":"Teixeira da Silva",
         "playerId":235755,
         "isActive":true,
         "isOpta":true,
         "teamId":161,
         "teamName":"Wolverhampton Wanderers",
         "teamRegionName":"England",
         "playedPositions":"-AMC-AML-FW-",
         "age":22,
         "height":178,
         "weight":70,
         "positionText":"Midfielder",
         "apps":11,
         "subOn":0,
         "minsPlayed":895,
         "rating":6.6154545454545453,
         "isManOfTheMatch":false,
         "playedPositionsShort":"AM(CL),FW",
         "name":"Diogo Jota",
         "keyPassLong":0.100558659217,
         "keyPassShort":0.905027932953,
         "keyPassesTotal":1.00558659217
      },
      {
         "ranking":154,
         "seasonId":7361,
         "seasonName":"2018/2019",
         "tournamentId":2,
         "tournamentRegionId":252,
         "tournamentRegionCode":"gb-eng",
         "tournamentRegionName":"England",
         "regionCode":"rs",
         "tournamentName":"Premier League",
         "tournamentShortName":"EPL",
         "firstName":"Luka",
         "lastName":"Milivojevic",
         "playerId":70493,
         "isActive":true,
         "isOpta":true,
         "teamId":162,
         "teamName":"Crystal Palace",
         "teamRegionName":"England",
         "playedPositions":"-DMC-",
         "age":27,
         "height":186,
         "weight":80,
         "positionText":"Midfielder",
         "apps":21,
         "subOn":0,
         "minsPlayed":1890,
         "rating":7.0895238095238078,
         "isManOfTheMatch":false,
         "playedPositionsShort":"DMC",
         "name":"Luka Milivojevic",
         "keyPassLong":0.428571428571,
         "keyPassShort":0.57142857142800008,
         "keyPassesTotal":0.99999999999900013
      },
      {
         "ranking":155,
         "seasonId":7344,
         "seasonName":"2018/2019",
         "tournamentId":22,
         "tournamentRegionId":74,
         "tournamentRegionCode":"fr",
         "tournamentRegionName":"France",
         "regionCode":"fr",
         "tournamentName":"Ligue 1",
         "tournamentShortName":"FL1",
         "firstName":"Theo",
         "lastName":"Valls",
         "playerId":234373,
         "isActive":true,
         "isOpta":true,
         "teamId":245,
         "teamName":"Nimes",
         "teamRegionName":"France",
         "playedPositions":"-MC-",
         "age":23,
         "height":180,
         "weight":75,
         "positionText":"Midfielder",
         "apps":12,
         "subOn":0,
         "minsPlayed":993,
         "rating":6.6049999999999995,
         "isManOfTheMatch":false,
         "playedPositionsShort":"M(C)",
         "name":"Theo Valls",
         "keyPassLong":0.090634441087,
         "keyPassShort":0.90634441087000006,
         "keyPassesTotal":0.99697885195700009
      },
      {
         "ranking":156,
         "seasonId":7466,
         "seasonName":"2018/2019",
         "tournamentId":4,
         "tournamentRegionId":206,
         "tournamentRegionCode":"es",
         "tournamentRegionName":"Spain",
         "regionCode":"es",
         "tournamentName":"La Liga",
         "tournamentShortName":"SLL",
         "firstName":"Aleix",
         "lastName":"García",
         "playerId":280663,
         "isActive":true,
         "isOpta":true,
         "teamId":2783,
         "teamName":"Girona",
         "teamRegionName":"Spain",
         "playedPositions":"-MC-",
         "age":21,
         "height":173,
         "weight":68,
         "positionText":"Midfielder",
         "apps":10,
         "subOn":0,
         "minsPlayed":733,
         "rating":6.9399999999999995,
         "isManOfTheMatch":false,
         "playedPositionsShort":"M(C)",
         "name":"Aleix García",
         "keyPassLong":0.245566166438,
         "keyPassShort":0.736698499314,
         "keyPassesTotal":0.982264665752
      },
      {
         "ranking":157,
         "seasonId":7344,
         "seasonName":"2018/2019",
         "tournamentId":22,
         "tournamentRegionId":74,
         "tournamentRegionCode":"fr",
         "tournamentRegionName":"France",
         "regionCode":"fr",
         "tournamentName":"Ligue 1",
         "tournamentShortName":"FL1",
         "firstName":"Remi",
         "lastName":"Oudin",
         "playerId":322421,
         "isActive":true,
         "isOpta":true,
         "teamId":950,
         "teamName":"Reims",
         "teamRegionName":"France",
         "playedPositions":"-AMR-",
         "age":22,
         "height":185,
         "weight":79,
         "positionText":"Midfielder",
         "apps":15,
         "subOn":0,
         "minsPlayed":1102,
         "rating":6.7186666666666666,
         "isManOfTheMatch":false,
         "playedPositionsShort":"AM(R)",
         "name":"Remi Oudin",
         "keyPassLong":0.16333938294,
         "keyPassShort":0.8166969147,
         "keyPassesTotal":0.98003629764000011
      },
      {
         "ranking":158,
         "seasonId":7361,
         "seasonName":"2018/2019",
         "tournamentId":2,
         "tournamentRegionId":252,
         "tournamentRegionCode":"gb-eng",
         "tournamentRegionName":"England",
         "regionCode":"dk",
         "tournamentName":"Premier League",
         "tournamentShortName":"EPL",
         "firstName":"Philip",
         "lastName":"Billing",
         "playerId":145277,
         "isActive":true,
         "isOpta":true,
         "teamId":166,
         "teamName":"Huddersfield",
         "teamRegionName":"England",
         "playedPositions":"-DMC-",
         "age":22,
         "height":193,
         "weight":83,
         "positionText":"Midfielder",
         "apps":20,
         "subOn":0,
         "minsPlayed":1753,
         "rating":7.1724999999999994,
         "isManOfTheMatch":false,
         "playedPositionsShort":"DMC",
         "name":"Philip Billing",
         "keyPassLong":0.30804335424600005,
         "keyPassShort":0.66742726753300008,
         "keyPassesTotal":0.97547062177900012
      },
      {
         "ranking":159,
         "seasonId":7405,
         "seasonName":"2018/2019",
         "tournamentId":3,
         "tournamentRegionId":81,
         "tournamentRegionCode":"de",
         "tournamentRegionName":"Germany",
         "regionCode":"de",
         "tournamentName":"Bundesliga",
         "tournamentShortName":"GB",
         "firstName":"Leon",
         "lastName":"Goretzka",
         "playerId":115519,
         "isActive":true,
         "isOpta":true,
         "teamId":37,
         "teamName":"Bayern Munich",
         "teamRegionName":"Germany",
         "playedPositions":"-MC-MR-",
         "age":23,
         "height":189,
         "weight":79,
         "positionText":"Midfielder",
         "apps":10,
         "subOn":0,
         "minsPlayed":838,
         "rating":7.106,
         "isManOfTheMatch":false,
         "playedPositionsShort":"M(CR)",
         "name":"Leon Goretzka",
         "keyPassLong":0.107398568019,
         "keyPassShort":0.859188544152,
         "keyPassesTotal":0.96658711217099991
      },
      {
         "ranking":160,
         "seasonId":7468,
         "seasonName":"2018/2019",
         "tournamentId":5,
         "tournamentRegionId":108,
         "tournamentRegionCode":"it",
         "tournamentRegionName":"Italy",
         "regionCode":"dz",
         "tournamentName":"Serie A",
         "tournamentShortName":"ISA",
         "firstName":"Ismael",
         "lastName":"Bennacer",
         "playerId":259102,
         "isActive":true,
         "isOpta":true,
         "teamId":272,
         "teamName":"Empoli",
         "teamRegionName":"Italy",
         "playedPositions":"-MC-",
         "age":21,
         "height":175,
         "weight":70,
         "positionText":"Midfielder",
         "apps":14,
         "subOn":0,
         "minsPlayed":1211,
         "rating":6.862857142857143,
         "isManOfTheMatch":false,
         "playedPositionsShort":"M(C)",
         "name":"Ismael Bennacer",
         "keyPassLong":0.148637489676,
         "keyPassShort":0.81750619321799989,
         "keyPassesTotal":0.96614368289399988
      }
   ],
   "paging":{
      "currentPage":16,
      "totalPages":25,
      "resultsPerPage":10,
      "totalResults":246,
      "firstRecordIndex":151,
      "lastRecordIndex":160
   },
   "statColumns":[
      "apps",
      "subOn",
      "minsPlayed",
      "keyPassesTotal",
      "keyPassLong",
      "keyPassShort"
   ]
}