{
   "playerTableStats":[
      {
         "height":183,
         "weight":80,
         "age":24,
         "isManOfTheMatch":false,
         "isActive":true,
         "playedPositions":"-AMC-AMR-",
         "playedPositionsShort":"AM(CR)",
         "teamRegionName":"Italy",
         "regionCode":"it",
         "tournamentShortName":"ISA",
         "apps":16,
         "subOn":0,
         "name":"Marco Benassi",
         "firstName":"Marco",
         "lastName":"Benassi",
         "playerId":118140,
         "positionText":"Midfielder",
         "teamId":73,
         "teamName":"Fiorentina",
         "seasonId":7468,
         "seasonName":"2018/2019",
         "isOpta":true,
         "tournamentId":5,
         "tournamentRegionId":108,
         "tournamentRegionCode":"it",
         "tournamentRegionName":"Italy",
         "tournamentName":"Serie A",
         "rating":6.8768749999999992,
         "minsPlayed":1219,
         "keyPassLong":0.073831009023,
         "keyPassShort":1.181296144368,
         "keyPassesTotal":1.2551271533909998,
         "ranking":111
      },
      {
         "height":183,
         "weight":74,
         "age":21,
         "isManOfTheMatch":false,
         "isActive":true,
         "playedPositions":"-DMC-",
         "playedPositionsShort":"DMC",
         "teamRegionName":"Germany",
         "regionCode":"de",
         "tournamentShortName":"GB",
         "apps":13,
         "subOn":0,
         "name":"Florian Neuhaus",
         "firstName":"Florian",
         "lastName":"Neuhaus",
         "playerId":319448,
         "positionText":"Midfielder",
         "teamId":134,
         "teamName":"Borussia M.Gladbach",
         "seasonId":7405,
         "seasonName":"2018/2019",
         "isOpta":true,
         "tournamentId":3,
         "tournamentRegionId":81,
         "tournamentRegionCode":"de",
         "tournamentRegionName":"Germany",
         "tournamentName":"Bundesliga",
         "rating":6.86153846153846,
         "minsPlayed":1076,
         "keyPassLong":0.167286245352,
         "keyPassShort":1.087360594788,
         "keyPassesTotal":1.2546468401400002,
         "ranking":112
      },
      {
         "height":168,
         "weight":68,
         "age":27,
         "isManOfTheMatch":false,
         "isActive":true,
         "playedPositions":"-DMC-",
         "playedPositionsShort":"DMC",
         "teamRegionName":"England",
         "regionCode":"fr",
         "tournamentShortName":"EPL",
         "apps":21,
         "subOn":0,
         "name":"N'Golo Kanté",
         "firstName":"N'Golo",
         "lastName":"Kanté",
         "playerId":114075,
         "positionText":"Midfielder",
         "teamId":15,
         "teamName":"Chelsea",
         "seasonId":7361,
         "seasonName":"2018/2019",
         "isOpta":true,
         "tournamentId":2,
         "tournamentRegionId":252,
         "tournamentRegionCode":"gb-eng",
         "tournamentRegionName":"England",
         "tournamentName":"Premier League",
         "rating":7.0185714285714305,
         "minsPlayed":1877,
         "keyPassLong":0.047948854555,
         "keyPassShort":1.198721363875,
         "keyPassesTotal":1.24667021843,
         "ranking":113
      },
      {
         "height":183,
         "weight":74,
         "age":23,
         "isManOfTheMatch":false,
         "isActive":true,
         "playedPositions":"-MC-",
         "playedPositionsShort":"M(C)",
         "teamRegionName":"Italy",
         "regionCode":"ci",
         "tournamentShortName":"ISA",
         "apps":19,
         "subOn":0,
         "name":"Seko Fofana",
         "firstName":"Seko",
         "lastName":"Fofana",
         "playerId":254562,
         "positionText":"Midfielder",
         "teamId":86,
         "teamName":"Udinese",
         "seasonId":7468,
         "seasonName":"2018/2019",
         "isOpta":true,
         "tournamentId":5,
         "tournamentRegionId":108,
         "tournamentRegionCode":"it",
         "tournamentRegionName":"Italy",
         "tournamentName":"Serie A",
         "rating":6.7221052631578946,
         "minsPlayed":1668,
         "keyPassLong":0.161870503596,
         "keyPassShort":1.07913669064,
         "keyPassesTotal":1.241007194236,
         "ranking":114
      },
      {
         "height":175,
         "weight":70,
         "age":24,
         "isManOfTheMatch":false,
         "isActive":true,
         "playedPositions":"-MC-",
         "playedPositionsShort":"M(C)",
         "teamRegionName":"Italy",
         "regionCode":"si",
         "tournamentShortName":"ISA",
         "apps":13,
         "subOn":0,
         "name":"Leo Stulac",
         "firstName":"Leo",
         "lastName":"Stulac",
         "playerId":362544,
         "positionText":"Midfielder",
         "teamId":24341,
         "teamName":"Parma Calcio 1913",
         "seasonId":7468,
         "seasonName":"2018/2019",
         "isOpta":true,
         "tournamentId":5,
         "tournamentRegionId":108,
         "tournamentRegionCode":"it",
         "tournamentRegionName":"Italy",
         "tournamentName":"Serie A",
         "rating":6.7638461538461545,
         "minsPlayed":1088,
         "keyPassLong":0.413602941175,
         "keyPassShort":0.82720588235,
         "keyPassesTotal":1.240808823525,
         "ranking":115
      },
      {
         "height":171,
         "weight":68,
         "age":23,
         "isManOfTheMatch":false,
         "isActive":true,
         "playedPositions":"-AML-AMR-FW-",
         "playedPositionsShort":"AM(LR),FW",
         "teamRegionName":"Spain",
         "regionCode":"ar",
         "tournamentShortName":"SLL",
         "apps":10,
         "subOn":0,
         "name":"Ángel Correa",
         "firstName":"Ángel",
         "lastName":"Correa",
         "playerId":127604,
         "positionText":"Forward",
         "teamId":63,
         "teamName":"Atletico Madrid",
         "seasonId":7466,
         "seasonName":"2018/2019",
         "isOpta":true,
         "tournamentId":4,
         "tournamentRegionId":206,
         "tournamentRegionCode":"es",
         "tournamentRegionName":"Spain",
         "tournamentName":"La Liga",
         "rating":6.875,
         "minsPlayed":740,
         "keyPassLong":0.243243243242,
         "keyPassShort":0.972972972968,
         "keyPassesTotal":1.21621621621,
         "ranking":116
      },
      {
         "height":185,
         "weight":76,
         "age":20,
         "isManOfTheMatch":false,
         "isActive":true,
         "playedPositions":"-AML-AMR-FW-",
         "playedPositionsShort":"AM(LR),FW",
         "teamRegionName":"France",
         "regionCode":"sn",
         "tournamentShortName":"FL1",
         "apps":12,
         "subOn":0,
         "name":"Ismaila Sarr",
         "firstName":"Ismaila",
         "lastName":"Sarr",
         "playerId":322670,
         "positionText":"Forward",
         "teamId":313,
         "teamName":"Rennes",
         "seasonId":7344,
         "seasonName":"2018/2019",
         "isOpta":true,
         "tournamentId":22,
         "tournamentRegionId":74,
         "tournamentRegionCode":"fr",
         "tournamentRegionName":"France",
         "tournamentName":"Ligue 1",
         "rating":7.0975,
         "minsPlayed":964,
         "keyPassLong":0.0,
         "keyPassShort":1.21369294605,
         "keyPassesTotal":1.21369294605,
         "ranking":117
      },
      {
         "height":173,
         "weight":62,
         "age":21,
         "isManOfTheMatch":false,
         "isActive":true,
         "playedPositions":"-AMC-AMR-",
         "playedPositionsShort":"AM(CR)",
         "teamRegionName":"England",
         "regionCode":"gb-wls",
         "tournamentShortName":"EPL",
         "apps":18,
         "subOn":0,
         "name":"David Brooks",
         "firstName":"David",
         "lastName":"Brooks",
         "playerId":295084,
         "positionText":"Midfielder",
         "teamId":183,
         "teamName":"Bournemouth",
         "seasonId":7361,
         "seasonName":"2018/2019",
         "isOpta":true,
         "tournamentId":2,
         "tournamentRegionId":252,
         "tournamentRegionCode":"gb-eng",
         "tournamentRegionName":"England",
         "tournamentName":"Premier League",
         "rating":6.8538888888888891,
         "minsPlayed":1340,
         "keyPassLong":0.20149253731199998,
         "keyPassShort":1.0074626865599998,
         "keyPassesTotal":1.2089552238719998,
         "ranking":118
      },
      {
         "height":173,
         "weight":67,
         "age":23,
         "isManOfTheMatch":false,
         "isActive":true,
         "playedPositions":"-FW-MC-ML-",
         "playedPositionsShort":"M(CL),FW",
         "teamRegionName":"England",
         "regionCode":"de",
         "tournamentShortName":"EPL",
         "apps":10,
         "subOn":0,
         "name":"Max Meyer",
         "firstName":"Max",
         "lastName":"Meyer",
         "playerId":124598,
         "positionText":"Midfielder",
         "teamId":162,
         "teamName":"Crystal Palace",
         "seasonId":7361,
         "seasonName":"2018/2019",
         "isOpta":true,
         "tournamentId":2,
         "tournamentRegionId":252,
         "tournamentRegionCode":"gb-eng",
         "tournamentRegionName":"England",
         "tournamentName":"Premier League",
         "rating":6.625,
         "minsPlayed":819,
         "keyPassLong":0.10989010989,
         "keyPassShort":1.0989010989,
         "keyPassesTotal":1.2087912087900001,
         "ranking":119
      },
      {
         "height":186,
         "weight":80,
         "age":23,
         "isManOfTheMatch":false,
         "isActive":true,
         "playedPositions":"-MC-",
         "playedPositionsShort":"M(C)",
         "teamRegionName":"Italy",
         "regionCode":"it",
         "tournamentShortName":"ISA",
         "apps":12,
         "subOn":0,
         "name":"Bryan Cristante",
         "firstName":"Bryan",
         "lastName":"Cristante",
         "playerId":109149,
         "positionText":"Midfielder",
         "teamId":84,
         "teamName":"Roma",
         "seasonId":7468,
         "seasonName":"2018/2019",
         "isOpta":true,
         "tournamentId":5,
         "tournamentRegionId":108,
         "tournamentRegionCode":"it",
         "tournamentRegionName":"Italy",
         "tournamentName":"Serie A",
         "rating":7.1608333333333327,
         "minsPlayed":969,
         "keyPassLong":0.278637770895,
         "keyPassShort":0.92879256965,
         "keyPassesTotal":1.207430340545,
         "ranking":120
      }
   ],
   "paging":{
      "currentPage":12,
      "totalPages":25,
      "resultsPerPage":10,
      "totalResults":246,
      "firstRecordIndex":111,
      "lastRecordIndex":120
   },
   "statColumns":[
      "apps",
      "subOn",
      "minsPlayed",
      "keyPassesTotal",
      "keyPassLong",
      "keyPassShort"
   ]
}