{
   "playerTableStats":[
      {
         "height":185,
         "weight":75,
         "age":20,
         "isManOfTheMatch":false,
         "isActive":true,
         "playedPositions":"-MC-ML-",
         "playedPositionsShort":"M(CL)",
         "teamRegionName":"Italy",
         "regionCode":"se",
         "tournamentShortName":"ISA",
         "apps":12,
         "subOn":0,
         "name":"Mattias Svanberg",
         "firstName":"Mattias",
         "lastName":"Svanberg",
         "playerId":282348,
         "positionText":"Midfielder",
         "teamId":71,
         "teamName":"Bologna",
         "seasonId":7468,
         "seasonName":"2018/2019",
         "isOpta":true,
         "tournamentId":5,
         "tournamentRegionId":108,
         "tournamentRegionCode":"it",
         "tournamentRegionName":"Italy",
         "tournamentName":"Serie A",
         "rating":6.5424999999999995,
         "minsPlayed":934,
         "keyPassLong":0.19271948608,
         "keyPassShort":0.86723768736000006,
         "keyPassesTotal":1.05995717344,
         "ranking":141
      },
      {
         "height":181,
         "weight":72,
         "age":26,
         "isManOfTheMatch":false,
         "isActive":true,
         "playedPositions":"-AMC-AMR-FW-",
         "playedPositionsShort":"AM(CR),FW",
         "teamRegionName":"Spain",
         "regionCode":"br",
         "tournamentShortName":"SLL",
         "apps":11,
         "subOn":0,
         "name":"Leo Baptistao",
         "firstName":"Leo",
         "lastName":"Baptistao",
         "playerId":116227,
         "positionText":"Forward",
         "teamId":70,
         "teamName":"Espanyol",
         "seasonId":7466,
         "seasonName":"2018/2019",
         "isOpta":true,
         "tournamentId":4,
         "tournamentRegionId":206,
         "tournamentRegionCode":"es",
         "tournamentRegionName":"Spain",
         "tournamentName":"La Liga",
         "rating":6.72090909090909,
         "minsPlayed":852,
         "keyPassLong":0.105633802816,
         "keyPassShort":0.950704225344,
         "keyPassesTotal":1.05633802816,
         "ranking":142
      },
      {
         "height":185,
         "weight":74,
         "age":23,
         "isManOfTheMatch":false,
         "isActive":true,
         "playedPositions":"-MC-",
         "playedPositionsShort":"M(C)",
         "teamRegionName":"England",
         "regionCode":"gb-eng",
         "tournamentShortName":"EPL",
         "apps":16,
         "subOn":0,
         "name":"Will Hughes",
         "firstName":"Will",
         "lastName":"Hughes",
         "playerId":108638,
         "positionText":"Midfielder",
         "teamId":27,
         "teamName":"Watford",
         "seasonId":7361,
         "seasonName":"2018/2019",
         "isOpta":true,
         "tournamentId":2,
         "tournamentRegionId":252,
         "tournamentRegionCode":"gb-eng",
         "tournamentRegionName":"England",
         "tournamentName":"Premier League",
         "rating":6.6831249999999986,
         "minsPlayed":1199,
         "keyPassLong":0.075062552126,
         "keyPassShort":0.97581317763800013,
         "keyPassesTotal":1.0508757297640001,
         "ranking":143
      },
      {
         "height":187,
         "weight":77,
         "age":24,
         "isManOfTheMatch":false,
         "isActive":true,
         "playedPositions":"-DMC-",
         "playedPositionsShort":"DMC",
         "teamRegionName":"France",
         "regionCode":"no",
         "tournamentShortName":"FL1",
         "apps":16,
         "subOn":0,
         "name":"Ole Selnaes",
         "firstName":"Ole",
         "lastName":"Selnaes",
         "playerId":99537,
         "positionText":"Midfielder",
         "teamId":145,
         "teamName":"Saint-Etienne",
         "seasonId":7344,
         "seasonName":"2018/2019",
         "isOpta":true,
         "tournamentId":22,
         "tournamentRegionId":74,
         "tournamentRegionCode":"fr",
         "tournamentRegionName":"France",
         "tournamentName":"Ligue 1",
         "rating":6.945,
         "minsPlayed":1387,
         "keyPassLong":0.519105984136,
         "keyPassShort":0.519105984136,
         "keyPassesTotal":1.038211968272,
         "ranking":144
      },
      {
         "height":172,
         "weight":72,
         "age":26,
         "isManOfTheMatch":false,
         "isActive":true,
         "playedPositions":"-AMC-AML-AMR-FW-",
         "playedPositionsShort":"AM(CLR),FW",
         "teamRegionName":"England",
         "regionCode":"br",
         "tournamentShortName":"EPL",
         "apps":10,
         "subOn":0,
         "name":"Lucas Moura",
         "firstName":"Lucas",
         "lastName":"Rodrigues Moura da Silva",
         "playerId":92508,
         "positionText":"Midfielder",
         "teamId":30,
         "teamName":"Tottenham",
         "seasonId":7361,
         "seasonName":"2018/2019",
         "isOpta":true,
         "tournamentId":2,
         "tournamentRegionId":252,
         "tournamentRegionCode":"gb-eng",
         "tournamentRegionName":"England",
         "tournamentName":"Premier League",
         "rating":7.0240000000000009,
         "minsPlayed":786,
         "keyPassLong":0.0,
         "keyPassShort":1.030534351137,
         "keyPassesTotal":1.030534351137,
         "ranking":145
      },
      {
         "height":184,
         "weight":75,
         "age":22,
         "isManOfTheMatch":false,
         "isActive":true,
         "playedPositions":"-DMC-",
         "playedPositionsShort":"DMC",
         "teamRegionName":"France",
         "regionCode":"ma",
         "tournamentShortName":"FL1",
         "apps":10,
         "subOn":0,
         "name":"Youssef Aït Bennasser",
         "firstName":"Youssef",
         "lastName":"Aït Bennasser",
         "playerId":296230,
         "positionText":"Midfielder",
         "teamId":248,
         "teamName":"Monaco",
         "seasonId":7344,
         "seasonName":"2018/2019",
         "isOpta":true,
         "tournamentId":22,
         "tournamentRegionId":74,
         "tournamentRegionCode":"fr",
         "tournamentRegionName":"France",
         "tournamentName":"Ligue 1",
         "rating":6.9009999999999989,
         "minsPlayed":875,
         "keyPassLong":0.205714285714,
         "keyPassShort":0.822857142856,
         "keyPassesTotal":1.02857142857,
         "ranking":146
      },
      {
         "height":181,
         "weight":75,
         "age":24,
         "isManOfTheMatch":false,
         "isActive":true,
         "playedPositions":"-AMC-FW-",
         "playedPositionsShort":"AM(C),FW",
         "teamRegionName":"Germany",
         "regionCode":"sk",
         "tournamentShortName":"GB",
         "apps":14,
         "subOn":0,
         "name":"Ondrej Duda",
         "firstName":"Ondrej",
         "lastName":"Duda",
         "playerId":115257,
         "positionText":"Midfielder",
         "teamId":47,
         "teamName":"Hertha Berlin",
         "seasonId":7405,
         "seasonName":"2018/2019",
         "isOpta":true,
         "tournamentId":3,
         "tournamentRegionId":81,
         "tournamentRegionCode":"de",
         "tournamentRegionName":"Germany",
         "tournamentName":"Bundesliga",
         "rating":6.9321428571428561,
         "minsPlayed":1141,
         "keyPassLong":0.078878177037,
         "keyPassShort":0.94653812444399987,
         "keyPassesTotal":1.0254163014809998,
         "ranking":147
      },
      {
         "height":181,
         "weight":78,
         "age":24,
         "isManOfTheMatch":false,
         "isActive":true,
         "playedPositions":"-AMC-",
         "playedPositionsShort":"AM(C)",
         "teamRegionName":"Italy",
         "regionCode":"be",
         "tournamentShortName":"ISA",
         "apps":15,
         "subOn":0,
         "name":"Dennis Praet",
         "firstName":"Dennis",
         "lastName":"Praet",
         "playerId":106413,
         "positionText":"Midfielder",
         "teamId":271,
         "teamName":"Sampdoria",
         "seasonId":7468,
         "seasonName":"2018/2019",
         "isOpta":true,
         "tournamentId":5,
         "tournamentRegionId":108,
         "tournamentRegionCode":"it",
         "tournamentRegionName":"Italy",
         "tournamentName":"Serie A",
         "rating":6.998,
         "minsPlayed":1242,
         "keyPassLong":0.28985507246,
         "keyPassShort":0.72463768114999993,
         "keyPassesTotal":1.01449275361,
         "ranking":148
      },
      {
         "height":0,
         "weight":0,
         "age":18,
         "isManOfTheMatch":false,
         "isActive":true,
         "playedPositions":"-MC-",
         "playedPositionsShort":"M(C)",
         "teamRegionName":"Italy",
         "regionCode":null,
         "tournamentShortName":"ISA",
         "apps":11,
         "subOn":0,
         "name":"Hamed Junior Traore",
         "firstName":"Hamed Junior",
         "lastName":"Traore",
         "playerId":362551,
         "positionText":"Midfielder",
         "teamId":272,
         "teamName":"Empoli",
         "seasonId":7468,
         "seasonName":"2018/2019",
         "isOpta":true,
         "tournamentId":5,
         "tournamentRegionId":108,
         "tournamentRegionCode":"it",
         "tournamentRegionName":"Italy",
         "tournamentName":"Serie A",
         "rating":6.5827272727272721,
         "minsPlayed":888,
         "keyPassLong":0.0,
         "keyPassShort":1.01351351351,
         "keyPassesTotal":1.01351351351,
         "ranking":149
      },
      {
         "height":186,
         "weight":88,
         "age":24,
         "isManOfTheMatch":false,
         "isActive":true,
         "playedPositions":"-DMC-",
         "playedPositionsShort":"DMC",
         "teamRegionName":"France",
         "regionCode":"fr",
         "tournamentShortName":"FL1",
         "apps":12,
         "subOn":0,
         "name":"Abdoulaye Touré",
         "firstName":"Abdoulaye",
         "lastName":"Touré",
         "playerId":128880,
         "positionText":"Midfielder",
         "teamId":302,
         "teamName":"Nantes",
         "seasonId":7344,
         "seasonName":"2018/2019",
         "isOpta":true,
         "tournamentId":22,
         "tournamentRegionId":74,
         "tournamentRegionCode":"fr",
         "tournamentRegionName":"France",
         "tournamentName":"Ligue 1",
         "rating":7.0166666666666666,
         "minsPlayed":1068,
         "keyPassLong":0.084269662921,
         "keyPassShort":0.9269662921309999,
         "keyPassesTotal":1.0112359550519998,
         "ranking":150
      }
   ],
   "paging":{
      "currentPage":15,
      "totalPages":25,
      "resultsPerPage":10,
      "totalResults":246,
      "firstRecordIndex":141,
      "lastRecordIndex":150
   },
   "statColumns":[
      "apps",
      "subOn",
      "minsPlayed",
      "keyPassesTotal",
      "keyPassLong",
      "keyPassShort"
   ]
}