{
   "playerTableStats":[
      {
         "ranking":11,
         "seasonId":7361,
         "seasonName":"2018/2019",
         "tournamentId":2,
         "tournamentRegionId":252,
         "tournamentRegionCode":"gb-eng",
         "tournamentRegionName":"England",
         "regionCode":"gb-sct",
         "tournamentName":"Premier League",
         "tournamentShortName":"EPL",
         "firstName":"Ryan",
         "lastName":"Fraser",
         "playerId":93160,
         "isActive":true,
         "isOpta":true,
         "teamId":183,
         "teamName":"Bournemouth",
         "teamRegionName":"England",
         "playedPositions":"-MC-ML-MR-",
         "age":24,
         "height":163,
         "weight":70,
         "positionText":"Midfielder",
         "apps":18,
         "subOn":0,
         "minsPlayed":1537,
         "rating":7.1494444444444447,
         "isManOfTheMatch":false,
         "playedPositionsShort":"M(CLR)",
         "name":"Ryan Fraser",
         "keyPassLong":0.527000650614,
         "keyPassShort":2.225113858148,
         "keyPassesTotal":2.7521145087620003
      },
      {
         "ranking":12,
         "seasonId":7361,
         "seasonName":"2018/2019",
         "tournamentId":2,
         "tournamentRegionId":252,
         "tournamentRegionCode":"gb-eng",
         "tournamentRegionName":"England",
         "regionCode":"gb-eng",
         "tournamentName":"Premier League",
         "tournamentShortName":"EPL",
         "firstName":"James",
         "lastName":"Maddison",
         "playerId":137015,
         "isActive":true,
         "isOpta":true,
         "teamId":14,
         "teamName":"Leicester",
         "teamRegionName":"England",
         "playedPositions":"-AMC-AML-AMR-",
         "age":22,
         "height":175,
         "weight":73,
         "positionText":"Midfielder",
         "apps":19,
         "subOn":0,
         "minsPlayed":1487,
         "rating":7.1484210526315772,
         "isManOfTheMatch":false,
         "playedPositionsShort":"AM(CLR)",
         "name":"James Maddison",
         "keyPassLong":1.0894418291699999,
         "keyPassShort":1.634162743755,
         "keyPassesTotal":2.723604572925
      },
      {
         "ranking":13,
         "seasonId":7344,
         "seasonName":"2018/2019",
         "tournamentId":22,
         "tournamentRegionId":74,
         "tournamentRegionCode":"fr",
         "tournamentRegionName":"France",
         "regionCode":"fr",
         "tournamentName":"Ligue 1",
         "tournamentShortName":"FL1",
         "firstName":"Téji",
         "lastName":"Savanier",
         "playerId":234377,
         "isActive":true,
         "isOpta":true,
         "teamId":245,
         "teamName":"Nimes",
         "teamRegionName":"France",
         "playedPositions":"-MC-",
         "age":27,
         "height":171,
         "weight":62,
         "positionText":"Midfielder",
         "apps":13,
         "subOn":0,
         "minsPlayed":1170,
         "rating":7.7476923076923088,
         "isManOfTheMatch":false,
         "playedPositionsShort":"M(C)",
         "name":"Téji Savanier",
         "keyPassLong":0.999999999999,
         "keyPassShort":1.692307692306,
         "keyPassesTotal":2.692307692305
      },
      {
         "ranking":14,
         "seasonId":7468,
         "seasonName":"2018/2019",
         "tournamentId":5,
         "tournamentRegionId":108,
         "tournamentRegionCode":"it",
         "tournamentRegionName":"Italy",
         "regionCode":"fr",
         "tournamentName":"Serie A",
         "tournamentShortName":"ISA",
         "firstName":"Jordan",
         "lastName":"Veretout",
         "playerId":101017,
         "isActive":true,
         "isOpta":true,
         "teamId":73,
         "teamName":"Fiorentina",
         "teamRegionName":"Italy",
         "playedPositions":"-MC-",
         "age":25,
         "height":177,
         "weight":67,
         "positionText":"Midfielder",
         "apps":16,
         "subOn":0,
         "minsPlayed":1414,
         "rating":7.164375,
         "isManOfTheMatch":false,
         "playedPositionsShort":"M(C)",
         "name":"Jordan Veretout",
         "keyPassLong":0.95473833097499994,
         "keyPassShort":1.7185289957549998,
         "keyPassesTotal":2.6732673267299996
      },
      {
         "ranking":15,
         "seasonId":7361,
         "seasonName":"2018/2019",
         "tournamentId":2,
         "tournamentRegionId":252,
         "tournamentRegionCode":"gb-eng",
         "tournamentRegionName":"England",
         "regionCode":"gb-eng",
         "tournamentName":"Premier League",
         "tournamentShortName":"EPL",
         "firstName":"Raheem",
         "lastName":"Sterling",
         "playerId":97692,
         "isActive":true,
         "isOpta":true,
         "teamId":167,
         "teamName":"Manchester City",
         "teamRegionName":"England",
         "playedPositions":"-FW-MC-ML-MR-",
         "age":24,
         "height":170,
         "weight":69,
         "positionText":"Forward",
         "apps":16,
         "subOn":0,
         "minsPlayed":1365,
         "rating":7.713125,
         "isManOfTheMatch":false,
         "playedPositionsShort":"M(CLR),FW",
         "name":"Raheem Sterling",
         "keyPassLong":0.065934065934,
         "keyPassShort":2.505494505492,
         "keyPassesTotal":2.571428571426
      },
      {
         "ranking":16,
         "seasonId":7361,
         "seasonName":"2018/2019",
         "tournamentId":2,
         "tournamentRegionId":252,
         "tournamentRegionCode":"gb-eng",
         "tournamentRegionName":"England",
         "regionCode":"ci",
         "tournamentName":"Premier League",
         "tournamentShortName":"EPL",
         "firstName":"Jean Michael",
         "lastName":"Seri",
         "playerId":136262,
         "isActive":true,
         "isOpta":true,
         "teamId":170,
         "teamName":"Fulham",
         "teamRegionName":"England",
         "playedPositions":"-MC-",
         "age":27,
         "height":168,
         "weight":65,
         "positionText":"Midfielder",
         "apps":19,
         "subOn":0,
         "minsPlayed":1517,
         "rating":6.5642105263157893,
         "isManOfTheMatch":false,
         "playedPositionsShort":"M(C)",
         "name":"Jean Michael Seri",
         "keyPassLong":0.889914304545,
         "keyPassShort":1.661173368484,
         "keyPassesTotal":2.551087673029
      },
      {
         "ranking":17,
         "seasonId":7405,
         "seasonName":"2018/2019",
         "tournamentId":3,
         "tournamentRegionId":81,
         "tournamentRegionCode":"de",
         "tournamentRegionName":"Germany",
         "regionCode":"at",
         "tournamentName":"Bundesliga",
         "tournamentShortName":"GB",
         "firstName":"Kevin",
         "lastName":"Stöger",
         "playerId":104011,
         "isActive":true,
         "isOpta":true,
         "teamId":1150,
         "teamName":"Fortuna Duesseldorf",
         "teamRegionName":"Germany",
         "playedPositions":"-AMC-AML-",
         "age":25,
         "height":175,
         "weight":73,
         "positionText":"Midfielder",
         "apps":10,
         "subOn":0,
         "minsPlayed":852,
         "rating":7.0210000000000008,
         "isManOfTheMatch":false,
         "playedPositionsShort":"AM(CL)",
         "name":"Kevin Stöger",
         "keyPassLong":0.739436619712,
         "keyPassShort":1.795774647872,
         "keyPassesTotal":2.535211267584
      },
      {
         "ranking":18,
         "seasonId":7361,
         "seasonName":"2018/2019",
         "tournamentId":2,
         "tournamentRegionId":252,
         "tournamentRegionCode":"gb-eng",
         "tournamentRegionName":"England",
         "regionCode":"dk",
         "tournamentName":"Premier League",
         "tournamentShortName":"EPL",
         "firstName":"Christian",
         "lastName":"Eriksen",
         "playerId":69344,
         "isActive":true,
         "isOpta":true,
         "teamId":30,
         "teamName":"Tottenham",
         "teamRegionName":"England",
         "playedPositions":"-MC-ML-MR-",
         "age":26,
         "height":182,
         "weight":76,
         "positionText":"Midfielder",
         "apps":13,
         "subOn":0,
         "minsPlayed":1153,
         "rating":7.38,
         "isManOfTheMatch":false,
         "playedPositionsShort":"M(CLR)",
         "name":"Christian Eriksen",
         "keyPassLong":0.468343451862,
         "keyPassShort":1.9514310494249998,
         "keyPassesTotal":2.419774501287
      },
      {
         "ranking":19,
         "seasonId":7466,
         "seasonName":"2018/2019",
         "tournamentId":4,
         "tournamentRegionId":206,
         "tournamentRegionCode":"es",
         "tournamentRegionName":"Spain",
         "regionCode":"fr",
         "tournamentName":"La Liga",
         "tournamentShortName":"SLL",
         "firstName":"Ousmane",
         "lastName":"Dembélé",
         "playerId":299513,
         "isActive":true,
         "isOpta":true,
         "teamId":65,
         "teamName":"Barcelona",
         "teamRegionName":"Spain",
         "playedPositions":"-AMC-AML-AMR-",
         "age":21,
         "height":178,
         "weight":67,
         "positionText":"Forward",
         "apps":11,
         "subOn":0,
         "minsPlayed":827,
         "rating":7.6854545454545447,
         "isManOfTheMatch":false,
         "playedPositionsShort":"AM(CLR)",
         "name":"Ousmane Dembélé",
         "keyPassLong":0.326481257556,
         "keyPassShort":2.067714631188,
         "keyPassesTotal":2.394195888744
      },
      {
         "ranking":20,
         "seasonId":7344,
         "seasonName":"2018/2019",
         "tournamentId":22,
         "tournamentRegionId":74,
         "tournamentRegionCode":"fr",
         "tournamentRegionName":"France",
         "regionCode":"fr",
         "tournamentName":"Ligue 1",
         "tournamentShortName":"FL1",
         "firstName":"Nicolas",
         "lastName":"Benezet",
         "playerId":93147,
         "isActive":true,
         "isOpta":true,
         "teamId":426,
         "teamName":"Guingamp",
         "teamRegionName":"France",
         "playedPositions":"-AMC-AML-AMR-",
         "age":27,
         "height":170,
         "weight":65,
         "positionText":"Midfielder",
         "apps":13,
         "subOn":0,
         "minsPlayed":1069,
         "rating":6.9976923076923088,
         "isManOfTheMatch":false,
         "playedPositionsShort":"AM(CLR)",
         "name":"Nicolas Benezet",
         "keyPassLong":0.589335827871,
         "keyPassShort":1.768007483613,
         "keyPassesTotal":2.357343311484
      }
   ],
   "paging":{
      "currentPage":2,
      "totalPages":25,
      "resultsPerPage":10,
      "totalResults":246,
      "firstRecordIndex":11,
      "lastRecordIndex":20
   },
   "statColumns":[
      "apps",
      "subOn",
      "minsPlayed",
      "keyPassesTotal",
      "keyPassLong",
      "keyPassShort"
   ]
}