{
   "playerTableStats":[
      {
         "ranking":21,
         "seasonId":7361,
         "seasonName":"2018/2019",
         "tournamentId":2,
         "tournamentRegionId":252,
         "tournamentRegionCode":"gb-eng",
         "tournamentRegionName":"England",
         "regionCode":"eg",
         "tournamentName":"Premier League",
         "tournamentShortName":"EPL",
         "firstName":"Mohamed",
         "lastName":"Salah Ghaly",
         "playerId":108226,
         "isActive":true,
         "isOpta":true,
         "teamId":26,
         "teamName":"Liverpool",
         "teamRegionName":"England",
         "playedPositions":"-AMC-AML-AMR-FW-",
         "age":26,
         "height":175,
         "weight":71,
         "positionText":"Forward",
         "apps":10,
         "subOn":0,
         "minsPlayed":854,
         "rating":7.2870000000000008,
         "isManOfTheMatch":false,
         "playedPositionsShort":"AM(CLR),FW",
         "name":"Mohamed Salah",
         "keyPassLong":0.105386416861,
         "keyPassShort":2.213114754081,
         "keyPassesTotal":2.318501170942
      },
      {
         "ranking":22,
         "seasonId":7361,
         "seasonName":"2018/2019",
         "tournamentId":2,
         "tournamentRegionId":252,
         "tournamentRegionCode":"gb-eng",
         "tournamentRegionName":"England",
         "regionCode":"fr",
         "tournamentName":"Premier League",
         "tournamentShortName":"EPL",
         "firstName":"Anthony",
         "lastName":"Martial",
         "playerId":122366,
         "isActive":true,
         "isOpta":true,
         "teamId":32,
         "teamName":"Manchester United",
         "teamRegionName":"England",
         "playedPositions":"-AML-AMR-FW-",
         "age":23,
         "height":181,
         "weight":76,
         "positionText":"Forward",
         "apps":10,
         "subOn":0,
         "minsPlayed":826,
         "rating":7.253,
         "isManOfTheMatch":false,
         "playedPositionsShort":"AM(LR),FW",
         "name":"Anthony Martial",
         "keyPassLong":0.0,
         "keyPassShort":2.288135593212,
         "keyPassesTotal":2.288135593212
      },
      {
         "ranking":23,
         "seasonId":7344,
         "seasonName":"2018/2019",
         "tournamentId":22,
         "tournamentRegionId":74,
         "tournamentRegionCode":"fr",
         "tournamentRegionName":"France",
         "regionCode":"br",
         "tournamentName":"Ligue 1",
         "tournamentShortName":"FL1",
         "firstName":"Thiago Henrique",
         "lastName":"Mendes Ribeiro",
         "playerId":117776,
         "isActive":true,
         "isOpta":true,
         "teamId":607,
         "teamName":"Lille",
         "teamRegionName":"France",
         "playedPositions":"-DR-MC-MR-",
         "age":26,
         "height":176,
         "weight":78,
         "positionText":"Midfielder",
         "apps":17,
         "subOn":0,
         "minsPlayed":1479,
         "rating":7.2258823529411762,
         "isManOfTheMatch":false,
         "playedPositionsShort":"D(R),M(CR)",
         "name":"Thiago Mendes",
         "keyPassLong":1.034482758609,
         "keyPassShort":1.21703853954,
         "keyPassesTotal":2.251521298149
      },
      {
         "ranking":24,
         "seasonId":7344,
         "seasonName":"2018/2019",
         "tournamentId":22,
         "tournamentRegionId":74,
         "tournamentRegionCode":"fr",
         "tournamentRegionName":"France",
         "regionCode":"fr",
         "tournamentName":"Ligue 1",
         "tournamentShortName":"FL1",
         "firstName":"Wylan",
         "lastName":"Cyprien",
         "playerId":123873,
         "isActive":true,
         "isOpta":true,
         "teamId":613,
         "teamName":"Nice",
         "teamRegionName":"France",
         "playedPositions":"-AMC-",
         "age":23,
         "height":180,
         "weight":75,
         "positionText":"Midfielder",
         "apps":15,
         "subOn":0,
         "minsPlayed":1321,
         "rating":6.9386666666666654,
         "isManOfTheMatch":false,
         "playedPositionsShort":"AM(C)",
         "name":"Wylan Cyprien",
         "keyPassLong":0.88569265707000011,
         "keyPassShort":1.3626040878,
         "keyPassesTotal":2.24829674487
      },
      {
         "ranking":25,
         "seasonId":7466,
         "seasonName":"2018/2019",
         "tournamentId":4,
         "tournamentRegionId":206,
         "tournamentRegionCode":"es",
         "tournamentRegionName":"Spain",
         "regionCode":"es",
         "tournamentName":"La Liga",
         "tournamentShortName":"SLL",
         "firstName":"Brais",
         "lastName":"Méndez",
         "playerId":344542,
         "isActive":true,
         "isOpta":true,
         "teamId":62,
         "teamName":"Celta Vigo",
         "teamRegionName":"Spain",
         "playedPositions":"-AMC-AMR-",
         "age":22,
         "height":187,
         "weight":76,
         "positionText":"Midfielder",
         "apps":13,
         "subOn":0,
         "minsPlayed":1121,
         "rating":7.5053846153846147,
         "isManOfTheMatch":false,
         "playedPositionsShort":"AM(CR)",
         "name":"Brais Méndez",
         "keyPassLong":0.160570918822,
         "keyPassShort":2.087421944686,
         "keyPassesTotal":2.247992863508
      },
      {
         "ranking":26,
         "seasonId":7361,
         "seasonName":"2018/2019",
         "tournamentId":2,
         "tournamentRegionId":252,
         "tournamentRegionCode":"gb-eng",
         "tournamentRegionName":"England",
         "regionCode":"de",
         "tournamentName":"Premier League",
         "tournamentShortName":"EPL",
         "firstName":"Leroy",
         "lastName":"Sané",
         "playerId":144711,
         "isActive":true,
         "isOpta":true,
         "teamId":167,
         "teamName":"Manchester City",
         "teamRegionName":"England",
         "playedPositions":"-MC-ML-MR-",
         "age":23,
         "height":183,
         "weight":75,
         "positionText":"Forward",
         "apps":13,
         "subOn":0,
         "minsPlayed":1090,
         "rating":7.9461538461538472,
         "isManOfTheMatch":false,
         "playedPositionsShort":"M(CLR)",
         "name":"Leroy Sané",
         "keyPassLong":0.330275229356,
         "keyPassShort":1.899082568797,
         "keyPassesTotal":2.229357798153
      },
      {
         "ranking":27,
         "seasonId":7466,
         "seasonName":"2018/2019",
         "tournamentId":4,
         "tournamentRegionId":206,
         "tournamentRegionCode":"es",
         "tournamentRegionName":"Spain",
         "regionCode":"es",
         "tournamentName":"La Liga",
         "tournamentShortName":"SLL",
         "firstName":"Pablo",
         "lastName":"Sarabia",
         "playerId":94868,
         "isActive":true,
         "isOpta":true,
         "teamId":67,
         "teamName":"Sevilla",
         "teamRegionName":"Spain",
         "playedPositions":"-DL-MC-ML-MR-",
         "age":26,
         "height":178,
         "weight":70,
         "positionText":"Midfielder",
         "apps":16,
         "subOn":0,
         "minsPlayed":1380,
         "rating":7.1850000000000005,
         "isManOfTheMatch":false,
         "playedPositionsShort":"D(L),M(CLR)",
         "name":"Pablo Sarabia",
         "keyPassLong":0.260869565216,
         "keyPassShort":1.9565217391200003,
         "keyPassesTotal":2.217391304336
      },
      {
         "ranking":28,
         "seasonId":7468,
         "seasonName":"2018/2019",
         "tournamentId":5,
         "tournamentRegionId":108,
         "tournamentRegionCode":"it",
         "tournamentRegionName":"Italy",
         "regionCode":"it",
         "tournamentName":"Serie A",
         "tournamentShortName":"ISA",
         "firstName":"Stefano",
         "lastName":"Sensi",
         "playerId":136306,
         "isActive":true,
         "isOpta":true,
         "teamId":2889,
         "teamName":"Sassuolo",
         "teamRegionName":"Italy",
         "playedPositions":"-MC-",
         "age":23,
         "height":168,
         "weight":62,
         "positionText":"Midfielder",
         "apps":10,
         "subOn":0,
         "minsPlayed":799,
         "rating":7.0409999999999995,
         "isManOfTheMatch":false,
         "playedPositionsShort":"M(C)",
         "name":"Stefano Sensi",
         "keyPassLong":1.013767209009,
         "keyPassShort":1.12640801001,
         "keyPassesTotal":2.140175219019
      },
      {
         "ranking":29,
         "seasonId":7466,
         "seasonName":"2018/2019",
         "tournamentId":4,
         "tournamentRegionId":206,
         "tournamentRegionCode":"es",
         "tournamentRegionName":"Spain",
         "regionCode":"es",
         "tournamentName":"La Liga",
         "tournamentShortName":"SLL",
         "firstName":"Adrián",
         "lastName":"Embarba",
         "playerId":135572,
         "isActive":true,
         "isOpta":true,
         "teamId":64,
         "teamName":"Rayo Vallecano",
         "teamRegionName":"Spain",
         "playedPositions":"-AML-AMR-",
         "age":26,
         "height":173,
         "weight":66,
         "positionText":"Forward",
         "apps":10,
         "subOn":0,
         "minsPlayed":802,
         "rating":7.0980000000000008,
         "isManOfTheMatch":false,
         "playedPositionsShort":"AM(LR)",
         "name":"Adrián Embarba",
         "keyPassLong":0.897755610968,
         "keyPassShort":1.234413965081,
         "keyPassesTotal":2.132169576049
      },
      {
         "ranking":30,
         "seasonId":7344,
         "seasonName":"2018/2019",
         "tournamentId":22,
         "tournamentRegionId":74,
         "tournamentRegionCode":"fr",
         "tournamentRegionName":"France",
         "regionCode":"fr",
         "tournamentName":"Ligue 1",
         "tournamentShortName":"FL1",
         "firstName":"Nabil",
         "lastName":"Fekir",
         "playerId":134893,
         "isActive":true,
         "isOpta":true,
         "teamId":228,
         "teamName":"Lyon",
         "teamRegionName":"France",
         "playedPositions":"-AMC-AMR-FW-",
         "age":25,
         "height":173,
         "weight":72,
         "positionText":"Forward",
         "apps":10,
         "subOn":0,
         "minsPlayed":728,
         "rating":7.297,
         "isManOfTheMatch":false,
         "playedPositionsShort":"AM(CR),FW",
         "name":"Nabil Fekir",
         "keyPassLong":0.247252747252,
         "keyPassShort":1.85439560439,
         "keyPassesTotal":2.101648351642
      }
   ],
   "paging":{
      "currentPage":3,
      "totalPages":25,
      "resultsPerPage":10,
      "totalResults":246,
      "firstRecordIndex":21,
      "lastRecordIndex":30
   },
   "statColumns":[
      "apps",
      "subOn",
      "minsPlayed",
      "keyPassesTotal",
      "keyPassLong",
      "keyPassShort"
   ]
}