{
   "playerTableStats":[
      {
         "height":185,
         "weight":82,
         "age":26,
         "isManOfTheMatch":false,
         "isActive":true,
         "playedPositions":"-MC-",
         "playedPositionsShort":"M(C)",
         "teamRegionName":"England",
         "regionCode":"ch",
         "tournamentShortName":"EPL",
         "apps":18,
         "subOn":0,
         "name":"Granit Xhaka",
         "firstName":"Granit",
         "lastName":"Xhaka",
         "playerId":89401,
         "positionText":"Midfielder",
         "teamId":13,
         "teamName":"Arsenal",
         "seasonId":7361,
         "seasonName":"2018/2019",
         "isOpta":true,
         "tournamentId":2,
         "tournamentRegionId":252,
         "tournamentRegionCode":"gb-eng",
         "tournamentRegionName":"England",
         "tournamentName":"Premier League",
         "rating":7.1394444444444458,
         "minsPlayed":1556,
         "keyPassLong":0.520565552694,
         "keyPassShort":0.809768637524,
         "keyPassesTotal":1.330334190218,
         "ranking":101
      },
      {
         "height":183,
         "weight":75,
         "age":20,
         "isManOfTheMatch":false,
         "isActive":true,
         "playedPositions":"-AML-",
         "playedPositionsShort":"AM(L)",
         "teamRegionName":"Germany",
         "regionCode":"dk",
         "tournamentShortName":"GB",
         "apps":11,
         "subOn":0,
         "name":"Jacob Bruun Larsen",
         "firstName":"Jacob",
         "lastName":"Bruun Larsen",
         "playerId":307202,
         "positionText":"Forward",
         "teamId":44,
         "teamName":"Borussia Dortmund",
         "seasonId":7405,
         "seasonName":"2018/2019",
         "isOpta":true,
         "tournamentId":3,
         "tournamentRegionId":81,
         "tournamentRegionCode":"de",
         "tournamentRegionName":"Germany",
         "tournamentName":"Bundesliga",
         "rating":6.9572727272727262,
         "minsPlayed":819,
         "keyPassLong":0.21978021978,
         "keyPassShort":1.0989010989,
         "keyPassesTotal":1.3186813186800002,
         "ranking":102
      },
      {
         "height":187,
         "weight":78,
         "age":24,
         "isManOfTheMatch":false,
         "isActive":true,
         "playedPositions":"-DMC-",
         "playedPositionsShort":"DMC",
         "teamRegionName":"Germany",
         "regionCode":"dz",
         "tournamentShortName":"GB",
         "apps":14,
         "subOn":0,
         "name":"Nabil Bentaleb",
         "firstName":"Nabil",
         "lastName":"Bentaleb",
         "playerId":137521,
         "positionText":"Midfielder",
         "teamId":39,
         "teamName":"Schalke 04",
         "seasonId":7405,
         "seasonName":"2018/2019",
         "isOpta":true,
         "tournamentId":3,
         "tournamentRegionId":81,
         "tournamentRegionCode":"de",
         "tournamentRegionName":"Germany",
         "tournamentName":"Bundesliga",
         "rating":7.1142857142857139,
         "minsPlayed":1167,
         "keyPassLong":0.539845758354,
         "keyPassShort":0.77120822622,
         "keyPassesTotal":1.311053984574,
         "ranking":103
      },
      {
         "height":180,
         "weight":71,
         "age":24,
         "isManOfTheMatch":false,
         "isActive":true,
         "playedPositions":"-AML-",
         "playedPositionsShort":"AM(L)",
         "teamRegionName":"France",
         "regionCode":"fr",
         "tournamentShortName":"FL1",
         "apps":13,
         "subOn":0,
         "name":"Denis Bouanga",
         "firstName":"Denis",
         "lastName":"Bouanga",
         "playerId":249857,
         "positionText":"Midfielder",
         "teamId":245,
         "teamName":"Nimes",
         "seasonId":7344,
         "seasonName":"2018/2019",
         "isOpta":true,
         "tournamentId":22,
         "tournamentRegionId":74,
         "tournamentRegionCode":"fr",
         "tournamentRegionName":"France",
         "tournamentName":"Ligue 1",
         "rating":6.93076923076923,
         "minsPlayed":1102,
         "keyPassLong":0.16333938294,
         "keyPassShort":1.14337568058,
         "keyPassesTotal":1.30671506352,
         "ranking":104
      },
      {
         "height":184,
         "weight":82,
         "age":26,
         "isManOfTheMatch":false,
         "isActive":true,
         "playedPositions":"-AML-AMR-FW-",
         "playedPositionsShort":"AM(LR),FW",
         "teamRegionName":"Germany",
         "regionCode":"rs",
         "tournamentShortName":"GB",
         "apps":14,
         "subOn":0,
         "name":"Filip Kostic",
         "firstName":"Filip",
         "lastName":"Kostic",
         "playerId":105995,
         "positionText":"Midfielder",
         "teamId":45,
         "teamName":"Eintracht Frankfurt",
         "seasonId":7405,
         "seasonName":"2018/2019",
         "isOpta":true,
         "tournamentId":3,
         "tournamentRegionId":81,
         "tournamentRegionCode":"de",
         "tournamentRegionName":"Germany",
         "tournamentName":"Bundesliga",
         "rating":7.232857142857144,
         "minsPlayed":1245,
         "keyPassLong":0.072289156626,
         "keyPassShort":1.228915662642,
         "keyPassesTotal":1.301204819268,
         "ranking":105
      },
      {
         "height":173,
         "weight":69,
         "age":24,
         "isManOfTheMatch":false,
         "isActive":true,
         "playedPositions":"-AMC-AML-AMR-FW-",
         "playedPositionsShort":"AM(CLR),FW",
         "teamRegionName":"England",
         "regionCode":"gb-eng",
         "tournamentShortName":"EPL",
         "apps":19,
         "subOn":0,
         "name":"Nathan Redmond",
         "firstName":"Nathan",
         "lastName":"Redmond",
         "playerId":86425,
         "positionText":"Midfielder",
         "teamId":18,
         "teamName":"Southampton",
         "seasonId":7361,
         "seasonName":"2018/2019",
         "isOpta":true,
         "tournamentId":2,
         "tournamentRegionId":252,
         "tournamentRegionCode":"gb-eng",
         "tournamentRegionName":"England",
         "tournamentName":"Premier League",
         "rating":6.7710526315789465,
         "minsPlayed":1666,
         "keyPassLong":0.162064825929,
         "keyPassShort":1.134453781503,
         "keyPassesTotal":1.296518607432,
         "ranking":106
      },
      {
         "height":175,
         "weight":72,
         "age":22,
         "isManOfTheMatch":false,
         "isActive":true,
         "playedPositions":"-AML-AMR-FW-",
         "playedPositionsShort":"AM(LR),FW",
         "teamRegionName":"France",
         "regionCode":"fr",
         "tournamentShortName":"FL1",
         "apps":17,
         "subOn":0,
         "name":"Jonathan Bamba",
         "firstName":"Jonathan",
         "lastName":"Bamba",
         "playerId":241019,
         "positionText":"Midfielder",
         "teamId":607,
         "teamName":"Lille",
         "seasonId":7344,
         "seasonName":"2018/2019",
         "isOpta":true,
         "tournamentId":22,
         "tournamentRegionId":74,
         "tournamentRegionCode":"fr",
         "tournamentRegionName":"France",
         "tournamentName":"Ligue 1",
         "rating":7.0823529411764694,
         "minsPlayed":1463,
         "keyPassLong":0.430622009566,
         "keyPassShort":0.861244019132,
         "keyPassesTotal":1.291866028698,
         "ranking":107
      },
      {
         "height":175,
         "weight":70,
         "age":20,
         "isManOfTheMatch":false,
         "isActive":true,
         "playedPositions":"-MC-ML-",
         "playedPositionsShort":"M(CL)",
         "teamRegionName":"France",
         "regionCode":"fr",
         "tournamentShortName":"FL1",
         "apps":16,
         "subOn":0,
         "name":"Houssem Aouar",
         "firstName":"Houssem",
         "lastName":"Aouar",
         "playerId":322096,
         "positionText":"Midfielder",
         "teamId":228,
         "teamName":"Lyon",
         "seasonId":7344,
         "seasonName":"2018/2019",
         "isOpta":true,
         "tournamentId":22,
         "tournamentRegionId":74,
         "tournamentRegionCode":"fr",
         "tournamentRegionName":"France",
         "tournamentName":"Ligue 1",
         "rating":7.3362500000000015,
         "minsPlayed":1396,
         "keyPassLong":0.06446991404,
         "keyPassShort":1.2249283667600002,
         "keyPassesTotal":1.2893982808000002,
         "ranking":108
      },
      {
         "height":178,
         "weight":75,
         "age":27,
         "isManOfTheMatch":false,
         "isActive":true,
         "playedPositions":"-MC-",
         "playedPositionsShort":"M(C)",
         "teamRegionName":"Spain",
         "regionCode":"es",
         "tournamentShortName":"SLL",
         "apps":15,
         "subOn":0,
         "name":"Manu Trigueros",
         "firstName":"Manuel",
         "lastName":"Trigueros Muñoz",
         "playerId":102234,
         "positionText":"Midfielder",
         "teamId":839,
         "teamName":"Villarreal",
         "seasonId":7466,
         "seasonName":"2018/2019",
         "isOpta":true,
         "tournamentId":4,
         "tournamentRegionId":206,
         "tournamentRegionCode":"es",
         "tournamentRegionName":"Spain",
         "tournamentName":"La Liga",
         "rating":6.76,
         "minsPlayed":1190,
         "keyPassLong":0.2268907563,
         "keyPassShort":1.0588235294000001,
         "keyPassesTotal":1.2857142857000001,
         "ranking":109
      },
      {
         "height":175,
         "weight":69,
         "age":26,
         "isManOfTheMatch":false,
         "isActive":true,
         "playedPositions":"-AMC-AML-AMR-",
         "playedPositionsShort":"AM(CLR)",
         "teamRegionName":"England",
         "regionCode":"sn",
         "tournamentShortName":"EPL",
         "apps":18,
         "subOn":0,
         "name":"Sadio Mané",
         "firstName":"Sadio",
         "lastName":"Mané",
         "playerId":109915,
         "positionText":"Forward",
         "teamId":26,
         "teamName":"Liverpool",
         "seasonId":7361,
         "seasonName":"2018/2019",
         "isOpta":true,
         "tournamentId":2,
         "tournamentRegionId":252,
         "tournamentRegionCode":"gb-eng",
         "tournamentRegionName":"England",
         "tournamentName":"Premier League",
         "rating":7.3716666666666661,
         "minsPlayed":1552,
         "keyPassLong":0.115979381442,
         "keyPassShort":1.15979381442,
         "keyPassesTotal":1.275773195862,
         "ranking":110
      }
   ],
   "paging":{
      "currentPage":11,
      "totalPages":25,
      "resultsPerPage":10,
      "totalResults":246,
      "firstRecordIndex":101,
      "lastRecordIndex":110
   },
   "statColumns":[
      "apps",
      "subOn",
      "minsPlayed",
      "keyPassesTotal",
      "keyPassLong",
      "keyPassShort"
   ]
}