{
   "playerTableStats":[
      {
         "height":179,
         "weight":70,
         "age":25,
         "isManOfTheMatch":false,
         "isActive":true,
         "playedPositions":"-AMC-AML-AMR-",
         "playedPositionsShort":"AM(CLR)",
         "teamRegionName":"France",
         "regionCode":"fr",
         "tournamentShortName":"FL1",
         "apps":14,
         "subOn":0,
         "name":"Florian Thauvin",
         "firstName":"Florian",
         "lastName":"Thauvin",
         "playerId":99143,
         "positionText":"Midfielder",
         "teamId":249,
         "teamName":"Marseille",
         "seasonId":7344,
         "seasonName":"2018/2019",
         "isOpta":true,
         "tournamentId":22,
         "tournamentRegionId":74,
         "tournamentRegionCode":"fr",
         "tournamentRegionName":"France",
         "tournamentName":"Ligue 1",
         "rating":7.3071428571428569,
         "minsPlayed":1195,
         "keyPassLong":0.150627615062,
         "keyPassShort":1.280334728027,
         "keyPassesTotal":1.4309623430890002,
         "ranking":91
      },
      {
         "height":185,
         "weight":75,
         "age":21,
         "isManOfTheMatch":false,
         "isActive":true,
         "playedPositions":"-MC-",
         "playedPositionsShort":"M(C)",
         "teamRegionName":"Italy",
         "regionCode":"it",
         "tournamentShortName":"ISA",
         "apps":10,
         "subOn":0,
         "name":"Manuel Locatelli",
         "firstName":"Manuel",
         "lastName":"Locatelli",
         "playerId":273539,
         "positionText":"Midfielder",
         "teamId":2889,
         "teamName":"Sassuolo",
         "seasonId":7468,
         "seasonName":"2018/2019",
         "isOpta":true,
         "tournamentId":5,
         "tournamentRegionId":108,
         "tournamentRegionCode":"it",
         "tournamentRegionName":"Italy",
         "tournamentName":"Serie A",
         "rating":6.8459999999999992,
         "minsPlayed":819,
         "keyPassLong":0.43956043956,
         "keyPassShort":0.98901098901000006,
         "keyPassesTotal":1.4285714285700002,
         "ranking":92
      },
      {
         "height":181,
         "weight":68,
         "age":26,
         "isManOfTheMatch":false,
         "isActive":true,
         "playedPositions":"-MC-MR-",
         "playedPositionsShort":"M(CR)",
         "teamRegionName":"Italy",
         "regionCode":"hr",
         "tournamentShortName":"ISA",
         "apps":15,
         "subOn":0,
         "name":"Marcelo Brozovic",
         "firstName":"Marcelo",
         "lastName":"Brozovic",
         "playerId":87449,
         "positionText":"Midfielder",
         "teamId":75,
         "teamName":"Inter",
         "seasonId":7468,
         "seasonName":"2018/2019",
         "isOpta":true,
         "tournamentId":5,
         "tournamentRegionId":108,
         "tournamentRegionCode":"it",
         "tournamentRegionName":"Italy",
         "tournamentName":"Serie A",
         "rating":7.2260000000000009,
         "minsPlayed":1343,
         "keyPassLong":0.402084884586,
         "keyPassShort":1.005212211465,
         "keyPassesTotal":1.4072970960509998,
         "ranking":93
      },
      {
         "height":182,
         "weight":70,
         "age":26,
         "isManOfTheMatch":false,
         "isActive":true,
         "playedPositions":"-MC-",
         "playedPositionsShort":"M(C)",
         "teamRegionName":"Italy",
         "regionCode":"it",
         "tournamentShortName":"ISA",
         "apps":15,
         "subOn":0,
         "name":"Daniele Baselli",
         "firstName":"Daniele",
         "lastName":"Baselli",
         "playerId":83716,
         "positionText":"Midfielder",
         "teamId":72,
         "teamName":"Torino",
         "seasonId":7468,
         "seasonName":"2018/2019",
         "isOpta":true,
         "tournamentId":5,
         "tournamentRegionId":108,
         "tournamentRegionCode":"it",
         "tournamentRegionName":"Italy",
         "tournamentName":"Serie A",
         "rating":6.9500000000000011,
         "minsPlayed":1223,
         "keyPassLong":0.441537203592,
         "keyPassShort":0.95666394111600006,
         "keyPassesTotal":1.398201144708,
         "ranking":94
      },
      {
         "height":177,
         "weight":72,
         "age":25,
         "isManOfTheMatch":false,
         "isActive":true,
         "playedPositions":"-MC-ML-MR-",
         "playedPositionsShort":"M(CLR)",
         "teamRegionName":"France",
         "regionCode":"fr",
         "tournamentShortName":"FL1",
         "apps":15,
         "subOn":0,
         "name":"Adrien Thomasson",
         "firstName":"Adrien",
         "lastName":"Thomasson",
         "playerId":113747,
         "positionText":"Midfielder",
         "teamId":148,
         "teamName":"Strasbourg",
         "seasonId":7344,
         "seasonName":"2018/2019",
         "isOpta":true,
         "tournamentId":22,
         "tournamentRegionId":74,
         "tournamentRegionCode":"fr",
         "tournamentRegionName":"France",
         "tournamentName":"Ligue 1",
         "rating":6.8786666666666667,
         "minsPlayed":1240,
         "keyPassLong":0.21774193548300003,
         "keyPassShort":1.161290322576,
         "keyPassesTotal":1.379032258059,
         "ranking":95
      },
      {
         "height":181,
         "weight":77,
         "age":27,
         "isManOfTheMatch":false,
         "isActive":true,
         "playedPositions":"-AML-AMR-FW-",
         "playedPositionsShort":"AM(LR),FW",
         "teamRegionName":"England",
         "regionCode":"gb-eng",
         "tournamentShortName":"EPL",
         "apps":12,
         "subOn":0,
         "name":"Andros Townsend",
         "firstName":"Andros",
         "lastName":"Townsend",
         "playerId":71522,
         "positionText":"Midfielder",
         "teamId":162,
         "teamName":"Crystal Palace",
         "seasonId":7361,
         "seasonName":"2018/2019",
         "isOpta":true,
         "tournamentId":2,
         "tournamentRegionId":252,
         "tournamentRegionCode":"gb-eng",
         "tournamentRegionName":"England",
         "tournamentName":"Premier League",
         "rating":6.9875,
         "minsPlayed":1049,
         "keyPassLong":0.343183984744,
         "keyPassShort":1.0295519542320002,
         "keyPassesTotal":1.372735938976,
         "ranking":96
      },
      {
         "height":165,
         "weight":60,
         "age":26,
         "isManOfTheMatch":false,
         "isActive":true,
         "playedPositions":"-DMC-",
         "playedPositionsShort":"DMC",
         "teamRegionName":"France",
         "regionCode":"it",
         "tournamentShortName":"FL1",
         "apps":10,
         "subOn":0,
         "name":"Marco Verratti",
         "firstName":"Marco",
         "lastName":"Verratti",
         "playerId":91961,
         "positionText":"Midfielder",
         "teamId":304,
         "teamName":"Paris Saint-Germain",
         "seasonId":7344,
         "seasonName":"2018/2019",
         "isOpta":true,
         "tournamentId":22,
         "tournamentRegionId":74,
         "tournamentRegionCode":"fr",
         "tournamentRegionName":"France",
         "tournamentName":"Ligue 1",
         "rating":7.1129999999999995,
         "minsPlayed":787,
         "keyPassLong":0.228716645488,
         "keyPassShort":1.14358322744,
         "keyPassesTotal":1.372299872928,
         "ranking":97
      },
      {
         "height":187,
         "weight":72,
         "age":21,
         "isManOfTheMatch":false,
         "isActive":true,
         "playedPositions":"-MC-",
         "playedPositionsShort":"M(C)",
         "teamRegionName":"Italy",
         "regionCode":"uy",
         "tournamentShortName":"ISA",
         "apps":12,
         "subOn":0,
         "name":"Rodrigo Bentancur",
         "firstName":"Rodrigo",
         "lastName":"Bentancur",
         "playerId":303657,
         "positionText":"Midfielder",
         "teamId":87,
         "teamName":"Juventus",
         "seasonId":7468,
         "seasonName":"2018/2019",
         "isOpta":true,
         "tournamentId":5,
         "tournamentRegionId":108,
         "tournamentRegionCode":"it",
         "tournamentRegionName":"Italy",
         "tournamentName":"Serie A",
         "rating":7.03,
         "minsPlayed":1009,
         "keyPassLong":0.089197224975,
         "keyPassShort":1.24876114965,
         "keyPassesTotal":1.337958374625,
         "ranking":98
      },
      {
         "height":181,
         "weight":78,
         "age":21,
         "isManOfTheMatch":false,
         "isActive":true,
         "playedPositions":"-AMC-AML-AMR-",
         "playedPositionsShort":"AM(CLR)",
         "teamRegionName":"Spain",
         "regionCode":"es",
         "tournamentShortName":"SLL",
         "apps":16,
         "subOn":0,
         "name":"Mikel Oyarzabal",
         "firstName":"Mikel",
         "lastName":"Oyarzabal",
         "playerId":298839,
         "positionText":"Forward",
         "teamId":68,
         "teamName":"Real Sociedad",
         "seasonId":7466,
         "seasonName":"2018/2019",
         "isOpta":true,
         "tournamentId":4,
         "tournamentRegionId":206,
         "tournamentRegionCode":"es",
         "tournamentRegionName":"Spain",
         "tournamentName":"La Liga",
         "rating":6.8362500000000006,
         "minsPlayed":1347,
         "keyPassLong":0.467706013362,
         "keyPassShort":0.86859688195800011,
         "keyPassesTotal":1.3363028953200002,
         "ranking":99
      },
      {
         "height":187,
         "weight":80,
         "age":24,
         "isManOfTheMatch":false,
         "isActive":true,
         "playedPositions":"-AMC-",
         "playedPositionsShort":"AM(C)",
         "teamRegionName":"Italy",
         "regionCode":"fr",
         "tournamentShortName":"ISA",
         "apps":17,
         "subOn":0,
         "name":"Soualiho Meité",
         "firstName":"Soualiho",
         "lastName":"Meité",
         "playerId":105161,
         "positionText":"Midfielder",
         "teamId":72,
         "teamName":"Torino",
         "seasonId":7468,
         "seasonName":"2018/2019",
         "isOpta":true,
         "tournamentId":5,
         "tournamentRegionId":108,
         "tournamentRegionCode":"it",
         "tournamentRegionName":"Italy",
         "tournamentName":"Serie A",
         "rating":6.9382352941176473,
         "minsPlayed":1482,
         "keyPassLong":0.0,
         "keyPassShort":1.336032388658,
         "keyPassesTotal":1.336032388658,
         "ranking":100
      }
   ],
   "paging":{
      "currentPage":10,
      "totalPages":25,
      "resultsPerPage":10,
      "totalResults":246,
      "firstRecordIndex":91,
      "lastRecordIndex":100
   },
   "statColumns":[
      "apps",
      "subOn",
      "minsPlayed",
      "keyPassesTotal",
      "keyPassLong",
      "keyPassShort"
   ]
}