{
   "playerTableStats":[
      {
         "ranking":31,
         "seasonId":7468,
         "seasonName":"2018/2019",
         "tournamentId":5,
         "tournamentRegionId":108,
         "tournamentRegionCode":"it",
         "tournamentRegionName":"Italy",
         "regionCode":"si",
         "tournamentName":"Serie A",
         "tournamentShortName":"ISA",
         "firstName":"Miha",
         "lastName":"Zajc",
         "playerId":120601,
         "isActive":true,
         "isOpta":true,
         "teamId":272,
         "teamName":"Empoli",
         "teamRegionName":"Italy",
         "playedPositions":"-AMC-",
         "age":24,
         "height":180,
         "weight":76,
         "positionText":"Midfielder",
         "apps":10,
         "subOn":0,
         "minsPlayed":774,
         "rating":6.814,
         "isManOfTheMatch":false,
         "playedPositionsShort":"AM(C)",
         "name":"Miha Zajc",
         "keyPassLong":1.046511627903,
         "keyPassShort":1.046511627903,
         "keyPassesTotal":2.093023255806
      },
      {
         "ranking":32,
         "seasonId":7466,
         "seasonName":"2018/2019",
         "tournamentId":4,
         "tournamentRegionId":206,
         "tournamentRegionCode":"es",
         "tournamentRegionName":"Spain",
         "regionCode":"es",
         "tournamentName":"La Liga",
         "tournamentShortName":"SLL",
         "firstName":"Jonathan",
         "lastName":"Rodríguez Menéndez",
         "playerId":294140,
         "isActive":true,
         "isOpta":true,
         "teamId":60,
         "teamName":"Deportivo Alaves",
         "teamRegionName":"Spain",
         "playedPositions":"-AML-AMR-",
         "age":27,
         "height":179,
         "weight":76,
         "positionText":"Midfielder",
         "apps":17,
         "subOn":0,
         "minsPlayed":1436,
         "rating":6.9170588235294117,
         "isManOfTheMatch":false,
         "playedPositionsShort":"AM(LR)",
         "name":"Jony",
         "keyPassLong":0.501392757656,
         "keyPassShort":1.566852367675,
         "keyPassesTotal":2.068245125331
      },
      {
         "ranking":33,
         "seasonId":7405,
         "seasonName":"2018/2019",
         "tournamentId":3,
         "tournamentRegionId":81,
         "tournamentRegionCode":"de",
         "tournamentRegionName":"Germany",
         "regionCode":"de",
         "tournamentName":"Bundesliga",
         "tournamentShortName":"GB",
         "firstName":"Jonas",
         "lastName":"Hofmann",
         "playerId":115163,
         "isActive":true,
         "isOpta":true,
         "teamId":134,
         "teamName":"Borussia M.Gladbach",
         "teamRegionName":"Germany",
         "playedPositions":"-AMC-AML-AMR-",
         "age":26,
         "height":176,
         "weight":70,
         "positionText":"Midfielder",
         "apps":11,
         "subOn":0,
         "minsPlayed":963,
         "rating":7.1272727272727261,
         "isManOfTheMatch":false,
         "playedPositionsShort":"AM(CLR)",
         "name":"Jonas Hofmann",
         "keyPassLong":0.56074766354999994,
         "keyPassShort":1.4953271028,
         "keyPassesTotal":2.05607476635
      },
      {
         "ranking":34,
         "seasonId":7468,
         "seasonName":"2018/2019",
         "tournamentId":5,
         "tournamentRegionId":108,
         "tournamentRegionCode":"it",
         "tournamentRegionName":"Italy",
         "regionCode":"ba",
         "tournamentName":"Serie A",
         "tournamentShortName":"ISA",
         "firstName":"Rade",
         "lastName":"Krunic",
         "playerId":294163,
         "isActive":true,
         "isOpta":true,
         "teamId":272,
         "teamName":"Empoli",
         "teamRegionName":"Italy",
         "playedPositions":"-AMC-",
         "age":25,
         "height":184,
         "weight":74,
         "positionText":"Midfielder",
         "apps":17,
         "subOn":0,
         "minsPlayed":1445,
         "rating":6.9376470588235293,
         "isManOfTheMatch":false,
         "playedPositionsShort":"AM(C)",
         "name":"Rade Krunic",
         "keyPassLong":0.062283737024,
         "keyPassShort":1.993079584768,
         "keyPassesTotal":2.055363321792
      },
      {
         "ranking":35,
         "seasonId":7344,
         "seasonName":"2018/2019",
         "tournamentId":22,
         "tournamentRegionId":74,
         "tournamentRegionCode":"fr",
         "tournamentRegionName":"France",
         "regionCode":"de",
         "tournamentName":"Ligue 1",
         "tournamentShortName":"FL1",
         "firstName":"Julian",
         "lastName":"Draxler",
         "playerId":96449,
         "isActive":true,
         "isOpta":true,
         "teamId":304,
         "teamName":"Paris Saint-Germain",
         "teamRegionName":"France",
         "playedPositions":"-AMC-AML-AMR-",
         "age":25,
         "height":187,
         "weight":72,
         "positionText":"Midfielder",
         "apps":11,
         "subOn":0,
         "minsPlayed":928,
         "rating":7.3854545454545448,
         "isManOfTheMatch":false,
         "playedPositionsShort":"AM(CLR)",
         "name":"Julian Draxler",
         "keyPassLong":0.29094827586,
         "keyPassShort":1.74568965516,
         "keyPassesTotal":2.03663793102
      },
      {
         "ranking":36,
         "seasonId":7361,
         "seasonName":"2018/2019",
         "tournamentId":2,
         "tournamentRegionId":252,
         "tournamentRegionCode":"gb-eng",
         "tournamentRegionName":"England",
         "regionCode":"pt",
         "tournamentName":"Premier League",
         "tournamentShortName":"EPL",
         "firstName":"Bernardo Mota",
         "lastName":"Veiga de Carvalho e Silva",
         "playerId":136741,
         "isActive":true,
         "isOpta":true,
         "teamId":167,
         "teamName":"Manchester City",
         "teamRegionName":"England",
         "playedPositions":"-AMC-AML-AMR-",
         "age":24,
         "height":173,
         "weight":64,
         "positionText":"Midfielder",
         "apps":19,
         "subOn":0,
         "minsPlayed":1640,
         "rating":7.3031578947368416,
         "isManOfTheMatch":false,
         "playedPositionsShort":"AM(CLR)",
         "name":"Bernardo Silva",
         "keyPassLong":0.05487804878,
         "keyPassShort":1.9756097560800001,
         "keyPassesTotal":2.03048780486
      },
      {
         "ranking":37,
         "seasonId":7405,
         "seasonName":"2018/2019",
         "tournamentId":3,
         "tournamentRegionId":81,
         "tournamentRegionCode":"de",
         "tournamentRegionName":"Germany",
         "regionCode":"de",
         "tournamentName":"Bundesliga",
         "tournamentShortName":"GB",
         "firstName":"Leonardo",
         "lastName":"Bittencourt",
         "playerId":100805,
         "isActive":true,
         "isOpta":true,
         "teamId":1211,
         "teamName":"Hoffenheim",
         "teamRegionName":"Germany",
         "playedPositions":"-AMC-AML-AMR-",
         "age":25,
         "height":171,
         "weight":63,
         "positionText":"Midfielder",
         "apps":10,
         "subOn":0,
         "minsPlayed":716,
         "rating":6.9620000000000006,
         "isManOfTheMatch":false,
         "playedPositionsShort":"AM(CLR)",
         "name":"Leonardo Bittencourt",
         "keyPassLong":0.251396648044,
         "keyPassShort":1.7597765363080002,
         "keyPassesTotal":2.011173184352
      },
      {
         "ranking":38,
         "seasonId":7468,
         "seasonName":"2018/2019",
         "tournamentId":5,
         "tournamentRegionId":108,
         "tournamentRegionCode":"it",
         "tournamentRegionName":"Italy",
         "regionCode":"rs",
         "tournamentName":"Serie A",
         "tournamentShortName":"ISA",
         "firstName":"Sergej",
         "lastName":"Milinkovic-Savic",
         "playerId":288767,
         "isActive":true,
         "isOpta":true,
         "teamId":77,
         "teamName":"Lazio",
         "teamRegionName":"Italy",
         "playedPositions":"-AMC-",
         "age":23,
         "height":191,
         "weight":76,
         "positionText":"Midfielder",
         "apps":18,
         "subOn":0,
         "minsPlayed":1482,
         "rating":7.2144444444444433,
         "isManOfTheMatch":false,
         "playedPositionsShort":"AM(C)",
         "name":"Sergej Milinkovic-Savic",
         "keyPassLong":0.121457489878,
         "keyPassShort":1.882591093109,
         "keyPassesTotal":2.004048582987
      },
      {
         "ranking":39,
         "seasonId":7468,
         "seasonName":"2018/2019",
         "tournamentId":5,
         "tournamentRegionId":108,
         "tournamentRegionCode":"it",
         "tournamentRegionName":"Italy",
         "regionCode":"tr",
         "tournamentName":"Serie A",
         "tournamentShortName":"ISA",
         "firstName":"Cengiz",
         "lastName":"Ünder",
         "playerId":255071,
         "isActive":true,
         "isOpta":true,
         "teamId":84,
         "teamName":"Roma",
         "teamRegionName":"Italy",
         "playedPositions":"-AML-AMR-",
         "age":21,
         "height":173,
         "weight":66,
         "positionText":"Midfielder",
         "apps":13,
         "subOn":0,
         "minsPlayed":1043,
         "rating":7.1438461538461535,
         "isManOfTheMatch":false,
         "playedPositionsShort":"AM(LR)",
         "name":"Cengiz Ünder",
         "keyPassLong":0.345158197504,
         "keyPassShort":1.639501438144,
         "keyPassesTotal":1.9846596356480002
      },
      {
         "ranking":40,
         "seasonId":7466,
         "seasonName":"2018/2019",
         "tournamentId":4,
         "tournamentRegionId":206,
         "tournamentRegionCode":"es",
         "tournamentRegionName":"Spain",
         "regionCode":"es",
         "tournamentName":"La Liga",
         "tournamentShortName":"SLL",
         "firstName":"Óscar",
         "lastName":"Rodríguez",
         "playerId":353783,
         "isActive":true,
         "isOpta":true,
         "teamId":825,
         "teamName":"Leganes",
         "teamRegionName":"Spain",
         "playedPositions":"-AMC-",
         "age":20,
         "height":174,
         "weight":67,
         "positionText":"Midfielder",
         "apps":13,
         "subOn":0,
         "minsPlayed":1102,
         "rating":6.9669230769230763,
         "isManOfTheMatch":false,
         "playedPositionsShort":"AM(C)",
         "name":"Óscar Rodríguez",
         "keyPassLong":0.16333938294,
         "keyPassShort":1.79673321234,
         "keyPassesTotal":1.96007259528
      }
   ],
   "paging":{
      "currentPage":4,
      "totalPages":25,
      "resultsPerPage":10,
      "totalResults":246,
      "firstRecordIndex":31,
      "lastRecordIndex":40
   },
   "statColumns":[
      "apps",
      "subOn",
      "minsPlayed",
      "keyPassesTotal",
      "keyPassLong",
      "keyPassShort"
   ]
}