{
   "playerTableStats":[
      {
         "ranking":1,
         "seasonId":7468,
         "seasonName":"2018/2019",
         "tournamentId":5,
         "tournamentRegionId":108,
         "tournamentRegionCode":"it",
         "tournamentRegionName":"Italy",
         "regionCode":"ar",
         "tournamentName":"Serie A",
         "tournamentShortName":"ISA",
         "firstName":"Rodrigo",
         "lastName":"de Paul",
         "playerId":125547,
         "isActive":true,
         "isOpta":true,
         "teamId":86,
         "teamName":"Udinese",
         "teamRegionName":"Italy",
         "playedPositions":"-AMC-AML-AMR-FW-",
         "age":24,
         "height":180,
         "weight":70,
         "positionText":"Midfielder",
         "apps":12,
         "subOn":0,
         "minsPlayed":1077,
         "rating":7.354166666666667,
         "isManOfTheMatch":false,
         "playedPositionsShort":"AM(CLR),FW",
         "name":"Rodrigo de Paul",
         "keyPassLong":0.91922005571000009,
         "keyPassShort":2.17270194986,
         "keyPassesTotal":3.09192200557
      },
      {
         "ranking":2,
         "seasonId":7468,
         "seasonName":"2018/2019",
         "tournamentId":5,
         "tournamentRegionId":108,
         "tournamentRegionCode":"it",
         "tournamentRegionName":"Italy",
         "regionCode":"es",
         "tournamentName":"Serie A",
         "tournamentShortName":"ISA",
         "firstName":"Jesús",
         "lastName":"Fernández Saez",
         "playerId":105591,
         "isActive":true,
         "isOpta":true,
         "teamId":80,
         "teamName":"AC Milan",
         "teamRegionName":"Italy",
         "playedPositions":"-AMC-AML-AMR-FW-",
         "age":25,
         "height":177,
         "weight":70,
         "positionText":"Forward",
         "apps":18,
         "subOn":0,
         "minsPlayed":1613,
         "rating":7.4766666666666675,
         "isManOfTheMatch":false,
         "playedPositionsShort":"AM(CLR),FW",
         "name":"Suso",
         "keyPassLong":0.39057656539999996,
         "keyPassShort":2.6782393056,
         "keyPassesTotal":3.068815871
      },
      {
         "ranking":3,
         "seasonId":7468,
         "seasonName":"2018/2019",
         "tournamentId":5,
         "tournamentRegionId":108,
         "tournamentRegionCode":"it",
         "tournamentRegionName":"Italy",
         "regionCode":"tr",
         "tournamentName":"Serie A",
         "tournamentShortName":"ISA",
         "firstName":"Hakan",
         "lastName":"Calhanoglu",
         "playerId":110373,
         "isActive":true,
         "isOpta":true,
         "teamId":80,
         "teamName":"AC Milan",
         "teamRegionName":"Italy",
         "playedPositions":"-FW-MC-ML-MR-",
         "age":24,
         "height":178,
         "weight":76,
         "positionText":"Midfielder",
         "apps":16,
         "subOn":0,
         "minsPlayed":1309,
         "rating":6.9787500000000007,
         "isManOfTheMatch":false,
         "playedPositionsShort":"M(CLR),FW",
         "name":"Hakan Calhanoglu",
         "keyPassLong":0.481283422459,
         "keyPassShort":2.543926661569,
         "keyPassesTotal":3.025210084028
      },
      {
         "ranking":4,
         "seasonId":7405,
         "seasonName":"2018/2019",
         "tournamentId":3,
         "tournamentRegionId":81,
         "tournamentRegionCode":"de",
         "tournamentRegionName":"Germany",
         "regionCode":"de",
         "tournamentName":"Bundesliga",
         "tournamentShortName":"GB",
         "firstName":"Julian",
         "lastName":"Brandt",
         "playerId":141556,
         "isActive":true,
         "isOpta":true,
         "teamId":36,
         "teamName":"Bayer Leverkusen",
         "teamRegionName":"Germany",
         "playedPositions":"-AMC-AML-AMR-FW-",
         "age":22,
         "height":186,
         "weight":84,
         "positionText":"Forward",
         "apps":13,
         "subOn":0,
         "minsPlayed":1058,
         "rating":7.0084615384615372,
         "isManOfTheMatch":false,
         "playedPositionsShort":"AM(CLR),FW",
         "name":"Julian Brandt",
         "keyPassLong":0.59546313799000006,
         "keyPassShort":2.3818525519600002,
         "keyPassesTotal":2.97731568995
      },
      {
         "ranking":5,
         "seasonId":7344,
         "seasonName":"2018/2019",
         "tournamentId":22,
         "tournamentRegionId":74,
         "tournamentRegionCode":"fr",
         "tournamentRegionName":"France",
         "regionCode":"br",
         "tournamentName":"Ligue 1",
         "tournamentShortName":"FL1",
         "firstName":"Neymar da Silva",
         "lastName":"Santos Júnior",
         "playerId":50835,
         "isActive":true,
         "isOpta":true,
         "teamId":304,
         "teamName":"Paris Saint-Germain",
         "teamRegionName":"France",
         "playedPositions":"-AMC-AML-AMR-FW-",
         "age":26,
         "height":175,
         "weight":68,
         "positionText":"Forward",
         "apps":10,
         "subOn":0,
         "minsPlayed":867,
         "rating":8.3779999999999983,
         "isManOfTheMatch":false,
         "playedPositionsShort":"AM(CLR),FW",
         "name":"Neymar",
         "keyPassLong":0.93425605535700007,
         "keyPassShort":1.972318339087,
         "keyPassesTotal":2.906574394444
      },
      {
         "ranking":6,
         "seasonId":7344,
         "seasonName":"2018/2019",
         "tournamentId":22,
         "tournamentRegionId":74,
         "tournamentRegionCode":"fr",
         "tournamentRegionName":"France",
         "regionCode":"fr",
         "tournamentName":"Ligue 1",
         "tournamentShortName":"FL1",
         "firstName":"Florent",
         "lastName":"Mollet",
         "playerId":114169,
         "isActive":true,
         "isOpta":true,
         "teamId":311,
         "teamName":"Montpellier",
         "teamRegionName":"France",
         "playedPositions":"-AMC-AML-",
         "age":27,
         "height":174,
         "weight":67,
         "positionText":"Midfielder",
         "apps":13,
         "subOn":0,
         "minsPlayed":1055,
         "rating":7.1692307692307686,
         "isManOfTheMatch":false,
         "playedPositionsShort":"AM(CL)",
         "name":"Florent Mollet",
         "keyPassLong":0.85308056871999993,
         "keyPassShort":2.047393364928,
         "keyPassesTotal":2.9004739336479997
      },
      {
         "ranking":7,
         "seasonId":7468,
         "seasonName":"2018/2019",
         "tournamentId":5,
         "tournamentRegionId":108,
         "tournamentRegionCode":"it",
         "tournamentRegionName":"Italy",
         "regionCode":"ar",
         "tournamentName":"Serie A",
         "tournamentShortName":"ISA",
         "firstName":"Paulo",
         "lastName":"Dybala",
         "playerId":114863,
         "isActive":true,
         "isOpta":true,
         "teamId":87,
         "teamName":"Juventus",
         "teamRegionName":"Italy",
         "playedPositions":"-AMC-AMR-FW-",
         "age":25,
         "height":177,
         "weight":75,
         "positionText":"Forward",
         "apps":13,
         "subOn":0,
         "minsPlayed":1081,
         "rating":7.2023076923076932,
         "isManOfTheMatch":false,
         "playedPositionsShort":"AM(CR),FW",
         "name":"Paulo Dybala",
         "keyPassLong":0.666049953744,
         "keyPassShort":2.164662349668,
         "keyPassesTotal":2.830712303412
      },
      {
         "ranking":8,
         "seasonId":7344,
         "seasonName":"2018/2019",
         "tournamentId":22,
         "tournamentRegionId":74,
         "tournamentRegionCode":"fr",
         "tournamentRegionName":"France",
         "regionCode":"tn",
         "tournamentName":"Ligue 1",
         "tournamentShortName":"FL1",
         "firstName":"Naim",
         "lastName":"Sliti",
         "playerId":296226,
         "isActive":true,
         "isOpta":true,
         "teamId":1364,
         "teamName":"Dijon",
         "teamRegionName":"France",
         "playedPositions":"-AMC-AML-",
         "age":26,
         "height":173,
         "weight":76,
         "positionText":"Midfielder",
         "apps":14,
         "subOn":0,
         "minsPlayed":1165,
         "rating":7.1692857142857127,
         "isManOfTheMatch":false,
         "playedPositionsShort":"AM(CL)",
         "name":"Naim Sliti",
         "keyPassLong":1.15879828326,
         "keyPassShort":1.622317596564,
         "keyPassesTotal":2.781115879824
      },
      {
         "ranking":9,
         "seasonId":7405,
         "seasonName":"2018/2019",
         "tournamentId":3,
         "tournamentRegionId":81,
         "tournamentRegionCode":"de",
         "tournamentRegionName":"Germany",
         "regionCode":"be",
         "tournamentName":"Bundesliga",
         "tournamentShortName":"GB",
         "firstName":"Thorgan",
         "lastName":"Hazard",
         "playerId":101537,
         "isActive":true,
         "isOpta":true,
         "teamId":134,
         "teamName":"Borussia M.Gladbach",
         "teamRegionName":"Germany",
         "playedPositions":"-AMC-AML-AMR-FW-",
         "age":25,
         "height":174,
         "weight":69,
         "positionText":"Forward",
         "apps":17,
         "subOn":0,
         "minsPlayed":1523,
         "rating":7.7070588235294126,
         "isManOfTheMatch":false,
         "playedPositionsShort":"AM(CLR),FW",
         "name":"Thorgan Hazard",
         "keyPassLong":0.65003282993,
         "keyPassShort":2.12738017068,
         "keyPassesTotal":2.77741300061
      },
      {
         "ranking":10,
         "seasonId":7466,
         "seasonName":"2018/2019",
         "tournamentId":4,
         "tournamentRegionId":206,
         "tournamentRegionCode":"es",
         "tournamentRegionName":"Spain",
         "regionCode":"es",
         "tournamentName":"La Liga",
         "tournamentShortName":"SLL",
         "firstName":"Joan",
         "lastName":"Jordán",
         "playerId":238941,
         "isActive":true,
         "isOpta":true,
         "teamId":824,
         "teamName":"Eibar",
         "teamRegionName":"Spain",
         "playedPositions":"-MC-",
         "age":24,
         "height":184,
         "weight":74,
         "positionText":"Midfielder",
         "apps":14,
         "subOn":0,
         "minsPlayed":1209,
         "rating":7.2957142857142845,
         "isManOfTheMatch":false,
         "playedPositionsShort":"M(C)",
         "name":"Joan Jordán",
         "keyPassLong":0.74441687344000007,
         "keyPassShort":2.0099255582880002,
         "keyPassesTotal":2.7543424317280003
      }
   ],
   "paging":{
      "currentPage":1,
      "totalPages":25,
      "resultsPerPage":10,
      "totalResults":246,
      "firstRecordIndex":1,
      "lastRecordIndex":10
   },
   "statColumns":[
      "apps",
      "subOn",
      "minsPlayed",
      "keyPassesTotal",
      "keyPassLong",
      "keyPassShort"
   ]
}